,NeighborhoodDefinition,TargetSchedule,Agent,FLA_ID,INFORMATION_CONTENT,PARTIAL_INFORMATION_CONTENT,INFORMATION_STABILITY,FITNESS_VARIANCE_MEAN,FITNESS_VARIANCE_STD,FITNESS_MEAN,DISPERSION_INDEX,MEAN_NUMBER_OF_NEUTRAL_AREAS,MEAN_SIZE_OF_NEUTRAL_AREAS,MEAN_FITNESS_DISTANCE,MAX_FITNESS_DISTANCE,INFORMATION_CONTENT_MEAN,INFORMATION_CONTENT_STD,PARTIAL_INFORMATION_CONTENT_MEAN,PARTIAL_INFORMATION_CONTENT_STD,INFORMATION_STABILITY_MEAN,INFORMATION_STABILITY_STD,FITNESS_VARIANCE_MEAN_MEAN,FITNESS_VARIANCE_MEAN_STD,FITNESS_VARIANCE_STD_MEAN,FITNESS_VARIANCE_STD_STD,FITNESS_MEAN_MEAN,FITNESS_MEAN_STD,DISPERSION_INDEX_MEAN,DISPERSION_INDEX_STD,MEAN_NUMBER_OF_NEUTRAL_AREAS_MEAN,MEAN_NUMBER_OF_NEUTRAL_AREAS_STD,MEAN_SIZE_OF_NEUTRAL_AREAS_MEAN,MEAN_SIZE_OF_NEUTRAL_AREAS_STD,MEAN_FITNESS_DISTANCE_MEAN,MEAN_FITNESS_DISTANCE_STD,MAX_FITNESS_DISTANCE_MEAN,MAX_FITNESS_DISTANCE_STD
0,SINGLE_CHANGE,"[28.882936251, 26.553190098, 3.7747640407, 28.173232795, 28.3666112941, 28.3457860388, 17.6699642834, 29.0153699651]",Flex Agent 0,0.0,0.1553625791,0.085,3.75,0.06363160920000001,0.0103374326,25.505918056,-0.0068455382,4.0,1.25,0.5420823723,0.6580108542,,,,,,,,,,,,,,,,,,,,,,
1,SINGLE_CHANGE,"[28.882936251, 26.553190098, 3.7747640407, 28.173232795, 28.3666112941, 28.3457860388, 17.6699642834, 29.0153699651]",Flex Agent 0,1.0,0.1885807528,0.1275,4.0,0.1051804452,0.0210658794,30.4192563805,-0.005166394600000001,8.0,1.0555555556,0.7102957727,0.8084221038,,,,,,,,,,,,,,,,,,,,,,
2,SINGLE_CHANGE,"[28.882936251, 26.553190098, 3.7747640407, 28.173232795, 28.3666112941, 28.3457860388, 17.6699642834, 29.0153699651]",Flex Agent 0,2.0,0.1500598827,0.07250000000000001,4.0,0.0714090456,0.0075802333,25.7962315044,-0.0035371947000000003,4.0,0.6875,0.4637038914,0.6247403728,,,,,,,,,,,,,,,,,,,,,,
3,SINGLE_CHANGE,"[28.882936251, 26.553190098, 3.7747640407, 28.173232795, 28.3666112941, 28.3457860388, 17.6699642834, 29.0153699651]",Flex Agent 0,3.0,0.1723854907,0.1,4.5,0.082707615,0.0179648127,25.3495248332,-0.0052969589,5.0,1.125,0.5933880287000001,0.7560141988,,,,,,,,,,,,,,,,,,,,,,
4,SINGLE_CHANGE,"[28.882936251, 26.553190098, 3.7747640407, 28.173232795, 28.3666112941, 28.3457860388, 17.6699642834, 29.0153699651]",Flex Agent 0,4.0,0.1838939027,0.12250000000000001,3.5,0.0696646015,0.012493148800000001,31.6575800407,-0.0017499692000000002,2.0,0.5,0.6098191424,0.7758901113000001,,,,,,,,,,,,,,,,,,,,,,
5,SINGLE_CHANGE,"[28.882936251, 26.553190098, 3.7747640407, 28.173232795, 28.3666112941, 28.3457860388, 17.6699642834, 29.0153699651]",Flex Agent 4,0.0,0.0,0.0,1.0,0.0024507401,0.0042448064,15.5260394656,-0.0014249069,2.5,1.125,0.0014004171,0.0056016682,,,,,,,,,,,,,,,,,,,,,,
6,SINGLE_CHANGE,"[28.882936251, 26.553190098, 3.7747640407, 28.173232795, 28.3666112941, 28.3457860388, 17.6699642834, 29.0153699651]",Flex Agent 4,1.0,0.006425486,0.0,1.25,0.0024507401,0.0042448064,17.9254988354,-7.850440000000001e-05,6.0,1.0,0.0032177563,0.012871025000000001,,,,,,,,,,,,,,,,,,,,,,
7,SINGLE_CHANGE,"[28.882936251, 26.553190098, 3.7747640407, 28.173232795, 28.3666112941, 28.3457860388, 17.6699642834, 29.0153699651]",Flex Agent 4,2.0,0.006425486,0.0,1.25,0.0024507401,0.0042448064,17.1284105189,-0.0001936157,1.0,1.0,0.0038856823,0.015542729100000001,,,,,,,,,,,,,,,,,,,,,,
8,SINGLE_CHANGE,"[28.882936251, 26.553190098, 3.7747640407, 28.173232795, 28.3666112941, 28.3457860388, 17.6699642834, 29.0153699651]",Flex Agent 4,3.0,0.006425486,0.0,1.25,0.0024507401,0.0042448064,16.5237837804,-1.612e-05,1.0,1.0,0.0033462037,0.0133848149,,,,,,,,,,,,,,,,,,,,,,
9,SINGLE_CHANGE,"[28.882936251, 26.553190098, 3.7747640407, 28.173232795, 28.3666112941, 28.3457860388, 17.6699642834, 29.0153699651]",Flex Agent 4,4.0,0.006425486,0.0,1.25,0.0024507401,0.0042448064,22.6867684375,-0.0001612966,1.0,1.0,0.0029737066,0.0118948265,,,,,,,,,,,,,,,,,,,,,,
10,SINGLE_CHANGE,"[28.882936251, 26.553190098, 3.7747640407, 28.173232795, 28.3666112941, 28.3457860388, 17.6699642834, 29.0153699651]",Flex Agent 2,0.0,0.1254246911,0.052500000000000005,2.0,0.0548333069,0.0229368232,19.4213974819,-0.0005977196,21.0,2.9347826087,0.3150191875,0.4072145768,,,,,,,,,,,,,,,,,,,,,,
11,SINGLE_CHANGE,"[28.882936251, 26.553190098, 3.7747640407, 28.173232795, 28.3666112941, 28.3457860388, 17.6699642834, 29.0153699651]",Flex Agent 2,1.0,0.0953504194,0.04,2.0,0.0436091941,0.0044419874,15.4831821216,-0.0002954239,18.5,2.8676470588000003,0.3207613293,0.3786229732,,,,,,,,,,,,,,,,,,,,,,
12,SINGLE_CHANGE,"[28.882936251, 26.553190098, 3.7747640407, 28.173232795, 28.3666112941, 28.3457860388, 17.6699642834, 29.0153699651]",Flex Agent 2,2.0,0.11672315850000001,0.0475,2.0,0.0397015929,0.0046329625,19.1468904532,-0.0002310267,17.5,3.9243421053,0.3507415679,0.3809819828,,,,,,,,,,,,,,,,,,,,,,
13,SINGLE_CHANGE,"[28.882936251, 26.553190098, 3.7747640407, 28.173232795, 28.3666112941, 28.3457860388, 17.6699642834, 29.0153699651]",Flex Agent 2,3.0,0.12399836330000001,0.05,2.0,0.034785665300000004,0.0068840636,21.2657165884,4.9455e-06,22.0,2.9151138716,0.3445029061,0.3759966798,,,,,,,,,,,,,,,,,,,,,,
14,SINGLE_CHANGE,"[28.882936251, 26.553190098, 3.7747640407, 28.173232795, 28.3666112941, 28.3457860388, 17.6699642834, 29.0153699651]",Flex Agent 2,4.0,0.1302914849,0.052500000000000005,2.5,0.0360161167,0.0059495705,17.8676277884,-0.0002301302,21.0,3.3045454545,0.32751685350000004,0.3819287301,,,,,,,,,,,,,,,,,,,,,,
15,SINGLE_CHANGE,"[28.882936251, 26.553190098, 3.7747640407, 28.173232795, 28.3666112941, 28.3457860388, 17.6699642834, 29.0153699651]",Flex Agent 1,0.0,0.1926829581,0.1525,5.5,0.0889231961,0.0057206613,31.3560764029,-0.0121956144,6.5,1.0833333333,0.7792639915,0.9008920628,,,,,,,,,,,,,,,,,,,,,,
16,SINGLE_CHANGE,"[28.882936251, 26.553190098, 3.7747640407, 28.173232795, 28.3666112941, 28.3457860388, 17.6699642834, 29.0153699651]",Flex Agent 1,1.0,0.20088175960000001,0.1575,4.5,0.0791219051,0.0104711497,30.3243335149,-0.0036972981,4.0,1.0,0.6999809698,0.8472781485,,,,,,,,,,,,,,,,,,,,,,
17,SINGLE_CHANGE,"[28.882936251, 26.553190098, 3.7747640407, 28.173232795, 28.3666112941, 28.3457860388, 17.6699642834, 29.0153699651]",Flex Agent 1,2.0,0.196444009,0.15,4.75,0.0649116784,0.0043716516,29.4270937489,-0.0068391036,6.0,1.15,0.6556629001000001,0.7300168551,,,,,,,,,,,,,,,,,,,,,,
18,SINGLE_CHANGE,"[28.882936251, 26.553190098, 3.7747640407, 28.173232795, 28.3666112941, 28.3457860388, 17.6699642834, 29.0153699651]",Flex Agent 1,3.0,0.19397223,0.1325,4.75,0.070156807,0.0087002289,28.7003354265,-0.004624289,7.5,1.0,0.6490133175,0.6673188099,,,,,,,,,,,,,,,,,,,,,,
19,SINGLE_CHANGE,"[28.882936251, 26.553190098, 3.7747640407, 28.173232795, 28.3666112941, 28.3457860388, 17.6699642834, 29.0153699651]",Flex Agent 1,4.0,0.1994359363,0.2,6.0,0.0817956803,0.0104329796,29.8894635573,0.0007864113,6.0,1.4571428571,0.9338496314,1.0504133788,,,,,,,,,,,,,,,,,,,,,,
20,SINGLE_CHANGE,"[28.882936251, 26.553190098, 3.7747640407, 28.173232795, 28.3666112941, 28.3457860388, 17.6699642834, 29.0153699651]",Flex Agent 7,0.0,0.12141834550000001,0.0475,2.25,0.0432137337,0.0079033611,14.5360583823,-0.0001298781,22.5,2.675,0.36887571150000004,0.4176207655,,,,,,,,,,,,,,,,,,,,,,
21,SINGLE_CHANGE,"[28.882936251, 26.553190098, 3.7747640407, 28.173232795, 28.3666112941, 28.3457860388, 17.6699642834, 29.0153699651]",Flex Agent 7,1.0,0.11113513030000001,0.0425,2.5,0.0421311965,0.0075035846,18.7972912157,-0.0001639693,22.5,2.685770751,0.313906518,0.3491677616,,,,,,,,,,,,,,,,,,,,,,
22,SINGLE_CHANGE,"[28.882936251, 26.553190098, 3.7747640407, 28.173232795, 28.3666112941, 28.3457860388, 17.6699642834, 29.0153699651]",Flex Agent 7,2.0,0.1302914849,0.052500000000000005,2.0,0.0487631829,0.006546882600000001,20.6086379512,-0.0002656987,25.5,2.2730769231,0.3663587108,0.4025873251,,,,,,,,,,,,,,,,,,,,,,
23,SINGLE_CHANGE,"[28.882936251, 26.553190098, 3.7747640407, 28.173232795, 28.3666112941, 28.3457860388, 17.6699642834, 29.0153699651]",Flex Agent 7,3.0,0.1141108171,0.0425,2.0,0.039828449,0.0049472006,20.3520708174,-0.0005587913,20.0,3.1867007673,0.3226617641,0.394102758,,,,,,,,,,,,,,,,,,,,,,
24,SINGLE_CHANGE,"[28.882936251, 26.553190098, 3.7747640407, 28.173232795, 28.3666112941, 28.3457860388, 17.6699642834, 29.0153699651]",Flex Agent 7,4.0,0.1178437556,0.0475,2.0,0.0377446693,0.0085132989,15.9561579062,-0.0001909415,24.5,2.3494983278,0.3865420301,0.4205452814,,,,,,,,,,,,,,,,,,,,,,
25,SINGLE_CHANGE,"[28.882936251, 26.553190098, 3.7747640407, 28.173232795, 28.3666112941, 28.3457860388, 17.6699642834, 29.0153699651]",Flex Agent 6,0.0,0.2031609137,0.17500000000000002,5.25,0.1024130655,0.0072074881,29.7679952559,-0.010415491800000001,6.0,1.25,0.8653472802000001,0.9613113256,,,,,,,,,,,,,,,,,,,,,,
26,SINGLE_CHANGE,"[28.882936251, 26.553190098, 3.7747640407, 28.173232795, 28.3666112941, 28.3457860388, 17.6699642834, 29.0153699651]",Flex Agent 6,1.0,0.1958122709,0.1625,6.75,0.0748693491,0.012313794000000001,32.4808809266,-0.0098227019,8.5,1.1416666667,0.8833706171,1.1792027002,,,,,,,,,,,,,,,,,,,,,,
27,SINGLE_CHANGE,"[28.882936251, 26.553190098, 3.7747640407, 28.173232795, 28.3666112941, 28.3457860388, 17.6699642834, 29.0153699651]",Flex Agent 6,2.0,0.1970178263,0.1675,6.25,0.0978436634,0.0058234881,36.378783286,-0.0165554274,5.5,1.0625,0.8219064011,0.9675808050000001,,,,,,,,,,,,,,,,,,,,,,
28,SINGLE_CHANGE,"[28.882936251, 26.553190098, 3.7747640407, 28.173232795, 28.3666112941, 28.3457860388, 17.6699642834, 29.0153699651]",Flex Agent 6,3.0,0.1933900734,0.14,5.75,0.06845635430000001,0.014866476200000001,32.7797900034,-0.009531048,5.0,1.375,0.897251011,1.1474963025,,,,,,,,,,,,,,,,,,,,,,
29,SINGLE_CHANGE,"[28.882936251, 26.553190098, 3.7747640407, 28.173232795, 28.3666112941, 28.3457860388, 17.6699642834, 29.0153699651]",Flex Agent 6,4.0,0.2027854721,0.18,5.25,0.0760740186,0.0124727388,31.4900167207,-0.0012709568,5.5,1.1,0.8159659412,0.8941970407000001,,,,,,,,,,,,,,,,,,,,,,
30,SINGLE_CHANGE,"[28.882936251, 26.553190098, 3.7747640407, 28.173232795, 28.3666112941, 28.3457860388, 17.6699642834, 29.0153699651]",Flex Agent 5,0.0,0.11715810460000001,0.045,2.0,0.0354458619,0.011944133000000001,17.3284725207,-0.0002146649,22.5,2.5922619048,0.32695237,0.3557514196,,,,,,,,,,,,,,,,,,,,,,
31,SINGLE_CHANGE,"[28.882936251, 26.553190098, 3.7747640407, 28.173232795, 28.3666112941, 28.3457860388, 17.6699642834, 29.0153699651]",Flex Agent 5,1.0,0.12158489980000001,0.045,2.0,0.043838815,0.0069696441,18.9172505219,-0.0003439536,22.0,2.8581780538,0.3675937879,0.3996668782,,,,,,,,,,,,,,,,,,,,,,
32,SINGLE_CHANGE,"[28.882936251, 26.553190098, 3.7747640407, 28.173232795, 28.3666112941, 28.3457860388, 17.6699642834, 29.0153699651]",Flex Agent 5,2.0,0.12794782870000002,0.05,2.0,0.047555915000000004,0.0126729687,17.842424394200002,-0.00019989980000000002,24.5,2.6296296296,0.34812873180000004,0.407023811,,,,,,,,,,,,,,,,,,,,,,
33,SINGLE_CHANGE,"[28.882936251, 26.553190098, 3.7747640407, 28.173232795, 28.3666112941, 28.3457860388, 17.6699642834, 29.0153699651]",Flex Agent 5,3.0,0.1064777581,0.0375,2.0,0.041548151000000005,0.0080087489,14.3499010116,-0.0002314048,21.5,2.8097826087,0.35929587760000004,0.423960455,,,,,,,,,,,,,,,,,,,,,,
34,SINGLE_CHANGE,"[28.882936251, 26.553190098, 3.7747640407, 28.173232795, 28.3666112941, 28.3457860388, 17.6699642834, 29.0153699651]",Flex Agent 5,4.0,0.1154386044,0.0425,2.0,0.0478307549,0.007140275000000001,16.354512645,-0.0002775725,20.5,3.1738095238,0.3342848717,0.40143290060000003,,,,,,,,,,,,,,,,,,,,,,
35,SINGLE_CHANGE,"[28.882936251, 26.553190098, 3.7747640407, 28.173232795, 28.3666112941, 28.3457860388, 17.6699642834, 29.0153699651]",Flex Agent 3,0.0,0.1354647405,0.0575,2.0,0.0557164588,0.0066128562,15.491328607,-2.5659000000000003e-05,22.0,2.9031578947,0.3722194179,0.4205763819,,,,,,,,,,,,,,,,,,,,,,
36,SINGLE_CHANGE,"[28.882936251, 26.553190098, 3.7747640407, 28.173232795, 28.3666112941, 28.3457860388, 17.6699642834, 29.0153699651]",Flex Agent 3,1.0,0.12401311840000001,0.0475,2.0,0.0532409526,0.005955910500000001,13.9117396622,-8.69425e-05,21.5,2.7261904762,0.34532071670000003,0.39691440980000003,,,,,,,,,,,,,,,,,,,,,,
37,SINGLE_CHANGE,"[28.882936251, 26.553190098, 3.7747640407, 28.173232795, 28.3666112941, 28.3457860388, 17.6699642834, 29.0153699651]",Flex Agent 3,2.0,0.1166265927,0.0475,2.0,0.051557741000000004,0.015487343700000001,17.6171626656,-2.26697e-05,20.5,3.5595238095,0.3021302273,0.3710628248,,,,,,,,,,,,,,,,,,,,,,
38,SINGLE_CHANGE,"[28.882936251, 26.553190098, 3.7747640407, 28.173232795, 28.3666112941, 28.3457860388, 17.6699642834, 29.0153699651]",Flex Agent 3,3.0,0.13335890790000002,0.055,2.0,0.0487407813,0.0045914763,13.617428334,-7.67696e-05,20.0,3.1979166667,0.3575986477,0.4157911924,,,,,,,,,,,,,,,,,,,,,,
39,SINGLE_CHANGE,"[28.882936251, 26.553190098, 3.7747640407, 28.173232795, 28.3666112941, 28.3457860388, 17.6699642834, 29.0153699651]",Flex Agent 3,4.0,0.12179322100000001,0.0475,3.0,0.037987377,0.0049694802,14.8213392216,-7.29206e-05,21.5,2.8398268398,0.3193554151,0.35483560470000003,,,,,,,,,,,,,,,,,,,,,,
40,SINGLE_CHANGE,"[28.882936251, 26.553190098, 3.7747640407, 28.173232795, 28.3666112941, 28.3457860388, 17.6699642834, 29.0153699651]",Flex Agent 8,0.0,0.0,0.0,1.0,0.0024507401,0.0042448064,22.0506471366,0.002082154,2.0,1.25,0.0010774646,0.0043098582,,,,,,,,,,,,,,,,,,,,,,
41,SINGLE_CHANGE,"[28.882936251, 26.553190098, 3.7747640407, 28.173232795, 28.3666112941, 28.3457860388, 17.6699642834, 29.0153699651]",Flex Agent 8,1.0,0.0,0.0,1.0,0.0024507401,0.0042448064,19.5961263619,0.0001227284,2.0,1.0,0.0010723169000000001,0.0042892677,,,,,,,,,,,,,,,,,,,,,,
42,SINGLE_CHANGE,"[28.882936251, 26.553190098, 3.7747640407, 28.173232795, 28.3666112941, 28.3457860388, 17.6699642834, 29.0153699651]",Flex Agent 8,2.0,0.0,0.0,1.0,0.0024507401,0.0042448064,16.9640557757,0.0001175192,2.0,1.0,0.0019306311000000002,0.007722524400000001,,,,,,,,,,,,,,,,,,,,,,
43,SINGLE_CHANGE,"[28.882936251, 26.553190098, 3.7747640407, 28.173232795, 28.3666112941, 28.3457860388, 17.6699642834, 29.0153699651]",Flex Agent 8,3.0,0.0,0.0,1.0,0.0024507401,0.0042448064,19.8285407191,0.0001375545,1.0,1.0,0.0016290804000000001,0.0065163216000000005,,,,,,,,,,,,,,,,,,,,,,
44,SINGLE_CHANGE,"[28.882936251, 26.553190098, 3.7747640407, 28.173232795, 28.3666112941, 28.3457860388, 17.6699642834, 29.0153699651]",Flex Agent 8,4.0,0.0,0.0,1.0,0.0024507401,0.0042448064,22.2914598832,0.00022020740000000002,1.0,1.0,0.0013472573,0.0053890294,,,,,,,,,,,,,,,,,,,,,,
45,SINGLE_CHANGE,"[28.882936251, 26.553190098, 3.7747640407, 28.173232795, 28.3666112941, 28.3457860388, 17.6699642834, 29.0153699651]",Flex Agent 9,0.0,0.20010765,0.1575,3.75,0.0446472965,0.0081560429,17.1447970234,0.000148646,22.5,2.8,0.6739816502,0.736468337,,,,,,,,,,,,,,,,,,,,,,
46,SINGLE_CHANGE,"[28.882936251, 26.553190098, 3.7747640407, 28.173232795, 28.3666112941, 28.3457860388, 17.6699642834, 29.0153699651]",Flex Agent 9,1.0,0.19736918620000002,0.155,3.5,0.0375829649,0.009926262600000001,14.6221641822,-0.0004462328,23.0,2.560952381,0.6284984165,0.7172275983,,,,,,,,,,,,,,,,,,,,,,
47,SINGLE_CHANGE,"[28.882936251, 26.553190098, 3.7747640407, 28.173232795, 28.3666112941, 28.3457860388, 17.6699642834, 29.0153699651]",Flex Agent 9,2.0,0.1990606058,0.1625,3.25,0.042537171000000006,0.005776276800000001,7.9399260940000005,-8.87293e-05,22.5,2.959486166,0.6223332403,0.7293918863000001,,,,,,,,,,,,,,,,,,,,,,
48,SINGLE_CHANGE,"[28.882936251, 26.553190098, 3.7747640407, 28.173232795, 28.3666112941, 28.3457860388, 17.6699642834, 29.0153699651]",Flex Agent 9,3.0,0.201913996,0.17,3.75,0.0341285741,0.0068771164,12.1957244434,-0.0009622694,18.5,3.6067251462,0.7078853395,0.7746719502,,,,,,,,,,,,,,,,,,,,,,
49,SINGLE_CHANGE,"[28.882936251, 26.553190098, 3.7747640407, 28.173232795, 28.3666112941, 28.3457860388, 17.6699642834, 29.0153699651]",Flex Agent 9,4.0,0.20207824100000002,0.1575,3.75,0.0406494385,0.003896179,13.487855400800001,-0.0007813552,20.0,3.2794486216,0.6959151957,0.7869621381,,,,,,,,,,,,,,,,,,,,,,
50,,,Global,,,,,,,,,,,,,0.12517098214199998,0.07063133027586421,0.07755,0.06272813465703424,2.915,1.603257207521422,0.046106035922,0.028477075038374034,0.008070293528,0.004453984095646186,21.018433360122003,6.729432764794301,-0.002045937738,0.0038339072726353268,12.82,9.046230469885549,2.004521320064,0.9967553779676398,0.4224232453879999,0.2817491324035954,0.49313627514400005,0.3311873863344565
