,NeighborhoodDefinition,TargetSchedule,Agent,FLA_ID,INFORMATION_CONTENT,PARTIAL_INFORMATION_CONTENT,INFORMATION_STABILITY,FITNESS_VARIANCE_MEAN,FITNESS_VARIANCE_STD,FITNESS_MEAN,DISPERSION_INDEX,MEAN_NUMBER_OF_NEUTRAL_AREAS,MEAN_SIZE_OF_NEUTRAL_AREAS,MEAN_FITNESS_DISTANCE,MAX_FITNESS_DISTANCE,INFORMATION_CONTENT_MEAN,INFORMATION_CONTENT_STD,PARTIAL_INFORMATION_CONTENT_MEAN,PARTIAL_INFORMATION_CONTENT_STD,INFORMATION_STABILITY_MEAN,INFORMATION_STABILITY_STD,FITNESS_VARIANCE_MEAN_MEAN,FITNESS_VARIANCE_MEAN_STD,FITNESS_VARIANCE_STD_MEAN,FITNESS_VARIANCE_STD_STD,FITNESS_MEAN_MEAN,FITNESS_MEAN_STD,DISPERSION_INDEX_MEAN,DISPERSION_INDEX_STD,MEAN_NUMBER_OF_NEUTRAL_AREAS_MEAN,MEAN_NUMBER_OF_NEUTRAL_AREAS_STD,MEAN_SIZE_OF_NEUTRAL_AREAS_MEAN,MEAN_SIZE_OF_NEUTRAL_AREAS_STD,MEAN_FITNESS_DISTANCE_MEAN,MEAN_FITNESS_DISTANCE_STD,MAX_FITNESS_DISTANCE_MEAN,MAX_FITNESS_DISTANCE_STD
0,SINGLE_CHANGE,"[28.3441624191, 27.6166339337, 28.1383275875, 28.3985002459, 28.1892357223, 23.4727282133, 26.021366841, 28.1891460614]",Flex Agent 2,0.0,0.1975555297,0.1575,3.0,0.0912456236,0.0164900513,28.7325587894,-0.07411278460000001,7.5,1.0714285714,0.7321804526,0.7924240990000001,,,,,,,,,,,,,,,,,,,,,,
1,SINGLE_CHANGE,"[28.3441624191, 27.6166339337, 28.1383275875, 28.3985002459, 28.1892357223, 23.4727282133, 26.021366841, 28.1891460614]",Flex Agent 2,1.0,0.20253474570000002,0.1675,4.0,0.08053899910000001,0.0140683256,32.0999553628,-0.0987491452,3.0,1.1,0.8159674235000001,0.9179545734000001,,,,,,,,,,,,,,,,,,,,,,
2,SINGLE_CHANGE,"[28.3441624191, 27.6166339337, 28.1383275875, 28.3985002459, 28.1892357223, 23.4727282133, 26.021366841, 28.1891460614]",Flex Agent 2,2.0,0.1921050762,0.1375,4.5,0.0949014048,0.0185268503,33.9458654258,-0.0828284903,4.5,1.1666666667,0.7890640044,0.9354005532,,,,,,,,,,,,,,,,,,,,,,
3,SINGLE_CHANGE,"[28.3441624191, 27.6166339337, 28.1383275875, 28.3985002459, 28.1892357223, 23.4727282133, 26.021366841, 28.1891460614]",Flex Agent 2,3.0,0.19887708780000002,0.1525,4.5,0.0827072438,0.0021693162,31.3523249371,-0.0062517092,2.0,1.0,0.6798601617000001,0.7947166487,,,,,,,,,,,,,,,,,,,,,,
4,SINGLE_CHANGE,"[28.3441624191, 27.6166339337, 28.1383275875, 28.3985002459, 28.1892357223, 23.4727282133, 26.021366841, 28.1891460614]",Flex Agent 2,4.0,0.20164293860000002,0.165,3.25,0.0822339929,0.012487673000000001,32.6484979744,-0.1102843094,5.0,1.0714285714,0.7189024324000001,0.8393556588000001,,,,,,,,,,,,,,,,,,,,,,
5,SINGLE_CHANGE,"[28.3441624191, 27.6166339337, 28.1383275875, 28.3985002459, 28.1892357223, 23.4727282133, 26.021366841, 28.1891460614]",Flex Agent 4,0.0,0.006425486,0.0,1.25,0.0024507401,0.0042448064,16.1678807098,-0.0038252411,6.0,1.5,0.0032180682,0.0128722729,,,,,,,,,,,,,,,,,,,,,,
6,SINGLE_CHANGE,"[28.3441624191, 27.6166339337, 28.1383275875, 28.3985002459, 28.1892357223, 23.4727282133, 26.021366841, 28.1891460614]",Flex Agent 4,1.0,0.006425486,0.0,1.25,0.0024507401,0.0042448064,11.3842963285,-0.004830626,5.0,1.0,0.0036480235,0.014592094100000001,,,,,,,,,,,,,,,,,,,,,,
7,SINGLE_CHANGE,"[28.3441624191, 27.6166339337, 28.1383275875, 28.3985002459, 28.1892357223, 23.4727282133, 26.021366841, 28.1891460614]",Flex Agent 4,2.0,0.006425486,0.0,1.25,0.0024507401,0.0042448064,9.9621412157,-0.0043421043,3.0,1.3333333333000001,0.0027794791,0.0111179165,,,,,,,,,,,,,,,,,,,,,,
8,SINGLE_CHANGE,"[28.3441624191, 27.6166339337, 28.1383275875, 28.3985002459, 28.1892357223, 23.4727282133, 26.021366841, 28.1891460614]",Flex Agent 4,3.0,0.006425486,0.0,1.25,0.0024507401,0.0042448064,10.405614984,-0.0043675411,5.0,1.2,0.0032177564,0.0128710256,,,,,,,,,,,,,,,,,,,,,,
9,SINGLE_CHANGE,"[28.3441624191, 27.6166339337, 28.1383275875, 28.3985002459, 28.1892357223, 23.4727282133, 26.021366841, 28.1891460614]",Flex Agent 4,4.0,0.006425486,0.0,1.25,0.0024507401,0.0042448064,10.1392799663,-0.004822794,3.0,1.6666666667,0.0027214471,0.010885788300000001,,,,,,,,,,,,,,,,,,,,,,
10,SINGLE_CHANGE,"[28.3441624191, 27.6166339337, 28.1383275875, 28.3985002459, 28.1892357223, 23.4727282133, 26.021366841, 28.1891460614]",Flex Agent 3,0.0,0.1269509904,0.05,2.0,0.0769364817,0.023150031800000002,11.680838898,-0.0059774573,20.0,3.46875,0.3243349095,0.375622316,,,,,,,,,,,,,,,,,,,,,,
11,SINGLE_CHANGE,"[28.3441624191, 27.6166339337, 28.1383275875, 28.3985002459, 28.1892357223, 23.4727282133, 26.021366841, 28.1891460614]",Flex Agent 3,1.0,0.10521077250000001,0.0375,2.25,0.056156656400000005,0.0090329489,8.9541234267,-0.0043800076,18.5,3.71875,0.3728271291,0.3870029884,,,,,,,,,,,,,,,,,,,,,,
12,SINGLE_CHANGE,"[28.3441624191, 27.6166339337, 28.1383275875, 28.3985002459, 28.1892357223, 23.4727282133, 26.021366841, 28.1891460614]",Flex Agent 3,2.0,0.11715810460000001,0.045,2.25,0.045516841700000005,0.0074385232,12.7992623385,-0.0060068543,21.0,2.7909090909,0.3465001894,0.4199999217,,,,,,,,,,,,,,,,,,,,,,
13,SINGLE_CHANGE,"[28.3441624191, 27.6166339337, 28.1383275875, 28.3985002459, 28.1892357223, 23.4727282133, 26.021366841, 28.1891460614]",Flex Agent 3,3.0,0.130713616,0.052500000000000005,2.0,0.06467325160000001,0.013638269900000001,10.2263106217,-0.006490263600000001,22.0,2.7708333333,0.34873294390000004,0.3809783329,,,,,,,,,,,,,,,,,,,,,,
14,SINGLE_CHANGE,"[28.3441624191, 27.6166339337, 28.1383275875, 28.3985002459, 28.1892357223, 23.4727282133, 26.021366841, 28.1891460614]",Flex Agent 3,4.0,0.11835833650000001,0.0475,2.5,0.0513586035,0.0141342922,10.5164350899,-0.0059439005,18.5,3.0365497076,0.3642830803,0.38989353,,,,,,,,,,,,,,,,,,,,,,
15,SINGLE_CHANGE,"[28.3441624191, 27.6166339337, 28.1383275875, 28.3985002459, 28.1892357223, 23.4727282133, 26.021366841, 28.1891460614]",Flex Agent 5,0.0,0.2003173356,0.1675,4.75,0.0592813112,0.0046850253,34.0548555312,-0.0370264768,7.0,1.1428571429,0.7961217833,0.8296346112,,,,,,,,,,,,,,,,,,,,,,
16,SINGLE_CHANGE,"[28.3441624191, 27.6166339337, 28.1383275875, 28.3985002459, 28.1892357223, 23.4727282133, 26.021366841, 28.1891460614]",Flex Agent 5,1.0,0.2000102835,0.1575,4.25,0.0894042125,0.018866252400000002,33.3592341777,0.0202140055,5.0,1.2142857143,0.7499659952000001,0.8799434464,,,,,,,,,,,,,,,,,,,,,,
17,SINGLE_CHANGE,"[28.3441624191, 27.6166339337, 28.1383275875, 28.3985002459, 28.1892357223, 23.4727282133, 26.021366841, 28.1891460614]",Flex Agent 5,2.0,0.1865508214,0.14,4.25,0.0890195773,0.011211326,32.0773321163,0.0056628197,5.0,1.0,0.7816830795,1.1165224547,,,,,,,,,,,,,,,,,,,,,,
18,SINGLE_CHANGE,"[28.3441624191, 27.6166339337, 28.1383275875, 28.3985002459, 28.1892357223, 23.4727282133, 26.021366841, 28.1891460614]",Flex Agent 5,3.0,0.1961383428,0.145,4.25,0.07017350580000001,0.007155851600000001,31.0507837747,0.0015628247,5.0,1.0833333333,0.7274900615000001,0.8207279753000001,,,,,,,,,,,,,,,,,,,,,,
19,SINGLE_CHANGE,"[28.3441624191, 27.6166339337, 28.1383275875, 28.3985002459, 28.1892357223, 23.4727282133, 26.021366841, 28.1891460614]",Flex Agent 5,4.0,0.197403257,0.16,4.25,0.0727140961,0.0200981845,29.5743535234,-0.0307559651,6.0,1.1,0.6962877888,0.760592782,,,,,,,,,,,,,,,,,,,,,,
20,SINGLE_CHANGE,"[28.3441624191, 27.6166339337, 28.1383275875, 28.3985002459, 28.1892357223, 23.4727282133, 26.021366841, 28.1891460614]",Flex Agent 6,0.0,0.16511488,0.09,2.25,0.0511667587,0.003404315,8.2749108298,-0.0214770911,21.0,2.9090909091,0.436505476,0.4697596753,,,,,,,,,,,,,,,,,,,,,,
21,SINGLE_CHANGE,"[28.3441624191, 27.6166339337, 28.1383275875, 28.3985002459, 28.1892357223, 23.4727282133, 26.021366841, 28.1891460614]",Flex Agent 6,1.0,0.1661662231,0.08750000000000001,3.0,0.0605942194,0.0047886812,7.0230960127,-0.0106324491,22.0,2.6578947368,0.4481594695,0.5010117030000001,,,,,,,,,,,,,,,,,,,,,,
22,SINGLE_CHANGE,"[28.3441624191, 27.6166339337, 28.1383275875, 28.3985002459, 28.1892357223, 23.4727282133, 26.021366841, 28.1891460614]",Flex Agent 6,2.0,0.1596722656,0.08,3.0,0.053765866200000005,0.0096928035,8.2622454063,-0.014638279300000001,19.5,3.5476190476,0.4454440275,0.5066880315,,,,,,,,,,,,,,,,,,,,,,
23,SINGLE_CHANGE,"[28.3441624191, 27.6166339337, 28.1383275875, 28.3985002459, 28.1892357223, 23.4727282133, 26.021366841, 28.1891460614]",Flex Agent 6,3.0,0.151200252,0.07,2.75,0.0507402833,0.0119320047,9.670185747,-0.009623487,21.0,3.1418764302,0.44638877730000004,0.5040224334,,,,,,,,,,,,,,,,,,,,,,
24,SINGLE_CHANGE,"[28.3441624191, 27.6166339337, 28.1383275875, 28.3985002459, 28.1892357223, 23.4727282133, 26.021366841, 28.1891460614]",Flex Agent 6,4.0,0.158523371,0.08,2.25,0.0645568355,0.015591477400000001,10.9840351752,-0.010355893500000001,19.5,3.5197368421,0.4383725509,0.4781568578,,,,,,,,,,,,,,,,,,,,,,
25,SINGLE_CHANGE,"[28.3441624191, 27.6166339337, 28.1383275875, 28.3985002459, 28.1892357223, 23.4727282133, 26.021366841, 28.1891460614]",Flex Agent 7,0.0,0.1997318746,0.17,4.25,0.0945934925,0.0299844249,33.8780940036,-0.1140661645,6.0,1.2428571429,0.8046097792,0.9181393938,,,,,,,,,,,,,,,,,,,,,,
26,SINGLE_CHANGE,"[28.3441624191, 27.6166339337, 28.1383275875, 28.3985002459, 28.1892357223, 23.4727282133, 26.021366841, 28.1891460614]",Flex Agent 7,1.0,0.1948674889,0.15,4.75,0.0635427409,0.014218377800000001,30.0613220999,-0.1408344384,7.5,1.1,0.6960795824,0.8810910975,,,,,,,,,,,,,,,,,,,,,,
27,SINGLE_CHANGE,"[28.3441624191, 27.6166339337, 28.1383275875, 28.3985002459, 28.1892357223, 23.4727282133, 26.021366841, 28.1891460614]",Flex Agent 7,2.0,0.2010507736,0.17500000000000002,6.25,0.08460709970000001,0.0281258318,28.8378010757,-0.0841818946,4.5,1.2142857143,0.8193533624,0.9370266528000001,,,,,,,,,,,,,,,,,,,,,,
28,SINGLE_CHANGE,"[28.3441624191, 27.6166339337, 28.1383275875, 28.3985002459, 28.1892357223, 23.4727282133, 26.021366841, 28.1891460614]",Flex Agent 7,3.0,0.2020324887,0.1625,4.25,0.0820453455,0.020521750000000002,29.4755140966,-0.0600785927,5.5,1.0,0.7408472011,0.8024782657,,,,,,,,,,,,,,,,,,,,,,
29,SINGLE_CHANGE,"[28.3441624191, 27.6166339337, 28.1383275875, 28.3985002459, 28.1892357223, 23.4727282133, 26.021366841, 28.1891460614]",Flex Agent 7,4.0,0.1958937221,0.15,3.5,0.08781506330000001,0.017135198100000002,31.2817433226,-0.0189659128,7.5,1.2613636364,0.7367377485000001,0.7957616918,,,,,,,,,,,,,,,,,,,,,,
30,SINGLE_CHANGE,"[28.3441624191, 27.6166339337, 28.1383275875, 28.3985002459, 28.1892357223, 23.4727282133, 26.021366841, 28.1891460614]",Flex Agent 1,0.0,0.0,0.0,1.0,0.0024507401,0.0042448064,20.0658401159,-0.0078176691,1.0,1.0,0.0012733412,0.0050933647,,,,,,,,,,,,,,,,,,,,,,
31,SINGLE_CHANGE,"[28.3441624191, 27.6166339337, 28.1383275875, 28.3985002459, 28.1892357223, 23.4727282133, 26.021366841, 28.1891460614]",Flex Agent 1,1.0,0.006425486,0.0,1.25,0.0024507401,0.0042448064,18.0730333829,-0.004545893200000001,1.5,1.0,0.0030212856,0.0120851424,,,,,,,,,,,,,,,,,,,,,,
32,SINGLE_CHANGE,"[28.3441624191, 27.6166339337, 28.1383275875, 28.3985002459, 28.1892357223, 23.4727282133, 26.021366841, 28.1891460614]",Flex Agent 1,2.0,0.0,0.0,1.0,0.0024507401,0.0042448064,13.5256499911,-0.010892152,1.0,1.0,0.0014747117,0.0058988467,,,,,,,,,,,,,,,,,,,,,,
33,SINGLE_CHANGE,"[28.3441624191, 27.6166339337, 28.1383275875, 28.3985002459, 28.1892357223, 23.4727282133, 26.021366841, 28.1891460614]",Flex Agent 1,3.0,0.0,0.0,1.0,0.0024507401,0.0042448064,16.9396354854,-0.0040121932,1.0,1.0,0.0010654345,0.0042617379000000006,,,,,,,,,,,,,,,,,,,,,,
34,SINGLE_CHANGE,"[28.3441624191, 27.6166339337, 28.1383275875, 28.3985002459, 28.1892357223, 23.4727282133, 26.021366841, 28.1891460614]",Flex Agent 1,4.0,0.0,0.0,1.0,0.0024507401,0.0042448064,21.0946329718,-0.0023281478,1.0,1.0,0.0009921604,0.0039686416,,,,,,,,,,,,,,,,,,,,,,
35,SINGLE_CHANGE,"[28.3441624191, 27.6166339337, 28.1383275875, 28.3985002459, 28.1892357223, 23.4727282133, 26.021366841, 28.1891460614]",Flex Agent 0,0.0,0.1896129614,0.1325,3.5,0.0509349489,0.0106369857,27.3910587249,-0.0039033947,5.5,1.0833333333,0.5599746852,0.6269830314,,,,,,,,,,,,,,,,,,,,,,
36,SINGLE_CHANGE,"[28.3441624191, 27.6166339337, 28.1383275875, 28.3985002459, 28.1892357223, 23.4727282133, 26.021366841, 28.1891460614]",Flex Agent 0,1.0,0.1807552153,0.11750000000000001,3.75,0.0609241842,0.0110416348,28.811307738,-0.1012369711,5.0,1.375,0.5741375547,0.6486040098,,,,,,,,,,,,,,,,,,,,,,
37,SINGLE_CHANGE,"[28.3441624191, 27.6166339337, 28.1383275875, 28.3985002459, 28.1892357223, 23.4727282133, 26.021366841, 28.1891460614]",Flex Agent 0,2.0,0.1582023527,0.08,2.5,0.0774471523,0.0125175801,25.366058161,-0.0092101356,7.0,1.1458333333,0.5510807705,0.5936156331,,,,,,,,,,,,,,,,,,,,,,
38,SINGLE_CHANGE,"[28.3441624191, 27.6166339337, 28.1383275875, 28.3985002459, 28.1892357223, 23.4727282133, 26.021366841, 28.1891460614]",Flex Agent 0,3.0,0.17525778590000002,0.1,3.25,0.0676471837,0.0096049145,30.7565661894,0.0004732157,2.5,1.625,0.4903892503,0.5576729007,,,,,,,,,,,,,,,,,,,,,,
39,SINGLE_CHANGE,"[28.3441624191, 27.6166339337, 28.1383275875, 28.3985002459, 28.1892357223, 23.4727282133, 26.021366841, 28.1891460614]",Flex Agent 0,4.0,0.1504768906,0.08,3.0,0.069924225,0.0151304664,25.69389371,-0.0816453288,3.0,0.5,0.4950917628,0.5799453844,,,,,,,,,,,,,,,,,,,,,,
40,SINGLE_CHANGE,"[28.3441624191, 27.6166339337, 28.1383275875, 28.3985002459, 28.1892357223, 23.4727282133, 26.021366841, 28.1891460614]",Flex Agent 8,0.0,0.1612328669,0.0825,3.75,0.07954334040000001,0.018581331200000002,26.1114975632,-0.044664872,5.0,1.25,0.5439644573,0.6268066925,,,,,,,,,,,,,,,,,,,,,,
41,SINGLE_CHANGE,"[28.3441624191, 27.6166339337, 28.1383275875, 28.3985002459, 28.1892357223, 23.4727282133, 26.021366841, 28.1891460614]",Flex Agent 8,1.0,0.19197130340000002,0.14250000000000002,3.75,0.0774939117,0.0154641493,32.5446225314,-0.0101992539,2.5,1.0,0.6170602181,0.7243104485,,,,,,,,,,,,,,,,,,,,,,
42,SINGLE_CHANGE,"[28.3441624191, 27.6166339337, 28.1383275875, 28.3985002459, 28.1892357223, 23.4727282133, 26.021366841, 28.1891460614]",Flex Agent 8,2.0,0.1807791862,0.11,3.25,0.08525054,0.014067466,27.2539354992,-0.13690301900000001,4.0,1.125,0.51617614,0.5869109656,,,,,,,,,,,,,,,,,,,,,,
43,SINGLE_CHANGE,"[28.3441624191, 27.6166339337, 28.1383275875, 28.3985002459, 28.1892357223, 23.4727282133, 26.021366841, 28.1891460614]",Flex Agent 8,3.0,0.1437935183,0.0675,3.0,0.0580952966,0.0148349011,27.7347781379,-0.0974157725,4.0,1.0,0.45776937770000004,0.4873505362,,,,,,,,,,,,,,,,,,,,,,
44,SINGLE_CHANGE,"[28.3441624191, 27.6166339337, 28.1383275875, 28.3985002459, 28.1892357223, 23.4727282133, 26.021366841, 28.1891460614]",Flex Agent 8,4.0,0.1576375583,0.075,3.5,0.0616929466,0.0034065071,29.0773318118,-0.0507062187,6.0,1.0714285714,0.47216274880000003,0.5524522386,,,,,,,,,,,,,,,,,,,,,,
45,SINGLE_CHANGE,"[28.3441624191, 27.6166339337, 28.1383275875, 28.3985002459, 28.1892357223, 23.4727282133, 26.021366841, 28.1891460614]",Flex Agent 9,0.0,0.1711393978,0.0975,4.0,0.0619946379,0.0065844962000000005,31.4108401198,-0.0984623171,1.5,1.0,0.551639891,0.6267658819,,,,,,,,,,,,,,,,,,,,,,
46,SINGLE_CHANGE,"[28.3441624191, 27.6166339337, 28.1383275875, 28.3985002459, 28.1892357223, 23.4727282133, 26.021366841, 28.1891460614]",Flex Agent 9,1.0,0.1630067184,0.085,3.5,0.0690148765,0.0112943142,24.6344933239,-0.0185248561,2.5,1.1666666667,0.488628359,0.5531003566,,,,,,,,,,,,,,,,,,,,,,
47,SINGLE_CHANGE,"[28.3441624191, 27.6166339337, 28.1383275875, 28.3985002459, 28.1892357223, 23.4727282133, 26.021366841, 28.1891460614]",Flex Agent 9,2.0,0.1833963422,0.11,3.75,0.0835146885,0.0093603119,29.9761447977,-0.0205194281,5.0,1.0,0.5389313184,0.5725642160000001,,,,,,,,,,,,,,,,,,,,,,
48,SINGLE_CHANGE,"[28.3441624191, 27.6166339337, 28.1383275875, 28.3985002459, 28.1892357223, 23.4727282133, 26.021366841, 28.1891460614]",Flex Agent 9,3.0,0.1440516634,0.0675,3.0,0.0782067112,0.009340126,27.879433981600002,-0.0317354696,5.0,1.0,0.4461782327,0.5433803734,,,,,,,,,,,,,,,,,,,,,,
49,SINGLE_CHANGE,"[28.3441624191, 27.6166339337, 28.1383275875, 28.3985002459, 28.1892357223, 23.4727282133, 26.021366841, 28.1891460614]",Flex Agent 9,4.0,0.1764796324,0.11,4.0,0.0744258748,0.016834105800000002,29.7631121693,-0.0169189433,4.5,1.225,0.5778286152000001,0.6748401296000001,,,,,,,,,,,,,,,,,,,,,,
50,,,Global,,,,,,,,,,,,,0.13864253774200003,0.07228066346921237,0.0891,0.058688384971919666,3.025,1.2466792625505043,0.05761814852600001,0.030437110296545253,0.011393902817999998,0.006635213112663214,22.85969518735,9.285141699918425,-0.03399158087200001,0.041977673056435495,7.49,6.719215515434606,1.5319555699179999,0.8545156842056627,0.463222489986,0.2697491205497135,0.5296771064660001,0.31172966366049654
