,NeighborhoodDefinition,TargetSchedule,Agent,FLA_ID,INFORMATION_CONTENT,PARTIAL_INFORMATION_CONTENT,INFORMATION_STABILITY,FITNESS_VARIANCE_MEAN,FITNESS_VARIANCE_STD,FITNESS_MEAN,DISPERSION_INDEX,MEAN_NUMBER_OF_NEUTRAL_AREAS,MEAN_SIZE_OF_NEUTRAL_AREAS,MEAN_FITNESS_DISTANCE,MAX_FITNESS_DISTANCE,INFORMATION_CONTENT_MEAN,INFORMATION_CONTENT_STD,PARTIAL_INFORMATION_CONTENT_MEAN,PARTIAL_INFORMATION_CONTENT_STD,INFORMATION_STABILITY_MEAN,INFORMATION_STABILITY_STD,FITNESS_VARIANCE_MEAN_MEAN,FITNESS_VARIANCE_MEAN_STD,FITNESS_VARIANCE_STD_MEAN,FITNESS_VARIANCE_STD_STD,FITNESS_MEAN_MEAN,FITNESS_MEAN_STD,DISPERSION_INDEX_MEAN,DISPERSION_INDEX_STD,MEAN_NUMBER_OF_NEUTRAL_AREAS_MEAN,MEAN_NUMBER_OF_NEUTRAL_AREAS_STD,MEAN_SIZE_OF_NEUTRAL_AREAS_MEAN,MEAN_SIZE_OF_NEUTRAL_AREAS_STD,MEAN_FITNESS_DISTANCE_MEAN,MEAN_FITNESS_DISTANCE_STD,MAX_FITNESS_DISTANCE_MEAN,MAX_FITNESS_DISTANCE_STD
0,SINGLE_CHANGE,"[15.1339141529, 15.0447292137, 15.0147646522, 15.0601770422, 15.2645548793, 13.8654513184, 15.0540061737, 15.251817666200001]",Flex Agent 0,0.0,0.1510757516,0.07,2.5,0.0452416615,0.0073093425000000005,3.8456143023,-0.0243387246,20.5,3.0108695652,0.3660693555,0.41940769640000003,,,,,,,,,,,,,,,,,,,,,,
1,SINGLE_CHANGE,"[15.1339141529, 15.0447292137, 15.0147646522, 15.0601770422, 15.2645548793, 13.8654513184, 15.0540061737, 15.251817666200001]",Flex Agent 0,1.0,0.1409957407,0.065,2.5,0.0322844634,0.0038299592,3.990195247,0.0719272103,18.0,3.4705882353,0.4012386754,0.4933743727,,,,,,,,,,,,,,,,,,,,,,
2,SINGLE_CHANGE,"[15.1339141529, 15.0447292137, 15.0147646522, 15.0601770422, 15.2645548793, 13.8654513184, 15.0540061737, 15.251817666200001]",Flex Agent 0,2.0,0.1448551492,0.07250000000000001,2.0,0.036217713000000006,0.0059878782,4.032563545,0.1354873464,19.5,3.1618421053,0.36287288230000003,0.4287488893,,,,,,,,,,,,,,,,,,,,,,
3,SINGLE_CHANGE,"[15.1339141529, 15.0447292137, 15.0147646522, 15.0601770422, 15.2645548793, 13.8654513184, 15.0540061737, 15.251817666200001]",Flex Agent 0,3.0,0.1418845853,0.0625,2.5,0.0378007054,0.010723060900000001,4.4596809803,-0.0289964315,20.0,3.154040404,0.3763189488,0.4010167012,,,,,,,,,,,,,,,,,,,,,,
4,SINGLE_CHANGE,"[15.1339141529, 15.0447292137, 15.0147646522, 15.0601770422, 15.2645548793, 13.8654513184, 15.0540061737, 15.251817666200001]",Flex Agent 0,4.0,0.12650389410000001,0.055,2.25,0.045107475200000004,0.0090965512,3.0255348396,-0.009331074600000001,19.5,3.5951086957,0.38322988210000003,0.44707651600000003,,,,,,,,,,,,,,,,,,,,,,
5,SINGLE_CHANGE,"[15.1339141529, 15.0447292137, 15.0147646522, 15.0601770422, 15.2645548793, 13.8654513184, 15.0540061737, 15.251817666200001]",Flex Agent 4,0.0,0.140637442,0.0625,2.5,0.0821035371,0.0196164425,20.2471186653,-0.1324580615,3.5,1.4166666667,0.4625389589,0.5525813001000001,,,,,,,,,,,,,,,,,,,,,,
6,SINGLE_CHANGE,"[15.1339141529, 15.0447292137, 15.0147646522, 15.0601770422, 15.2645548793, 13.8654513184, 15.0540061737, 15.251817666200001]",Flex Agent 4,1.0,0.1806127156,0.11750000000000001,2.75,0.08327872850000001,0.0050608732000000005,18.6655652238,-0.0668459604,6.0,1.0714285714,0.5485157572,0.6382277967000001,,,,,,,,,,,,,,,,,,,,,,
7,SINGLE_CHANGE,"[15.1339141529, 15.0447292137, 15.0147646522, 15.0601770422, 15.2645548793, 13.8654513184, 15.0540061737, 15.251817666200001]",Flex Agent 4,2.0,0.1604645502,0.08750000000000001,2.75,0.0746177546,0.0077726402,19.491485956200002,-0.07409686110000001,5.5,1.1428571429,0.5715021253,0.7736619547,,,,,,,,,,,,,,,,,,,,,,
8,SINGLE_CHANGE,"[15.1339141529, 15.0447292137, 15.0147646522, 15.0601770422, 15.2645548793, 13.8654513184, 15.0540061737, 15.251817666200001]",Flex Agent 4,3.0,0.15833053600000002,0.08,3.0,0.08147141740000001,0.0101904369,18.9923130153,-0.0477960047,4.0,1.0,0.4680509828,0.4875723321,,,,,,,,,,,,,,,,,,,,,,
9,SINGLE_CHANGE,"[15.1339141529, 15.0447292137, 15.0147646522, 15.0601770422, 15.2645548793, 13.8654513184, 15.0540061737, 15.251817666200001]",Flex Agent 4,4.0,0.18595695780000002,0.115,3.0,0.0829417153,0.0178085584,19.7403435729,-0.0913910062,4.0,1.0,0.5640701979,0.6588440719,,,,,,,,,,,,,,,,,,,,,,
10,SINGLE_CHANGE,"[15.1339141529, 15.0447292137, 15.0147646522, 15.0601770422, 15.2645548793, 13.8654513184, 15.0540061737, 15.251817666200001]",Flex Agent 9,0.0,0.006425486,0.0,4.25,0.0024507401,0.0042448064,64.5727052761,0.0184073699,3.5,2.4166666667,0.034436160800000004,0.1377446431,,,,,,,,,,,,,,,,,,,,,,
11,SINGLE_CHANGE,"[15.1339141529, 15.0447292137, 15.0147646522, 15.0601770422, 15.2645548793, 13.8654513184, 15.0540061737, 15.251817666200001]",Flex Agent 9,1.0,0.006425486,0.0,5.5,0.0024507401,0.0042448064,78.2830953543,0.0192167091,3.0,2.3333333333,0.0470916776,0.1883667105,,,,,,,,,,,,,,,,,,,,,,
12,SINGLE_CHANGE,"[15.1339141529, 15.0447292137, 15.0147646522, 15.0601770422, 15.2645548793, 13.8654513184, 15.0540061737, 15.251817666200001]",Flex Agent 9,2.0,0.006425486,0.0,4.0,0.0024507401,0.0042448064,86.8697248166,0.012558556200000001,3.5,2.0416666667,0.0314984963,0.1259939852,,,,,,,,,,,,,,,,,,,,,,
13,SINGLE_CHANGE,"[15.1339141529, 15.0447292137, 15.0147646522, 15.0601770422, 15.2645548793, 13.8654513184, 15.0540061737, 15.251817666200001]",Flex Agent 9,3.0,0.006425486,0.0,2.5,0.0024507401,0.0042448064,89.6570682559,0.0014882173000000001,3.5,2.1666666667,0.0161378805,0.06455152210000001,,,,,,,,,,,,,,,,,,,,,,
14,SINGLE_CHANGE,"[15.1339141529, 15.0447292137, 15.0147646522, 15.0601770422, 15.2645548793, 13.8654513184, 15.0540061737, 15.251817666200001]",Flex Agent 9,4.0,0.006425486,0.0,3.25,0.0024507401,0.0042448064,73.2194907327,0.0102949652,3.0,2.3333333333,0.0236002992,0.0944011966,,,,,,,,,,,,,,,,,,,,,,
15,SINGLE_CHANGE,"[15.1339141529, 15.0447292137, 15.0147646522, 15.0601770422, 15.2645548793, 13.8654513184, 15.0540061737, 15.251817666200001]",Flex Agent 7,0.0,0.1855005704,0.115,3.25,0.0782594762,0.0184712863,22.2964547942,-0.1104054332,2.5,1.0,0.5799530986,0.6616655868,,,,,,,,,,,,,,,,,,,,,,
16,SINGLE_CHANGE,"[15.1339141529, 15.0447292137, 15.0147646522, 15.0601770422, 15.2645548793, 13.8654513184, 15.0540061737, 15.251817666200001]",Flex Agent 7,1.0,0.1827349607,0.1075,2.75,0.0633593078,0.0060220339,21.7829253738,-0.0281649439,4.5,1.0,0.5332310454,0.586919955,,,,,,,,,,,,,,,,,,,,,,
17,SINGLE_CHANGE,"[15.1339141529, 15.0447292137, 15.0147646522, 15.0601770422, 15.2645548793, 13.8654513184, 15.0540061737, 15.251817666200001]",Flex Agent 7,2.0,0.1961050754,0.14250000000000002,4.25,0.0626397881,0.008804436300000001,21.9587496942,-0.033671659,2.5,1.1666666667,0.5926393168,0.656210305,,,,,,,,,,,,,,,,,,,,,,
18,SINGLE_CHANGE,"[15.1339141529, 15.0447292137, 15.0147646522, 15.0601770422, 15.2645548793, 13.8654513184, 15.0540061737, 15.251817666200001]",Flex Agent 7,3.0,0.17788614700000002,0.10250000000000001,4.0,0.0780309403,0.015615890600000001,21.1424484653,-0.0500115251,5.0,1.3,0.5976099729000001,0.6266173152,,,,,,,,,,,,,,,,,,,,,,
19,SINGLE_CHANGE,"[15.1339141529, 15.0447292137, 15.0147646522, 15.0601770422, 15.2645548793, 13.8654513184, 15.0540061737, 15.251817666200001]",Flex Agent 7,4.0,0.19117613660000002,0.1275,4.5,0.0662153476,0.011110719600000001,21.5280467097,0.0107945123,5.5,1.2,0.6021623603,0.6672323613000001,,,,,,,,,,,,,,,,,,,,,,
20,SINGLE_CHANGE,"[15.1339141529, 15.0447292137, 15.0147646522, 15.0601770422, 15.2645548793, 13.8654513184, 15.0540061737, 15.251817666200001]",Flex Agent 3,0.0,0.0,0.0,1.0,0.0024507401,0.0042448064,6.8414070933,0.0359924437,4.0,1.4166666667,0.0017100912,0.006840365,,,,,,,,,,,,,,,,,,,,,,
21,SINGLE_CHANGE,"[15.1339141529, 15.0447292137, 15.0147646522, 15.0601770422, 15.2645548793, 13.8654513184, 15.0540061737, 15.251817666200001]",Flex Agent 3,1.0,0.006425486,0.0,1.25,0.0024507401,0.0042448064,5.5518739,-0.0019753579,6.0,1.8333333333000001,0.0034577824,0.0138311297,,,,,,,,,,,,,,,,,,,,,,
22,SINGLE_CHANGE,"[15.1339141529, 15.0447292137, 15.0147646522, 15.0601770422, 15.2645548793, 13.8654513184, 15.0540061737, 15.251817666200001]",Flex Agent 3,2.0,0.006425486,0.0,1.25,0.0024507401,0.0042448064,2.1339698343,0.014622890900000001,7.5,1.6696428571,0.0037356956,0.0149427823,,,,,,,,,,,,,,,,,,,,,,
23,SINGLE_CHANGE,"[15.1339141529, 15.0447292137, 15.0147646522, 15.0601770422, 15.2645548793, 13.8654513184, 15.0540061737, 15.251817666200001]",Flex Agent 3,3.0,0.006425486,0.0,1.25,0.0024507401,0.0042448064,2.387992727,0.0103851368,6.0,1.8333333333000001,0.0025125992,0.0100503969,,,,,,,,,,,,,,,,,,,,,,
24,SINGLE_CHANGE,"[15.1339141529, 15.0447292137, 15.0147646522, 15.0601770422, 15.2645548793, 13.8654513184, 15.0540061737, 15.251817666200001]",Flex Agent 3,4.0,0.0,0.0,1.0,0.0024507401,0.0042448064,4.8307221738,0.0003445301,6.5,1.6904761905,0.0012666609,0.0050666436,,,,,,,,,,,,,,,,,,,,,,
25,SINGLE_CHANGE,"[15.1339141529, 15.0447292137, 15.0147646522, 15.0601770422, 15.2645548793, 13.8654513184, 15.0540061737, 15.251817666200001]",Flex Agent 5,0.0,0.2023200763,0.16,3.25,0.08154114850000001,0.0067539514,20.4327238741,0.0730771696,7.0,1.4333333333,0.6721050113,0.7398762687,,,,,,,,,,,,,,,,,,,,,,
26,SINGLE_CHANGE,"[15.1339141529, 15.0447292137, 15.0147646522, 15.0601770422, 15.2645548793, 13.8654513184, 15.0540061737, 15.251817666200001]",Flex Agent 5,1.0,0.1776607329,0.105,4.75,0.0688119386,0.0080460025,21.7546219569,-0.0224411935,4.5,1.0,0.5925326807,0.7139788410000001,,,,,,,,,,,,,,,,,,,,,,
27,SINGLE_CHANGE,"[15.1339141529, 15.0447292137, 15.0147646522, 15.0601770422, 15.2645548793, 13.8654513184, 15.0540061737, 15.251817666200001]",Flex Agent 5,2.0,0.18945639790000002,0.12250000000000001,2.75,0.07944359790000001,0.0088027821,22.2782114368,-0.0735161989,7.0,1.1666666667,0.5560961002,0.5847537343,,,,,,,,,,,,,,,,,,,,,,
28,SINGLE_CHANGE,"[15.1339141529, 15.0447292137, 15.0147646522, 15.0601770422, 15.2645548793, 13.8654513184, 15.0540061737, 15.251817666200001]",Flex Agent 5,3.0,0.1913416325,0.13,4.75,0.0830150085,0.016124999100000002,21.8797448673,-0.0896005978,7.0,1.2,0.6321420887,0.713382418,,,,,,,,,,,,,,,,,,,,,,
29,SINGLE_CHANGE,"[15.1339141529, 15.0447292137, 15.0147646522, 15.0601770422, 15.2645548793, 13.8654513184, 15.0540061737, 15.251817666200001]",Flex Agent 5,4.0,0.1970057475,0.14250000000000002,3.0,0.0794933253,0.015035022200000001,22.4688003303,-0.09250490160000001,4.0,1.375,0.6244282444,0.7183225068,,,,,,,,,,,,,,,,,,,,,,
30,SINGLE_CHANGE,"[15.1339141529, 15.0447292137, 15.0147646522, 15.0601770422, 15.2645548793, 13.8654513184, 15.0540061737, 15.251817666200001]",Flex Agent 8,0.0,0.0,0.0,1.0,0.0024507401,0.0042448064,11.6817374896,0.021669441,3.5,1.0,0.0012733412,0.0050933647,,,,,,,,,,,,,,,,,,,,,,
31,SINGLE_CHANGE,"[15.1339141529, 15.0447292137, 15.0147646522, 15.0601770422, 15.2645548793, 13.8654513184, 15.0540061737, 15.251817666200001]",Flex Agent 8,1.0,0.006425486,0.0,1.25,0.0024507401,0.0042448064,9.9297330533,0.0013277131000000001,1.0,1.0,0.0030212856,0.0120851424,,,,,,,,,,,,,,,,,,,,,,
32,SINGLE_CHANGE,"[15.1339141529, 15.0447292137, 15.0147646522, 15.0601770422, 15.2645548793, 13.8654513184, 15.0540061737, 15.251817666200001]",Flex Agent 8,2.0,0.0,0.0,1.0,0.0024507401,0.0042448064,6.2495943084,-0.025603797,6.0,1.0,0.0018968121000000001,0.007587248600000001,,,,,,,,,,,,,,,,,,,,,,
33,SINGLE_CHANGE,"[15.1339141529, 15.0447292137, 15.0147646522, 15.0601770422, 15.2645548793, 13.8654513184, 15.0540061737, 15.251817666200001]",Flex Agent 8,3.0,0.0,0.0,1.0,0.0024507401,0.0042448064,8.3833422731,0.0025899529000000003,6.0,1.0,0.0013416209,0.005366483500000001,,,,,,,,,,,,,,,,,,,,,,
34,SINGLE_CHANGE,"[15.1339141529, 15.0447292137, 15.0147646522, 15.0601770422, 15.2645548793, 13.8654513184, 15.0540061737, 15.251817666200001]",Flex Agent 8,4.0,0.0,0.0,1.0,0.0024507401,0.0042448064,7.8724392918,-0.0003787571,6.0,1.0,0.0011048895000000001,0.004419558200000001,,,,,,,,,,,,,,,,,,,,,,
35,SINGLE_CHANGE,"[15.1339141529, 15.0447292137, 15.0147646522, 15.0601770422, 15.2645548793, 13.8654513184, 15.0540061737, 15.251817666200001]",Flex Agent 1,0.0,0.0,0.0,1.0,0.0024507401,0.0042448064,7.3313934069,0.025369952600000002,4.0,1.4166666667,0.0017100912,0.006840365,,,,,,,,,,,,,,,,,,,,,,
36,SINGLE_CHANGE,"[15.1339141529, 15.0447292137, 15.0147646522, 15.0601770422, 15.2645548793, 13.8654513184, 15.0540061737, 15.251817666200001]",Flex Agent 1,1.0,0.006425486,0.0,1.25,0.0024507401,0.0042448064,4.1795379066,0.0250139644,7.0,1.7142857142999999,0.0034577824,0.0138311297,,,,,,,,,,,,,,,,,,,,,,
37,SINGLE_CHANGE,"[15.1339141529, 15.0447292137, 15.0147646522, 15.0601770422, 15.2645548793, 13.8654513184, 15.0540061737, 15.251817666200001]",Flex Agent 1,2.0,0.006425486,0.0,1.25,0.0024507401,0.0042448064,2.1339698343,0.06465006870000001,7.5,1.6696428571,0.0037356956,0.0149427823,,,,,,,,,,,,,,,,,,,,,,
38,SINGLE_CHANGE,"[15.1339141529, 15.0447292137, 15.0147646522, 15.0601770422, 15.2645548793, 13.8654513184, 15.0540061737, 15.251817666200001]",Flex Agent 1,3.0,0.0,0.0,1.0,0.0024507401,0.0042448064,4.1624490089,0.074029286,7.0,1.1428571429,0.001412248,0.0056489919,,,,,,,,,,,,,,,,,,,,,,
39,SINGLE_CHANGE,"[15.1339141529, 15.0447292137, 15.0147646522, 15.0601770422, 15.2645548793, 13.8654513184, 15.0540061737, 15.251817666200001]",Flex Agent 1,4.0,0.0,0.0,1.0,0.0024507401,0.0042448064,4.9372671219,0.0309095446,6.5,1.7738095238,0.0012666609,0.0050666436,,,,,,,,,,,,,,,,,,,,,,
40,SINGLE_CHANGE,"[15.1339141529, 15.0447292137, 15.0147646522, 15.0601770422, 15.2645548793, 13.8654513184, 15.0540061737, 15.251817666200001]",Flex Agent 2,0.0,0.20147351100000002,0.17500000000000002,3.0,0.0314441222,0.0045342667,9.4810510484,0.0132023895,19.5,3.0436507937,0.6015386070000001,0.6736240443,,,,,,,,,,,,,,,,,,,,,,
41,SINGLE_CHANGE,"[15.1339141529, 15.0447292137, 15.0147646522, 15.0601770422, 15.2645548793, 13.8654513184, 15.0540061737, 15.251817666200001]",Flex Agent 2,1.0,0.2031066176,0.17,3.0,0.048238520900000005,0.0063739980000000005,8.9167305485,0.0920355531,18.5,3.2901785714000003,0.6021711132,0.7166972957000001,,,,,,,,,,,,,,,,,,,,,,
42,SINGLE_CHANGE,"[15.1339141529, 15.0447292137, 15.0147646522, 15.0601770422, 15.2645548793, 13.8654513184, 15.0540061737, 15.251817666200001]",Flex Agent 2,2.0,0.1805833462,0.13,2.75,0.052455108800000004,0.0036579011000000003,10.2822552848,0.0557321192,20.0,3.3082706767,0.4954693469,0.5776582004,,,,,,,,,,,,,,,,,,,,,,
43,SINGLE_CHANGE,"[15.1339141529, 15.0447292137, 15.0147646522, 15.0601770422, 15.2645548793, 13.8654513184, 15.0540061737, 15.251817666200001]",Flex Agent 2,3.0,0.20269820630000002,0.1925,3.75,0.035183024300000004,0.006757559000000001,9.6068613197,-0.0130202949,22.0,2.5863157895,0.5595553977000001,0.6340702622000001,,,,,,,,,,,,,,,,,,,,,,
44,SINGLE_CHANGE,"[15.1339141529, 15.0447292137, 15.0147646522, 15.0601770422, 15.2645548793, 13.8654513184, 15.0540061737, 15.251817666200001]",Flex Agent 2,4.0,0.2010713036,0.17250000000000001,3.25,0.0543462268,0.0085606595,10.2545750902,0.1382859309,21.5,2.6414027149,0.5972506897000001,0.636046894,,,,,,,,,,,,,,,,,,,,,,
45,SINGLE_CHANGE,"[15.1339141529, 15.0447292137, 15.0147646522, 15.0601770422, 15.2645548793, 13.8654513184, 15.0540061737, 15.251817666200001]",Flex Agent 6,0.0,0.19424834570000002,0.145,3.25,0.0435567757,0.009889627100000001,9.8339141079,0.0410718017,19.5,3.4444444444,0.5454933546,0.5958833687,,,,,,,,,,,,,,,,,,,,,,
46,SINGLE_CHANGE,"[15.1339141529, 15.0447292137, 15.0147646522, 15.0601770422, 15.2645548793, 13.8654513184, 15.0540061737, 15.251817666200001]",Flex Agent 6,1.0,0.1937986464,0.15,3.0,0.039689959600000005,0.004409305200000001,9.5757709192,-0.0230521853,25.5,2.3423076923,0.5009502917,0.56566927,,,,,,,,,,,,,,,,,,,,,,
47,SINGLE_CHANGE,"[15.1339141529, 15.0447292137, 15.0147646522, 15.0601770422, 15.2645548793, 13.8654513184, 15.0540061737, 15.251817666200001]",Flex Agent 6,2.0,0.1959659614,0.14,3.25,0.0401379248,0.0090412648,8.927697,-0.0355693853,22.5,2.9345238095,0.5627152105000001,0.5813922410000001,,,,,,,,,,,,,,,,,,,,,,
48,SINGLE_CHANGE,"[15.1339141529, 15.0447292137, 15.0147646522, 15.0601770422, 15.2645548793, 13.8654513184, 15.0540061737, 15.251817666200001]",Flex Agent 6,3.0,0.190739881,0.1375,3.5,0.0599042162,0.0164229971,10.3005510791,-0.037519683000000005,21.5,3.3676470588000003,0.4789327385,0.5549253713,,,,,,,,,,,,,,,,,,,,,,
49,SINGLE_CHANGE,"[15.1339141529, 15.0447292137, 15.0147646522, 15.0601770422, 15.2645548793, 13.8654513184, 15.0540061737, 15.251817666200001]",Flex Agent 6,4.0,0.2013480198,0.18,2.75,0.0453894932,0.0067375482,8.8038520579,0.049572872100000005,21.5,2.9296536797,0.5829148395,0.6564024798,,,,,,,,,,,,,,,,,,,,,,
50,,,Global,,,,,,,,,,,,,0.109164379694,0.08887971151666804,0.0727,0.06706652195653909,2.61,1.2028452663139502,0.036824704494,0.031743706605385474,0.007469282438,0.004445048462946993,18.224118303296002,21.616667552724596,-0.0012526478100000004,0.05744323082173666,9.66,7.45834691976112,1.92411688473,0.8725478177409755,0.323999340918,0.2679345146164366,0.37809022871000003,0.2934110072532856
