,NeighborhoodDefinition,TargetSchedule,Agent,FLA_ID,INFORMATION_CONTENT,PARTIAL_INFORMATION_CONTENT,INFORMATION_STABILITY,FITNESS_VARIANCE_MEAN,FITNESS_VARIANCE_STD,FITNESS_MEAN,DISPERSION_INDEX,MEAN_NUMBER_OF_NEUTRAL_AREAS,MEAN_SIZE_OF_NEUTRAL_AREAS,MEAN_FITNESS_DISTANCE,MAX_FITNESS_DISTANCE,INFORMATION_CONTENT_MEAN,INFORMATION_CONTENT_STD,PARTIAL_INFORMATION_CONTENT_MEAN,PARTIAL_INFORMATION_CONTENT_STD,INFORMATION_STABILITY_MEAN,INFORMATION_STABILITY_STD,FITNESS_VARIANCE_MEAN_MEAN,FITNESS_VARIANCE_MEAN_STD,FITNESS_VARIANCE_STD_MEAN,FITNESS_VARIANCE_STD_STD,FITNESS_MEAN_MEAN,FITNESS_MEAN_STD,DISPERSION_INDEX_MEAN,DISPERSION_INDEX_STD,MEAN_NUMBER_OF_NEUTRAL_AREAS_MEAN,MEAN_NUMBER_OF_NEUTRAL_AREAS_STD,MEAN_SIZE_OF_NEUTRAL_AREAS_MEAN,MEAN_SIZE_OF_NEUTRAL_AREAS_STD,MEAN_FITNESS_DISTANCE_MEAN,MEAN_FITNESS_DISTANCE_STD,MAX_FITNESS_DISTANCE_MEAN,MAX_FITNESS_DISTANCE_STD
0,SINGLE_CHANGE,"[-0.1144418806, -3.7130355497, -8.4763167743, 0.0021115845000000003, -36.7875577113, -2.7096547777, 6.752241641, 19.077390941]",Flex Agent 0,0.0,0.1520757854,0.07,2.5,0.0468912598,0.015034843300000001,23.8595353697,0.0001551336,23.0,2.5246212121,0.4248656195,0.49583700140000003,,,,,,,,,,,,,,,,,,,,,,
1,SINGLE_CHANGE,"[-0.1144418806, -3.7130355497, -8.4763167743, 0.0021115845000000003, -36.7875577113, -2.7096547777, 6.752241641, 19.077390941]",Flex Agent 0,1.0,0.1453880853,0.0675,2.75,0.0455768092,0.0115786076,27.9764606659,1.175e-06,21.0,3.3022727273,0.43044872840000004,0.48119453630000003,,,,,,,,,,,,,,,,,,,,,,
2,SINGLE_CHANGE,"[-0.1144418806, -3.7130355497, -8.4763167743, 0.0021115845000000003, -36.7875577113, -2.7096547777, 6.752241641, 19.077390941]",Flex Agent 0,2.0,0.16208935530000002,0.08,2.75,0.044529243600000004,0.0050170452,31.0756357693,0.0001251735,21.5,3.0487012987,0.4139659351,0.46511618870000004,,,,,,,,,,,,,,,,,,,,,,
3,SINGLE_CHANGE,"[-0.1144418806, -3.7130355497, -8.4763167743, 0.0021115845000000003, -36.7875577113, -2.7096547777, 6.752241641, 19.077390941]",Flex Agent 0,3.0,0.1479195252,0.065,2.5,0.0462388443,0.0107911798,30.5414748307,-5.3654000000000005e-05,16.0,4.75,0.4321747648,0.472947019,,,,,,,,,,,,,,,,,,,,,,
4,SINGLE_CHANGE,"[-0.1144418806, -3.7130355497, -8.4763167743, 0.0021115845000000003, -36.7875577113, -2.7096547777, 6.752241641, 19.077390941]",Flex Agent 0,4.0,0.1580727978,0.075,2.0,0.048742060100000005,0.012630191800000001,28.0623309437,3.374e-05,24.0,2.4791666667,0.4284386042,0.47864639010000004,,,,,,,,,,,,,,,,,,,,,,
5,SINGLE_CHANGE,"[-0.1144418806, -3.7130355497, -8.4763167743, 0.0021115845000000003, -36.7875577113, -2.7096547777, 6.752241641, 19.077390941]",Flex Agent 2,0.0,0.006425486,0.0,4.25,0.0024507401,0.0042448064,87.0479343215,-0.0115380546,2.5,3.0,0.034436160800000004,0.1377446431,,,,,,,,,,,,,,,,,,,,,,
6,SINGLE_CHANGE,"[-0.1144418806, -3.7130355497, -8.4763167743, 0.0021115845000000003, -36.7875577113, -2.7096547777, 6.752241641, 19.077390941]",Flex Agent 2,1.0,0.006425486,0.0,5.5,0.0024507401,0.0042448064,110.7867046267,-0.0007005076,3.0,2.3333333333,0.0470916776,0.1883667105,,,,,,,,,,,,,,,,,,,,,,
7,SINGLE_CHANGE,"[-0.1144418806, -3.7130355497, -8.4763167743, 0.0021115845000000003, -36.7875577113, -2.7096547777, 6.752241641, 19.077390941]",Flex Agent 2,2.0,0.006425486,0.0,4.0,0.0024507401,0.0042448064,113.5107540858,-0.0007457992000000001,3.0,2.3333333333,0.0314984963,0.1259939852,,,,,,,,,,,,,,,,,,,,,,
8,SINGLE_CHANGE,"[-0.1144418806, -3.7130355497, -8.4763167743, 0.0021115845000000003, -36.7875577113, -2.7096547777, 6.752241641, 19.077390941]",Flex Agent 2,3.0,0.006425486,0.0,2.5,0.0024507401,0.0042448064,111.817977403,-0.00034728010000000003,3.5,2.1666666667,0.0161378805,0.06455152210000001,,,,,,,,,,,,,,,,,,,,,,
9,SINGLE_CHANGE,"[-0.1144418806, -3.7130355497, -8.4763167743, 0.0021115845000000003, -36.7875577113, -2.7096547777, 6.752241641, 19.077390941]",Flex Agent 2,4.0,0.006425486,0.0,3.25,0.0024507401,0.0042448064,99.1056664751,-0.0007750602,3.0,2.3333333333,0.0236002992,0.0944011966,,,,,,,,,,,,,,,,,,,,,,
10,SINGLE_CHANGE,"[-0.1144418806, -3.7130355497, -8.4763167743, 0.0021115845000000003, -36.7875577113, -2.7096547777, 6.752241641, 19.077390941]",Flex Agent 3,0.0,0.1538512438,0.075,2.75,0.0416770912,0.0103525113,31.7343006893,-6.3546e-06,25.0,2.5405844156,0.45553185820000003,0.5392507938000001,,,,,,,,,,,,,,,,,,,,,,
11,SINGLE_CHANGE,"[-0.1144418806, -3.7130355497, -8.4763167743, 0.0021115845000000003, -36.7875577113, -2.7096547777, 6.752241641, 19.077390941]",Flex Agent 3,1.0,0.1464130334,0.065,2.5,0.0434823795,0.0076705862,29.2703843557,2.10827e-05,22.0,3.0252631579,0.45472779300000005,0.47966278560000003,,,,,,,,,,,,,,,,,,,,,,
12,SINGLE_CHANGE,"[-0.1144418806, -3.7130355497, -8.4763167743, 0.0021115845000000003, -36.7875577113, -2.7096547777, 6.752241641, 19.077390941]",Flex Agent 3,2.0,0.1760968756,0.10250000000000001,2.25,0.0666847964,0.0168588713,35.1474641574,0.0001390819,17.0,4.1470588235,0.46342773730000003,0.4995141595,,,,,,,,,,,,,,,,,,,,,,
13,SINGLE_CHANGE,"[-0.1144418806, -3.7130355497, -8.4763167743, 0.0021115845000000003, -36.7875577113, -2.7096547777, 6.752241641, 19.077390941]",Flex Agent 3,3.0,0.16588323030000002,0.0825,2.75,0.0505420606,0.0048800313000000005,41.6343101915,0.0001581404,18.0,3.59375,0.4626458706,0.49530170700000004,,,,,,,,,,,,,,,,,,,,,,
14,SINGLE_CHANGE,"[-0.1144418806, -3.7130355497, -8.4763167743, 0.0021115845000000003, -36.7875577113, -2.7096547777, 6.752241641, 19.077390941]",Flex Agent 3,4.0,0.1739300365,0.0975,2.25,0.050563849300000005,0.009175682000000001,37.8155266031,2.7562500000000002e-05,24.0,2.6346153846,0.45499567,0.4844576539,,,,,,,,,,,,,,,,,,,,,,
15,SINGLE_CHANGE,"[-0.1144418806, -3.7130355497, -8.4763167743, 0.0021115845000000003, -36.7875577113, -2.7096547777, 6.752241641, 19.077390941]",Flex Agent 5,0.0,0.1542021055,0.07250000000000001,2.75,0.052602771400000005,0.0164531899,36.3601945172,8.43707e-05,22.0,3.1458333333,0.3682787349,0.47734864320000003,,,,,,,,,,,,,,,,,,,,,,
16,SINGLE_CHANGE,"[-0.1144418806, -3.7130355497, -8.4763167743, 0.0021115845000000003, -36.7875577113, -2.7096547777, 6.752241641, 19.077390941]",Flex Agent 5,1.0,0.1608485527,0.0825,2.75,0.0375637163,0.0035976845,35.917745395,8.182050000000001e-05,24.5,2.3227424749,0.48899933230000003,0.5213935901,,,,,,,,,,,,,,,,,,,,,,
17,SINGLE_CHANGE,"[-0.1144418806, -3.7130355497, -8.4763167743, 0.0021115845000000003, -36.7875577113, -2.7096547777, 6.752241641, 19.077390941]",Flex Agent 5,2.0,0.1617493284,0.08,2.5,0.0450320977,0.0131844106,32.7743718556,5.888e-07,18.0,4.2,0.4829855968,0.5200469878,,,,,,,,,,,,,,,,,,,,,,
18,SINGLE_CHANGE,"[-0.1144418806, -3.7130355497, -8.4763167743, 0.0021115845000000003, -36.7875577113, -2.7096547777, 6.752241641, 19.077390941]",Flex Agent 5,3.0,0.1586489654,0.0825,2.25,0.0420534351,0.0073032582,37.9802160753,4.25112e-05,21.5,2.7711111111,0.4056202862,0.49929927230000004,,,,,,,,,,,,,,,,,,,,,,
19,SINGLE_CHANGE,"[-0.1144418806, -3.7130355497, -8.4763167743, 0.0021115845000000003, -36.7875577113, -2.7096547777, 6.752241641, 19.077390941]",Flex Agent 5,4.0,0.1734458153,0.0925,3.0,0.0517424991,0.0045545138,25.681914954,1.4269e-05,20.5,3.1088516746,0.4332505931,0.4894704629,,,,,,,,,,,,,,,,,,,,,,
20,SINGLE_CHANGE,"[-0.1144418806, -3.7130355497, -8.4763167743, 0.0021115845000000003, -36.7875577113, -2.7096547777, 6.752241641, 19.077390941]",Flex Agent 1,0.0,0.0,0.0,1.0,0.0024507401,0.0042448064,34.5311555385,-0.000278242,5.5,1.1833333333,0.0014004163000000001,0.0056016653,,,,,,,,,,,,,,,,,,,,,,
21,SINGLE_CHANGE,"[-0.1144418806, -3.7130355497, -8.4763167743, 0.0021115845000000003, -36.7875577113, -2.7096547777, 6.752241641, 19.077390941]",Flex Agent 1,1.0,0.006425486,0.0,1.25,0.0024507401,0.0042448064,56.1613067697,-1.38104e-05,6.0,1.0,0.0045536075,0.018214429900000002,,,,,,,,,,,,,,,,,,,,,,
22,SINGLE_CHANGE,"[-0.1144418806, -3.7130355497, -8.4763167743, 0.0021115845000000003, -36.7875577113, -2.7096547777, 6.752241641, 19.077390941]",Flex Agent 1,2.0,0.006425486,0.0,1.25,0.0024507401,0.0042448064,37.6856901293,-6.036900000000001e-06,6.0,1.0,0.0028067254,0.0112269017,,,,,,,,,,,,,,,,,,,,,,
23,SINGLE_CHANGE,"[-0.1144418806, -3.7130355497, -8.4763167743, 0.0021115845000000003, -36.7875577113, -2.7096547777, 6.752241641, 19.077390941]",Flex Agent 1,3.0,0.006425486,0.0,1.25,0.0024507401,0.0042448064,26.0117262987,-7.4462e-06,6.0,1.0,0.0026012097,0.010404838900000001,,,,,,,,,,,,,,,,,,,,,,
24,SINGLE_CHANGE,"[-0.1144418806, -3.7130355497, -8.4763167743, 0.0021115845000000003, -36.7875577113, -2.7096547777, 6.752241641, 19.077390941]",Flex Agent 1,4.0,0.006425486,0.0,1.25,0.0024507401,0.0042448064,37.6323353457,-7.7181e-06,3.0,1.0,0.002536986,0.0101479442,,,,,,,,,,,,,,,,,,,,,,
25,SINGLE_CHANGE,"[-0.1144418806, -3.7130355497, -8.4763167743, 0.0021115845000000003, -36.7875577113, -2.7096547777, 6.752241641, 19.077390941]",Flex Agent 7,0.0,0.19881221470000002,0.1625,3.5,0.0339564458,0.0107375191,42.0110108687,-1.67362e-05,20.0,3.3043478261,0.5916434251,0.7451044388,,,,,,,,,,,,,,,,,,,,,,
26,SINGLE_CHANGE,"[-0.1144418806, -3.7130355497, -8.4763167743, 0.0021115845000000003, -36.7875577113, -2.7096547777, 6.752241641, 19.077390941]",Flex Agent 7,1.0,0.2010330605,0.155,3.0,0.0503878613,0.009241370300000001,42.3661519549,-5.21044e-05,23.5,2.6449275362,0.5529568742000001,0.7025750867,,,,,,,,,,,,,,,,,,,,,,
27,SINGLE_CHANGE,"[-0.1144418806, -3.7130355497, -8.4763167743, 0.0021115845000000003, -36.7875577113, -2.7096547777, 6.752241641, 19.077390941]",Flex Agent 7,2.0,0.1984269506,0.1525,3.25,0.0422547242,0.0087554204,38.2430388604,0.0006621076,22.0,3.0242105263,0.5830278759,0.6990796387,,,,,,,,,,,,,,,,,,,,,,
28,SINGLE_CHANGE,"[-0.1144418806, -3.7130355497, -8.4763167743, 0.0021115845000000003, -36.7875577113, -2.7096547777, 6.752241641, 19.077390941]",Flex Agent 7,3.0,0.20014449080000002,0.17,3.5,0.0377723301,0.0068433052,37.452625630200004,0.0001714349,23.0,2.5115384615,0.601446198,0.7052917649,,,,,,,,,,,,,,,,,,,,,,
29,SINGLE_CHANGE,"[-0.1144418806, -3.7130355497, -8.4763167743, 0.0021115845000000003, -36.7875577113, -2.7096547777, 6.752241641, 19.077390941]",Flex Agent 7,4.0,0.1997312403,0.155,3.25,0.0473781327,0.0118401891,32.8936460996,0.00027199390000000003,19.5,3.7896825397000002,0.6519337065,0.7069453053,,,,,,,,,,,,,,,,,,,,,,
30,SINGLE_CHANGE,"[-0.1144418806, -3.7130355497, -8.4763167743, 0.0021115845000000003, -36.7875577113, -2.7096547777, 6.752241641, 19.077390941]",Flex Agent 6,0.0,0.19431883200000002,0.145,5.25,0.0697026684,0.014627291300000001,31.0892332473,-0.0015244137,5.0,1.0625,0.7863832439,0.9041585406,,,,,,,,,,,,,,,,,,,,,,
31,SINGLE_CHANGE,"[-0.1144418806, -3.7130355497, -8.4763167743, 0.0021115845000000003, -36.7875577113, -2.7096547777, 6.752241641, 19.077390941]",Flex Agent 6,1.0,0.20122979500000002,0.18,6.25,0.061836038700000005,0.008295044,42.4876264173,-0.0022420002,4.5,1.2142857143,0.9069440411,0.999533706,,,,,,,,,,,,,,,,,,,,,,
32,SINGLE_CHANGE,"[-0.1144418806, -3.7130355497, -8.4763167743, 0.0021115845000000003, -36.7875577113, -2.7096547777, 6.752241641, 19.077390941]",Flex Agent 6,2.0,0.1970756593,0.1825,7.0,0.0787966135,0.0061374344,47.2462310861,-0.0006991147,5.0,1.4,1.1167800109,1.4622581039,,,,,,,,,,,,,,,,,,,,,,
33,SINGLE_CHANGE,"[-0.1144418806, -3.7130355497, -8.4763167743, 0.0021115845000000003, -36.7875577113, -2.7096547777, 6.752241641, 19.077390941]",Flex Agent 6,3.0,0.2020613515,0.165,6.25,0.0887979143,0.012106997100000001,38.123112105,7.05619e-05,4.5,1.75,0.934407973,1.0740419453,,,,,,,,,,,,,,,,,,,,,,
34,SINGLE_CHANGE,"[-0.1144418806, -3.7130355497, -8.4763167743, 0.0021115845000000003, -36.7875577113, -2.7096547777, 6.752241641, 19.077390941]",Flex Agent 6,4.0,0.1855188013,0.165,6.75,0.0707105333,0.0060499007,38.0345117317,-0.0017016025000000001,4.5,1.225,0.7198386106,1.1269652407,,,,,,,,,,,,,,,,,,,,,,
35,SINGLE_CHANGE,"[-0.1144418806, -3.7130355497, -8.4763167743, 0.0021115845000000003, -36.7875577113, -2.7096547777, 6.752241641, 19.077390941]",Flex Agent 4,0.0,0.1035574546,0.0375,2.0,0.034355059300000004,0.007437168300000001,43.4138575139,5.55216e-05,24.5,2.5117056856,0.3119074372,0.3493581886,,,,,,,,,,,,,,,,,,,,,,
36,SINGLE_CHANGE,"[-0.1144418806, -3.7130355497, -8.4763167743, 0.0021115845000000003, -36.7875577113, -2.7096547777, 6.752241641, 19.077390941]",Flex Agent 4,1.0,0.12794782870000002,0.05,2.25,0.0450398926,0.0031695309,29.3520000844,9.921e-06,20.0,3.4621212121,0.34284233270000003,0.3668416867,,,,,,,,,,,,,,,,,,,,,,
37,SINGLE_CHANGE,"[-0.1144418806, -3.7130355497, -8.4763167743, 0.0021115845000000003, -36.7875577113, -2.7096547777, 6.752241641, 19.077390941]",Flex Agent 4,2.0,0.1120657863,0.04,2.5,0.0387850534,0.0088769735,32.4320090023,-2.17891e-05,25.0,2.4294871795,0.3177765382,0.373367381,,,,,,,,,,,,,,,,,,,,,,
38,SINGLE_CHANGE,"[-0.1144418806, -3.7130355497, -8.4763167743, 0.0021115845000000003, -36.7875577113, -2.7096547777, 6.752241641, 19.077390941]",Flex Agent 4,3.0,0.1308533771,0.052500000000000005,2.0,0.0334123895,0.0095556484,28.7728720098,1.52311e-05,21.5,2.5130434783,0.3479932062,0.42319688600000005,,,,,,,,,,,,,,,,,,,,,,
39,SINGLE_CHANGE,"[-0.1144418806, -3.7130355497, -8.4763167743, 0.0021115845000000003, -36.7875577113, -2.7096547777, 6.752241641, 19.077390941]",Flex Agent 4,4.0,0.12794782870000002,0.05,2.25,0.0406753352,0.0054481664,46.4711050056,5.32228e-05,20.0,3.5520833333,0.3600384334,0.3746787183,,,,,,,,,,,,,,,,,,,,,,
40,SINGLE_CHANGE,"[-0.1144418806, -3.7130355497, -8.4763167743, 0.0021115845000000003, -36.7875577113, -2.7096547777, 6.752241641, 19.077390941]",Flex Agent 9,0.0,0.006425486,0.0,4.25,0.0024507401,0.0042448064,86.3067987845,-0.0114659778,3.5,2.4166666667,0.034436160800000004,0.1377446431,,,,,,,,,,,,,,,,,,,,,,
41,SINGLE_CHANGE,"[-0.1144418806, -3.7130355497, -8.4763167743, 0.0021115845000000003, -36.7875577113, -2.7096547777, 6.752241641, 19.077390941]",Flex Agent 9,1.0,0.006425486,0.0,5.5,0.0024507401,0.0042448064,100.4162433301,-0.00046258970000000003,3.0,2.3333333333,0.0470916776,0.1883667105,,,,,,,,,,,,,,,,,,,,,,
42,SINGLE_CHANGE,"[-0.1144418806, -3.7130355497, -8.4763167743, 0.0021115845000000003, -36.7875577113, -2.7096547777, 6.752241641, 19.077390941]",Flex Agent 9,2.0,0.006425486,0.0,4.0,0.0024507401,0.0042448064,117.8308886149,-0.0006367904000000001,3.0,2.3333333333,0.0314984963,0.1259939852,,,,,,,,,,,,,,,,,,,,,,
43,SINGLE_CHANGE,"[-0.1144418806, -3.7130355497, -8.4763167743, 0.0021115845000000003, -36.7875577113, -2.7096547777, 6.752241641, 19.077390941]",Flex Agent 9,3.0,0.006425486,0.0,2.5,0.0024507401,0.0042448064,105.8037676794,-0.00048554930000000004,3.5,2.1666666667,0.0161378805,0.06455152210000001,,,,,,,,,,,,,,,,,,,,,,
44,SINGLE_CHANGE,"[-0.1144418806, -3.7130355497, -8.4763167743, 0.0021115845000000003, -36.7875577113, -2.7096547777, 6.752241641, 19.077390941]",Flex Agent 9,4.0,0.006425486,0.0,3.25,0.0024507401,0.0042448064,101.0878933532,-0.0008061692,3.0,2.3333333333,0.0236002992,0.0944011966,,,,,,,,,,,,,,,,,,,,,,
45,SINGLE_CHANGE,"[-0.1144418806, -3.7130355497, -8.4763167743, 0.0021115845000000003, -36.7875577113, -2.7096547777, 6.752241641, 19.077390941]",Flex Agent 8,0.0,0.1641675976,0.08,2.75,0.0485549455,0.0044190684,34.3023619831,-2.1826500000000002e-05,23.0,2.7391304348,0.4656020154,0.5651010855,,,,,,,,,,,,,,,,,,,,,,
46,SINGLE_CHANGE,"[-0.1144418806, -3.7130355497, -8.4763167743, 0.0021115845000000003, -36.7875577113, -2.7096547777, 6.752241641, 19.077390941]",Flex Agent 8,1.0,0.1443287256,0.0625,3.0,0.0543680984,0.011539156600000001,33.1478668091,0.00013637650000000002,18.5,3.1926470588,0.425538786,0.48005755580000004,,,,,,,,,,,,,,,,,,,,,,
47,SINGLE_CHANGE,"[-0.1144418806, -3.7130355497, -8.4763167743, 0.0021115845000000003, -36.7875577113, -2.7096547777, 6.752241641, 19.077390941]",Flex Agent 8,2.0,0.1262749466,0.055,2.0,0.055771245000000004,0.010534760300000001,34.9707466837,0.0001268913,24.0,2.6066433566000002,0.41348907500000004,0.46049880470000004,,,,,,,,,,,,,,,,,,,,,,
48,SINGLE_CHANGE,"[-0.1144418806, -3.7130355497, -8.4763167743, 0.0021115845000000003, -36.7875577113, -2.7096547777, 6.752241641, 19.077390941]",Flex Agent 8,3.0,0.1457277823,0.0675,2.25,0.0488698043,0.0078521756,34.2482188013,8.061200000000001e-05,23.0,2.7199999999999998,0.445183635,0.4660050871,,,,,,,,,,,,,,,,,,,,,,
49,SINGLE_CHANGE,"[-0.1144418806, -3.7130355497, -8.4763167743, 0.0021115845000000003, -36.7875577113, -2.7096547777, 6.752241641, 19.077390941]",Flex Agent 8,4.0,0.14229504980000002,0.065,2.5,0.0451736011,0.0086676189,23.3751816493,-6.045800000000001e-06,18.0,3.4095238095,0.41617922970000004,0.4530463584,,,,,,,,,,,,,,,,,,,,,,
50,,,Global,,,,,,,,,,,,,0.11568180626400001,0.07610169390252129,0.06765,0.05856143207376859,3.095,1.4302579330673333,0.035545654034,0.02423838068862108,0.0076977888340000016,0.0037583096264732856,48.840042333464,28.56632805560237,-0.0006416829800000002,0.002298165275311185,14.49,8.856272998760337,2.551815675322,0.8855588395571288,0.364233954922,0.27344006437304874,0.44230609219200007,0.3147600184190447
