,NeighborhoodDefinition,TargetSchedule,Agent,FLA_ID,INFORMATION_CONTENT,PARTIAL_INFORMATION_CONTENT,INFORMATION_STABILITY,FITNESS_VARIANCE_MEAN,FITNESS_VARIANCE_STD,FITNESS_MEAN,DISPERSION_INDEX,MEAN_NUMBER_OF_NEUTRAL_AREAS,MEAN_SIZE_OF_NEUTRAL_AREAS,MEAN_FITNESS_DISTANCE,MAX_FITNESS_DISTANCE,INFORMATION_CONTENT_MEAN,INFORMATION_CONTENT_STD,PARTIAL_INFORMATION_CONTENT_MEAN,PARTIAL_INFORMATION_CONTENT_STD,INFORMATION_STABILITY_MEAN,INFORMATION_STABILITY_STD,FITNESS_VARIANCE_MEAN_MEAN,FITNESS_VARIANCE_MEAN_STD,FITNESS_VARIANCE_STD_MEAN,FITNESS_VARIANCE_STD_STD,FITNESS_MEAN_MEAN,FITNESS_MEAN_STD,DISPERSION_INDEX_MEAN,DISPERSION_INDEX_STD,MEAN_NUMBER_OF_NEUTRAL_AREAS_MEAN,MEAN_NUMBER_OF_NEUTRAL_AREAS_STD,MEAN_SIZE_OF_NEUTRAL_AREAS_MEAN,MEAN_SIZE_OF_NEUTRAL_AREAS_STD,MEAN_FITNESS_DISTANCE_MEAN,MEAN_FITNESS_DISTANCE_STD,MAX_FITNESS_DISTANCE_MEAN,MAX_FITNESS_DISTANCE_STD
0,SINGLE_CHANGE,"[19.0274096386, 17.1571178236, 18.6679493517, 18.6107926948, 18.8461630834, 18.8621172101, 15.7577593518, 18.7632203119]",Flex Agent 0,0.0,0.1356808557,0.0575,2.0,0.0463041386,0.011997823000000001,6.4471928996,0.0041515448,22.0,2.6363636364,0.3387165145,0.37409191280000004,,,,,,,,,,,,,,,,,,,,,,
1,SINGLE_CHANGE,"[19.0274096386, 17.1571178236, 18.6679493517, 18.6107926948, 18.8461630834, 18.8621172101, 15.7577593518, 18.7632203119]",Flex Agent 0,1.0,0.1213752404,0.0475,2.25,0.0402243455,0.0040229519,6.0332947904,0.01359346,18.0,3.8333333333,0.3412709808,0.3967787347,,,,,,,,,,,,,,,,,,,,,,
2,SINGLE_CHANGE,"[19.0274096386, 17.1571178236, 18.6679493517, 18.6107926948, 18.8461630834, 18.8621172101, 15.7577593518, 18.7632203119]",Flex Agent 0,2.0,0.1257630367,0.0475,2.0,0.0448128619,0.0034930924000000003,9.3308750918,-0.0028196322,21.0,3.1129411765,0.3609827577,0.3971118758,,,,,,,,,,,,,,,,,,,,,,
3,SINGLE_CHANGE,"[19.0274096386, 17.1571178236, 18.6679493517, 18.6107926948, 18.8461630834, 18.8621172101, 15.7577593518, 18.7632203119]",Flex Agent 0,3.0,0.1120657863,0.04,2.0,0.040426957300000003,0.0068575502000000005,6.2405968245,0.0124819444,19.0,3.7254901961,0.34279558730000004,0.36507828800000003,,,,,,,,,,,,,,,,,,,,,,
4,SINGLE_CHANGE,"[19.0274096386, 17.1571178236, 18.6679493517, 18.6107926948, 18.8461630834, 18.8621172101, 15.7577593518, 18.7632203119]",Flex Agent 0,4.0,0.1269039117,0.052500000000000005,2.25,0.0372658177,0.0061311719,9.8889092845,-0.0056701609,20.5,3.1952380952,0.37690437590000003,0.3949030623,,,,,,,,,,,,,,,,,,,,,,
5,SINGLE_CHANGE,"[19.0274096386, 17.1571178236, 18.6679493517, 18.6107926948, 18.8461630834, 18.8621172101, 15.7577593518, 18.7632203119]",Flex Agent 1,0.0,0.006425486,0.0,4.25,0.0024507401,0.0042448064,66.6062190835,0.0280764083,3.5,2.4166666667,0.034436160800000004,0.1377446431,,,,,,,,,,,,,,,,,,,,,,
6,SINGLE_CHANGE,"[19.0274096386, 17.1571178236, 18.6679493517, 18.6107926948, 18.8461630834, 18.8621172101, 15.7577593518, 18.7632203119]",Flex Agent 1,1.0,0.006425486,0.0,5.5,0.0024507401,0.0042448064,78.9823484539,0.0418399043,3.0,2.3333333333,0.0470916776,0.1883667105,,,,,,,,,,,,,,,,,,,,,,
7,SINGLE_CHANGE,"[19.0274096386, 17.1571178236, 18.6679493517, 18.6107926948, 18.8461630834, 18.8621172101, 15.7577593518, 18.7632203119]",Flex Agent 1,2.0,0.006425486,0.0,4.0,0.0024507401,0.0042448064,86.934527175,0.039060253600000004,3.0,2.3333333333,0.0314984963,0.1259939852,,,,,,,,,,,,,,,,,,,,,,
8,SINGLE_CHANGE,"[19.0274096386, 17.1571178236, 18.6679493517, 18.6107926948, 18.8461630834, 18.8621172101, 15.7577593518, 18.7632203119]",Flex Agent 1,3.0,0.006425486,0.0,2.5,0.0024507401,0.0042448064,87.0727287904,0.0224985436,3.5,2.1666666667,0.0161378805,0.06455152210000001,,,,,,,,,,,,,,,,,,,,,,
9,SINGLE_CHANGE,"[19.0274096386, 17.1571178236, 18.6679493517, 18.6107926948, 18.8461630834, 18.8621172101, 15.7577593518, 18.7632203119]",Flex Agent 1,4.0,0.006425486,0.0,3.25,0.0024507401,0.0042448064,74.2457950468,0.0468589699,3.0,2.3333333333,0.0236002992,0.0944011966,,,,,,,,,,,,,,,,,,,,,,
10,SINGLE_CHANGE,"[19.0274096386, 17.1571178236, 18.6679493517, 18.6107926948, 18.8461630834, 18.8621172101, 15.7577593518, 18.7632203119]",Flex Agent 4,0.0,0.0,0.0,1.0,0.0024507401,0.0042448064,9.4937825149,-0.0005019238,4.0,2.1666666667,0.0017100910000000002,0.0068403639,,,,,,,,,,,,,,,,,,,,,,
11,SINGLE_CHANGE,"[19.0274096386, 17.1571178236, 18.6679493517, 18.6107926948, 18.8461630834, 18.8621172101, 15.7577593518, 18.7632203119]",Flex Agent 4,1.0,0.006425486,0.0,1.25,0.0024507401,0.0042448064,8.6601177238,0.0025494665,9.5,1.2111111111,0.0045536077,0.0182144307,,,,,,,,,,,,,,,,,,,,,,
12,SINGLE_CHANGE,"[19.0274096386, 17.1571178236, 18.6679493517, 18.6107926948, 18.8461630834, 18.8621172101, 15.7577593518, 18.7632203119]",Flex Agent 4,2.0,0.0,0.0,1.0,0.0024507401,0.0042448064,6.965088402,0.0030780512,9.0,1.4444444444,0.0011535481,0.0046141922000000005,,,,,,,,,,,,,,,,,,,,,,
13,SINGLE_CHANGE,"[19.0274096386, 17.1571178236, 18.6679493517, 18.6107926948, 18.8461630834, 18.8621172101, 15.7577593518, 18.7632203119]",Flex Agent 4,3.0,0.0,0.0,1.0,0.0024507401,0.0042448064,7.5091374822,0.0045779749,10.0,1.2,2.8168100000000002e-05,0.0001126725,,,,,,,,,,,,,,,,,,,,,,
14,SINGLE_CHANGE,"[19.0274096386, 17.1571178236, 18.6679493517, 18.6107926948, 18.8461630834, 18.8621172101, 15.7577593518, 18.7632203119]",Flex Agent 4,4.0,0.0,0.0,1.0,0.0024507401,0.0042448064,9.2447451272,0.0084875243,6.5,2.5476190476,0.0015823787,0.0063295146,,,,,,,,,,,,,,,,,,,,,,
15,SINGLE_CHANGE,"[19.0274096386, 17.1571178236, 18.6679493517, 18.6107926948, 18.8461630834, 18.8621172101, 15.7577593518, 18.7632203119]",Flex Agent 6,0.0,0.16825575180000002,0.095,3.25,0.06878090220000001,0.0081947923,24.7129475311,-0.027071920500000003,5.5,1.0625,0.4507873043,0.5147103932,,,,,,,,,,,,,,,,,,,,,,
16,SINGLE_CHANGE,"[19.0274096386, 17.1571178236, 18.6679493517, 18.6107926948, 18.8461630834, 18.8621172101, 15.7577593518, 18.7632203119]",Flex Agent 6,1.0,0.18492972370000002,0.12,3.75,0.0811627157,0.007159614700000001,21.7548954582,-0.050749272500000005,5.5,1.3392857142999999,0.5565429109,0.6565846305,,,,,,,,,,,,,,,,,,,,,,
17,SINGLE_CHANGE,"[19.0274096386, 17.1571178236, 18.6679493517, 18.6107926948, 18.8461630834, 18.8621172101, 15.7577593518, 18.7632203119]",Flex Agent 6,2.0,0.1526315957,0.07250000000000001,3.25,0.0892700647,0.0260140253,19.2758726353,0.0045271757,5.0,1.0,0.48305566200000005,0.5458780011000001,,,,,,,,,,,,,,,,,,,,,,
18,SINGLE_CHANGE,"[19.0274096386, 17.1571178236, 18.6679493517, 18.6107926948, 18.8461630834, 18.8621172101, 15.7577593518, 18.7632203119]",Flex Agent 6,3.0,0.1616119113,0.085,4.25,0.0943421036,0.0099995156,24.815383401200002,-0.0493182215,7.0,1.1428571429,0.5147299726,0.5731927335,,,,,,,,,,,,,,,,,,,,,,
19,SINGLE_CHANGE,"[19.0274096386, 17.1571178236, 18.6679493517, 18.6107926948, 18.8461630834, 18.8621172101, 15.7577593518, 18.7632203119]",Flex Agent 6,4.0,0.1537727276,0.07250000000000001,3.25,0.0783372559,0.0278557818,20.2420700107,-0.10856502100000001,8.0,1.1818181818,0.46170902480000003,0.5066244665,,,,,,,,,,,,,,,,,,,,,,
20,SINGLE_CHANGE,"[19.0274096386, 17.1571178236, 18.6679493517, 18.6107926948, 18.8461630834, 18.8621172101, 15.7577593518, 18.7632203119]",Flex Agent 2,0.0,0.1421428053,0.0625,2.25,0.052154934800000004,0.008819585500000001,6.5548619325,-0.017136174900000002,22.5,2.8035714286,0.34708345890000003,0.3851515487,,,,,,,,,,,,,,,,,,,,,,
21,SINGLE_CHANGE,"[19.0274096386, 17.1571178236, 18.6679493517, 18.6107926948, 18.8461630834, 18.8621172101, 15.7577593518, 18.7632203119]",Flex Agent 2,1.0,0.1055363032,0.0375,2.0,0.0462646103,0.0084511679,5.2469258978,-0.0208007896,21.0,2.8727272727,0.32118853480000004,0.39239945530000003,,,,,,,,,,,,,,,,,,,,,,
22,SINGLE_CHANGE,"[19.0274096386, 17.1571178236, 18.6679493517, 18.6107926948, 18.8461630834, 18.8621172101, 15.7577593518, 18.7632203119]",Flex Agent 2,2.0,0.12794782870000002,0.05,2.5,0.0460916637,0.0055974856,7.424083696,-0.0031311200000000003,24.0,2.3958333333,0.3175807498,0.345283877,,,,,,,,,,,,,,,,,,,,,,
23,SINGLE_CHANGE,"[19.0274096386, 17.1571178236, 18.6679493517, 18.6107926948, 18.8461630834, 18.8621172101, 15.7577593518, 18.7632203119]",Flex Agent 2,3.0,0.1193650024,0.045,2.25,0.0553094769,0.0075897329,5.1061605533,-0.0128810451,23.5,2.7273550725,0.32343202860000003,0.38695689800000005,,,,,,,,,,,,,,,,,,,,,,
24,SINGLE_CHANGE,"[19.0274096386, 17.1571178236, 18.6679493517, 18.6107926948, 18.8461630834, 18.8621172101, 15.7577593518, 18.7632203119]",Flex Agent 2,4.0,0.1354647405,0.0575,2.0,0.0463730999,0.0061951042,10.1549614345,-0.0082243221,21.5,2.6739130435,0.3889937418,0.4250222889,,,,,,,,,,,,,,,,,,,,,,
25,SINGLE_CHANGE,"[19.0274096386, 17.1571178236, 18.6679493517, 18.6107926948, 18.8461630834, 18.8621172101, 15.7577593518, 18.7632203119]",Flex Agent 5,0.0,0.1707734061,0.0925,3.75,0.0663860123,0.011633211800000001,21.8379778844,-0.0264282417,4.0,1.0,0.49935052430000004,0.5603227876,,,,,,,,,,,,,,,,,,,,,,
26,SINGLE_CHANGE,"[19.0274096386, 17.1571178236, 18.6679493517, 18.6107926948, 18.8461630834, 18.8621172101, 15.7577593518, 18.7632203119]",Flex Agent 5,1.0,0.14257514640000002,0.065,3.75,0.0855494207,0.0235360904,19.8484898157,-0.07033578210000001,5.5,1.3833333333,0.4793453768,0.5684096966000001,,,,,,,,,,,,,,,,,,,,,,
27,SINGLE_CHANGE,"[19.0274096386, 17.1571178236, 18.6679493517, 18.6107926948, 18.8461630834, 18.8621172101, 15.7577593518, 18.7632203119]",Flex Agent 5,2.0,0.1776066247,0.105,4.5,0.0765338483,0.0095629528,20.6449974592,-0.11354753070000001,6.0,1.3333333333000001,0.5962805794,0.6973139270000001,,,,,,,,,,,,,,,,,,,,,,
28,SINGLE_CHANGE,"[19.0274096386, 17.1571178236, 18.6679493517, 18.6107926948, 18.8461630834, 18.8621172101, 15.7577593518, 18.7632203119]",Flex Agent 5,3.0,0.1880386574,0.135,3.5,0.0779099607,0.009838874400000001,19.7460943616,-0.0405502894,6.0,1.6714285714,0.6390392141,0.7851521576,,,,,,,,,,,,,,,,,,,,,,
29,SINGLE_CHANGE,"[19.0274096386, 17.1571178236, 18.6679493517, 18.6107926948, 18.8461630834, 18.8621172101, 15.7577593518, 18.7632203119]",Flex Agent 5,4.0,0.1761840316,0.1075,3.75,0.0761974467,0.0148277667,22.3008651588,-0.0851764458,4.0,1.0714285714,0.5282439393,0.6903890525,,,,,,,,,,,,,,,,,,,,,,
30,SINGLE_CHANGE,"[19.0274096386, 17.1571178236, 18.6679493517, 18.6107926948, 18.8461630834, 18.8621172101, 15.7577593518, 18.7632203119]",Flex Agent 7,0.0,0.12329971270000001,0.0475,2.0,0.0422820924,0.011674949300000001,7.4004542815,-0.015708417500000002,19.5,3.376984127,0.32637523430000004,0.3749472887,,,,,,,,,,,,,,,,,,,,,,
31,SINGLE_CHANGE,"[19.0274096386, 17.1571178236, 18.6679493517, 18.6107926948, 18.8461630834, 18.8621172101, 15.7577593518, 18.7632203119]",Flex Agent 7,1.0,0.13910550500000002,0.0575,2.25,0.053574621,0.0075423917000000005,5.3389080101,-0.0228085276,20.5,3.0119047619,0.3593196716,0.3843796237,,,,,,,,,,,,,,,,,,,,,,
32,SINGLE_CHANGE,"[19.0274096386, 17.1571178236, 18.6679493517, 18.6107926948, 18.8461630834, 18.8621172101, 15.7577593518, 18.7632203119]",Flex Agent 7,2.0,0.13759901330000002,0.0575,2.25,0.048109402,0.0038616087,6.4986767539,-0.0140714047,17.5,4.025,0.37712503270000003,0.4202111579,,,,,,,,,,,,,,,,,,,,,,
33,SINGLE_CHANGE,"[19.0274096386, 17.1571178236, 18.6679493517, 18.6107926948, 18.8461630834, 18.8621172101, 15.7577593518, 18.7632203119]",Flex Agent 7,3.0,0.1008964995,0.035,2.25,0.036822484,0.0036777592,7.3051363671,-0.0009673645,16.0,4.0509803922,0.3571184871,0.4137354097,,,,,,,,,,,,,,,,,,,,,,
34,SINGLE_CHANGE,"[19.0274096386, 17.1571178236, 18.6679493517, 18.6107926948, 18.8461630834, 18.8621172101, 15.7577593518, 18.7632203119]",Flex Agent 7,4.0,0.14226034170000001,0.0625,2.0,0.0422890946,0.0054222008000000006,8.8610976767,-0.0148891604,20.5,3.0465686275,0.3343936575,0.39915877200000005,,,,,,,,,,,,,,,,,,,,,,
35,SINGLE_CHANGE,"[19.0274096386, 17.1571178236, 18.6679493517, 18.6107926948, 18.8461630834, 18.8621172101, 15.7577593518, 18.7632203119]",Flex Agent 3,0.0,0.0,0.0,1.0,0.0024507401,0.0042448064,14.612766037,0.0066957697000000005,6.5,1.0833333333,0.0006916470000000001,0.0027665880000000004,,,,,,,,,,,,,,,,,,,,,,
36,SINGLE_CHANGE,"[19.0274096386, 17.1571178236, 18.6679493517, 18.6107926948, 18.8461630834, 18.8621172101, 15.7577593518, 18.7632203119]",Flex Agent 3,1.0,0.0,0.0,1.0,0.0024507401,0.0042448064,14.8299817865,0.0042100076,7.0,1.0,0.0022039990000000003,0.0088159959,,,,,,,,,,,,,,,,,,,,,,
37,SINGLE_CHANGE,"[19.0274096386, 17.1571178236, 18.6679493517, 18.6107926948, 18.8461630834, 18.8621172101, 15.7577593518, 18.7632203119]",Flex Agent 3,2.0,0.0,0.0,1.0,0.0024507401,0.0042448064,9.6531025374,0.0089626392,7.0,1.0,0.0018968123,0.0075872494,,,,,,,,,,,,,,,,,,,,,,
38,SINGLE_CHANGE,"[19.0274096386, 17.1571178236, 18.6679493517, 18.6107926948, 18.8461630834, 18.8621172101, 15.7577593518, 18.7632203119]",Flex Agent 3,3.0,0.0,0.0,1.0,0.0024507401,0.0042448064,10.6317199855,0.0063545801,7.5,1.0,0.001341621,0.0053664839,,,,,,,,,,,,,,,,,,,,,,
39,SINGLE_CHANGE,"[19.0274096386, 17.1571178236, 18.6679493517, 18.6107926948, 18.8461630834, 18.8621172101, 15.7577593518, 18.7632203119]",Flex Agent 3,4.0,0.0,0.0,1.0,0.0024507401,0.0042448064,13.0824662623,0.0065695376000000005,7.5,1.0,0.0011048896,0.0044195583,,,,,,,,,,,,,,,,,,,,,,
40,SINGLE_CHANGE,"[19.0274096386, 17.1571178236, 18.6679493517, 18.6107926948, 18.8461630834, 18.8621172101, 15.7577593518, 18.7632203119]",Flex Agent 8,0.0,0.1967470056,0.15,3.0,0.034421922300000005,0.0051130138,10.5311040948,-0.0248013053,21.5,2.649321267,0.5370765247,0.6119502370000001,,,,,,,,,,,,,,,,,,,,,,
41,SINGLE_CHANGE,"[19.0274096386, 17.1571178236, 18.6679493517, 18.6107926948, 18.8461630834, 18.8621172101, 15.7577593518, 18.7632203119]",Flex Agent 8,1.0,0.2018350538,0.185,2.75,0.0406279509,0.0111857786,9.8707400378,-0.033717092000000004,19.0,3.4222222222,0.5595526978,0.6091056362,,,,,,,,,,,,,,,,,,,,,,
42,SINGLE_CHANGE,"[19.0274096386, 17.1571178236, 18.6679493517, 18.6107926948, 18.8461630834, 18.8621172101, 15.7577593518, 18.7632203119]",Flex Agent 8,2.0,0.20235942170000001,0.17250000000000001,3.25,0.0433058022,0.0008005349000000001,8.6024322846,-0.0246441366,17.0,3.9479166667000003,0.5984419684,0.6605845643,,,,,,,,,,,,,,,,,,,,,,
43,SINGLE_CHANGE,"[19.0274096386, 17.1571178236, 18.6679493517, 18.6107926948, 18.8461630834, 18.8621172101, 15.7577593518, 18.7632203119]",Flex Agent 8,3.0,0.1936858937,0.14750000000000002,3.25,0.024173699200000003,0.0033621601,9.9857395068,-0.031319435300000004,21.5,2.8245614035,0.5847139003,0.674388706,,,,,,,,,,,,,,,,,,,,,,
44,SINGLE_CHANGE,"[19.0274096386, 17.1571178236, 18.6679493517, 18.6107926948, 18.8461630834, 18.8621172101, 15.7577593518, 18.7632203119]",Flex Agent 8,4.0,0.2004794396,0.17,3.5,0.0390405933,0.007196693400000001,10.01712121,0.0622289096,18.0,3.7508361204,0.5661912334,0.5980716214,,,,,,,,,,,,,,,,,,,,,,
45,SINGLE_CHANGE,"[19.0274096386, 17.1571178236, 18.6679493517, 18.6107926948, 18.8461630834, 18.8621172101, 15.7577593518, 18.7632203119]",Flex Agent 9,0.0,0.006425486,0.0,4.25,0.0024507401,0.0042448064,62.3962810145,-0.0039235926,3.5,2.4166666667,0.034436160800000004,0.1377446431,,,,,,,,,,,,,,,,,,,,,,
46,SINGLE_CHANGE,"[19.0274096386, 17.1571178236, 18.6679493517, 18.6107926948, 18.8461630834, 18.8621172101, 15.7577593518, 18.7632203119]",Flex Agent 9,1.0,0.006425486,0.0,5.5,0.0024507401,0.0042448064,79.6926515795,0.021630451300000002,3.0,2.3333333333,0.0470916776,0.1883667105,,,,,,,,,,,,,,,,,,,,,,
47,SINGLE_CHANGE,"[19.0274096386, 17.1571178236, 18.6679493517, 18.6107926948, 18.8461630834, 18.8621172101, 15.7577593518, 18.7632203119]",Flex Agent 9,2.0,0.006425486,0.0,4.0,0.0024507401,0.0042448064,88.320364092,0.0227871179,3.0,2.3333333333,0.0314984963,0.1259939852,,,,,,,,,,,,,,,,,,,,,,
48,SINGLE_CHANGE,"[19.0274096386, 17.1571178236, 18.6679493517, 18.6107926948, 18.8461630834, 18.8621172101, 15.7577593518, 18.7632203119]",Flex Agent 9,3.0,0.006425486,0.0,2.5,0.0024507401,0.0042448064,85.6868056442,0.0069780463000000004,3.5,2.1666666667,0.0161378805,0.06455152210000001,,,,,,,,,,,,,,,,,,,,,,
49,SINGLE_CHANGE,"[19.0274096386, 17.1571178236, 18.6679493517, 18.6107926948, 18.8461630834, 18.8621172101, 15.7577593518, 18.7632203119]",Flex Agent 9,4.0,0.006425486,0.0,3.25,0.0024507401,0.0042448064,74.3523158531,0.0222390025,3.0,2.3333333333,0.0236002992,0.0944011966,,,,,,,,,,,,,,,,,,,,,,
50,,,Global,,,,,,,,,,,,,0.09275146639600003,0.07736170650367556,0.05065,0.0540096599447445,2.685,1.199287628689019,0.034067202026,0.029897552832351994,0.007250230196000002,0.005532936290157783,25.219836218721998,27.689091730090357,-0.00858642094,0.03490948977877934,11.34,7.610036337707232,2.261777765892,0.960026596909308,0.271802748754,0.226055920509827,0.327901439378,0.24214630018053404
