,NeighborhoodDefinition,TargetSchedule,Agent,FLA_ID,INFORMATION_CONTENT,PARTIAL_INFORMATION_CONTENT,INFORMATION_STABILITY,FITNESS_VARIANCE_MEAN,FITNESS_VARIANCE_STD,FITNESS_MEAN,DISPERSION_INDEX,MEAN_NUMBER_OF_NEUTRAL_AREAS,MEAN_SIZE_OF_NEUTRAL_AREAS,MEAN_FITNESS_DISTANCE,MAX_FITNESS_DISTANCE,INFORMATION_CONTENT_MEAN,INFORMATION_CONTENT_STD,PARTIAL_INFORMATION_CONTENT_MEAN,PARTIAL_INFORMATION_CONTENT_STD,INFORMATION_STABILITY_MEAN,INFORMATION_STABILITY_STD,FITNESS_VARIANCE_MEAN_MEAN,FITNESS_VARIANCE_MEAN_STD,FITNESS_VARIANCE_STD_MEAN,FITNESS_VARIANCE_STD_STD,FITNESS_MEAN_MEAN,FITNESS_MEAN_STD,DISPERSION_INDEX_MEAN,DISPERSION_INDEX_STD,MEAN_NUMBER_OF_NEUTRAL_AREAS_MEAN,MEAN_NUMBER_OF_NEUTRAL_AREAS_STD,MEAN_SIZE_OF_NEUTRAL_AREAS_MEAN,MEAN_SIZE_OF_NEUTRAL_AREAS_STD,MEAN_FITNESS_DISTANCE_MEAN,MEAN_FITNESS_DISTANCE_STD,MAX_FITNESS_DISTANCE_MEAN,MAX_FITNESS_DISTANCE_STD
0,SINGLE_CHANGE,"[108.2022042327, 109.0643976885, 108.2668488968, 105.8918809951, 106.3574771163, 106.6960732954, 105.7975833155, 101.9129490101]",Flex Agent 1,0.0,0.20066721980000002,0.1925,6.75,0.0764852673,0.0281066534,90.2454673533,0.0347465511,4.0,1.0,0.8766109808,0.9477606989,,,,,,,,,,,,,,,,,,,,,,
1,SINGLE_CHANGE,"[108.2022042327, 109.0643976885, 108.2668488968, 105.8918809951, 106.3574771163, 106.6960732954, 105.7975833155, 101.9129490101]",Flex Agent 1,1.0,0.1970948408,0.1575,5.5,0.0686576354,0.0064585452000000005,90.4927356311,-0.0200779759,5.5,1.1,0.7855110299,0.8153146499,,,,,,,,,,,,,,,,,,,,,,
2,SINGLE_CHANGE,"[108.2022042327, 109.0643976885, 108.2668488968, 105.8918809951, 106.3574771163, 106.6960732954, 105.7975833155, 101.9129490101]",Flex Agent 1,2.0,0.1999637387,0.22,5.5,0.06618546980000001,0.014195735400000001,90.0832037688,-0.0709837358,5.0,1.0,0.9032324217000001,1.0618704136,,,,,,,,,,,,,,,,,,,,,,
3,SINGLE_CHANGE,"[108.2022042327, 109.0643976885, 108.2668488968, 105.8918809951, 106.3574771163, 106.6960732954, 105.7975833155, 101.9129490101]",Flex Agent 1,3.0,0.1934690682,0.14,5.25,0.0707546704,0.0122573826,89.4568273659,-0.0295317405,4.5,1.1666666667,0.6669436716,0.7174362215,,,,,,,,,,,,,,,,,,,,,,
4,SINGLE_CHANGE,"[108.2022042327, 109.0643976885, 108.2668488968, 105.8918809951, 106.3574771163, 106.6960732954, 105.7975833155, 101.9129490101]",Flex Agent 1,4.0,0.2025824219,0.21250000000000002,6.75,0.0913300118,0.0138468381,90.770378955,-0.0031525002,8.0,1.2272727273,0.9770981360000001,1.1006415503,,,,,,,,,,,,,,,,,,,,,,
5,SINGLE_CHANGE,"[108.2022042327, 109.0643976885, 108.2668488968, 105.8918809951, 106.3574771163, 106.6960732954, 105.7975833155, 101.9129490101]",Flex Agent 0,0.0,0.1933422544,0.1375,4.0,0.1018461097,0.0305165127,88.3366169534,-0.0181227444,5.5,1.0833333333,0.6378789979,0.7308265956000001,,,,,,,,,,,,,,,,,,,,,,
6,SINGLE_CHANGE,"[108.2022042327, 109.0643976885, 108.2668488968, 105.8918809951, 106.3574771163, 106.6960732954, 105.7975833155, 101.9129490101]",Flex Agent 0,1.0,0.1625215605,0.085,4.25,0.0494211694,0.016517582700000002,87.6537378463,0.0067836929,3.0,1.0,0.4880274686,0.5414356958000001,,,,,,,,,,,,,,,,,,,,,,
7,SINGLE_CHANGE,"[108.2022042327, 109.0643976885, 108.2668488968, 105.8918809951, 106.3574771163, 106.6960732954, 105.7975833155, 101.9129490101]",Flex Agent 0,2.0,0.1885445261,0.14250000000000002,4.5,0.0625498392,0.0166103545,87.2717498471,0.0160924438,2.5,1.3333333333000001,0.6293831073,0.7254194467,,,,,,,,,,,,,,,,,,,,,,
8,SINGLE_CHANGE,"[108.2022042327, 109.0643976885, 108.2668488968, 105.8918809951, 106.3574771163, 106.6960732954, 105.7975833155, 101.9129490101]",Flex Agent 0,3.0,0.18610336130000002,0.1275,4.0,0.0856224475,0.011332638400000001,88.015122191,-0.033361727,4.0,1.0,0.6013324651,0.6783454768,,,,,,,,,,,,,,,,,,,,,,
9,SINGLE_CHANGE,"[108.2022042327, 109.0643976885, 108.2668488968, 105.8918809951, 106.3574771163, 106.6960732954, 105.7975833155, 101.9129490101]",Flex Agent 0,4.0,0.1772665978,0.105,4.25,0.08304284740000001,0.0299971126,88.4386911534,0.0398365699,4.5,1.3928571429,0.5820279847000001,0.6735668193000001,,,,,,,,,,,,,,,,,,,,,,
10,SINGLE_CHANGE,"[108.2022042327, 109.0643976885, 108.2668488968, 105.8918809951, 106.3574771163, 106.6960732954, 105.7975833155, 101.9129490101]",Flex Agent 3,0.0,0.1523558821,0.07,2.5,0.0586460914,0.0085045035,69.4893902921,-0.0048124921,18.5,3.4269005848000003,0.43339632780000004,0.46551376510000003,,,,,,,,,,,,,,,,,,,,,,
11,SINGLE_CHANGE,"[108.2022042327, 109.0643976885, 108.2668488968, 105.8918809951, 106.3574771163, 106.6960732954, 105.7975833155, 101.9129490101]",Flex Agent 3,1.0,0.1605331919,0.08,2.25,0.0769745914,0.015109866000000001,69.5471203604,-0.0037616351,21.5,2.8326086957000003,0.4563643633,0.5264720459000001,,,,,,,,,,,,,,,,,,,,,,
12,SINGLE_CHANGE,"[108.2022042327, 109.0643976885, 108.2668488968, 105.8918809951, 106.3574771163, 106.6960732954, 105.7975833155, 101.9129490101]",Flex Agent 3,2.0,0.1645831106,0.0825,2.75,0.0728825839,0.0147178645,69.5248159264,-0.00527325,23.5,2.5155677656,0.4459066763,0.4587434521,,,,,,,,,,,,,,,,,,,,,,
13,SINGLE_CHANGE,"[108.2022042327, 109.0643976885, 108.2668488968, 105.8918809951, 106.3574771163, 106.6960732954, 105.7975833155, 101.9129490101]",Flex Agent 3,3.0,0.1644800107,0.08750000000000001,2.75,0.060757771,0.0190974655,69.5564839274,-0.0042087956,21.5,3.0952380952,0.46239754190000004,0.4781018876,,,,,,,,,,,,,,,,,,,,,,
14,SINGLE_CHANGE,"[108.2022042327, 109.0643976885, 108.2668488968, 105.8918809951, 106.3574771163, 106.6960732954, 105.7975833155, 101.9129490101]",Flex Agent 3,4.0,0.1568854587,0.07250000000000001,2.75,0.0737777615,0.0071223264,69.5671264549,-0.0054570978000000004,20.5,3.2071428571,0.410749703,0.4523950244,,,,,,,,,,,,,,,,,,,,,,
15,SINGLE_CHANGE,"[108.2022042327, 109.0643976885, 108.2668488968, 105.8918809951, 106.3574771163, 106.6960732954, 105.7975833155, 101.9129490101]",Flex Agent 2,0.0,0.006425486,0.0,2.5,0.0024507401,0.0042448064,7.525708949,-0.0220058766,3.0,2.75,0.0173938307,0.0695753227,,,,,,,,,,,,,,,,,,,,,,
16,SINGLE_CHANGE,"[108.2022042327, 109.0643976885, 108.2668488968, 105.8918809951, 106.3574771163, 106.6960732954, 105.7975833155, 101.9129490101]",Flex Agent 2,1.0,0.006425486,0.0,5.5,0.0024507401,0.0042448064,8.3122217015,-0.0036781321000000002,2.5,2.6666666667000003,0.0458994955,0.1835979821,,,,,,,,,,,,,,,,,,,,,,
17,SINGLE_CHANGE,"[108.2022042327, 109.0643976885, 108.2668488968, 105.8918809951, 106.3574771163, 106.6960732954, 105.7975833155, 101.9129490101]",Flex Agent 2,2.0,0.006425486,0.0,4.0,0.0024507401,0.0042448064,16.0158606769,-0.0051151469,3.0,2.3333333333,0.0314984963,0.1259939852,,,,,,,,,,,,,,,,,,,,,,
18,SINGLE_CHANGE,"[108.2022042327, 109.0643976885, 108.2668488968, 105.8918809951, 106.3574771163, 106.6960732954, 105.7975833155, 101.9129490101]",Flex Agent 2,3.0,0.006425486,0.0,2.75,0.0024507401,0.0042448064,18.1240616562,0.0042829729,3.0,2.3333333333,0.018480794000000002,0.0739231758,,,,,,,,,,,,,,,,,,,,,,
19,SINGLE_CHANGE,"[108.2022042327, 109.0643976885, 108.2668488968, 105.8918809951, 106.3574771163, 106.6960732954, 105.7975833155, 101.9129490101]",Flex Agent 2,4.0,0.006425486,0.0,3.5,0.0024507401,0.0042448064,3.4531189106,-0.0047606372,3.5,2.1666666667,0.0272310297,0.10892411900000001,,,,,,,,,,,,,,,,,,,,,,
20,SINGLE_CHANGE,"[108.2022042327, 109.0643976885, 108.2668488968, 105.8918809951, 106.3574771163, 106.6960732954, 105.7975833155, 101.9129490101]",Flex Agent 7,0.0,0.1974801504,0.1525,3.75,0.0798984184,0.01131652,62.6458926493,-0.0080791067,25.0,2.336038961,0.5971242329,0.6712096026000001,,,,,,,,,,,,,,,,,,,,,,
21,SINGLE_CHANGE,"[108.2022042327, 109.0643976885, 108.2668488968, 105.8918809951, 106.3574771163, 106.6960732954, 105.7975833155, 101.9129490101]",Flex Agent 7,1.0,0.2035625291,0.18,3.25,0.0677149669,0.0124571043,62.5719871061,-0.0060119007,20.0,3.3195488722,0.6335000567,0.6824383889,,,,,,,,,,,,,,,,,,,,,,
22,SINGLE_CHANGE,"[108.2022042327, 109.0643976885, 108.2668488968, 105.8918809951, 106.3574771163, 106.6960732954, 105.7975833155, 101.9129490101]",Flex Agent 7,2.0,0.1886980645,0.125,4.25,0.0718738699,0.0057330445,62.7285272591,-0.0036280121,20.0,3.4271099744,0.6359511882000001,0.7791285246,,,,,,,,,,,,,,,,,,,,,,
23,SINGLE_CHANGE,"[108.2022042327, 109.0643976885, 108.2668488968, 105.8918809951, 106.3574771163, 106.6960732954, 105.7975833155, 101.9129490101]",Flex Agent 7,3.0,0.2027133731,0.165,3.75,0.06765079980000001,0.0129972191,62.6671584795,-0.0023036045,21.0,3.2772727273,0.6748596307,0.7225564131000001,,,,,,,,,,,,,,,,,,,,,,
24,SINGLE_CHANGE,"[108.2022042327, 109.0643976885, 108.2668488968, 105.8918809951, 106.3574771163, 106.6960732954, 105.7975833155, 101.9129490101]",Flex Agent 7,4.0,0.2017337028,0.1825,3.25,0.0811827351,0.0133847453,62.7807902667,-0.0039206134,23.0,2.8,0.6951960473000001,0.7136169593,,,,,,,,,,,,,,,,,,,,,,
25,SINGLE_CHANGE,"[108.2022042327, 109.0643976885, 108.2668488968, 105.8918809951, 106.3574771163, 106.6960732954, 105.7975833155, 101.9129490101]",Flex Agent 5,0.0,0.006425486,0.0,1.25,0.0024507401,0.0042448064,78.0890212165,0.034089238800000005,1.0,1.0,0.0032180682,0.0128722729,,,,,,,,,,,,,,,,,,,,,,
26,SINGLE_CHANGE,"[108.2022042327, 109.0643976885, 108.2668488968, 105.8918809951, 106.3574771163, 106.6960732954, 105.7975833155, 101.9129490101]",Flex Agent 5,1.0,0.006425486,0.0,1.5,0.0024507401,0.0042448064,73.5760938322,-0.0006567421,1.0,1.0,0.005568341,0.0222733638,,,,,,,,,,,,,,,,,,,,,,
27,SINGLE_CHANGE,"[108.2022042327, 109.0643976885, 108.2668488968, 105.8918809951, 106.3574771163, 106.6960732954, 105.7975833155, 101.9129490101]",Flex Agent 5,2.0,0.006425486,0.0,1.25,0.0024507401,0.0042448064,71.5288098069,-0.0011340034,1.0,1.0,0.0028067254,0.0112269015,,,,,,,,,,,,,,,,,,,,,,
28,SINGLE_CHANGE,"[108.2022042327, 109.0643976885, 108.2668488968, 105.8918809951, 106.3574771163, 106.6960732954, 105.7975833155, 101.9129490101]",Flex Agent 5,3.0,0.006425486,0.0,1.25,0.0024507401,0.0042448064,72.972760408,-0.0007747727,1.0,1.0,0.0026012097,0.0104048386,,,,,,,,,,,,,,,,,,,,,,
29,SINGLE_CHANGE,"[108.2022042327, 109.0643976885, 108.2668488968, 105.8918809951, 106.3574771163, 106.6960732954, 105.7975833155, 101.9129490101]",Flex Agent 5,4.0,0.006425486,0.0,1.25,0.0024507401,0.0042448064,74.0004020197,-0.0005580272000000001,1.0,1.0,0.002536986,0.010147943900000001,,,,,,,,,,,,,,,,,,,,,,
30,SINGLE_CHANGE,"[108.2022042327, 109.0643976885, 108.2668488968, 105.8918809951, 106.3574771163, 106.6960732954, 105.7975833155, 101.9129490101]",Flex Agent 8,0.0,0.2036323301,0.2025,3.5,0.0634306251,0.012778791400000001,62.7463248457,-0.0069236163,25.5,2.2176923077,0.7091039859,0.8136970585000001,,,,,,,,,,,,,,,,,,,,,,
31,SINGLE_CHANGE,"[108.2022042327, 109.0643976885, 108.2668488968, 105.8918809951, 106.3574771163, 106.6960732954, 105.7975833155, 101.9129490101]",Flex Agent 8,1.0,0.1955635278,0.14750000000000002,4.0,0.0602232646,0.0167040298,62.7884888594,-0.0076749362,21.5,2.7489177489000003,0.6976290237,0.7418600854,,,,,,,,,,,,,,,,,,,,,,
32,SINGLE_CHANGE,"[108.2022042327, 109.0643976885, 108.2668488968, 105.8918809951, 106.3574771163, 106.6960732954, 105.7975833155, 101.9129490101]",Flex Agent 8,2.0,0.20430891650000002,0.1875,3.25,0.054850832,0.0117296087,62.9425899635,-0.0127729858,23.0,2.3942307692,0.7263525527,0.7663252499000001,,,,,,,,,,,,,,,,,,,,,,
33,SINGLE_CHANGE,"[108.2022042327, 109.0643976885, 108.2668488968, 105.8918809951, 106.3574771163, 106.6960732954, 105.7975833155, 101.9129490101]",Flex Agent 8,3.0,0.192506008,0.135,4.25,0.0712206882,0.0085129885,62.7246686828,-0.0062854063,21.0,3.1887871854,0.6504742112,0.7464454179000001,,,,,,,,,,,,,,,,,,,,,,
34,SINGLE_CHANGE,"[108.2022042327, 109.0643976885, 108.2668488968, 105.8918809951, 106.3574771163, 106.6960732954, 105.7975833155, 101.9129490101]",Flex Agent 8,4.0,0.1963803214,0.145,3.5,0.0840559853,0.0198653507,62.7191519015,-0.0044133044,21.0,3.1068181818,0.5735820588,0.641416717,,,,,,,,,,,,,,,,,,,,,,
35,SINGLE_CHANGE,"[108.2022042327, 109.0643976885, 108.2668488968, 105.8918809951, 106.3574771163, 106.6960732954, 105.7975833155, 101.9129490101]",Flex Agent 6,0.0,0.1819606799,0.1075,4.25,0.07624153900000001,0.0128461011,89.1744661628,-0.0211267518,5.0,1.0833333333,0.6010544981,0.6308226410000001,,,,,,,,,,,,,,,,,,,,,,
36,SINGLE_CHANGE,"[108.2022042327, 109.0643976885, 108.2668488968, 105.8918809951, 106.3574771163, 106.6960732954, 105.7975833155, 101.9129490101]",Flex Agent 6,1.0,0.1974009193,0.14250000000000002,5.0,0.0736289326,0.0133919782,89.1389179455,-0.023922236000000003,6.5,1.05,0.7018743124,0.809929886,,,,,,,,,,,,,,,,,,,,,,
37,SINGLE_CHANGE,"[108.2022042327, 109.0643976885, 108.2668488968, 105.8918809951, 106.3574771163, 106.6960732954, 105.7975833155, 101.9129490101]",Flex Agent 6,2.0,0.19610345110000002,0.15,4.75,0.061473907200000004,0.0124708302,88.4168831668,-0.0644071887,4.5,1.25,0.6520093201,0.8344721122000001,,,,,,,,,,,,,,,,,,,,,,
38,SINGLE_CHANGE,"[108.2022042327, 109.0643976885, 108.2668488968, 105.8918809951, 106.3574771163, 106.6960732954, 105.7975833155, 101.9129490101]",Flex Agent 6,3.0,0.1712738348,0.11750000000000001,5.0,0.0915010775,0.0282691002,89.3471753178,0.02482276,3.5,1.0,0.6423910197,0.7508323064,,,,,,,,,,,,,,,,,,,,,,
39,SINGLE_CHANGE,"[108.2022042327, 109.0643976885, 108.2668488968, 105.8918809951, 106.3574771163, 106.6960732954, 105.7975833155, 101.9129490101]",Flex Agent 6,4.0,0.1968025756,0.16,5.25,0.08038283680000001,0.010624446800000001,89.984993316,-0.0337811175,6.0,1.0,0.7706942945,0.9902194307000001,,,,,,,,,,,,,,,,,,,,,,
40,SINGLE_CHANGE,"[108.2022042327, 109.0643976885, 108.2668488968, 105.8918809951, 106.3574771163, 106.6960732954, 105.7975833155, 101.9129490101]",Flex Agent 4,0.0,0.1842954467,0.125,4.25,0.0789311593,0.0187144868,88.3137580828,-0.0425919327,4.0,1.125,0.6375996575,0.8126442083000001,,,,,,,,,,,,,,,,,,,,,,
41,SINGLE_CHANGE,"[108.2022042327, 109.0643976885, 108.2668488968, 105.8918809951, 106.3574771163, 106.6960732954, 105.7975833155, 101.9129490101]",Flex Agent 4,1.0,0.1865781193,0.125,3.75,0.0911019783,0.0255109234,87.9868033974,0.021491822,7.0,1.35,0.5929927148,0.6678317034,,,,,,,,,,,,,,,,,,,,,,
42,SINGLE_CHANGE,"[108.2022042327, 109.0643976885, 108.2668488968, 105.8918809951, 106.3574771163, 106.6960732954, 105.7975833155, 101.9129490101]",Flex Agent 4,2.0,0.1975522918,0.14,3.75,0.1052131647,0.020999691600000002,89.8865921891,0.038204586400000004,6.5,1.0,0.6584835463,0.7103441895,,,,,,,,,,,,,,,,,,,,,,
43,SINGLE_CHANGE,"[108.2022042327, 109.0643976885, 108.2668488968, 105.8918809951, 106.3574771163, 106.6960732954, 105.7975833155, 101.9129490101]",Flex Agent 4,3.0,0.1536563196,0.07250000000000001,3.5,0.0766773754,0.0144732252,87.364308355,-0.0127306633,4.5,1.0,0.440083055,0.48239843060000004,,,,,,,,,,,,,,,,,,,,,,
44,SINGLE_CHANGE,"[108.2022042327, 109.0643976885, 108.2668488968, 105.8918809951, 106.3574771163, 106.6960732954, 105.7975833155, 101.9129490101]",Flex Agent 4,4.0,0.17412294320000002,0.1,3.5,0.0809236375,0.0152036393,88.9153658977,0.0035985860000000004,3.0,1.0,0.5443284582,0.6191395196,,,,,,,,,,,,,,,,,,,,,,
45,SINGLE_CHANGE,"[108.2022042327, 109.0643976885, 108.2668488968, 105.8918809951, 106.3574771163, 106.6960732954, 105.7975833155, 101.9129490101]",Flex Agent 9,0.0,0.0,0.0,1.0,0.0024507401,0.0042448064,81.2848696492,0.0226045851,1.0,1.0,0.0012733412,0.0050933647,,,,,,,,,,,,,,,,,,,,,,
46,SINGLE_CHANGE,"[108.2022042327, 109.0643976885, 108.2668488968, 105.8918809951, 106.3574771163, 106.6960732954, 105.7975833155, 101.9129490101]",Flex Agent 9,1.0,0.006425486,0.0,1.25,0.0024507401,0.0042448064,78.9664171412,0.0006870273,1.0,1.0,0.0030212856,0.0120851424,,,,,,,,,,,,,,,,,,,,,,
47,SINGLE_CHANGE,"[108.2022042327, 109.0643976885, 108.2668488968, 105.8918809951, 106.3574771163, 106.6960732954, 105.7975833155, 101.9129490101]",Flex Agent 9,2.0,0.0,0.0,1.0,0.0024507401,0.0042448064,77.1531540009,0.0005403993,1.0,1.0,0.0013275299000000001,0.005310119800000001,,,,,,,,,,,,,,,,,,,,,,
48,SINGLE_CHANGE,"[108.2022042327, 109.0643976885, 108.2668488968, 105.8918809951, 106.3574771163, 106.6960732954, 105.7975833155, 101.9129490101]",Flex Agent 9,3.0,0.0,0.0,1.0,0.0024507401,0.0042448064,78.3133968494,0.0006135213,1.0,1.0,0.0010654345,0.0042617379000000006,,,,,,,,,,,,,,,,,,,,,,
49,SINGLE_CHANGE,"[108.2022042327, 109.0643976885, 108.2668488968, 105.8918809951, 106.3574771163, 106.6960732954, 105.7975833155, 101.9129490101]",Flex Agent 9,4.0,0.0,0.0,1.0,0.0024507401,0.0042448064,79.1375197772,0.0006832222,1.0,1.0,0.0009921604,0.0039686416,,,,,,,,,,,,,,,,,,,,,,
50,,,Global,,,,,,,,,,,,,0.13194798189,0.0852235604872301,0.0955,0.07179903927502321,3.47,1.5064825906456294,0.053077463244,0.035068509605654496,0.012120946051999999,0.007486452280696551,71.454954569328,22.98947261317026,-0.0049784486,0.021796471366426703,8.97,8.68931433851195,1.766113425262,0.9033506482311913,0.44714118937400005,0.3085611081991929,0.512416630006,0.3383795677213498
