,NeighborhoodDefinition,TargetSchedule,Agent,FLA_ID,INFORMATION_CONTENT,PARTIAL_INFORMATION_CONTENT,INFORMATION_STABILITY,FITNESS_VARIANCE_MEAN,FITNESS_VARIANCE_STD,FITNESS_MEAN,DISPERSION_INDEX,MEAN_NUMBER_OF_NEUTRAL_AREAS,MEAN_SIZE_OF_NEUTRAL_AREAS,MEAN_FITNESS_DISTANCE,MAX_FITNESS_DISTANCE,INFORMATION_CONTENT_MEAN,INFORMATION_CONTENT_STD,PARTIAL_INFORMATION_CONTENT_MEAN,PARTIAL_INFORMATION_CONTENT_STD,INFORMATION_STABILITY_MEAN,INFORMATION_STABILITY_STD,FITNESS_VARIANCE_MEAN_MEAN,FITNESS_VARIANCE_MEAN_STD,FITNESS_VARIANCE_STD_MEAN,FITNESS_VARIANCE_STD_STD,FITNESS_MEAN_MEAN,FITNESS_MEAN_STD,DISPERSION_INDEX_MEAN,DISPERSION_INDEX_STD,MEAN_NUMBER_OF_NEUTRAL_AREAS_MEAN,MEAN_NUMBER_OF_NEUTRAL_AREAS_STD,MEAN_SIZE_OF_NEUTRAL_AREAS_MEAN,MEAN_SIZE_OF_NEUTRAL_AREAS_STD,MEAN_FITNESS_DISTANCE_MEAN,MEAN_FITNESS_DISTANCE_STD,MAX_FITNESS_DISTANCE_MEAN,MAX_FITNESS_DISTANCE_STD
0,SINGLE_CHANGE,"[0.0, -2.4359181, -12.9046762961, 0.0, -40.6235400615, -26.7880221624, -20.4588927707, -25.448940124]",Flex Agent 1,0.0,0.1382728171,0.0575,2.0,0.0431459467,0.0084534942,32.0980132974,1.47027e-05,21.5,3.2988888889,0.3865562856,0.4288649164,,,,,,,,,,,,,,,,,,,,,,
1,SINGLE_CHANGE,"[0.0, -2.4359181, -12.9046762961, 0.0, -40.6235400615, -26.7880221624, -20.4588927707, -25.448940124]",Flex Agent 1,1.0,0.13332991360000002,0.055,2.25,0.0549013505,0.0104888349,30.7493857006,0.0001251225,24.5,2.5471380471,0.33837290410000004,0.39244782780000004,,,,,,,,,,,,,,,,,,,,,,
2,SINGLE_CHANGE,"[0.0, -2.4359181, -12.9046762961, 0.0, -40.6235400615, -26.7880221624, -20.4588927707, -25.448940124]",Flex Agent 1,2.0,0.0989595991,0.035,2.0,0.057764343700000005,0.007200370100000001,22.4227122742,4.08639e-05,21.0,2.8707093822000003,0.2984745207,0.3707945425,,,,,,,,,,,,,,,,,,,,,,
3,SINGLE_CHANGE,"[0.0, -2.4359181, -12.9046762961, 0.0, -40.6235400615, -26.7880221624, -20.4588927707, -25.448940124]",Flex Agent 1,3.0,0.1463436336,0.0675,2.0,0.043524078800000005,0.0125945186,30.8730189587,7.52096e-05,19.5,3.6583333333,0.38644785060000003,0.4694899494,,,,,,,,,,,,,,,,,,,,,,
4,SINGLE_CHANGE,"[0.0, -2.4359181, -12.9046762961, 0.0, -40.6235400615, -26.7880221624, -20.4588927707, -25.448940124]",Flex Agent 1,4.0,0.1235600324,0.0475,2.0,0.0409064104,0.005834710700000001,31.6015037936,0.0001012788,22.0,2.9083333333,0.38985008600000004,0.44780415630000003,,,,,,,,,,,,,,,,,,,,,,
5,SINGLE_CHANGE,"[0.0, -2.4359181, -12.9046762961, 0.0, -40.6235400615, -26.7880221624, -20.4588927707, -25.448940124]",Flex Agent 0,0.0,0.006425486,0.0,4.25,0.0024507401,0.0042448064,90.3195480905,-0.027763307,3.5,2.4166666667,0.034436160800000004,0.1377446431,,,,,,,,,,,,,,,,,,,,,,
6,SINGLE_CHANGE,"[0.0, -2.4359181, -12.9046762961, 0.0, -40.6235400615, -26.7880221624, -20.4588927707, -25.448940124]",Flex Agent 0,1.0,0.006425486,0.0,5.5,0.0024507401,0.0042448064,113.2988505182,-0.0078763888,3.0,2.3333333333,0.0470916776,0.1883667105,,,,,,,,,,,,,,,,,,,,,,
7,SINGLE_CHANGE,"[0.0, -2.4359181, -12.9046762961, 0.0, -40.6235400615, -26.7880221624, -20.4588927707, -25.448940124]",Flex Agent 0,2.0,0.006425486,0.0,4.0,0.0024507401,0.0042448064,110.7311379122,-0.0079149139,3.0,2.3333333333,0.0314984963,0.1259939852,,,,,,,,,,,,,,,,,,,,,,
8,SINGLE_CHANGE,"[0.0, -2.4359181, -12.9046762961, 0.0, -40.6235400615, -26.7880221624, -20.4588927707, -25.448940124]",Flex Agent 0,3.0,0.006425486,0.0,2.5,0.0024507401,0.0042448064,119.5561159334,-0.010028233000000001,3.5,2.1666666667,0.0161378805,0.06455152210000001,,,,,,,,,,,,,,,,,,,,,,
9,SINGLE_CHANGE,"[0.0, -2.4359181, -12.9046762961, 0.0, -40.6235400615, -26.7880221624, -20.4588927707, -25.448940124]",Flex Agent 0,4.0,0.006425486,0.0,3.25,0.0024507401,0.0042448064,99.0656242376,-0.0062233196,3.0,2.3333333333,0.0236002992,0.0944011966,,,,,,,,,,,,,,,,,,,,,,
10,SINGLE_CHANGE,"[0.0, -2.4359181, -12.9046762961, 0.0, -40.6235400615, -26.7880221624, -20.4588927707, -25.448940124]",Flex Agent 2,0.0,0.19884249999999998,0.18,7.0,0.07276290540000001,0.0209579561,36.7571341128,-0.0044209354,3.5,1.6666666667,0.9830428144000001,1.0088599425,,,,,,,,,,,,,,,,,,,,,,
11,SINGLE_CHANGE,"[0.0, -2.4359181, -12.9046762961, 0.0, -40.6235400615, -26.7880221624, -20.4588927707, -25.448940124]",Flex Agent 2,1.0,0.19768286870000001,0.1625,6.5,0.0802508099,0.0169080983,27.6475816289,-0.0032412544,5.0,1.3,0.9379785885,1.3340826395,,,,,,,,,,,,,,,,,,,,,,
12,SINGLE_CHANGE,"[0.0, -2.4359181, -12.9046762961, 0.0, -40.6235400615, -26.7880221624, -20.4588927707, -25.448940124]",Flex Agent 2,2.0,0.201425462,0.17750000000000002,5.5,0.0730302296,0.010633182100000001,30.3155437873,-0.009206686300000001,6.5,1.0454545455,0.9598171552,1.0757743153,,,,,,,,,,,,,,,,,,,,,,
13,SINGLE_CHANGE,"[0.0, -2.4359181, -12.9046762961, 0.0, -40.6235400615, -26.7880221624, -20.4588927707, -25.448940124]",Flex Agent 2,3.0,0.2023595735,0.1675,5.5,0.0685354969,0.0164474314,32.0284631879,-0.0038245372000000003,7.5,1.0714285714,0.8630541472000001,1.0239555014,,,,,,,,,,,,,,,,,,,,,,
14,SINGLE_CHANGE,"[0.0, -2.4359181, -12.9046762961, 0.0, -40.6235400615, -26.7880221624, -20.4588927707, -25.448940124]",Flex Agent 2,4.0,0.2023591626,0.2,7.0,0.0795926377,0.025488741000000002,47.4833255262,-0.0070226648,4.5,0.5,1.0837246157,1.3126340347,,,,,,,,,,,,,,,,,,,,,,
15,SINGLE_CHANGE,"[0.0, -2.4359181, -12.9046762961, 0.0, -40.6235400615, -26.7880221624, -20.4588927707, -25.448940124]",Flex Agent 3,0.0,0.20277015780000002,0.17250000000000001,4.25,0.0735052318,0.009869198400000001,20.5439030164,-0.0017983397000000002,4.5,1.0,0.7055942150000001,0.7276968534,,,,,,,,,,,,,,,,,,,,,,
16,SINGLE_CHANGE,"[0.0, -2.4359181, -12.9046762961, 0.0, -40.6235400615, -26.7880221624, -20.4588927707, -25.448940124]",Flex Agent 3,1.0,0.1970960463,0.14750000000000002,5.0,0.055907648000000004,0.0168985572,22.7317782652,-0.0024662613,9.0,1.15,0.7796202542,0.8482498589,,,,,,,,,,,,,,,,,,,,,,
17,SINGLE_CHANGE,"[0.0, -2.4359181, -12.9046762961, 0.0, -40.6235400615, -26.7880221624, -20.4588927707, -25.448940124]",Flex Agent 3,2.0,0.2015159457,0.155,6.0,0.0744066802,0.0056166157,34.7323322604,-0.0038069114,1.5,1.0,0.7184225391,0.7914073195,,,,,,,,,,,,,,,,,,,,,,
18,SINGLE_CHANGE,"[0.0, -2.4359181, -12.9046762961, 0.0, -40.6235400615, -26.7880221624, -20.4588927707, -25.448940124]",Flex Agent 3,3.0,0.1936591637,0.145,5.25,0.0683585065,0.0160716983,32.666925648,-0.0052843292,2.5,1.0,0.70966158,0.7519765001000001,,,,,,,,,,,,,,,,,,,,,,
19,SINGLE_CHANGE,"[0.0, -2.4359181, -12.9046762961, 0.0, -40.6235400615, -26.7880221624, -20.4588927707, -25.448940124]",Flex Agent 3,4.0,0.1977090351,0.14,5.25,0.0610949176,0.0129465215,42.4893091456,-0.005638433,3.0,1.0,0.7171008738,0.8044995124000001,,,,,,,,,,,,,,,,,,,,,,
20,SINGLE_CHANGE,"[0.0, -2.4359181, -12.9046762961, 0.0, -40.6235400615, -26.7880221624, -20.4588927707, -25.448940124]",Flex Agent 6,0.0,0.0,0.0,1.0,0.0024507401,0.0042448064,16.0874342397,-0.0003236868,6.5,1.0714285714,0.0002818007,0.0011272029,,,,,,,,,,,,,,,,,,,,,,
21,SINGLE_CHANGE,"[0.0, -2.4359181, -12.9046762961, 0.0, -40.6235400615, -26.7880221624, -20.4588927707, -25.448940124]",Flex Agent 6,1.0,0.006425486,0.0,1.25,0.0024507401,0.0042448064,37.3354091007,0.0001120312,1.0,1.0,0.0030212856,0.0120851424,,,,,,,,,,,,,,,,,,,,,,
22,SINGLE_CHANGE,"[0.0, -2.4359181, -12.9046762961, 0.0, -40.6235400615, -26.7880221624, -20.4588927707, -25.448940124]",Flex Agent 6,2.0,0.006425486,0.0,1.25,0.0024507401,0.0042448064,20.0969164623,-8.709680000000001e-05,7.5,1.1339285714,0.0025337306000000003,0.0101349226,,,,,,,,,,,,,,,,,,,,,,
23,SINGLE_CHANGE,"[0.0, -2.4359181, -12.9046762961, 0.0, -40.6235400615, -26.7880221624, -20.4588927707, -25.448940124]",Flex Agent 6,3.0,0.0,0.0,1.0,0.0024507401,0.0042448064,39.6203900547,0.000351861,7.5,1.1339285714,0.0021927252,0.0087709007,,,,,,,,,,,,,,,,,,,,,,
24,SINGLE_CHANGE,"[0.0, -2.4359181, -12.9046762961, 0.0, -40.6235400615, -26.7880221624, -20.4588927707, -25.448940124]",Flex Agent 6,4.0,0.0,0.0,1.0,0.0024507401,0.0042448064,23.5302058665,-0.0001499354,2.0,1.0,0.0009921604,0.0039686417,,,,,,,,,,,,,,,,,,,,,,
25,SINGLE_CHANGE,"[0.0, -2.4359181, -12.9046762961, 0.0, -40.6235400615, -26.7880221624, -20.4588927707, -25.448940124]",Flex Agent 4,0.0,0.19892254080000002,0.16,5.75,0.0723521614,0.0151518603,33.3903478695,-0.0055685538,3.0,1.0,0.9046465271,1.0052244115,,,,,,,,,,,,,,,,,,,,,,
26,SINGLE_CHANGE,"[0.0, -2.4359181, -12.9046762961, 0.0, -40.6235400615, -26.7880221624, -20.4588927707, -25.448940124]",Flex Agent 4,1.0,0.2035847466,0.18,6.5,0.0669522462,0.0061290894,30.1849708377,-0.0057635641,3.5,1.125,0.8726891813000001,1.0146126307,,,,,,,,,,,,,,,,,,,,,,
27,SINGLE_CHANGE,"[0.0, -2.4359181, -12.9046762961, 0.0, -40.6235400615, -26.7880221624, -20.4588927707, -25.448940124]",Flex Agent 4,2.0,0.19425588500000002,0.1675,6.25,0.060793567800000003,0.007870674900000001,40.6316665929,-0.0031017191,2.5,1.0,0.8351605918,1.1099623172,,,,,,,,,,,,,,,,,,,,,,
28,SINGLE_CHANGE,"[0.0, -2.4359181, -12.9046762961, 0.0, -40.6235400615, -26.7880221624, -20.4588927707, -25.448940124]",Flex Agent 4,3.0,0.2041729163,0.1875,6.75,0.08257154180000001,0.023353803700000002,25.6791641057,-0.0028564195,5.0,1.0833333333,0.9991373976000001,1.1971560758,,,,,,,,,,,,,,,,,,,,,,
29,SINGLE_CHANGE,"[0.0, -2.4359181, -12.9046762961, 0.0, -40.6235400615, -26.7880221624, -20.4588927707, -25.448940124]",Flex Agent 4,4.0,0.2034686621,0.17750000000000002,5.75,0.07940037800000001,0.0099414253,39.9410164933,-0.0012776655,7.0,1.2111111111,0.8499172672,1.0276203693,,,,,,,,,,,,,,,,,,,,,,
30,SINGLE_CHANGE,"[0.0, -2.4359181, -12.9046762961, 0.0, -40.6235400615, -26.7880221624, -20.4588927707, -25.448940124]",Flex Agent 5,0.0,0.20273227700000002,0.1925,6.0,0.068986243,0.0056806114000000005,34.3897013164,-0.0023944349000000003,1.0,1.25,0.8358958482000001,0.9753473993,,,,,,,,,,,,,,,,,,,,,,
31,SINGLE_CHANGE,"[0.0, -2.4359181, -12.9046762961, 0.0, -40.6235400615, -26.7880221624, -20.4588927707, -25.448940124]",Flex Agent 5,1.0,0.203603043,0.21,7.5,0.0774326745,0.0045897532,30.927477305300002,-0.0081024164,2.0,1.0,1.0774256803,1.3009573604,,,,,,,,,,,,,,,,,,,,,,
32,SINGLE_CHANGE,"[0.0, -2.4359181, -12.9046762961, 0.0, -40.6235400615, -26.7880221624, -20.4588927707, -25.448940124]",Flex Agent 5,2.0,0.20172124930000002,0.21250000000000002,8.0,0.0740919475,0.015016132500000001,36.7646499093,-0.0047426058,6.5,1.1,0.9570748204,1.0574530612,,,,,,,,,,,,,,,,,,,,,,
33,SINGLE_CHANGE,"[0.0, -2.4359181, -12.9046762961, 0.0, -40.6235400615, -26.7880221624, -20.4588927707, -25.448940124]",Flex Agent 5,3.0,0.2013886809,0.1875,6.5,0.07739179680000001,0.011308930600000001,31.2756953303,-0.0035306707000000003,3.5,1.0,0.9458101031,1.1914590709,,,,,,,,,,,,,,,,,,,,,,
34,SINGLE_CHANGE,"[0.0, -2.4359181, -12.9046762961, 0.0, -40.6235400615, -26.7880221624, -20.4588927707, -25.448940124]",Flex Agent 5,4.0,0.2025006749,0.17,6.25,0.0700661138,0.0178656206,33.0764737356,-0.0040615855,3.5,1.1666666667,0.7046000050000001,0.7347395838,,,,,,,,,,,,,,,,,,,,,,
35,SINGLE_CHANGE,"[0.0, -2.4359181, -12.9046762961, 0.0, -40.6235400615, -26.7880221624, -20.4588927707, -25.448940124]",Flex Agent 8,0.0,0.006425486,0.0,4.25,0.0024507401,0.0042448064,88.9638433431,-0.0135558715,3.5,2.4166666667,0.034436160800000004,0.1377446431,,,,,,,,,,,,,,,,,,,,,,
36,SINGLE_CHANGE,"[0.0, -2.4359181, -12.9046762961, 0.0, -40.6235400615, -26.7880221624, -20.4588927707, -25.448940124]",Flex Agent 8,1.0,0.006425486,0.0,5.5,0.0024507401,0.0042448064,100.9556264211,-0.0036754720000000004,3.0,2.3333333333,0.0470916776,0.1883667105,,,,,,,,,,,,,,,,,,,,,,
37,SINGLE_CHANGE,"[0.0, -2.4359181, -12.9046762961, 0.0, -40.6235400615, -26.7880221624, -20.4588927707, -25.448940124]",Flex Agent 8,2.0,0.006425486,0.0,4.0,0.0024507401,0.0042448064,103.7914804705,-0.000757526,3.0,2.3333333333,0.0314984963,0.1259939852,,,,,,,,,,,,,,,,,,,,,,
38,SINGLE_CHANGE,"[0.0, -2.4359181, -12.9046762961, 0.0, -40.6235400615, -26.7880221624, -20.4588927707, -25.448940124]",Flex Agent 8,3.0,0.006425486,0.0,2.5,0.0024507401,0.0042448064,105.3163272243,-0.0001210781,3.5,2.1666666667,0.0161378805,0.06455152210000001,,,,,,,,,,,,,,,,,,,,,,
39,SINGLE_CHANGE,"[0.0, -2.4359181, -12.9046762961, 0.0, -40.6235400615, -26.7880221624, -20.4588927707, -25.448940124]",Flex Agent 8,4.0,0.006425486,0.0,3.25,0.0024507401,0.0042448064,117.3062266438,-0.0018274619000000001,3.0,2.3333333333,0.0236002992,0.0944011966,,,,,,,,,,,,,,,,,,,,,,
40,SINGLE_CHANGE,"[0.0, -2.4359181, -12.9046762961, 0.0, -40.6235400615, -26.7880221624, -20.4588927707, -25.448940124]",Flex Agent 9,0.0,0.006425486,0.0,4.25,0.0024507401,0.0042448064,109.9123212703,-0.007665293,3.5,2.4166666667,0.034436160800000004,0.1377446431,,,,,,,,,,,,,,,,,,,,,,
41,SINGLE_CHANGE,"[0.0, -2.4359181, -12.9046762961, 0.0, -40.6235400615, -26.7880221624, -20.4588927707, -25.448940124]",Flex Agent 9,1.0,0.006425486,0.0,5.5,0.0024507401,0.0042448064,114.1060811185,-0.0015463563000000001,3.0,2.3333333333,0.0470916776,0.1883667105,,,,,,,,,,,,,,,,,,,,,,
42,SINGLE_CHANGE,"[0.0, -2.4359181, -12.9046762961, 0.0, -40.6235400615, -26.7880221624, -20.4588927707, -25.448940124]",Flex Agent 9,2.0,0.006425486,0.0,4.0,0.0024507401,0.0042448064,118.1963939508,-0.0014221985000000001,3.0,2.3333333333,0.0314984963,0.1259939852,,,,,,,,,,,,,,,,,,,,,,
43,SINGLE_CHANGE,"[0.0, -2.4359181, -12.9046762961, 0.0, -40.6235400615, -26.7880221624, -20.4588927707, -25.448940124]",Flex Agent 9,3.0,0.006425486,0.0,2.5,0.0024507401,0.0042448064,119.7456153017,-0.0008858193,3.5,2.1666666667,0.0161378805,0.06455152210000001,,,,,,,,,,,,,,,,,,,,,,
44,SINGLE_CHANGE,"[0.0, -2.4359181, -12.9046762961, 0.0, -40.6235400615, -26.7880221624, -20.4588927707, -25.448940124]",Flex Agent 9,4.0,0.006425486,0.0,3.25,0.0024507401,0.0042448064,94.1465634621,-0.0012197597,3.0,2.3333333333,0.0236002992,0.0944011966,,,,,,,,,,,,,,,,,,,,,,
45,SINGLE_CHANGE,"[0.0, -2.4359181, -12.9046762961, 0.0, -40.6235400615, -26.7880221624, -20.4588927707, -25.448940124]",Flex Agent 7,0.0,0.19535552250000002,0.15,5.5,0.07141278720000001,0.0083759267,27.6327281801,-0.0037148157,3.0,1.0,0.7531056347,0.8115591662,,,,,,,,,,,,,,,,,,,,,,
46,SINGLE_CHANGE,"[0.0, -2.4359181, -12.9046762961, 0.0, -40.6235400615, -26.7880221624, -20.4588927707, -25.448940124]",Flex Agent 7,1.0,0.2031685037,0.20750000000000002,5.75,0.0702017424,0.011322121800000001,23.2570647264,-0.0013999937,8.0,1.1875,1.0061380515,1.087259258,,,,,,,,,,,,,,,,,,,,,,
47,SINGLE_CHANGE,"[0.0, -2.4359181, -12.9046762961, 0.0, -40.6235400615, -26.7880221624, -20.4588927707, -25.448940124]",Flex Agent 7,2.0,0.2039603478,0.21250000000000002,5.25,0.0583847661,0.014379023000000001,35.7746957975,-0.0026482637,6.0,1.1666666667,0.8663346629,0.9804614772,,,,,,,,,,,,,,,,,,,,,,
48,SINGLE_CHANGE,"[0.0, -2.4359181, -12.9046762961, 0.0, -40.6235400615, -26.7880221624, -20.4588927707, -25.448940124]",Flex Agent 7,3.0,0.20028038410000001,0.155,5.25,0.059822539300000005,0.0055438015,23.7311733559,-0.0040030195,3.5,1.65,0.7024035457000001,0.7337719616,,,,,,,,,,,,,,,,,,,,,,
49,SINGLE_CHANGE,"[0.0, -2.4359181, -12.9046762961, 0.0, -40.6235400615, -26.7880221624, -20.4588927707, -25.448940124]",Flex Agent 7,4.0,0.2031827753,0.185,6.0,0.0686926151,0.0042607513,34.0887530814,-0.0027871517,7.5,1.0416666667,0.9022723425,1.2086346043,,,,,,,,,,,,,,,,,,,,,,
50,,,Global,,,,,,,,,,,,,0.11534834765000002,0.09325728315291636,0.0933,0.0863908418237744,4.49,1.9298672895051723,0.041105102331999994,0.0330129135037372,0.008841911654,0.00576653114866128,53.959372417249995,36.00886991267574,-0.003897717604,0.004645475725373375,5.88,5.67626637852735,1.6617636585399997,0.7505621754512444,0.478752906702,0.4125169528905763,0.5818803520059999,0.45883549865624645
