,NeighborhoodDefinition,TargetSchedule,Agent,FLA_ID,INFORMATION_CONTENT,PARTIAL_INFORMATION_CONTENT,INFORMATION_STABILITY,FITNESS_VARIANCE_MEAN,FITNESS_VARIANCE_STD,FITNESS_MEAN,DISPERSION_INDEX,MEAN_NUMBER_OF_NEUTRAL_AREAS,MEAN_SIZE_OF_NEUTRAL_AREAS,MEAN_FITNESS_DISTANCE,MAX_FITNESS_DISTANCE,INFORMATION_CONTENT_MEAN,INFORMATION_CONTENT_STD,PARTIAL_INFORMATION_CONTENT_MEAN,PARTIAL_INFORMATION_CONTENT_STD,INFORMATION_STABILITY_MEAN,INFORMATION_STABILITY_STD,FITNESS_VARIANCE_MEAN_MEAN,FITNESS_VARIANCE_MEAN_STD,FITNESS_VARIANCE_STD_MEAN,FITNESS_VARIANCE_STD_STD,FITNESS_MEAN_MEAN,FITNESS_MEAN_STD,DISPERSION_INDEX_MEAN,DISPERSION_INDEX_STD,MEAN_NUMBER_OF_NEUTRAL_AREAS_MEAN,MEAN_NUMBER_OF_NEUTRAL_AREAS_STD,MEAN_SIZE_OF_NEUTRAL_AREAS_MEAN,MEAN_SIZE_OF_NEUTRAL_AREAS_STD,MEAN_FITNESS_DISTANCE_MEAN,MEAN_FITNESS_DISTANCE_STD,MAX_FITNESS_DISTANCE_MEAN,MAX_FITNESS_DISTANCE_STD
0,SINGLE_CHANGE,"[19.1860390625, 18.8896310063, 18.7377011506, 18.9056433053, 19.1787220173, 17.1912513328, 8.0362019542, 18.6085160027]",Flex Agent 1,0.0,0.18743206980000002,0.125,2.75,0.0852689856,0.0225068161,22.8880598261,-0.0171920597,3.0,1.0,0.651224064,0.8145134743,,,,,,,,,,,,,,,,,,,,,,
1,SINGLE_CHANGE,"[19.1860390625, 18.8896310063, 18.7377011506, 18.9056433053, 19.1787220173, 17.1912513328, 8.0362019542, 18.6085160027]",Flex Agent 1,1.0,0.1759761448,0.105,4.25,0.0766560634,0.0119264785,24.2352557623,-0.0301321456,8.0,1.15,0.560975054,0.6481821414000001,,,,,,,,,,,,,,,,,,,,,,
2,SINGLE_CHANGE,"[19.1860390625, 18.8896310063, 18.7377011506, 18.9056433053, 19.1787220173, 17.1912513328, 8.0362019542, 18.6085160027]",Flex Agent 1,2.0,0.188253062,0.11750000000000001,3.0,0.1057239533,0.0129900047,24.3004729546,-0.0283868076,4.0,1.0,0.7192287580000001,0.8483018904,,,,,,,,,,,,,,,,,,,,,,
3,SINGLE_CHANGE,"[19.1860390625, 18.8896310063, 18.7377011506, 18.9056433053, 19.1787220173, 17.1912513328, 8.0362019542, 18.6085160027]",Flex Agent 1,3.0,0.18835196170000001,0.12250000000000001,4.25,0.0894398982,0.0139794364,23.2065585193,-0.0418494441,2.0,0.5,0.625778095,0.7028420397,,,,,,,,,,,,,,,,,,,,,,
4,SINGLE_CHANGE,"[19.1860390625, 18.8896310063, 18.7377011506, 18.9056433053, 19.1787220173, 17.1912513328, 8.0362019542, 18.6085160027]",Flex Agent 1,4.0,0.1962205585,0.1525,4.5,0.0676538015,0.0113869848,24.1135463488,-0.0350429767,5.0,1.2083333333,0.6383029939,0.6878365864,,,,,,,,,,,,,,,,,,,,,,
5,SINGLE_CHANGE,"[19.1860390625, 18.8896310063, 18.7377011506, 18.9056433053, 19.1787220173, 17.1912513328, 8.0362019542, 18.6085160027]",Flex Agent 3,0.0,0.2027927854,0.17250000000000001,3.0,0.0338453585,0.0022093345,7.9166145937,-9.595320000000001e-05,25.0,2.22,0.5851368389,0.6613374669000001,,,,,,,,,,,,,,,,,,,,,,
6,SINGLE_CHANGE,"[19.1860390625, 18.8896310063, 18.7377011506, 18.9056433053, 19.1787220173, 17.1912513328, 8.0362019542, 18.6085160027]",Flex Agent 3,1.0,0.201778852,0.165,3.0,0.0375007429,0.0119810943,9.5159032684,0.0021930341,21.5,2.352173913,0.5310208524,0.5773558857000001,,,,,,,,,,,,,,,,,,,,,,
7,SINGLE_CHANGE,"[19.1860390625, 18.8896310063, 18.7377011506, 18.9056433053, 19.1787220173, 17.1912513328, 8.0362019542, 18.6085160027]",Flex Agent 3,2.0,0.20450380780000002,0.1875,3.0,0.0365514554,0.0041180924,9.236771741,-0.0004144096,15.5,4.4145833333,0.5926134179,0.6228218864,,,,,,,,,,,,,,,,,,,,,,
8,SINGLE_CHANGE,"[19.1860390625, 18.8896310063, 18.7377011506, 18.9056433053, 19.1787220173, 17.1912513328, 8.0362019542, 18.6085160027]",Flex Agent 3,3.0,0.1983601862,0.155,3.5,0.030444179300000002,0.0073982285,8.8226312877,0.0011073653,18.0,3.775974026,0.5475154538,0.5910435691,,,,,,,,,,,,,,,,,,,,,,
9,SINGLE_CHANGE,"[19.1860390625, 18.8896310063, 18.7377011506, 18.9056433053, 19.1787220173, 17.1912513328, 8.0362019542, 18.6085160027]",Flex Agent 3,4.0,0.20303175580000002,0.17250000000000001,3.75,0.0452275471,0.0054999137,8.7728270416,0.0018599742,18.5,3.7485119048,0.5873759644000001,0.6303278079,,,,,,,,,,,,,,,,,,,,,,
10,SINGLE_CHANGE,"[19.1860390625, 18.8896310063, 18.7377011506, 18.9056433053, 19.1787220173, 17.1912513328, 8.0362019542, 18.6085160027]",Flex Agent 2,0.0,0.0,0.0,1.0,0.0024507401,0.0042448064,12.743696140800001,-0.0013117088,6.0,1.6571428571,0.0002098376,0.0008393502000000001,,,,,,,,,,,,,,,,,,,,,,
11,SINGLE_CHANGE,"[19.1860390625, 18.8896310063, 18.7377011506, 18.9056433053, 19.1787220173, 17.1912513328, 8.0362019542, 18.6085160027]",Flex Agent 2,1.0,0.0,0.0,1.0,0.0024507401,0.0042448064,11.507500243700001,0.0009260165,8.0,1.625,0.0013867127,0.0055468507000000005,,,,,,,,,,,,,,,,,,,,,,
12,SINGLE_CHANGE,"[19.1860390625, 18.8896310063, 18.7377011506, 18.9056433053, 19.1787220173, 17.1912513328, 8.0362019542, 18.6085160027]",Flex Agent 2,2.0,0.0,0.0,1.0,0.0024507401,0.0042448064,10.1814879655,0.0003292238,7.0,1.0,0.0018968121000000001,0.007587248600000001,,,,,,,,,,,,,,,,,,,,,,
13,SINGLE_CHANGE,"[19.1860390625, 18.8896310063, 18.7377011506, 18.9056433053, 19.1787220173, 17.1912513328, 8.0362019542, 18.6085160027]",Flex Agent 2,3.0,0.0,0.0,1.0,0.0024507401,0.0042448064,11.032220731,0.0001593114,7.0,1.7142857142999999,0.0016178074,0.0064712296,,,,,,,,,,,,,,,,,,,,,,
14,SINGLE_CHANGE,"[19.1860390625, 18.8896310063, 18.7377011506, 18.9056433053, 19.1787220173, 17.1912513328, 8.0362019542, 18.6085160027]",Flex Agent 2,4.0,0.0,0.0,1.0,0.0024507401,0.0042448064,13.5194277639,0.00011137050000000001,1.0,1.0,0.0009921604,0.0039686416,,,,,,,,,,,,,,,,,,,,,,
15,SINGLE_CHANGE,"[19.1860390625, 18.8896310063, 18.7377011506, 18.9056433053, 19.1787220173, 17.1912513328, 8.0362019542, 18.6085160027]",Flex Agent 0,0.0,0.17561678890000001,0.0975,2.25,0.1008006874,0.014303941,22.1608845609,-0.014427652000000001,5.5,1.0833333333,0.5561811287,0.6309930368000001,,,,,,,,,,,,,,,,,,,,,,
16,SINGLE_CHANGE,"[19.1860390625, 18.8896310063, 18.7377011506, 18.9056433053, 19.1787220173, 17.1912513328, 8.0362019542, 18.6085160027]",Flex Agent 0,1.0,0.1818554974,0.115,3.5,0.0807704979,0.0172126613,21.1176486299,-0.015360894500000001,6.0,1.0,0.5445883329,0.6136098094,,,,,,,,,,,,,,,,,,,,,,
17,SINGLE_CHANGE,"[19.1860390625, 18.8896310063, 18.7377011506, 18.9056433053, 19.1787220173, 17.1912513328, 8.0362019542, 18.6085160027]",Flex Agent 0,2.0,0.19039161200000002,0.125,3.0,0.09708841130000001,0.0178536948,19.925445462,-0.0168517667,4.0,1.1,0.6327229595,0.725829994,,,,,,,,,,,,,,,,,,,,,,
18,SINGLE_CHANGE,"[19.1860390625, 18.8896310063, 18.7377011506, 18.9056433053, 19.1787220173, 17.1912513328, 8.0362019542, 18.6085160027]",Flex Agent 0,3.0,0.1746748424,0.1,3.0,0.0791184043,0.0149857921,23.2529902173,-0.023511128000000003,2.5,1.0,0.48334513,0.5311603106,,,,,,,,,,,,,,,,,,,,,,
19,SINGLE_CHANGE,"[19.1860390625, 18.8896310063, 18.7377011506, 18.9056433053, 19.1787220173, 17.1912513328, 8.0362019542, 18.6085160027]",Flex Agent 0,4.0,0.1685957787,0.085,3.0,0.0694008741,0.0012484381,20.7378417091,-0.0167955935,4.0,1.6,0.5030542852000001,0.5107999727,,,,,,,,,,,,,,,,,,,,,,
20,SINGLE_CHANGE,"[19.1860390625, 18.8896310063, 18.7377011506, 18.9056433053, 19.1787220173, 17.1912513328, 8.0362019542, 18.6085160027]",Flex Agent 5,0.0,0.1923465358,0.145,3.5,0.0830986093,0.008412962000000001,24.548492177299998,-0.0456429089,4.5,1.225,0.694363465,0.7814155474000001,,,,,,,,,,,,,,,,,,,,,,
21,SINGLE_CHANGE,"[19.1860390625, 18.8896310063, 18.7377011506, 18.9056433053, 19.1787220173, 17.1912513328, 8.0362019542, 18.6085160027]",Flex Agent 5,1.0,0.1940871533,0.1325,2.75,0.1055504941,0.016356666500000002,24.3275679043,-0.0196127304,4.5,1.0,0.6413754163000001,0.7268688247,,,,,,,,,,,,,,,,,,,,,,
22,SINGLE_CHANGE,"[19.1860390625, 18.8896310063, 18.7377011506, 18.9056433053, 19.1787220173, 17.1912513328, 8.0362019542, 18.6085160027]",Flex Agent 5,2.0,0.1938751485,0.13,3.0,0.07321850340000001,0.011278581900000001,24.7784485426,-0.0193474684,4.0,1.0,0.6394629934,0.7064505528,,,,,,,,,,,,,,,,,,,,,,
23,SINGLE_CHANGE,"[19.1860390625, 18.8896310063, 18.7377011506, 18.9056433053, 19.1787220173, 17.1912513328, 8.0362019542, 18.6085160027]",Flex Agent 5,3.0,0.1882591589,0.12250000000000001,5.25,0.0637154946,0.0144118163,23.486136029,-0.0587188827,7.0,1.0714285714,0.6409041689,0.7255346946,,,,,,,,,,,,,,,,,,,,,,
24,SINGLE_CHANGE,"[19.1860390625, 18.8896310063, 18.7377011506, 18.9056433053, 19.1787220173, 17.1912513328, 8.0362019542, 18.6085160027]",Flex Agent 5,4.0,0.1906960034,0.145,4.25,0.0873647411,0.0094087499,25.3143063097,-0.044091541000000005,7.0,1.1458333333,0.7826122675,0.9365779486,,,,,,,,,,,,,,,,,,,,,,
25,SINGLE_CHANGE,"[19.1860390625, 18.8896310063, 18.7377011506, 18.9056433053, 19.1787220173, 17.1912513328, 8.0362019542, 18.6085160027]",Flex Agent 4,0.0,0.1391767744,0.06,2.0,0.049336147600000005,0.009998409,9.2920033606,-0.0019966969,21.5,3.1011111111,0.3202238042,0.3712209687,,,,,,,,,,,,,,,,,,,,,,
26,SINGLE_CHANGE,"[19.1860390625, 18.8896310063, 18.7377011506, 18.9056433053, 19.1787220173, 17.1912513328, 8.0362019542, 18.6085160027]",Flex Agent 4,1.0,0.1495678701,0.0675,2.0,0.0445134921,0.0094489737,7.9874649839,-0.0009975737,22.5,2.8913043478000002,0.37181183500000003,0.4056469184,,,,,,,,,,,,,,,,,,,,,,
27,SINGLE_CHANGE,"[19.1860390625, 18.8896310063, 18.7377011506, 18.9056433053, 19.1787220173, 17.1912513328, 8.0362019542, 18.6085160027]",Flex Agent 4,2.0,0.13109288330000002,0.055,2.25,0.0413432896,0.0036694397000000003,8.2798625699,-0.00015895620000000001,20.0,3.1,0.3374760468,0.4211956993,,,,,,,,,,,,,,,,,,,,,,
28,SINGLE_CHANGE,"[19.1860390625, 18.8896310063, 18.7377011506, 18.9056433053, 19.1787220173, 17.1912513328, 8.0362019542, 18.6085160027]",Flex Agent 4,3.0,0.1177199968,0.045,2.0,0.0532855007,0.012451244200000001,8.0621378218,-0.0009059357,18.5,3.8110119048,0.3175153203,0.3588639981,,,,,,,,,,,,,,,,,,,,,,
29,SINGLE_CHANGE,"[19.1860390625, 18.8896310063, 18.7377011506, 18.9056433053, 19.1787220173, 17.1912513328, 8.0362019542, 18.6085160027]",Flex Agent 4,4.0,0.11620988,0.045,2.25,0.0433693639,0.004929873,9.2459595637,-0.0022947291,21.0,3.0476190476,0.3643647501,0.4122133256,,,,,,,,,,,,,,,,,,,,,,
30,SINGLE_CHANGE,"[19.1860390625, 18.8896310063, 18.7377011506, 18.9056433053, 19.1787220173, 17.1912513328, 8.0362019542, 18.6085160027]",Flex Agent 6,0.0,0.1408832826,0.065,3.0,0.0378381657,0.010593406500000001,6.927140653,-0.0019274018,19.5,3.0557065217,0.4380782997,0.4601146076,,,,,,,,,,,,,,,,,,,,,,
31,SINGLE_CHANGE,"[19.1860390625, 18.8896310063, 18.7377011506, 18.9056433053, 19.1787220173, 17.1912513328, 8.0362019542, 18.6085160027]",Flex Agent 6,1.0,0.1688620422,0.08750000000000001,2.5,0.0686772966,0.0128150911,3.274025492,-0.0007420991,20.5,2.994047619,0.4067849787,0.4658612781,,,,,,,,,,,,,,,,,,,,,,
32,SINGLE_CHANGE,"[19.1860390625, 18.8896310063, 18.7377011506, 18.9056433053, 19.1787220173, 17.1912513328, 8.0362019542, 18.6085160027]",Flex Agent 6,2.0,0.1584173956,0.08,2.25,0.0454152083,0.008682379,5.9457678693,-0.0014522638000000001,19.5,3.0873015873,0.41995396560000003,0.47190210120000003,,,,,,,,,,,,,,,,,,,,,,
33,SINGLE_CHANGE,"[19.1860390625, 18.8896310063, 18.7377011506, 18.9056433053, 19.1787220173, 17.1912513328, 8.0362019542, 18.6085160027]",Flex Agent 6,3.0,0.17532844,0.0975,2.25,0.0524666297,0.0056730018,4.842499839,-0.0012842035,19.0,3.3473389356,0.4526399209,0.4748197287,,,,,,,,,,,,,,,,,,,,,,
34,SINGLE_CHANGE,"[19.1860390625, 18.8896310063, 18.7377011506, 18.9056433053, 19.1787220173, 17.1912513328, 8.0362019542, 18.6085160027]",Flex Agent 6,4.0,0.1432836246,0.0675,2.25,0.0421635084,0.0049195419,9.4092089884,-0.0010658196,20.5,2.5630952381,0.4503339899,0.49103961300000004,,,,,,,,,,,,,,,,,,,,,,
35,SINGLE_CHANGE,"[19.1860390625, 18.8896310063, 18.7377011506, 18.9056433053, 19.1787220173, 17.1912513328, 8.0362019542, 18.6085160027]",Flex Agent 9,0.0,0.20422586610000001,0.1975,3.25,0.0367272554,0.0053293192,8.545212254399999,0.0012700541,17.0,4.0208333333,0.6009606254000001,0.6820331546,,,,,,,,,,,,,,,,,,,,,,
36,SINGLE_CHANGE,"[19.1860390625, 18.8896310063, 18.7377011506, 18.9056433053, 19.1787220173, 17.1912513328, 8.0362019542, 18.6085160027]",Flex Agent 9,1.0,0.20396170130000002,0.18,3.5,0.0422262463,0.0047154625,8.7267002666,-0.0034536555,19.0,3.2443181818,0.6112981620000001,0.6903086781000001,,,,,,,,,,,,,,,,,,,,,,
37,SINGLE_CHANGE,"[19.1860390625, 18.8896310063, 18.7377011506, 18.9056433053, 19.1787220173, 17.1912513328, 8.0362019542, 18.6085160027]",Flex Agent 9,2.0,0.1975144245,0.1625,3.5,0.0322123973,0.0069146773,8.4297388063,0.0005237155000000001,19.0,3.0666666667,0.5683940731,0.6835350158,,,,,,,,,,,,,,,,,,,,,,
38,SINGLE_CHANGE,"[19.1860390625, 18.8896310063, 18.7377011506, 18.9056433053, 19.1787220173, 17.1912513328, 8.0362019542, 18.6085160027]",Flex Agent 9,3.0,0.1953723828,0.1675,3.0,0.0431694003,0.0094825857,11.3694762077,0.0011923381,24.0,2.4720279720000002,0.6163866549,0.6835761303,,,,,,,,,,,,,,,,,,,,,,
39,SINGLE_CHANGE,"[19.1860390625, 18.8896310063, 18.7377011506, 18.9056433053, 19.1787220173, 17.1912513328, 8.0362019542, 18.6085160027]",Flex Agent 9,4.0,0.2037643087,0.19,3.25,0.0405891426,0.0045335288000000005,9.4591700208,-0.0002520537,21.5,2.8733333333,0.5806945076000001,0.6631762028,,,,,,,,,,,,,,,,,,,,,,
40,SINGLE_CHANGE,"[19.1860390625, 18.8896310063, 18.7377011506, 18.9056433053, 19.1787220173, 17.1912513328, 8.0362019542, 18.6085160027]",Flex Agent 7,0.0,0.006425486,0.0,4.25,0.0024507401,0.0042448064,61.000923409,-3.32124e-05,3.5,2.4166666667,0.034436160800000004,0.1377446431,,,,,,,,,,,,,,,,,,,,,,
41,SINGLE_CHANGE,"[19.1860390625, 18.8896310063, 18.7377011506, 18.9056433053, 19.1787220173, 17.1912513328, 8.0362019542, 18.6085160027]",Flex Agent 7,1.0,0.006425486,0.0,5.5,0.0024507401,0.0042448064,76.376725621,0.008338843700000001,3.0,2.3333333333,0.0470916776,0.1883667105,,,,,,,,,,,,,,,,,,,,,,
42,SINGLE_CHANGE,"[19.1860390625, 18.8896310063, 18.7377011506, 18.9056433053, 19.1787220173, 17.1912513328, 8.0362019542, 18.6085160027]",Flex Agent 7,2.0,0.006425486,0.0,4.0,0.0024507401,0.0042448064,84.7384315502,0.0068839328,3.0,2.3333333333,0.0314984963,0.1259939852,,,,,,,,,,,,,,,,,,,,,,
43,SINGLE_CHANGE,"[19.1860390625, 18.8896310063, 18.7377011506, 18.9056433053, 19.1787220173, 17.1912513328, 8.0362019542, 18.6085160027]",Flex Agent 7,3.0,0.006425486,0.0,2.5,0.0024507401,0.0042448064,89.7554864569,0.0125675212,3.5,2.1666666667,0.0161378805,0.06455152210000001,,,,,,,,,,,,,,,,,,,,,,
44,SINGLE_CHANGE,"[19.1860390625, 18.8896310063, 18.7377011506, 18.9056433053, 19.1787220173, 17.1912513328, 8.0362019542, 18.6085160027]",Flex Agent 7,4.0,0.006425486,0.0,3.25,0.0024507401,0.0042448064,69.7418806087,0.010526192200000001,3.0,2.3333333333,0.0236002992,0.0944011966,,,,,,,,,,,,,,,,,,,,,,
45,SINGLE_CHANGE,"[19.1860390625, 18.8896310063, 18.7377011506, 18.9056433053, 19.1787220173, 17.1912513328, 8.0362019542, 18.6085160027]",Flex Agent 8,0.0,0.1726791084,0.0925,2.5,0.0499139263,0.0035285527,7.3197801017,-6.49034e-05,22.0,3.1211180124,0.4547998949,0.5210603579,,,,,,,,,,,,,,,,,,,,,,
46,SINGLE_CHANGE,"[19.1860390625, 18.8896310063, 18.7377011506, 18.9056433053, 19.1787220173, 17.1912513328, 8.0362019542, 18.6085160027]",Flex Agent 8,1.0,0.1295863915,0.055,2.5,0.033531332000000004,0.0049727723,7.2985026188,-0.0002860423,19.0,3.7296918768,0.41881988210000004,0.46524097810000004,,,,,,,,,,,,,,,,,,,,,,
47,SINGLE_CHANGE,"[19.1860390625, 18.8896310063, 18.7377011506, 18.9056433053, 19.1787220173, 17.1912513328, 8.0362019542, 18.6085160027]",Flex Agent 8,2.0,0.1688620422,0.08750000000000001,2.0,0.0437477454,0.0030793120000000003,9.4071624859,-4.51049e-05,23.0,2.1306818182,0.43172646940000003,0.5000966087000001,,,,,,,,,,,,,,,,,,,,,,
48,SINGLE_CHANGE,"[19.1860390625, 18.8896310063, 18.7377011506, 18.9056433053, 19.1787220173, 17.1912513328, 8.0362019542, 18.6085160027]",Flex Agent 8,3.0,0.1518618168,0.075,2.5,0.039145729500000004,0.0065507971,4.8375095273,-0.0004382713,18.5,3.2651515152,0.483798202,0.5106980551,,,,,,,,,,,,,,,,,,,,,,
49,SINGLE_CHANGE,"[19.1860390625, 18.8896310063, 18.7377011506, 18.9056433053, 19.1787220173, 17.1912513328, 8.0362019542, 18.6085160027]",Flex Agent 8,4.0,0.1647870756,0.085,3.25,0.043092356400000004,0.0096151642,7.7317429913,-0.0002300058,18.0,3.9523809524,0.42431898020000003,0.5059471714,,,,,,,,,,,,,,,,,,,,,,
50,,,Global,,,,,,,,,,,,,0.14124768881600003,0.0733924936250168,0.09269999999999999,0.06122857809479332,2.9,1.0214535461482208,0.047114204756,0.0304075659583403,0.00827642567,0.00481695517945599,19.792944995973997,20.495653822936923,-0.007968522134,0.015678524731184675,12.36,8.063548618724303,2.2809934725640004,1.0612630715710256,0.427740596942,0.23205591102800424,0.4909565081900001,0.24992411019155528
