,NeighborhoodDefinition,TargetSchedule,Agent,FLA_ID,INFORMATION_CONTENT,PARTIAL_INFORMATION_CONTENT,INFORMATION_STABILITY,FITNESS_VARIANCE_MEAN,FITNESS_VARIANCE_STD,FITNESS_MEAN,DISPERSION_INDEX,MEAN_NUMBER_OF_NEUTRAL_AREAS,MEAN_SIZE_OF_NEUTRAL_AREAS,MEAN_FITNESS_DISTANCE,MAX_FITNESS_DISTANCE,INFORMATION_CONTENT_MEAN,INFORMATION_CONTENT_STD,PARTIAL_INFORMATION_CONTENT_MEAN,PARTIAL_INFORMATION_CONTENT_STD,INFORMATION_STABILITY_MEAN,INFORMATION_STABILITY_STD,FITNESS_VARIANCE_MEAN_MEAN,FITNESS_VARIANCE_MEAN_STD,FITNESS_VARIANCE_STD_MEAN,FITNESS_VARIANCE_STD_STD,FITNESS_MEAN_MEAN,FITNESS_MEAN_STD,DISPERSION_INDEX_MEAN,DISPERSION_INDEX_STD,MEAN_NUMBER_OF_NEUTRAL_AREAS_MEAN,MEAN_NUMBER_OF_NEUTRAL_AREAS_STD,MEAN_SIZE_OF_NEUTRAL_AREAS_MEAN,MEAN_SIZE_OF_NEUTRAL_AREAS_STD,MEAN_FITNESS_DISTANCE_MEAN,MEAN_FITNESS_DISTANCE_STD,MAX_FITNESS_DISTANCE_MEAN,MAX_FITNESS_DISTANCE_STD
0,SINGLE_CHANGE,"[-29.0734280827, -52.9146608813, -4.8489169512, 0.0419798619, -24.5164380441, 11.3598707607, 2.389424683, -25.6403566034]",Flex Agent 0,0.0,0.2006125347,0.14750000000000002,3.25,0.053593281900000005,0.0033479541000000002,50.090036783,5.12443e-05,21.5,3.4366515837,0.616253699,0.7102164853,,,,,,,,,,,,,,,,,,,,,,
1,SINGLE_CHANGE,"[-29.0734280827, -52.9146608813, -4.8489169512, 0.0419798619, -24.5164380441, 11.3598707607, 2.389424683, -25.6403566034]",Flex Agent 0,1.0,0.19312177530000002,0.145,3.75,0.041580409000000006,0.0078010906,51.4975962596,7.01142e-05,22.5,2.8448616601000003,0.5723115015,0.6182756323,,,,,,,,,,,,,,,,,,,,,,
2,SINGLE_CHANGE,"[-29.0734280827, -52.9146608813, -4.8489169512, 0.0419798619, -24.5164380441, 11.3598707607, 2.389424683, -25.6403566034]",Flex Agent 0,2.0,0.2033777274,0.17750000000000002,5.0,0.0329974199,0.0038129056000000003,42.6475949815,4.4839600000000003e-05,23.5,2.6346153846,0.6843231407,0.7520338112,,,,,,,,,,,,,,,,,,,,,,
3,SINGLE_CHANGE,"[-29.0734280827, -52.9146608813, -4.8489169512, 0.0419798619, -24.5164380441, 11.3598707607, 2.389424683, -25.6403566034]",Flex Agent 0,3.0,0.2009740975,0.1625,3.25,0.0469826064,0.0092990179,49.1424993566,0.0002963927,19.5,3.4852941176,0.6474407034,0.7403557468,,,,,,,,,,,,,,,,,,,,,,
4,SINGLE_CHANGE,"[-29.0734280827, -52.9146608813, -4.8489169512, 0.0419798619, -24.5164380441, 11.3598707607, 2.389424683, -25.6403566034]",Flex Agent 0,4.0,0.2037174126,0.18,3.5,0.0596577515,0.016596809100000002,38.7367909773,0.0006709895,24.0,2.5026086957,0.6762640636,0.7566379047,,,,,,,,,,,,,,,,,,,,,,
5,SINGLE_CHANGE,"[-29.0734280827, -52.9146608813, -4.8489169512, 0.0419798619, -24.5164380441, 11.3598707607, 2.389424683, -25.6403566034]",Flex Agent 4,0.0,0.20394108760000002,0.185,7.0,0.0719805261,0.0136510237,35.9206322003,-0.00015859240000000002,4.0,1.1,0.939444198,1.092499532,,,,,,,,,,,,,,,,,,,,,,
6,SINGLE_CHANGE,"[-29.0734280827, -52.9146608813, -4.8489169512, 0.0419798619, -24.5164380441, 11.3598707607, 2.389424683, -25.6403566034]",Flex Agent 4,1.0,0.20160982400000002,0.23,5.5,0.0711557307,0.0104918666,47.1810181849,-0.0030083718,3.0,1.3333333333000001,1.0311507269,1.2110450413,,,,,,,,,,,,,,,,,,,,,,
7,SINGLE_CHANGE,"[-29.0734280827, -52.9146608813, -4.8489169512, 0.0419798619, -24.5164380441, 11.3598707607, 2.389424683, -25.6403566034]",Flex Agent 4,2.0,0.2046275193,0.19,6.75,0.0721061467,0.024726631000000002,50.2584315115,-0.0013761802000000001,6.5,1.1666666667,0.8987594282,0.9844844935,,,,,,,,,,,,,,,,,,,,,,
8,SINGLE_CHANGE,"[-29.0734280827, -52.9146608813, -4.8489169512, 0.0419798619, -24.5164380441, 11.3598707607, 2.389424683, -25.6403566034]",Flex Agent 4,3.0,0.2031054096,0.225,6.25,0.0670088333,0.013452379700000001,36.5616635003,-0.0013287987,5.5,1.25,0.9520455902,1.0776972874,,,,,,,,,,,,,,,,,,,,,,
9,SINGLE_CHANGE,"[-29.0734280827, -52.9146608813, -4.8489169512, 0.0419798619, -24.5164380441, 11.3598707607, 2.389424683, -25.6403566034]",Flex Agent 4,4.0,0.2030440702,0.18,5.5,0.0750995621,0.0063560251,28.3879608403,-0.0023016179,4.0,1.25,0.9081236148,1.0147069215,,,,,,,,,,,,,,,,,,,,,,
10,SINGLE_CHANGE,"[-29.0734280827, -52.9146608813, -4.8489169512, 0.0419798619, -24.5164380441, 11.3598707607, 2.389424683, -25.6403566034]",Flex Agent 1,0.0,0.20231471,0.17500000000000002,5.75,0.0620255465,0.0070210003,49.4535551659,-0.0003475558,5.5,1.1428571429,0.8597567407000001,1.052809333,,,,,,,,,,,,,,,,,,,,,,
11,SINGLE_CHANGE,"[-29.0734280827, -52.9146608813, -4.8489169512, 0.0419798619, -24.5164380441, 11.3598707607, 2.389424683, -25.6403566034]",Flex Agent 1,1.0,0.20210349500000002,0.17,5.75,0.0664081653,0.0028150815000000003,44.5521859344,-0.0015538439000000002,4.0,1.2857142857000001,0.9222367926,1.2347221863,,,,,,,,,,,,,,,,,,,,,,
12,SINGLE_CHANGE,"[-29.0734280827, -52.9146608813, -4.8489169512, 0.0419798619, -24.5164380441, 11.3598707607, 2.389424683, -25.6403566034]",Flex Agent 1,2.0,0.1987702621,0.165,7.75,0.0874723563,0.009695818200000001,46.8369784339,-0.0029624517000000003,2.0,1.0,0.9380319092,1.1297331429,,,,,,,,,,,,,,,,,,,,,,
13,SINGLE_CHANGE,"[-29.0734280827, -52.9146608813, -4.8489169512, 0.0419798619, -24.5164380441, 11.3598707607, 2.389424683, -25.6403566034]",Flex Agent 1,3.0,0.2021755941,0.1675,6.0,0.0811638732,0.0209067718,53.1361294604,-0.0027282813,6.5,1.1875,0.8243566655000001,0.9238736885000001,,,,,,,,,,,,,,,,,,,,,,
14,SINGLE_CHANGE,"[-29.0734280827, -52.9146608813, -4.8489169512, 0.0419798619, -24.5164380441, 11.3598707607, 2.389424683, -25.6403566034]",Flex Agent 1,4.0,0.19255269700000002,0.145,6.0,0.052608925800000005,0.008535831,31.0807200478,0.0006174731,5.0,1.4583333333000001,0.7376625816,1.0318937182,,,,,,,,,,,,,,,,,,,,,,
15,SINGLE_CHANGE,"[-29.0734280827, -52.9146608813, -4.8489169512, 0.0419798619, -24.5164380441, 11.3598707607, 2.389424683, -25.6403566034]",Flex Agent 2,0.0,0.0,0.0,1.0,0.0024507401,0.0042448064,52.013949405,-0.0004516867,5.5,1.8166666667,0.0002021139,0.0008084557,,,,,,,,,,,,,,,,,,,,,,
16,SINGLE_CHANGE,"[-29.0734280827, -52.9146608813, -4.8489169512, 0.0419798619, -24.5164380441, 11.3598707607, 2.389424683, -25.6403566034]",Flex Agent 2,1.0,0.006425486,0.0,1.25,0.0024507401,0.0042448064,41.0783046258,-1.10123e-05,6.0,1.5,0.0045536072,0.018214429,,,,,,,,,,,,,,,,,,,,,,
17,SINGLE_CHANGE,"[-29.0734280827, -52.9146608813, -4.8489169512, 0.0419798619, -24.5164380441, 11.3598707607, 2.389424683, -25.6403566034]",Flex Agent 2,2.0,0.006425486,0.0,1.25,0.0024507401,0.0042448064,32.0998730709,-1.10062e-05,1.0,1.0,0.0028067255,0.011226902,,,,,,,,,,,,,,,,,,,,,,
18,SINGLE_CHANGE,"[-29.0734280827, -52.9146608813, -4.8489169512, 0.0419798619, -24.5164380441, 11.3598707607, 2.389424683, -25.6403566034]",Flex Agent 2,3.0,0.006425486,0.0,1.25,0.0024507401,0.0042448064,47.7229748141,-1.4240000000000001e-05,6.0,1.0,0.0029094831,0.0116379324,,,,,,,,,,,,,,,,,,,,,,
19,SINGLE_CHANGE,"[-29.0734280827, -52.9146608813, -4.8489169512, 0.0419798619, -24.5164380441, 11.3598707607, 2.389424683, -25.6403566034]",Flex Agent 2,4.0,0.006425486,0.0,1.25,0.0024507401,0.0042448064,40.4265393989,-9.58e-07,6.0,1.8333333333000001,0.0027938805,0.011175522,,,,,,,,,,,,,,,,,,,,,,
20,SINGLE_CHANGE,"[-29.0734280827, -52.9146608813, -4.8489169512, 0.0419798619, -24.5164380441, 11.3598707607, 2.389424683, -25.6403566034]",Flex Agent 3,0.0,0.1336324573,0.055,2.0,0.0432196761,0.009711402000000001,41.0321477526,-1.82127e-05,23.5,2.5476190476,0.3748577822,0.40933788320000003,,,,,,,,,,,,,,,,,,,,,,
21,SINGLE_CHANGE,"[-29.0734280827, -52.9146608813, -4.8489169512, 0.0419798619, -24.5164380441, 11.3598707607, 2.389424683, -25.6403566034]",Flex Agent 3,1.0,0.12354313930000001,0.0475,2.0,0.0405735263,0.0067751698,66.8668369898,-0.0001015636,22.0,2.8871635611,0.3829261195,0.4428836993,,,,,,,,,,,,,,,,,,,,,,
22,SINGLE_CHANGE,"[-29.0734280827, -52.9146608813, -4.8489169512, 0.0419798619, -24.5164380441, 11.3598707607, 2.389424683, -25.6403566034]",Flex Agent 3,2.0,0.1183441529,0.045,2.0,0.050337419,0.009490603200000001,29.7453255437,-1.5209600000000001e-05,24.0,2.5495652174,0.3763876738,0.39801614830000004,,,,,,,,,,,,,,,,,,,,,,
23,SINGLE_CHANGE,"[-29.0734280827, -52.9146608813, -4.8489169512, 0.0419798619, -24.5164380441, 11.3598707607, 2.389424683, -25.6403566034]",Flex Agent 3,3.0,0.1457385812,0.065,2.5,0.0307486465,0.0069150623,43.9203859392,-1.1717600000000001e-05,22.0,2.8208333333,0.31142582690000004,0.3382356063,,,,,,,,,,,,,,,,,,,,,,
24,SINGLE_CHANGE,"[-29.0734280827, -52.9146608813, -4.8489169512, 0.0419798619, -24.5164380441, 11.3598707607, 2.389424683, -25.6403566034]",Flex Agent 3,4.0,0.123308025,0.0475,2.0,0.0434633647,0.0066069939,51.8429137909,-2.24893e-05,21.5,3.1173245614,0.3227900535,0.4096564299,,,,,,,,,,,,,,,,,,,,,,
25,SINGLE_CHANGE,"[-29.0734280827, -52.9146608813, -4.8489169512, 0.0419798619, -24.5164380441, 11.3598707607, 2.389424683, -25.6403566034]",Flex Agent 5,0.0,0.1535782448,0.07250000000000001,2.5,0.0384558771,0.006475906500000001,52.7383058356,-9.66081e-05,20.5,2.8768115942,0.4390990359,0.4615502609,,,,,,,,,,,,,,,,,,,,,,
26,SINGLE_CHANGE,"[-29.0734280827, -52.9146608813, -4.8489169512, 0.0419798619, -24.5164380441, 11.3598707607, 2.389424683, -25.6403566034]",Flex Agent 5,1.0,0.1549577179,0.075,2.75,0.044313636600000005,0.007406259,62.9023498778,0.00010871890000000001,20.5,2.9653110048,0.4646394421,0.508012953,,,,,,,,,,,,,,,,,,,,,,
27,SINGLE_CHANGE,"[-29.0734280827, -52.9146608813, -4.8489169512, 0.0419798619, -24.5164380441, 11.3598707607, 2.389424683, -25.6403566034]",Flex Agent 5,2.0,0.1630963453,0.085,2.75,0.0367558305,0.0074805424,26.3572396386,0.00011303470000000001,19.0,3.149859944,0.421436591,0.4488019522,,,,,,,,,,,,,,,,,,,,,,
28,SINGLE_CHANGE,"[-29.0734280827, -52.9146608813, -4.8489169512, 0.0419798619, -24.5164380441, 11.3598707607, 2.389424683, -25.6403566034]",Flex Agent 5,3.0,0.1469448028,0.065,2.5,0.038387954700000004,0.008871887,39.4390802591,0.0002231803,20.0,3.2230576441,0.441804654,0.4665070522,,,,,,,,,,,,,,,,,,,,,,
29,SINGLE_CHANGE,"[-29.0734280827, -52.9146608813, -4.8489169512, 0.0419798619, -24.5164380441, 11.3598707607, 2.389424683, -25.6403566034]",Flex Agent 5,4.0,0.1518390274,0.07250000000000001,2.75,0.0432393308,0.013868988300000001,51.5051924877,0.0001091644,18.0,3.5681114551,0.38772591370000004,0.441533443,,,,,,,,,,,,,,,,,,,,,,
30,SINGLE_CHANGE,"[-29.0734280827, -52.9146608813, -4.8489169512, 0.0419798619, -24.5164380441, 11.3598707607, 2.389424683, -25.6403566034]",Flex Agent 9,0.0,0.2042912241,0.21,6.75,0.0534190471,0.0121351383,58.2407651609,-0.0028403252,3.5,1.35,0.9878088057000001,1.1915120864,,,,,,,,,,,,,,,,,,,,,,
31,SINGLE_CHANGE,"[-29.0734280827, -52.9146608813, -4.8489169512, 0.0419798619, -24.5164380441, 11.3598707607, 2.389424683, -25.6403566034]",Flex Agent 9,1.0,0.2025688908,0.18,6.5,0.0796484501,0.011435218700000001,49.9360694825,-0.0031443625,4.5,1.0,0.9984638783,1.2162427975,,,,,,,,,,,,,,,,,,,,,,
32,SINGLE_CHANGE,"[-29.0734280827, -52.9146608813, -4.8489169512, 0.0419798619, -24.5164380441, 11.3598707607, 2.389424683, -25.6403566034]",Flex Agent 9,2.0,0.20469846960000002,0.20500000000000002,6.0,0.0707632187,0.0182488758,41.6928964184,0.0026627999000000003,2.0,1.0,0.8241582857,0.9892593963,,,,,,,,,,,,,,,,,,,,,,
33,SINGLE_CHANGE,"[-29.0734280827, -52.9146608813, -4.8489169512, 0.0419798619, -24.5164380441, 11.3598707607, 2.389424683, -25.6403566034]",Flex Agent 9,3.0,0.19800958170000002,0.155,6.25,0.0713544509,0.014849845200000001,44.2816560376,-0.005204698000000001,3.0,1.0,0.8807323939,1.0169918578,,,,,,,,,,,,,,,,,,,,,,
34,SINGLE_CHANGE,"[-29.0734280827, -52.9146608813, -4.8489169512, 0.0419798619, -24.5164380441, 11.3598707607, 2.389424683, -25.6403566034]",Flex Agent 9,4.0,0.1957399151,0.14750000000000002,5.75,0.06459983970000001,0.0061488706,40.3941091373,-0.0010354827000000001,4.5,1.0,0.7125065868,0.8422241635000001,,,,,,,,,,,,,,,,,,,,,,
35,SINGLE_CHANGE,"[-29.0734280827, -52.9146608813, -4.8489169512, 0.0419798619, -24.5164380441, 11.3598707607, 2.389424683, -25.6403566034]",Flex Agent 6,0.0,0.120688287,0.0475,2.0,0.045213925,0.0073754757,49.4775321835,0.0002031325,21.0,2.9405034325,0.3313850052,0.38339764400000004,,,,,,,,,,,,,,,,,,,,,,
36,SINGLE_CHANGE,"[-29.0734280827, -52.9146608813, -4.8489169512, 0.0419798619, -24.5164380441, 11.3598707607, 2.389424683, -25.6403566034]",Flex Agent 6,1.0,0.1231682639,0.045,2.25,0.0410207849,0.0064578746,44.2288301003,0.00029206400000000003,18.0,3.75,0.3342590453,0.36586296020000003,,,,,,,,,,,,,,,,,,,,,,
37,SINGLE_CHANGE,"[-29.0734280827, -52.9146608813, -4.8489169512, 0.0419798619, -24.5164380441, 11.3598707607, 2.389424683, -25.6403566034]",Flex Agent 6,2.0,0.13319703330000002,0.055,2.0,0.0713449444,0.0058559738,42.4307063618,0.0001450326,18.5,3.5453216374,0.3029816147,0.3752213828,,,,,,,,,,,,,,,,,,,,,,
38,SINGLE_CHANGE,"[-29.0734280827, -52.9146608813, -4.8489169512, 0.0419798619, -24.5164380441, 11.3598707607, 2.389424683, -25.6403566034]",Flex Agent 6,3.0,0.1155511267,0.045,2.0,0.0494322304,0.0079404307,55.6802372596,0.0001017166,19.0,3.0994318182,0.35314039280000004,0.3765241143,,,,,,,,,,,,,,,,,,,,,,
39,SINGLE_CHANGE,"[-29.0734280827, -52.9146608813, -4.8489169512, 0.0419798619, -24.5164380441, 11.3598707607, 2.389424683, -25.6403566034]",Flex Agent 6,4.0,0.1160004966,0.0425,2.0,0.043399224800000004,0.0072022747000000005,49.5637288113,0.0002058238,21.0,2.9181818182,0.3770711516,0.42733255280000004,,,,,,,,,,,,,,,,,,,,,,
40,SINGLE_CHANGE,"[-29.0734280827, -52.9146608813, -4.8489169512, 0.0419798619, -24.5164380441, 11.3598707607, 2.389424683, -25.6403566034]",Flex Agent 8,0.0,0.1925187833,0.1375,5.25,0.0610441683,0.0057615408,36.2720843886,-0.0017061908,7.0,1.4166666667,0.6981651461,0.8279399674,,,,,,,,,,,,,,,,,,,,,,
41,SINGLE_CHANGE,"[-29.0734280827, -52.9146608813, -4.8489169512, 0.0419798619, -24.5164380441, 11.3598707607, 2.389424683, -25.6403566034]",Flex Agent 8,1.0,0.1895520336,0.145,5.5,0.0693539869,0.0116143591,38.06328153,-0.0007055536,5.0,1.5,0.7277247932,0.9721090867000001,,,,,,,,,,,,,,,,,,,,,,
42,SINGLE_CHANGE,"[-29.0734280827, -52.9146608813, -4.8489169512, 0.0419798619, -24.5164380441, 11.3598707607, 2.389424683, -25.6403566034]",Flex Agent 8,2.0,0.1987366771,0.195,5.75,0.10032695230000001,0.0235320963,46.8198405161,-0.0001057173,4.0,1.3,0.8596057268,1.1715224954,,,,,,,,,,,,,,,,,,,,,,
43,SINGLE_CHANGE,"[-29.0734280827, -52.9146608813, -4.8489169512, 0.0419798619, -24.5164380441, 11.3598707607, 2.389424683, -25.6403566034]",Flex Agent 8,3.0,0.1906778607,0.16,5.75,0.0699399661,0.0135890297,46.2761692708,0.0003859471,8.5,1.2361111111,0.7826138041,1.0824510894,,,,,,,,,,,,,,,,,,,,,,
44,SINGLE_CHANGE,"[-29.0734280827, -52.9146608813, -4.8489169512, 0.0419798619, -24.5164380441, 11.3598707607, 2.389424683, -25.6403566034]",Flex Agent 8,4.0,0.19511853580000002,0.1525,5.75,0.06512643330000001,0.0154817865,32.7163768698,-0.0004289572,5.0,1.4761904762,0.7854671752,0.8794723253000001,,,,,,,,,,,,,,,,,,,,,,
45,SINGLE_CHANGE,"[-29.0734280827, -52.9146608813, -4.8489169512, 0.0419798619, -24.5164380441, 11.3598707607, 2.389424683, -25.6403566034]",Flex Agent 7,0.0,0.1254894873,0.05,2.25,0.046665624600000004,0.0087946391,52.9419832335,0.0001224772,22.5,2.8601190476,0.32712068240000003,0.3562072839,,,,,,,,,,,,,,,,,,,,,,
46,SINGLE_CHANGE,"[-29.0734280827, -52.9146608813, -4.8489169512, 0.0419798619, -24.5164380441, 11.3598707607, 2.389424683, -25.6403566034]",Flex Agent 7,1.0,0.1375151518,0.0575,2.25,0.0397985566,0.0075312271,62.0004393898,3.43475e-05,22.0,2.9968421053,0.3558139551,0.38777353330000003,,,,,,,,,,,,,,,,,,,,,,
47,SINGLE_CHANGE,"[-29.0734280827, -52.9146608813, -4.8489169512, 0.0419798619, -24.5164380441, 11.3598707607, 2.389424683, -25.6403566034]",Flex Agent 7,2.0,0.0826722631,0.025,2.0,0.0471538948,0.0104056701,40.3913310792,0.00014010700000000002,20.5,2.8911483254,0.3542368119,0.4181150044,,,,,,,,,,,,,,,,,,,,,,
48,SINGLE_CHANGE,"[-29.0734280827, -52.9146608813, -4.8489169512, 0.0419798619, -24.5164380441, 11.3598707607, 2.389424683, -25.6403566034]",Flex Agent 7,3.0,0.13233651570000002,0.055,2.0,0.0351244152,0.0073891213,43.8851404763,5.00076e-05,21.0,2.9886363636,0.3186639276,0.3646316214,,,,,,,,,,,,,,,,,,,,,,
49,SINGLE_CHANGE,"[-29.0734280827, -52.9146608813, -4.8489169512, 0.0419798619, -24.5164380441, 11.3598707607, 2.389424683, -25.6403566034]",Flex Agent 7,4.0,0.1067371065,0.0425,2.0,0.0384380132,0.007023192100000001,57.3923655534,-2.7860800000000003e-05,25.0,2.288961039,0.3528217671,0.3833177055,,,,,,,,,,,,,,,,,,,,,,
50,,,Global,,,,,,,,,,,,,0.15244000715999997,0.06079457423248314,0.10855000000000001,0.07011850391898515,3.815,2.0094229550407996,0.050535164496,0.02245093809850566,0.009442193856000002,0.004997901448753068,45.357215126562,8.929282208382828,-0.0005014187680000001,0.0012987854812279863,12.96,8.537934558815278,2.1298441481559998,0.9258736959488729,0.556185224164,0.30003106430502435,0.654733853252,0.37045337536792994
