,NeighborhoodDefinition,TargetSchedule,Agent,FLA_ID,INFORMATION_CONTENT,PARTIAL_INFORMATION_CONTENT,INFORMATION_STABILITY,FITNESS_VARIANCE_MEAN,FITNESS_VARIANCE_STD,FITNESS_MEAN,DISPERSION_INDEX,MEAN_NUMBER_OF_NEUTRAL_AREAS,MEAN_SIZE_OF_NEUTRAL_AREAS,MEAN_FITNESS_DISTANCE,MAX_FITNESS_DISTANCE,INFORMATION_CONTENT_MEAN,INFORMATION_CONTENT_STD,PARTIAL_INFORMATION_CONTENT_MEAN,PARTIAL_INFORMATION_CONTENT_STD,INFORMATION_STABILITY_MEAN,INFORMATION_STABILITY_STD,FITNESS_VARIANCE_MEAN_MEAN,FITNESS_VARIANCE_MEAN_STD,FITNESS_VARIANCE_STD_MEAN,FITNESS_VARIANCE_STD_STD,FITNESS_MEAN_MEAN,FITNESS_MEAN_STD,DISPERSION_INDEX_MEAN,DISPERSION_INDEX_STD,MEAN_NUMBER_OF_NEUTRAL_AREAS_MEAN,MEAN_NUMBER_OF_NEUTRAL_AREAS_STD,MEAN_SIZE_OF_NEUTRAL_AREAS_MEAN,MEAN_SIZE_OF_NEUTRAL_AREAS_STD,MEAN_FITNESS_DISTANCE_MEAN,MEAN_FITNESS_DISTANCE_STD,MAX_FITNESS_DISTANCE_MEAN,MAX_FITNESS_DISTANCE_STD
0,SINGLE_CHANGE,"[12.3699687963, 28.0223766007, 28.3607078079, 27.7978707473, 27.849095908, 9.3815433252, 8.0021183929, 28.5639315834]",Flex Agent 0,0.0,0.1206403003,0.045,2.0,0.052598633400000004,0.0045289399,9.6657024573,-3.75421e-05,21.5,2.75,0.3855293473,0.4351646997,,,,,,,,,,,,,,,,,,,,,,
1,SINGLE_CHANGE,"[12.3699687963, 28.0223766007, 28.3607078079, 27.7978707473, 27.849095908, 9.3815433252, 8.0021183929, 28.5639315834]",Flex Agent 0,1.0,0.1354647405,0.0575,2.5,0.042377777000000005,0.0035085256,11.3753585973,-2.90173e-05,21.0,2.9405034325,0.3448880453,0.4124420434,,,,,,,,,,,,,,,,,,,,,,
2,SINGLE_CHANGE,"[12.3699687963, 28.0223766007, 28.3607078079, 27.7978707473, 27.849095908, 9.3815433252, 8.0021183929, 28.5639315834]",Flex Agent 0,2.0,0.1218945087,0.05,2.25,0.045966594,0.0109740244,17.996589723,3.6520800000000004e-05,22.0,3.4095860566000002,0.35520042500000004,0.3874025364,,,,,,,,,,,,,,,,,,,,,,
3,SINGLE_CHANGE,"[12.3699687963, 28.0223766007, 28.3607078079, 27.7978707473, 27.849095908, 9.3815433252, 8.0021183929, 28.5639315834]",Flex Agent 0,3.0,0.1240287815,0.05,2.25,0.0445771425,0.0049099921,21.2269324335,2.38752e-05,23.5,2.5833333333,0.37926587500000003,0.40295318500000005,,,,,,,,,,,,,,,,,,,,,,
4,SINGLE_CHANGE,"[12.3699687963, 28.0223766007, 28.3607078079, 27.7978707473, 27.849095908, 9.3815433252, 8.0021183929, 28.5639315834]",Flex Agent 0,4.0,0.1312722919,0.0575,2.25,0.0458229577,0.0079113466,19.072523117,-8.10816e-05,21.0,2.6597222222,0.3661952973,0.3754069725,,,,,,,,,,,,,,,,,,,,,,
5,SINGLE_CHANGE,"[12.3699687963, 28.0223766007, 28.3607078079, 27.7978707473, 27.849095908, 9.3815433252, 8.0021183929, 28.5639315834]",Flex Agent 1,0.0,0.1742703546,0.0975,2.5,0.0385069537,0.010821434000000001,11.5474295402,0.000189118,18.5,3.3581871345,0.39946037,0.4674616368,,,,,,,,,,,,,,,,,,,,,,
6,SINGLE_CHANGE,"[12.3699687963, 28.0223766007, 28.3607078079, 27.7978707473, 27.849095908, 9.3815433252, 8.0021183929, 28.5639315834]",Flex Agent 1,1.0,0.1434511119,0.0675,2.75,0.0376965499,0.006419768,14.8624669814,0.0005009745,22.5,2.7529761905,0.43541948540000003,0.549679279,,,,,,,,,,,,,,,,,,,,,,
7,SINGLE_CHANGE,"[12.3699687963, 28.0223766007, 28.3607078079, 27.7978707473, 27.849095908, 9.3815433252, 8.0021183929, 28.5639315834]",Flex Agent 1,2.0,0.1636854203,0.08750000000000001,2.5,0.0449037482,0.0073706781,13.3600302285,-0.00020968090000000002,18.0,3.1705685619,0.4295981391,0.5180476636,,,,,,,,,,,,,,,,,,,,,,
8,SINGLE_CHANGE,"[12.3699687963, 28.0223766007, 28.3607078079, 27.7978707473, 27.849095908, 9.3815433252, 8.0021183929, 28.5639315834]",Flex Agent 1,3.0,0.1415337236,0.0625,2.5,0.0373589374,0.006991009,14.9449975092,-0.0006218825,24.0,2.027972028,0.41465005,0.4210314409,,,,,,,,,,,,,,,,,,,,,,
9,SINGLE_CHANGE,"[12.3699687963, 28.0223766007, 28.3607078079, 27.7978707473, 27.849095908, 9.3815433252, 8.0021183929, 28.5639315834]",Flex Agent 1,4.0,0.1637304852,0.0825,2.75,0.0511863439,0.0026377635,10.5019036244,-0.0003654773,19.5,2.6,0.4022423422,0.4821148973,,,,,,,,,,,,,,,,,,,,,,
10,SINGLE_CHANGE,"[12.3699687963, 28.0223766007, 28.3607078079, 27.7978707473, 27.849095908, 9.3815433252, 8.0021183929, 28.5639315834]",Flex Agent 4,0.0,0.0,0.0,1.0,0.0024507401,0.0042448064,14.964003655,-0.0003543897,6.0,2.4166666667,0.0010907426,0.0043629706,,,,,,,,,,,,,,,,,,,,,,
11,SINGLE_CHANGE,"[12.3699687963, 28.0223766007, 28.3607078079, 27.7978707473, 27.849095908, 9.3815433252, 8.0021183929, 28.5639315834]",Flex Agent 4,1.0,0.0,0.0,1.0,0.0024507401,0.0042448064,11.8536866981,0.0005503177000000001,6.0,2.6666666667000003,0.0008671706,0.0034686822,,,,,,,,,,,,,,,,,,,,,,
12,SINGLE_CHANGE,"[12.3699687963, 28.0223766007, 28.3607078079, 27.7978707473, 27.849095908, 9.3815433252, 8.0021183929, 28.5639315834]",Flex Agent 4,2.0,0.0,0.0,1.0,0.0024507401,0.0042448064,15.8322262585,-0.0001656375,6.0,1.6666666667,0.0006672848,0.0026691393,,,,,,,,,,,,,,,,,,,,,,
13,SINGLE_CHANGE,"[12.3699687963, 28.0223766007, 28.3607078079, 27.7978707473, 27.849095908, 9.3815433252, 8.0021183929, 28.5639315834]",Flex Agent 4,3.0,0.0,0.0,1.0,0.0024507401,0.0042448064,16.6552302411,-3.78626e-05,6.0,2.8333333333,0.0003833832,0.0015335327,,,,,,,,,,,,,,,,,,,,,,
14,SINGLE_CHANGE,"[12.3699687963, 28.0223766007, 28.3607078079, 27.7978707473, 27.849095908, 9.3815433252, 8.0021183929, 28.5639315834]",Flex Agent 4,4.0,0.0,0.0,1.0,0.0024507401,0.0042448064,14.6131899757,-1.87706e-05,6.5,2.7023809524,0.0014494953,0.0057979813,,,,,,,,,,,,,,,,,,,,,,
15,SINGLE_CHANGE,"[12.3699687963, 28.0223766007, 28.3607078079, 27.7978707473, 27.849095908, 9.3815433252, 8.0021183929, 28.5639315834]",Flex Agent 2,0.0,0.0,0.0,1.0,0.0024507401,0.0042448064,21.2709434106,-0.0013539871,7.0,1.3125,0.0006916472000000001,0.0027665889000000003,,,,,,,,,,,,,,,,,,,,,,
16,SINGLE_CHANGE,"[12.3699687963, 28.0223766007, 28.3607078079, 27.7978707473, 27.849095908, 9.3815433252, 8.0021183929, 28.5639315834]",Flex Agent 2,1.0,0.0,0.0,1.0,0.0024507401,0.0042448064,16.0909381506,0.0071693579,6.5,3.0119047619,0.0002932384,0.0011729534,,,,,,,,,,,,,,,,,,,,,,
17,SINGLE_CHANGE,"[12.3699687963, 28.0223766007, 28.3607078079, 27.7978707473, 27.849095908, 9.3815433252, 8.0021183929, 28.5639315834]",Flex Agent 2,2.0,0.0,0.0,1.0,0.0024507401,0.0042448064,16.7432549055,-0.0002698722,7.0,2.0,0.0019644487,0.0078577947,,,,,,,,,,,,,,,,,,,,,,
18,SINGLE_CHANGE,"[12.3699687963, 28.0223766007, 28.3607078079, 27.7978707473, 27.849095908, 9.3815433252, 8.0021183929, 28.5639315834]",Flex Agent 2,3.0,0.0,0.0,1.0,0.0024507401,0.0042448064,19.1195758851,0.0032284912,7.5,1.8035714286000002,0.0014647186,0.0058588742,,,,,,,,,,,,,,,,,,,,,,
19,SINGLE_CHANGE,"[12.3699687963, 28.0223766007, 28.3607078079, 27.7978707473, 27.849095908, 9.3815433252, 8.0021183929, 28.5639315834]",Flex Agent 2,4.0,0.0,0.0,1.0,0.0024507401,0.0042448064,17.4264870093,-0.0005102867,1.0,1.0,0.0009921604,0.0039686416,,,,,,,,,,,,,,,,,,,,,,
20,SINGLE_CHANGE,"[12.3699687963, 28.0223766007, 28.3607078079, 27.7978707473, 27.849095908, 9.3815433252, 8.0021183929, 28.5639315834]",Flex Agent 3,0.0,0.19041336720000002,0.13,4.25,0.07502400690000001,0.0125312809,27.1912189986,-0.0014839235,7.0,1.2291666667,0.6347390897,0.7255641108,,,,,,,,,,,,,,,,,,,,,,
21,SINGLE_CHANGE,"[12.3699687963, 28.0223766007, 28.3607078079, 27.7978707473, 27.849095908, 9.3815433252, 8.0021183929, 28.5639315834]",Flex Agent 3,1.0,0.1903437524,0.14250000000000002,4.0,0.0894876283,0.012511042200000001,25.1312724483,0.0006908324,4.5,1.0,0.7525257146000001,0.8080447494,,,,,,,,,,,,,,,,,,,,,,
22,SINGLE_CHANGE,"[12.3699687963, 28.0223766007, 28.3607078079, 27.7978707473, 27.849095908, 9.3815433252, 8.0021183929, 28.5639315834]",Flex Agent 3,2.0,0.19895728910000002,0.1575,4.5,0.0703137772,0.0163868107,26.8448146811,-0.011432515800000001,5.0,1.0833333333,0.7735240303,0.9841353087,,,,,,,,,,,,,,,,,,,,,,
23,SINGLE_CHANGE,"[12.3699687963, 28.0223766007, 28.3607078079, 27.7978707473, 27.849095908, 9.3815433252, 8.0021183929, 28.5639315834]",Flex Agent 3,3.0,0.1871498948,0.1325,4.0,0.0789361499,0.0040516712,25.2765628099,-0.0050854768000000005,2.5,1.0,0.6200080111,0.7760490160000001,,,,,,,,,,,,,,,,,,,,,,
24,SINGLE_CHANGE,"[12.3699687963, 28.0223766007, 28.3607078079, 27.7978707473, 27.849095908, 9.3815433252, 8.0021183929, 28.5639315834]",Flex Agent 3,4.0,0.17518799300000001,0.0975,4.75,0.0736782475,0.012029886600000001,28.676045431,-0.009380426400000001,8.0,1.3833333333,0.59021154,0.6600224046000001,,,,,,,,,,,,,,,,,,,,,,
25,SINGLE_CHANGE,"[12.3699687963, 28.0223766007, 28.3607078079, 27.7978707473, 27.849095908, 9.3815433252, 8.0021183929, 28.5639315834]",Flex Agent 5,0.0,0.1981513977,0.1825,3.0,0.0490652206,0.0208219198,7.2435206342,-0.0003416655,17.0,3.6176470588000003,0.6015392105,0.7460123098,,,,,,,,,,,,,,,,,,,,,,
26,SINGLE_CHANGE,"[12.3699687963, 28.0223766007, 28.3607078079, 27.7978707473, 27.849095908, 9.3815433252, 8.0021183929, 28.5639315834]",Flex Agent 5,1.0,0.20094253750000002,0.16,3.75,0.040688671600000004,0.0075904808,16.8781989551,-0.0004923328,20.5,3.2330917874,0.6277796051,0.7189289937000001,,,,,,,,,,,,,,,,,,,,,,
27,SINGLE_CHANGE,"[12.3699687963, 28.0223766007, 28.3607078079, 27.7978707473, 27.849095908, 9.3815433252, 8.0021183929, 28.5639315834]",Flex Agent 5,2.0,0.19955219500000002,0.17750000000000002,2.75,0.0402186574,0.0116199569,18.363643949,-0.0013012493,19.5,3.5125,0.6377319799,0.6915902221,,,,,,,,,,,,,,,,,,,,,,
28,SINGLE_CHANGE,"[12.3699687963, 28.0223766007, 28.3607078079, 27.7978707473, 27.849095908, 9.3815433252, 8.0021183929, 28.5639315834]",Flex Agent 5,3.0,0.198288087,0.155,3.0,0.0418605583,0.0051766034,11.7318702242,7.77379e-05,18.5,3.7132352941,0.6361313892,0.7372780981,,,,,,,,,,,,,,,,,,,,,,
29,SINGLE_CHANGE,"[12.3699687963, 28.0223766007, 28.3607078079, 27.7978707473, 27.849095908, 9.3815433252, 8.0021183929, 28.5639315834]",Flex Agent 5,4.0,0.20277344190000002,0.17750000000000002,3.75,0.040208623900000004,0.0049469763,10.023415979,-0.0005613034,20.5,3.2751196172,0.6882240538000001,0.7576135946,,,,,,,,,,,,,,,,,,,,,,
30,SINGLE_CHANGE,"[12.3699687963, 28.0223766007, 28.3607078079, 27.7978707473, 27.849095908, 9.3815433252, 8.0021183929, 28.5639315834]",Flex Agent 6,0.0,0.006425486,0.0,4.25,0.0024507401,0.0042448064,68.9060654633,-0.0141133703,3.5,2.4166666667,0.034436160800000004,0.1377446431,,,,,,,,,,,,,,,,,,,,,,
31,SINGLE_CHANGE,"[12.3699687963, 28.0223766007, 28.3607078079, 27.7978707473, 27.849095908, 9.3815433252, 8.0021183929, 28.5639315834]",Flex Agent 6,1.0,0.006425486,0.0,5.5,0.0024507401,0.0042448064,79.2180304081,-0.0029149259,3.0,2.3333333333,0.0470916776,0.1883667105,,,,,,,,,,,,,,,,,,,,,,
32,SINGLE_CHANGE,"[12.3699687963, 28.0223766007, 28.3607078079, 27.7978707473, 27.849095908, 9.3815433252, 8.0021183929, 28.5639315834]",Flex Agent 6,2.0,0.006425486,0.0,4.0,0.0024507401,0.0042448064,87.2593921804,-0.0068337083000000005,3.0,2.3333333333,0.0314984963,0.1259939852,,,,,,,,,,,,,,,,,,,,,,
33,SINGLE_CHANGE,"[12.3699687963, 28.0223766007, 28.3607078079, 27.7978707473, 27.849095908, 9.3815433252, 8.0021183929, 28.5639315834]",Flex Agent 6,3.0,0.006425486,0.0,2.5,0.0024507401,0.0042448064,85.5199751606,-0.0017465246000000002,3.5,2.1666666667,0.0161378805,0.06455152210000001,,,,,,,,,,,,,,,,,,,,,,
34,SINGLE_CHANGE,"[12.3699687963, 28.0223766007, 28.3607078079, 27.7978707473, 27.849095908, 9.3815433252, 8.0021183929, 28.5639315834]",Flex Agent 6,4.0,0.006425486,0.0,3.25,0.0024507401,0.0042448064,73.5490826748,-0.0029044354,3.0,2.3333333333,0.0236002992,0.0944011966,,,,,,,,,,,,,,,,,,,,,,
35,SINGLE_CHANGE,"[12.3699687963, 28.0223766007, 28.3607078079, 27.7978707473, 27.849095908, 9.3815433252, 8.0021183929, 28.5639315834]",Flex Agent 7,0.0,0.2019616383,0.1925,4.75,0.073722091,0.0183834555,35.0903440225,-0.0059260413000000005,4.5,1.1,0.8442840209,1.142609215,,,,,,,,,,,,,,,,,,,,,,
36,SINGLE_CHANGE,"[12.3699687963, 28.0223766007, 28.3607078079, 27.7978707473, 27.849095908, 9.3815433252, 8.0021183929, 28.5639315834]",Flex Agent 7,1.0,0.2032975338,0.18,4.75,0.0751189074,0.0097226063,29.6744682896,-0.012560298000000001,2.0,1.0,0.7996257318000001,0.9906236728000001,,,,,,,,,,,,,,,,,,,,,,
37,SINGLE_CHANGE,"[12.3699687963, 28.0223766007, 28.3607078079, 27.7978707473, 27.849095908, 9.3815433252, 8.0021183929, 28.5639315834]",Flex Agent 7,2.0,0.1989308281,0.155,3.5,0.0752834992,0.0091582894,28.853069239,-0.014373687100000001,5.5,1.5,0.7267919035,0.8554633791,,,,,,,,,,,,,,,,,,,,,,
38,SINGLE_CHANGE,"[12.3699687963, 28.0223766007, 28.3607078079, 27.7978707473, 27.849095908, 9.3815433252, 8.0021183929, 28.5639315834]",Flex Agent 7,3.0,0.1973997023,0.14750000000000002,5.75,0.0903566873,0.028402994,27.8527101634,-0.0300137497,5.0,1.125,0.7379655292,0.8036991457,,,,,,,,,,,,,,,,,,,,,,
39,SINGLE_CHANGE,"[12.3699687963, 28.0223766007, 28.3607078079, 27.7978707473, 27.849095908, 9.3815433252, 8.0021183929, 28.5639315834]",Flex Agent 7,4.0,0.2043909291,0.19,6.5,0.0765184429,0.0113203971,25.5594423289,-0.0244589359,4.0,1.1,0.8793547065,0.9881636090000001,,,,,,,,,,,,,,,,,,,,,,
40,SINGLE_CHANGE,"[12.3699687963, 28.0223766007, 28.3607078079, 27.7978707473, 27.849095908, 9.3815433252, 8.0021183929, 28.5639315834]",Flex Agent 8,0.0,0.18602930550000002,0.12250000000000001,3.5,0.0833434153,0.0188539354,26.0958455961,-0.006686844000000001,6.0,1.1,0.8114641717000001,0.9049694278,,,,,,,,,,,,,,,,,,,,,,
41,SINGLE_CHANGE,"[12.3699687963, 28.0223766007, 28.3607078079, 27.7978707473, 27.849095908, 9.3815433252, 8.0021183929, 28.5639315834]",Flex Agent 8,1.0,0.18410383630000002,0.1125,3.25,0.0824587167,0.0122774126,25.7031288123,-0.0047686487,7.0,1.1458333333,0.5779769063,0.6314513925,,,,,,,,,,,,,,,,,,,,,,
42,SINGLE_CHANGE,"[12.3699687963, 28.0223766007, 28.3607078079, 27.7978707473, 27.849095908, 9.3815433252, 8.0021183929, 28.5639315834]",Flex Agent 8,2.0,0.1906541035,0.1275,4.25,0.0664037266,0.0081911946,28.1768838428,-0.0067964079,3.5,1.3333333333000001,0.6067436517,0.6727222066,,,,,,,,,,,,,,,,,,,,,,
43,SINGLE_CHANGE,"[12.3699687963, 28.0223766007, 28.3607078079, 27.7978707473, 27.849095908, 9.3815433252, 8.0021183929, 28.5639315834]",Flex Agent 8,3.0,0.1954739886,0.14,4.0,0.0804310159,0.0069840009000000005,26.7093590937,-0.009937737700000001,2.5,1.0,0.699136604,0.7636384299000001,,,,,,,,,,,,,,,,,,,,,,
44,SINGLE_CHANGE,"[12.3699687963, 28.0223766007, 28.3607078079, 27.7978707473, 27.849095908, 9.3815433252, 8.0021183929, 28.5639315834]",Flex Agent 8,4.0,0.187535942,0.11750000000000001,5.25,0.0630226039,0.0111496341,26.2934851495,-0.0090765748,2.0,1.0,0.5927033561,0.6246686709,,,,,,,,,,,,,,,,,,,,,,
45,SINGLE_CHANGE,"[12.3699687963, 28.0223766007, 28.3607078079, 27.7978707473, 27.849095908, 9.3815433252, 8.0021183929, 28.5639315834]",Flex Agent 9,0.0,0.1405045617,0.06,2.0,0.0434076304,0.008923531,12.5655090101,-0.00039524140000000003,22.5,2.6403162055,0.3131824621,0.34743697,,,,,,,,,,,,,,,,,,,,,,
46,SINGLE_CHANGE,"[12.3699687963, 28.0223766007, 28.3607078079, 27.7978707473, 27.849095908, 9.3815433252, 8.0021183929, 28.5639315834]",Flex Agent 9,1.0,0.1215416321,0.052500000000000005,2.0,0.049928537700000004,0.0076046852,14.2705083214,-0.0003452791,23.0,2.520952381,0.3723327813,0.4133152698,,,,,,,,,,,,,,,,,,,,,,
47,SINGLE_CHANGE,"[12.3699687963, 28.0223766007, 28.3607078079, 27.7978707473, 27.849095908, 9.3815433252, 8.0021183929, 28.5639315834]",Flex Agent 9,2.0,0.11937331470000001,0.045,2.0,0.0460019118,0.0058754588,15.196283012,-0.00014636720000000002,22.0,2.5,0.3762881964,0.41392010090000003,,,,,,,,,,,,,,,,,,,,,,
48,SINGLE_CHANGE,"[12.3699687963, 28.0223766007, 28.3607078079, 27.7978707473, 27.849095908, 9.3815433252, 8.0021183929, 28.5639315834]",Flex Agent 9,3.0,0.1005709689,0.035,2.0,0.0353679619,0.011031101100000001,13.2504207695,-0.0002748553,23.0,2.5333333333,0.3201414408,0.3871907579,,,,,,,,,,,,,,,,,,,,,,
49,SINGLE_CHANGE,"[12.3699687963, 28.0223766007, 28.3607078079, 27.7978707473, 27.849095908, 9.3815433252, 8.0021183929, 28.5639315834]",Flex Agent 9,4.0,0.1176390595,0.045,2.0,0.0462181234,0.007043291,12.8316548829,-0.0004642148,23.0,2.7391304348,0.36484629430000004,0.38672327840000004,,,,,,,,,,,,,,,,,,,,,,
50,,,Global,,,,,,,,,,,,,0.11886532896999999,0.08203844551271054,0.07785,0.0667542133501699,2.94,1.4423973807802177,0.041296431044000007,0.029640432004100884,0.00824668386,0.005229223943183939,24.981193858652,19.41187521987414,-0.0035281000680000003,0.006627610810053419,11.31,8.262831703181545,2.172703977622,0.8575035337926926,0.39320661123200007,0.2916533573389992,0.4606810781020001,0.33153774239989775
