,NeighborhoodDefinition,TargetSchedule,Agent,FLA_ID,INFORMATION_CONTENT,PARTIAL_INFORMATION_CONTENT,INFORMATION_STABILITY,FITNESS_VARIANCE_MEAN,FITNESS_VARIANCE_STD,FITNESS_MEAN,DISPERSION_INDEX,MEAN_NUMBER_OF_NEUTRAL_AREAS,MEAN_SIZE_OF_NEUTRAL_AREAS,MEAN_FITNESS_DISTANCE,MAX_FITNESS_DISTANCE,INFORMATION_CONTENT_MEAN,INFORMATION_CONTENT_STD,PARTIAL_INFORMATION_CONTENT_MEAN,PARTIAL_INFORMATION_CONTENT_STD,INFORMATION_STABILITY_MEAN,INFORMATION_STABILITY_STD,FITNESS_VARIANCE_MEAN_MEAN,FITNESS_VARIANCE_MEAN_STD,FITNESS_VARIANCE_STD_MEAN,FITNESS_VARIANCE_STD_STD,FITNESS_MEAN_MEAN,FITNESS_MEAN_STD,DISPERSION_INDEX_MEAN,DISPERSION_INDEX_STD,MEAN_NUMBER_OF_NEUTRAL_AREAS_MEAN,MEAN_NUMBER_OF_NEUTRAL_AREAS_STD,MEAN_SIZE_OF_NEUTRAL_AREAS_MEAN,MEAN_SIZE_OF_NEUTRAL_AREAS_STD,MEAN_FITNESS_DISTANCE_MEAN,MEAN_FITNESS_DISTANCE_STD,MAX_FITNESS_DISTANCE_MEAN,MAX_FITNESS_DISTANCE_STD
0,SINGLE_CHANGE,"[11.86702674, 11.8712539044, 11.8593654606, 11.2067226301, 11.3670855793, 11.2656812142, 11.2956962092, 11.1215445504]",Flex Agent 0,0.0,0.18173247080000002,0.11,3.75,0.089622908,0.0269845599,20.501119944,-0.09469822010000001,5.5,1.0555555556,0.6108902003000001,0.6707332383,,,,,,,,,,,,,,,,,,,,,,
1,SINGLE_CHANGE,"[11.86702674, 11.8712539044, 11.8593654606, 11.2067226301, 11.3670855793, 11.2656812142, 11.2956962092, 11.1215445504]",Flex Agent 0,1.0,0.1783748379,0.1125,3.25,0.0684156262,0.0052221133,19.0469052373,-0.0201328169,6.5,1.2380952381,0.5465718241,0.6074037577,,,,,,,,,,,,,,,,,,,,,,
2,SINGLE_CHANGE,"[11.86702674, 11.8712539044, 11.8593654606, 11.2067226301, 11.3670855793, 11.2656812142, 11.2956962092, 11.1215445504]",Flex Agent 0,2.0,0.1883525795,0.11750000000000001,3.5,0.07356868650000001,0.0146099643,19.6965989163,-0.0663895791,9.0,1.2597402597,0.6163191147,0.7640153302,,,,,,,,,,,,,,,,,,,,,,
3,SINGLE_CHANGE,"[11.86702674, 11.8712539044, 11.8593654606, 11.2067226301, 11.3670855793, 11.2656812142, 11.2956962092, 11.1215445504]",Flex Agent 0,3.0,0.1905386102,0.1325,3.5,0.09004914300000001,0.0116110716,20.2476387327,-0.028155119200000002,3.0,1.0,0.7703568586,1.0421963657,,,,,,,,,,,,,,,,,,,,,,
4,SINGLE_CHANGE,"[11.86702674, 11.8712539044, 11.8593654606, 11.2067226301, 11.3670855793, 11.2656812142, 11.2956962092, 11.1215445504]",Flex Agent 0,4.0,0.19213542,0.1375,3.75,0.0695702748,0.0174979128,20.0720231885,-0.07415561500000001,4.5,1.0714285714,0.6203999753,0.7151765436,,,,,,,,,,,,,,,,,,,,,,
5,SINGLE_CHANGE,"[11.86702674, 11.8712539044, 11.8593654606, 11.2067226301, 11.3670855793, 11.2656812142, 11.2956962092, 11.1215445504]",Flex Agent 5,0.0,0.0,0.0,1.0,0.0024507401,0.0042448064,7.317366072,0.0019648011,7.0,1.0,0.0012733412,0.0050933647,,,,,,,,,,,,,,,,,,,,,,
6,SINGLE_CHANGE,"[11.86702674, 11.8712539044, 11.8593654606, 11.2067226301, 11.3670855793, 11.2656812142, 11.2956962092, 11.1215445504]",Flex Agent 5,1.0,0.006425486,0.0,1.25,0.0024507401,0.0042448064,4.998913564,-0.0040325660000000004,3.5,1.0,0.0030212856,0.0120851424,,,,,,,,,,,,,,,,,,,,,,
7,SINGLE_CHANGE,"[11.86702674, 11.8712539044, 11.8593654606, 11.2067226301, 11.3670855793, 11.2656812142, 11.2956962092, 11.1215445504]",Flex Agent 5,2.0,0.0,0.0,1.0,0.0024507401,0.0042448064,3.1875455695,-0.0081124979,3.0,1.0,0.0005865673000000001,0.0023462692000000003,,,,,,,,,,,,,,,,,,,,,,
8,SINGLE_CHANGE,"[11.86702674, 11.8712539044, 11.8593654606, 11.2067226301, 11.3670855793, 11.2656812142, 11.2956962092, 11.1215445504]",Flex Agent 5,3.0,0.0,0.0,1.0,0.0024507401,0.0042448064,4.3465941583,-0.0071240704,3.5,1.0,0.0003575395,0.0014301582,,,,,,,,,,,,,,,,,,,,,,
9,SINGLE_CHANGE,"[11.86702674, 11.8712539044, 11.8593654606, 11.2067226301, 11.3670855793, 11.2656812142, 11.2956962092, 11.1215445504]",Flex Agent 5,4.0,0.0,0.0,1.0,0.0024507401,0.0042448064,5.1700162,-0.0070588784,3.0,1.0,0.0009921604,0.0039686416,,,,,,,,,,,,,,,,,,,,,,
10,SINGLE_CHANGE,"[11.86702674, 11.8712539044, 11.8593654606, 11.2067226301, 11.3670855793, 11.2656812142, 11.2956962092, 11.1215445504]",Flex Agent 4,0.0,0.1397926257,0.065,2.25,0.0311456358,0.0012546570000000002,5.4856909691,-0.0165024715,19.0,3.1315789474,0.36400367780000004,0.387967096,,,,,,,,,,,,,,,,,,,,,,
11,SINGLE_CHANGE,"[11.86702674, 11.8712539044, 11.8593654606, 11.2067226301, 11.3670855793, 11.2656812142, 11.2956962092, 11.1215445504]",Flex Agent 4,1.0,0.1398552176,0.07,2.0,0.045420754,0.0088546632,5.5009276857,0.02053995,22.0,2.9906832298,0.3483259805,0.4492077729,,,,,,,,,,,,,,,,,,,,,,
12,SINGLE_CHANGE,"[11.86702674, 11.8712539044, 11.8593654606, 11.2067226301, 11.3670855793, 11.2656812142, 11.2956962092, 11.1215445504]",Flex Agent 4,2.0,0.1240756756,0.05,2.0,0.0433722163,0.006856156,5.4795544177,0.0024585362,21.0,2.4583333333,0.3515843201,0.3818072107,,,,,,,,,,,,,,,,,,,,,,
13,SINGLE_CHANGE,"[11.86702674, 11.8712539044, 11.8593654606, 11.2067226301, 11.3670855793, 11.2656812142, 11.2956962092, 11.1215445504]",Flex Agent 4,3.0,0.1502012129,0.07,2.25,0.0396562124,0.0047510743,5.515323052,0.008192460300000001,19.5,3.3253968254,0.3247180631,0.38881744700000004,,,,,,,,,,,,,,,,,,,,,,
14,SINGLE_CHANGE,"[11.86702674, 11.8712539044, 11.8593654606, 11.2067226301, 11.3670855793, 11.2656812142, 11.2956962092, 11.1215445504]",Flex Agent 4,4.0,0.1409365836,0.0625,2.0,0.0487175908,0.004497017900000001,5.4799217052,-0.0218373439,26.5,2.1528571429,0.34185965690000003,0.3778581103,,,,,,,,,,,,,,,,,,,,,,
15,SINGLE_CHANGE,"[11.86702674, 11.8712539044, 11.8593654606, 11.2067226301, 11.3670855793, 11.2656812142, 11.2956962092, 11.1215445504]",Flex Agent 3,0.0,0.20402038120000002,0.17500000000000002,3.25,0.058436037700000006,0.0037507163,11.9334806592,0.0949097497,20.5,3.0072463768,0.5661224347,0.5961815222,,,,,,,,,,,,,,,,,,,,,,
16,SINGLE_CHANGE,"[11.86702674, 11.8712539044, 11.8593654606, 11.2067226301, 11.3670855793, 11.2656812142, 11.2956962092, 11.1215445504]",Flex Agent 3,1.0,0.1975339602,0.1575,3.0,0.056812902500000005,0.016462306700000002,11.9113934777,0.0528151436,19.5,3.2539473684,0.5423064914,0.6293321618000001,,,,,,,,,,,,,,,,,,,,,,
17,SINGLE_CHANGE,"[11.86702674, 11.8712539044, 11.8593654606, 11.2067226301, 11.3670855793, 11.2656812142, 11.2956962092, 11.1215445504]",Flex Agent 3,2.0,0.20166643310000001,0.19,3.25,0.061915191200000004,0.0124442944,11.9443967928,0.10705945,20.5,2.8468137255,0.5546618754,0.6582776597000001,,,,,,,,,,,,,,,,,,,,,,
18,SINGLE_CHANGE,"[11.86702674, 11.8712539044, 11.8593654606, 11.2067226301, 11.3670855793, 11.2656812142, 11.2956962092, 11.1215445504]",Flex Agent 3,3.0,0.1969945157,0.145,3.25,0.058346923200000005,0.0150633925,12.0283285643,0.057497305000000005,22.0,2.8863636364,0.5007033214000001,0.5549938682000001,,,,,,,,,,,,,,,,,,,,,,
19,SINGLE_CHANGE,"[11.86702674, 11.8712539044, 11.8593654606, 11.2067226301, 11.3670855793, 11.2656812142, 11.2956962092, 11.1215445504]",Flex Agent 3,4.0,0.20414078700000002,0.2,3.5,0.053961688800000004,0.00268731,11.9820546508,0.0304298723,22.5,2.787037037,0.6098337376,0.6483143351,,,,,,,,,,,,,,,,,,,,,,
20,SINGLE_CHANGE,"[11.86702674, 11.8712539044, 11.8593654606, 11.2067226301, 11.3670855793, 11.2656812142, 11.2956962092, 11.1215445504]",Flex Agent 1,0.0,0.1556070238,0.075,2.25,0.07357126680000001,0.0072954174,16.5525449593,-0.0181904303,4.5,1.0833333333,0.458483423,0.4785722901,,,,,,,,,,,,,,,,,,,,,,
21,SINGLE_CHANGE,"[11.86702674, 11.8712539044, 11.8593654606, 11.2067226301, 11.3670855793, 11.2656812142, 11.2956962092, 11.1215445504]",Flex Agent 1,1.0,0.1190483402,0.0475,2.5,0.0726863437,0.0173161441,17.4871901709,-0.0252387816,3.5,1.1666666667,0.4251389695,0.4576933991,,,,,,,,,,,,,,,,,,,,,,
22,SINGLE_CHANGE,"[11.86702674, 11.8712539044, 11.8593654606, 11.2067226301, 11.3670855793, 11.2656812142, 11.2956962092, 11.1215445504]",Flex Agent 1,2.0,0.1681124893,0.085,2.25,0.0832410844,0.010622893000000001,17.0421230117,0.03215788,5.5,1.0625,0.5242687851,0.5975498681,,,,,,,,,,,,,,,,,,,,,,
23,SINGLE_CHANGE,"[11.86702674, 11.8712539044, 11.8593654606, 11.2067226301, 11.3670855793, 11.2656812142, 11.2956962092, 11.1215445504]",Flex Agent 1,3.0,0.1182262654,0.0475,2.5,0.09872486330000001,0.0194043032,17.7498727163,-0.0499787732,5.5,1.1,0.4412738453,0.4620127637,,,,,,,,,,,,,,,,,,,,,,
24,SINGLE_CHANGE,"[11.86702674, 11.8712539044, 11.8593654606, 11.2067226301, 11.3670855793, 11.2656812142, 11.2956962092, 11.1215445504]",Flex Agent 1,4.0,0.1500354255,0.0775,2.0,0.08073591370000001,0.0158910744,17.4504121011,0.0111999625,4.0,1.0,0.5086767564,0.7250454053000001,,,,,,,,,,,,,,,,,,,,,,
25,SINGLE_CHANGE,"[11.86702674, 11.8712539044, 11.8593654606, 11.2067226301, 11.3670855793, 11.2656812142, 11.2956962092, 11.1215445504]",Flex Agent 7,0.0,0.18064362850000001,0.125,3.5,0.061401201,0.0049647507,19.3622477587,-0.07325965450000001,5.5,1.0714285714,0.6046667654,0.7883919377,,,,,,,,,,,,,,,,,,,,,,
26,SINGLE_CHANGE,"[11.86702674, 11.8712539044, 11.8593654606, 11.2067226301, 11.3670855793, 11.2656812142, 11.2956962092, 11.1215445504]",Flex Agent 7,1.0,0.1847177701,0.115,3.5,0.0726383159,0.0166395197,19.1236605565,-0.0440164632,6.5,1.325,0.5767527747,0.6734712044000001,,,,,,,,,,,,,,,,,,,,,,
27,SINGLE_CHANGE,"[11.86702674, 11.8712539044, 11.8593654606, 11.2067226301, 11.3670855793, 11.2656812142, 11.2956962092, 11.1215445504]",Flex Agent 7,2.0,0.18835196170000001,0.1125,3.25,0.08344916050000001,0.0239486323,20.6017663245,-0.0501006997,8.5,1.15,0.6157498174,0.6452566011,,,,,,,,,,,,,,,,,,,,,,
28,SINGLE_CHANGE,"[11.86702674, 11.8712539044, 11.8593654606, 11.2067226301, 11.3670855793, 11.2656812142, 11.2956962092, 11.1215445504]",Flex Agent 7,3.0,0.1738028929,0.0925,3.0,0.069953756,0.0159218986,19.8841756653,-0.0400030575,3.5,1.0833333333,0.5633338960000001,0.6244127506,,,,,,,,,,,,,,,,,,,,,,
29,SINGLE_CHANGE,"[11.86702674, 11.8712539044, 11.8593654606, 11.2067226301, 11.3670855793, 11.2656812142, 11.2956962092, 11.1215445504]",Flex Agent 7,4.0,0.1842227481,0.115,3.25,0.0718208164,0.0155457914,20.0595492847,-0.0148560403,4.0,1.0833333333,0.568796213,0.6607166924,,,,,,,,,,,,,,,,,,,,,,
30,SINGLE_CHANGE,"[11.86702674, 11.8712539044, 11.8593654606, 11.2067226301, 11.3670855793, 11.2656812142, 11.2956962092, 11.1215445504]",Flex Agent 6,0.0,0.1803165713,0.10250000000000001,4.0,0.0977522546,0.0162233989,23.9631802327,0.0406344769,4.5,1.0,1.0180138443,1.2548984527,,,,,,,,,,,,,,,,,,,,,,
31,SINGLE_CHANGE,"[11.86702674, 11.8712539044, 11.8593654606, 11.2067226301, 11.3670855793, 11.2656812142, 11.2956962092, 11.1215445504]",Flex Agent 6,1.0,0.2023564075,0.17750000000000002,4.5,0.0704399376,0.0159035546,22.2830515117,-0.0854359397,5.0,1.25,0.7511748304,0.8840735244,,,,,,,,,,,,,,,,,,,,,,
32,SINGLE_CHANGE,"[11.86702674, 11.8712539044, 11.8593654606, 11.2067226301, 11.3670855793, 11.2656812142, 11.2956962092, 11.1215445504]",Flex Agent 6,2.0,0.18995358580000002,0.12250000000000001,4.75,0.07518294560000001,0.0174001651,21.849800909,-0.10996567830000001,4.0,1.1428571429,0.7792601408000001,0.9802008706,,,,,,,,,,,,,,,,,,,,,,
33,SINGLE_CHANGE,"[11.86702674, 11.8712539044, 11.8593654606, 11.2067226301, 11.3670855793, 11.2656812142, 11.2956962092, 11.1215445504]",Flex Agent 6,3.0,0.2015561099,0.16,4.75,0.06884007090000001,0.0064306188,23.2147827939,-0.054576363700000005,6.0,1.2142857143,0.8583041541,0.9698767660000001,,,,,,,,,,,,,,,,,,,,,,
34,SINGLE_CHANGE,"[11.86702674, 11.8712539044, 11.8593654606, 11.2067226301, 11.3670855793, 11.2656812142, 11.2956962092, 11.1215445504]",Flex Agent 6,4.0,0.1981366121,0.17,4.5,0.0769190136,0.0110399713,22.7473293286,-0.1196643988,5.5,1.125,0.7282557178,0.9199371513000001,,,,,,,,,,,,,,,,,,,,,,
35,SINGLE_CHANGE,"[11.86702674, 11.8712539044, 11.8593654606, 11.2067226301, 11.3670855793, 11.2656812142, 11.2956962092, 11.1215445504]",Flex Agent 2,0.0,0.1505209388,0.0775,2.0,0.049362897700000005,0.0050168272,5.4712177459,0.0063638237,21.0,3.1319444444,0.3569529511,0.4287239035,,,,,,,,,,,,,,,,,,,,,,
36,SINGLE_CHANGE,"[11.86702674, 11.8712539044, 11.8593654606, 11.2067226301, 11.3670855793, 11.2656812142, 11.2956962092, 11.1215445504]",Flex Agent 2,1.0,0.14611401270000002,0.07250000000000001,2.5,0.0324529456,0.0093711325,5.4766558544,0.0235173299,20.5,2.7715311005,0.3752398141,0.39964644660000004,,,,,,,,,,,,,,,,,,,,,,
37,SINGLE_CHANGE,"[11.86702674, 11.8712539044, 11.8593654606, 11.2067226301, 11.3670855793, 11.2656812142, 11.2956962092, 11.1215445504]",Flex Agent 2,2.0,0.1163947991,0.05,2.0,0.0484131619,0.0062963489,5.4708967412,0.0372919049,24.0,2.4391534392,0.3522955083,0.3595165872,,,,,,,,,,,,,,,,,,,,,,
38,SINGLE_CHANGE,"[11.86702674, 11.8712539044, 11.8593654606, 11.2067226301, 11.3670855793, 11.2656812142, 11.2956962092, 11.1215445504]",Flex Agent 2,3.0,0.1434388739,0.07,2.0,0.0347593943,0.0042945012,5.5136818466,0.0650572273,19.0,3.2773109244,0.3625319598,0.4192856804,,,,,,,,,,,,,,,,,,,,,,
39,SINGLE_CHANGE,"[11.86702674, 11.8712539044, 11.8593654606, 11.2067226301, 11.3670855793, 11.2656812142, 11.2956962092, 11.1215445504]",Flex Agent 2,4.0,0.13688560760000001,0.0625,2.25,0.0376748628,0.0074481155000000005,5.5173878497,0.0298211871,22.5,2.806547619,0.3571267225,0.4244980054,,,,,,,,,,,,,,,,,,,,,,
40,SINGLE_CHANGE,"[11.86702674, 11.8712539044, 11.8593654606, 11.2067226301, 11.3670855793, 11.2656812142, 11.2956962092, 11.1215445504]",Flex Agent 8,0.0,0.2005294554,0.17500000000000002,5.0,0.0712117699,0.007190099100000001,22.256189239,-0.015394382600000001,4.5,1.3333333333000001,0.9974865511000001,1.1897060651,,,,,,,,,,,,,,,,,,,,,,
41,SINGLE_CHANGE,"[11.86702674, 11.8712539044, 11.8593654606, 11.2067226301, 11.3670855793, 11.2656812142, 11.2956962092, 11.1215445504]",Flex Agent 8,1.0,0.2001322244,0.15,4.0,0.0868170472,0.0057761312,22.0986217211,0.0129885165,3.0,1.0,0.7711742322,0.8643295028,,,,,,,,,,,,,,,,,,,,,,
42,SINGLE_CHANGE,"[11.86702674, 11.8712539044, 11.8593654606, 11.2067226301, 11.3670855793, 11.2656812142, 11.2956962092, 11.1215445504]",Flex Agent 8,2.0,0.2047273828,0.18,5.0,0.07901633500000001,0.012356472200000001,23.2050470227,-0.1033863768,7.0,1.2555555556,1.0779377564,1.1608289841000001,,,,,,,,,,,,,,,,,,,,,,
43,SINGLE_CHANGE,"[11.86702674, 11.8712539044, 11.8593654606, 11.2067226301, 11.3670855793, 11.2656812142, 11.2956962092, 11.1215445504]",Flex Agent 8,3.0,0.1748432053,0.105,4.5,0.09053711660000001,0.0073804937,21.3159637989,-0.0755322202,5.0,1.2380952381,0.7433042358,0.8681404093,,,,,,,,,,,,,,,,,,,,,,
44,SINGLE_CHANGE,"[11.86702674, 11.8712539044, 11.8593654606, 11.2067226301, 11.3670855793, 11.2656812142, 11.2956962092, 11.1215445504]",Flex Agent 8,4.0,0.199787171,0.15,4.0,0.08483616120000001,0.0213555139,22.3167982505,0.030281017400000002,2.0,1.0,0.7166522443000001,0.7756517918,,,,,,,,,,,,,,,,,,,,,,
45,SINGLE_CHANGE,"[11.86702674, 11.8712539044, 11.8593654606, 11.2067226301, 11.3670855793, 11.2656812142, 11.2956962092, 11.1215445504]",Flex Agent 9,0.0,0.006425486,0.0,1.25,0.0024507401,0.0042448064,4.1215176393,-0.0488360134,2.5,1.0,0.0032180682,0.0128722729,,,,,,,,,,,,,,,,,,,,,,
46,SINGLE_CHANGE,"[11.86702674, 11.8712539044, 11.8593654606, 11.2067226301, 11.3670855793, 11.2656812142, 11.2956962092, 11.1215445504]",Flex Agent 9,1.0,0.0,0.0,1.0,0.0024507401,0.0042448064,2.0632481257,-0.0239868742,3.0,1.0,0.0013783738,0.0055134952,,,,,,,,,,,,,,,,,,,,,,
47,SINGLE_CHANGE,"[11.86702674, 11.8712539044, 11.8593654606, 11.2067226301, 11.3670855793, 11.2656812142, 11.2956962092, 11.1215445504]",Flex Agent 9,2.0,0.006425486,0.0,1.25,0.0024507401,0.0042448064,2.4386937703,-0.017167426,4.0,1.0,0.0028067254,0.0112269015,,,,,,,,,,,,,,,,,,,,,,
48,SINGLE_CHANGE,"[11.86702674, 11.8712539044, 11.8593654606, 11.2067226301, 11.3670855793, 11.2656812142, 11.2956962092, 11.1215445504]",Flex Agent 9,3.0,0.006425486,0.0,1.25,0.0024507401,0.0042448064,1.0203779321,-0.0136410942,4.0,1.0,0.0026012097,0.010404838900000001,,,,,,,,,,,,,,,,,,,,,,
49,SINGLE_CHANGE,"[11.86702674, 11.8712539044, 11.8593654606, 11.2067226301, 11.3670855793, 11.2656812142, 11.2956962092, 11.1215445504]",Flex Agent 9,4.0,0.006425486,0.0,1.25,0.0024507401,0.0042448064,0.3803884339,-0.0195942004,5.0,1.0,0.0030522986,0.012209194500000001,,,,,,,,,,,,,,,,,,,,,,
50,,,Global,,,,,,,,,,,,,0.13861880488200004,0.07286703177546307,0.09025,0.0607022046804004,2.79,1.1977444788996916,0.053719156568000005,0.030634080706349483,0.009920580862000001,0.00628436042417857,13.197683337066001,7.806464008248265,-0.013716869052000001,0.05006850355084853,9.69,7.892705234478692,1.6315257399479999,0.8524931360913924,0.46441594020800003,0.2917981696531327,0.5392373950439999,0.34458243588454673
