,NeighborhoodDefinition,TargetSchedule,Agent,FLA_ID,INFORMATION_CONTENT,PARTIAL_INFORMATION_CONTENT,INFORMATION_STABILITY,FITNESS_VARIANCE_MEAN,FITNESS_VARIANCE_STD,FITNESS_MEAN,DISPERSION_INDEX,MEAN_NUMBER_OF_NEUTRAL_AREAS,MEAN_SIZE_OF_NEUTRAL_AREAS,MEAN_FITNESS_DISTANCE,MAX_FITNESS_DISTANCE,INFORMATION_CONTENT_MEAN,INFORMATION_CONTENT_STD,PARTIAL_INFORMATION_CONTENT_MEAN,PARTIAL_INFORMATION_CONTENT_STD,INFORMATION_STABILITY_MEAN,INFORMATION_STABILITY_STD,FITNESS_VARIANCE_MEAN_MEAN,FITNESS_VARIANCE_MEAN_STD,FITNESS_VARIANCE_STD_MEAN,FITNESS_VARIANCE_STD_STD,FITNESS_MEAN_MEAN,FITNESS_MEAN_STD,DISPERSION_INDEX_MEAN,DISPERSION_INDEX_STD,MEAN_NUMBER_OF_NEUTRAL_AREAS_MEAN,MEAN_NUMBER_OF_NEUTRAL_AREAS_STD,MEAN_SIZE_OF_NEUTRAL_AREAS_MEAN,MEAN_SIZE_OF_NEUTRAL_AREAS_STD,MEAN_FITNESS_DISTANCE_MEAN,MEAN_FITNESS_DISTANCE_STD,MAX_FITNESS_DISTANCE_MEAN,MAX_FITNESS_DISTANCE_STD
0,SINGLE_CHANGE,"[-9.5669914023, -1.193161687, -29.8879581893, 0.3138076937, 0.7119384606, 3.0315654443, -44.2818218937, -7.9654355998]",Flex Agent 2,0.0,0.1863465109,0.1275,4.25,0.07149661610000001,0.0079004291,22.0343464261,-0.0014164622000000001,2.5,1.1666666667,0.5683738366000001,0.6709292081,,,,,,,,,,,,,,,,,,,,,,
1,SINGLE_CHANGE,"[-9.5669914023, -1.193161687, -29.8879581893, 0.3138076937, 0.7119384606, 3.0315654443, -44.2818218937, -7.9654355998]",Flex Agent 2,1.0,0.1780648893,0.105,3.75,0.061160847000000004,0.007837877600000001,39.7156076062,-0.0018541065,4.0,1.0,0.523830845,0.5903889534,,,,,,,,,,,,,,,,,,,,,,
2,SINGLE_CHANGE,"[-9.5669914023, -1.193161687, -29.8879581893, 0.3138076937, 0.7119384606, 3.0315654443, -44.2818218937, -7.9654355998]",Flex Agent 2,2.0,0.1855768677,0.115,4.25,0.0635632708,0.0106911343,22.111269766,-0.0020425778,5.0,1.2916666667,0.5387640177,0.6324077229,,,,,,,,,,,,,,,,,,,,,,
3,SINGLE_CHANGE,"[-9.5669914023, -1.193161687, -29.8879581893, 0.3138076937, 0.7119384606, 3.0315654443, -44.2818218937, -7.9654355998]",Flex Agent 2,3.0,0.1864265227,0.12,5.0,0.0864311635,0.009389896,28.040511273,-0.0011207131,6.0,1.1666666667,0.6370306735,0.8272048462,,,,,,,,,,,,,,,,,,,,,,
4,SINGLE_CHANGE,"[-9.5669914023, -1.193161687, -29.8879581893, 0.3138076937, 0.7119384606, 3.0315654443, -44.2818218937, -7.9654355998]",Flex Agent 2,4.0,0.19635453690000002,0.1625,6.0,0.07844587160000001,0.0098200445,38.3066421965,-0.0023244693,5.0,1.0625,0.7616527959,0.9159886613,,,,,,,,,,,,,,,,,,,,,,
5,SINGLE_CHANGE,"[-9.5669914023, -1.193161687, -29.8879581893, 0.3138076937, 0.7119384606, 3.0315654443, -44.2818218937, -7.9654355998]",Flex Agent 0,0.0,0.0,0.0,1.0,0.0024507401,0.0042448064,39.0787490574,-0.00032459300000000003,5.5,1.0714285714,0.0004957701,0.0019830805,,,,,,,,,,,,,,,,,,,,,,
6,SINGLE_CHANGE,"[-9.5669914023, -1.193161687, -29.8879581893, 0.3138076937, 0.7119384606, 3.0315654443, -44.2818218937, -7.9654355998]",Flex Agent 0,1.0,0.0,0.0,1.0,0.0024507401,0.0042448064,29.4054222641,-8.400270000000001e-05,7.5,1.8035714286000002,0.0022039993,0.0088159971,,,,,,,,,,,,,,,,,,,,,,
7,SINGLE_CHANGE,"[-9.5669914023, -1.193161687, -29.8879581893, 0.3138076937, 0.7119384606, 3.0315654443, -44.2818218937, -7.9654355998]",Flex Agent 0,2.0,0.0,0.0,1.0,0.0024507401,0.0042448064,30.4146863749,-4.77399e-05,8.0,1.375,0.0007045811000000001,0.0028183244000000002,,,,,,,,,,,,,,,,,,,,,,
8,SINGLE_CHANGE,"[-9.5669914023, -1.193161687, -29.8879581893, 0.3138076937, 0.7119384606, 3.0315654443, -44.2818218937, -7.9654355998]",Flex Agent 0,3.0,0.0,0.0,1.0,0.0024507401,0.0042448064,26.6400685564,-3.9993e-05,7.0,1.7142857142999999,0.0013416209,0.005366483500000001,,,,,,,,,,,,,,,,,,,,,,
9,SINGLE_CHANGE,"[-9.5669914023, -1.193161687, -29.8879581893, 0.3138076937, 0.7119384606, 3.0315654443, -44.2818218937, -7.9654355998]",Flex Agent 0,4.0,0.0,0.0,1.0,0.0024507401,0.0042448064,32.8603108096,-3.6637800000000004e-05,7.5,1.8035714286000002,0.0011048895000000001,0.004419558200000001,,,,,,,,,,,,,,,,,,,,,,
10,SINGLE_CHANGE,"[-9.5669914023, -1.193161687, -29.8879581893, 0.3138076937, 0.7119384606, 3.0315654443, -44.2818218937, -7.9654355998]",Flex Agent 5,0.0,0.1200784081,0.045,2.0,0.0400779938,0.0053677748,35.0009101462,5.6509500000000005e-05,21.5,2.8293478261000002,0.3695841227,0.3853743472,,,,,,,,,,,,,,,,,,,,,,
11,SINGLE_CHANGE,"[-9.5669914023, -1.193161687, -29.8879581893, 0.3138076937, 0.7119384606, 3.0315654443, -44.2818218937, -7.9654355998]",Flex Agent 5,1.0,0.1067172643,0.04,2.0,0.048010127900000005,0.0020243012,37.2167201309,-3.00369e-05,24.0,2.5238095238,0.3320521899,0.3940297331,,,,,,,,,,,,,,,,,,,,,,
12,SINGLE_CHANGE,"[-9.5669914023, -1.193161687, -29.8879581893, 0.3138076937, 0.7119384606, 3.0315654443, -44.2818218937, -7.9654355998]",Flex Agent 5,2.0,0.1018379544,0.035,2.0,0.0358191015,0.0081490351,25.3808645929,5.40701e-05,22.5,2.85,0.30778947100000004,0.3486035939,,,,,,,,,,,,,,,,,,,,,,
13,SINGLE_CHANGE,"[-9.5669914023, -1.193161687, -29.8879581893, 0.3138076937, 0.7119384606, 3.0315654443, -44.2818218937, -7.9654355998]",Flex Agent 5,3.0,0.136731726,0.0575,2.5,0.0310515277,0.0056470054,30.767252003,1.50904e-05,24.5,2.4558333333,0.3227904801,0.35719286240000003,,,,,,,,,,,,,,,,,,,,,,
14,SINGLE_CHANGE,"[-9.5669914023, -1.193161687, -29.8879581893, 0.3138076937, 0.7119384606, 3.0315654443, -44.2818218937, -7.9654355998]",Flex Agent 5,4.0,0.08526703590000001,0.0275,2.0,0.0460358803,0.0062523656,22.9944470312,5.69524e-05,20.5,2.7822966507,0.3144702621,0.3802759872,,,,,,,,,,,,,,,,,,,,,,
15,SINGLE_CHANGE,"[-9.5669914023, -1.193161687, -29.8879581893, 0.3138076937, 0.7119384606, 3.0315654443, -44.2818218937, -7.9654355998]",Flex Agent 4,0.0,0.1798238913,0.12,4.25,0.0696942108,0.0177705075,29.1358476983,-0.0013605193,3.5,1.1,0.5816759287000001,0.6626357659000001,,,,,,,,,,,,,,,,,,,,,,
16,SINGLE_CHANGE,"[-9.5669914023, -1.193161687, -29.8879581893, 0.3138076937, 0.7119384606, 3.0315654443, -44.2818218937, -7.9654355998]",Flex Agent 4,1.0,0.180007458,0.11,4.75,0.0753832038,0.0083319424,33.4700745344,-0.0009182794000000001,4.5,1.325,0.6037204625,0.6841201450000001,,,,,,,,,,,,,,,,,,,,,,
17,SINGLE_CHANGE,"[-9.5669914023, -1.193161687, -29.8879581893, 0.3138076937, 0.7119384606, 3.0315654443, -44.2818218937, -7.9654355998]",Flex Agent 4,2.0,0.183069579,0.1325,4.5,0.060539643600000005,0.014315549,30.2772025738,8.13688e-05,4.0,1.4666666667000001,0.6200865309,0.7131390518,,,,,,,,,,,,,,,,,,,,,,
18,SINGLE_CHANGE,"[-9.5669914023, -1.193161687, -29.8879581893, 0.3138076937, 0.7119384606, 3.0315654443, -44.2818218937, -7.9654355998]",Flex Agent 4,3.0,0.1650401128,0.09,4.25,0.06717480270000001,0.0086184943,29.116830698,-0.000622143,6.5,1.2625,0.5621455056,0.8096668804,,,,,,,,,,,,,,,,,,,,,,
19,SINGLE_CHANGE,"[-9.5669914023, -1.193161687, -29.8879581893, 0.3138076937, 0.7119384606, 3.0315654443, -44.2818218937, -7.9654355998]",Flex Agent 4,4.0,0.1690964995,0.09,4.25,0.0690046643,0.010300396100000001,29.6339616035,-0.0017289622,1.5,1.25,0.5757381102,0.7572877191,,,,,,,,,,,,,,,,,,,,,,
20,SINGLE_CHANGE,"[-9.5669914023, -1.193161687, -29.8879581893, 0.3138076937, 0.7119384606, 3.0315654443, -44.2818218937, -7.9654355998]",Flex Agent 3,0.0,0.18780915480000002,0.1375,4.25,0.0648373559,0.0086720101,25.8481360391,-0.0045300802,7.5,1.0555555556,0.6770030331,0.7630773354,,,,,,,,,,,,,,,,,,,,,,
21,SINGLE_CHANGE,"[-9.5669914023, -1.193161687, -29.8879581893, 0.3138076937, 0.7119384606, 3.0315654443, -44.2818218937, -7.9654355998]",Flex Agent 3,1.0,0.1773245598,0.0975,4.75,0.0669449195,0.0163534612,30.7281922868,-0.0040369818000000005,4.5,1.125,0.5780629842,0.6535359423,,,,,,,,,,,,,,,,,,,,,,
22,SINGLE_CHANGE,"[-9.5669914023, -1.193161687, -29.8879581893, 0.3138076937, 0.7119384606, 3.0315654443, -44.2818218937, -7.9654355998]",Flex Agent 3,2.0,0.20002980010000002,0.16,5.5,0.0803078025,0.0130456557,32.5564550738,7.71375e-05,4.5,1.3,0.7378640264,0.8837275418,,,,,,,,,,,,,,,,,,,,,,
23,SINGLE_CHANGE,"[-9.5669914023, -1.193161687, -29.8879581893, 0.3138076937, 0.7119384606, 3.0315654443, -44.2818218937, -7.9654355998]",Flex Agent 3,3.0,0.1881355649,0.145,4.75,0.0757785713,0.0208152832,35.0638605329,0.0004032159,3.5,1.2,0.7001091913,0.7901202101,,,,,,,,,,,,,,,,,,,,,,
24,SINGLE_CHANGE,"[-9.5669914023, -1.193161687, -29.8879581893, 0.3138076937, 0.7119384606, 3.0315654443, -44.2818218937, -7.9654355998]",Flex Agent 3,4.0,0.1874832787,0.1275,5.5,0.06692458230000001,0.0043113239000000005,27.0970558179,-0.0032629018,5.0,1.0833333333,0.6253816759,0.7713738963,,,,,,,,,,,,,,,,,,,,,,
25,SINGLE_CHANGE,"[-9.5669914023, -1.193161687, -29.8879581893, 0.3138076937, 0.7119384606, 3.0315654443, -44.2818218937, -7.9654355998]",Flex Agent 6,0.0,0.0,0.0,1.0,0.0024507401,0.0042448064,33.098647814,0.0003208199,5.5,1.1833333333,0.0017100910000000002,0.0068403639,,,,,,,,,,,,,,,,,,,,,,
26,SINGLE_CHANGE,"[-9.5669914023, -1.193161687, -29.8879581893, 0.3138076937, 0.7119384606, 3.0315654443, -44.2818218937, -7.9654355998]",Flex Agent 6,1.0,0.0,0.0,1.0,0.0024507401,0.0042448064,32.959469017,-0.0002060067,2.0,1.0,0.0022030224,0.0088120894,,,,,,,,,,,,,,,,,,,,,,
27,SINGLE_CHANGE,"[-9.5669914023, -1.193161687, -29.8879581893, 0.3138076937, 0.7119384606, 3.0315654443, -44.2818218937, -7.9654355998]",Flex Agent 6,2.0,0.006425486,0.0,1.25,0.0024507401,0.0042448064,39.7943589229,0.0006905533,2.0,1.0,0.0038856806,0.015542722600000001,,,,,,,,,,,,,,,,,,,,,,
28,SINGLE_CHANGE,"[-9.5669914023, -1.193161687, -29.8879581893, 0.3138076937, 0.7119384606, 3.0315654443, -44.2818218937, -7.9654355998]",Flex Agent 6,3.0,0.006425486,0.0,1.25,0.0024507401,0.0042448064,32.5660027402,0.0009520597,6.0,1.8333333333000001,0.0029094831,0.0116379324,,,,,,,,,,,,,,,,,,,,,,
29,SINGLE_CHANGE,"[-9.5669914023, -1.193161687, -29.8879581893, 0.3138076937, 0.7119384606, 3.0315654443, -44.2818218937, -7.9654355998]",Flex Agent 6,4.0,0.006425486,0.0,1.25,0.0024507401,0.0042448064,38.050052521,0.0007461782000000001,6.5,1.7738095238,0.0026654332,0.0106617328,,,,,,,,,,,,,,,,,,,,,,
30,SINGLE_CHANGE,"[-9.5669914023, -1.193161687, -29.8879581893, 0.3138076937, 0.7119384606, 3.0315654443, -44.2818218937, -7.9654355998]",Flex Agent 1,0.0,0.202706839,0.17250000000000001,5.5,0.06477988650000001,0.001947893,22.4436733851,-0.0008042358,4.5,1.7142857142999999,0.7717668484,0.8271786451,,,,,,,,,,,,,,,,,,,,,,
31,SINGLE_CHANGE,"[-9.5669914023, -1.193161687, -29.8879581893, 0.3138076937, 0.7119384606, 3.0315654443, -44.2818218937, -7.9654355998]",Flex Agent 1,1.0,0.2027649802,0.225,7.75,0.07353584020000001,0.0088347862,40.0390762244,-0.0037186531,2.0,1.25,1.1443947134,1.3069697657,,,,,,,,,,,,,,,,,,,,,,
32,SINGLE_CHANGE,"[-9.5669914023, -1.193161687, -29.8879581893, 0.3138076937, 0.7119384606, 3.0315654443, -44.2818218937, -7.9654355998]",Flex Agent 1,2.0,0.1989977115,0.19,8.5,0.0678404575,0.010865841400000001,38.4206313662,-0.0048574472,6.5,1.2166666667000001,0.9786759269,1.1608626204,,,,,,,,,,,,,,,,,,,,,,
33,SINGLE_CHANGE,"[-9.5669914023, -1.193161687, -29.8879581893, 0.3138076937, 0.7119384606, 3.0315654443, -44.2818218937, -7.9654355998]",Flex Agent 1,3.0,0.2020705032,0.1975,6.25,0.0790404829,0.010904058000000001,36.1201949749,-0.0028565373000000002,5.0,1.0714285714,0.9900245537000001,1.2564379804999999,,,,,,,,,,,,,,,,,,,,,,
34,SINGLE_CHANGE,"[-9.5669914023, -1.193161687, -29.8879581893, 0.3138076937, 0.7119384606, 3.0315654443, -44.2818218937, -7.9654355998]",Flex Agent 1,4.0,0.20017428240000001,0.155,6.25,0.0714230445,0.0196849882,33.931595142,-0.0012124673,6.0,1.2428571429,0.9815044437,1.0687396471,,,,,,,,,,,,,,,,,,,,,,
35,SINGLE_CHANGE,"[-9.5669914023, -1.193161687, -29.8879581893, 0.3138076937, 0.7119384606, 3.0315654443, -44.2818218937, -7.9654355998]",Flex Agent 7,0.0,0.1353483325,0.0575,2.25,0.0467886129,0.0103231256,33.8095765689,0.0001048655,19.5,3.1697368421,0.3627051026,0.38863031210000004,,,,,,,,,,,,,,,,,,,,,,
36,SINGLE_CHANGE,"[-9.5669914023, -1.193161687, -29.8879581893, 0.3138076937, 0.7119384606, 3.0315654443, -44.2818218937, -7.9654355998]",Flex Agent 7,1.0,0.1314692284,0.052500000000000005,2.5,0.0393819154,0.0073796571,28.8929268882,-4.6425400000000004e-05,24.0,2.6875,0.34860159490000003,0.3941226514,,,,,,,,,,,,,,,,,,,,,,
37,SINGLE_CHANGE,"[-9.5669914023, -1.193161687, -29.8879581893, 0.3138076937, 0.7119384606, 3.0315654443, -44.2818218937, -7.9654355998]",Flex Agent 7,2.0,0.0908550642,0.03,2.25,0.055964749300000005,0.0091309589,33.4354346182,0.0001172565,22.0,2.7867494824,0.3132862332,0.357004837,,,,,,,,,,,,,,,,,,,,,,
38,SINGLE_CHANGE,"[-9.5669914023, -1.193161687, -29.8879581893, 0.3138076937, 0.7119384606, 3.0315654443, -44.2818218937, -7.9654355998]",Flex Agent 7,3.0,0.1312042388,0.052500000000000005,2.5,0.0413878384,0.007370572000000001,39.3680462576,-1.46045e-05,22.5,2.8616600791,0.35829907510000003,0.4194900173,,,,,,,,,,,,,,,,,,,,,,
39,SINGLE_CHANGE,"[-9.5669914023, -1.193161687, -29.8879581893, 0.3138076937, 0.7119384606, 3.0315654443, -44.2818218937, -7.9654355998]",Flex Agent 7,4.0,0.148790381,0.07250000000000001,2.25,0.0476530261,0.0089550546,36.7423865681,-1.1218e-05,21.5,2.9353070175,0.3687349575,0.4064609583,,,,,,,,,,,,,,,,,,,,,,
40,SINGLE_CHANGE,"[-9.5669914023, -1.193161687, -29.8879581893, 0.3138076937, 0.7119384606, 3.0315654443, -44.2818218937, -7.9654355998]",Flex Agent 9,0.0,0.0,0.0,1.0,0.0024507401,0.0042448064,16.8642559026,-0.0002277386,3.0,1.5,0.0004957703,0.0019830813,,,,,,,,,,,,,,,,,,,,,,
41,SINGLE_CHANGE,"[-9.5669914023, -1.193161687, -29.8879581893, 0.3138076937, 0.7119384606, 3.0315654443, -44.2818218937, -7.9654355998]",Flex Agent 9,1.0,0.0,0.0,1.0,0.0024507401,0.0042448064,29.2065426365,4.4214e-05,7.5,1.1339285714,0.0008399752,0.0033599008,,,,,,,,,,,,,,,,,,,,,,
42,SINGLE_CHANGE,"[-9.5669914023, -1.193161687, -29.8879581893, 0.3138076937, 0.7119384606, 3.0315654443, -44.2818218937, -7.9654355998]",Flex Agent 9,2.0,0.0,0.0,1.0,0.0024507401,0.0042448064,43.0002921771,3.0507000000000003e-06,7.0,2.0,0.0019644487,0.0078577946,,,,,,,,,,,,,,,,,,,,,,
43,SINGLE_CHANGE,"[-9.5669914023, -1.193161687, -29.8879581893, 0.3138076937, 0.7119384606, 3.0315654443, -44.2818218937, -7.9654355998]",Flex Agent 9,3.0,0.0,0.0,1.0,0.0024507401,0.0042448064,26.2649165205,-1.6902100000000002e-05,7.0,1.0,0.0013416209,0.005366483500000001,,,,,,,,,,,,,,,,,,,,,,
44,SINGLE_CHANGE,"[-9.5669914023, -1.193161687, -29.8879581893, 0.3138076937, 0.7119384606, 3.0315654443, -44.2818218937, -7.9654355998]",Flex Agent 9,4.0,0.0,0.0,1.0,0.0024507401,0.0042448064,31.5569964879,-4.4095e-06,8.0,1.0,0.0015896242,0.006358496700000001,,,,,,,,,,,,,,,,,,,,,,
45,SINGLE_CHANGE,"[-9.5669914023, -1.193161687, -29.8879581893, 0.3138076937, 0.7119384606, 3.0315654443, -44.2818218937, -7.9654355998]",Flex Agent 8,0.0,0.1952946063,0.155,3.75,0.0342562204,0.0046354499000000006,56.4317816286,0.0006933131,23.5,2.4354545455,0.6553999736,0.7884959005000001,,,,,,,,,,,,,,,,,,,,,,
46,SINGLE_CHANGE,"[-9.5669914023, -1.193161687, -29.8879581893, 0.3138076937, 0.7119384606, 3.0315654443, -44.2818218937, -7.9654355998]",Flex Agent 8,1.0,0.1985670833,0.15,3.0,0.0461568024,0.0078574033,30.068838512,0.0005972595,22.5,2.64,0.6136298975000001,0.6626894286,,,,,,,,,,,,,,,,,,,,,,
47,SINGLE_CHANGE,"[-9.5669914023, -1.193161687, -29.8879581893, 0.3138076937, 0.7119384606, 3.0315654443, -44.2818218937, -7.9654355998]",Flex Agent 8,2.0,0.1946513241,0.145,3.5,0.0360789377,0.0058256521,35.2977688151,0.0001739104,24.0,2.3541666667,0.6837367440000001,0.7451270159000001,,,,,,,,,,,,,,,,,,,,,,
48,SINGLE_CHANGE,"[-9.5669914023, -1.193161687, -29.8879581893, 0.3138076937, 0.7119384606, 3.0315654443, -44.2818218937, -7.9654355998]",Flex Agent 8,3.0,0.19786889230000002,0.1525,4.0,0.0390313735,0.0063319771,55.5349867602,-1.05457e-05,22.5,2.6067193676000002,0.6717492571,0.7674640461000001,,,,,,,,,,,,,,,,,,,,,,
49,SINGLE_CHANGE,"[-9.5669914023, -1.193161687, -29.8879581893, 0.3138076937, 0.7119384606, 3.0315654443, -44.2818218937, -7.9654355998]",Flex Agent 8,4.0,0.20336816530000001,0.17250000000000001,3.25,0.0586783317,0.0088899238,35.8185758654,0.000244246,23.5,2.5916666667,0.6522345318,0.6833798439000001,,,,,,,,,,,,,,,,,,,,,,
50,,,Global,,,,,,,,,,,,,0.11909259411199999,0.083365616711056,0.0805,0.06892949666292422,3.195,1.9725734253424754,0.041948815555999996,0.029178459979554976,0.007764478484000001,0.004299278652301391,32.852249068149995,7.295676015102213,-0.0006867263940000001,0.0014093640754636492,10.4,8.232588305270806,1.721066071144,0.7004231749983627,0.417166520144,0.32708842247180253,0.48651916230799996,0.38192952861633517
