,NeighborhoodDefinition,TargetSchedule,Agent,FLA_ID,INFORMATION_CONTENT,PARTIAL_INFORMATION_CONTENT,INFORMATION_STABILITY,FITNESS_VARIANCE_MEAN,FITNESS_VARIANCE_STD,FITNESS_MEAN,DISPERSION_INDEX,MEAN_NUMBER_OF_NEUTRAL_AREAS,MEAN_SIZE_OF_NEUTRAL_AREAS,MEAN_FITNESS_DISTANCE,MAX_FITNESS_DISTANCE,INFORMATION_CONTENT_MEAN,INFORMATION_CONTENT_STD,PARTIAL_INFORMATION_CONTENT_MEAN,PARTIAL_INFORMATION_CONTENT_STD,INFORMATION_STABILITY_MEAN,INFORMATION_STABILITY_STD,FITNESS_VARIANCE_MEAN_MEAN,FITNESS_VARIANCE_MEAN_STD,FITNESS_VARIANCE_STD_MEAN,FITNESS_VARIANCE_STD_STD,FITNESS_MEAN_MEAN,FITNESS_MEAN_STD,DISPERSION_INDEX_MEAN,DISPERSION_INDEX_STD,MEAN_NUMBER_OF_NEUTRAL_AREAS_MEAN,MEAN_NUMBER_OF_NEUTRAL_AREAS_STD,MEAN_SIZE_OF_NEUTRAL_AREAS_MEAN,MEAN_SIZE_OF_NEUTRAL_AREAS_STD,MEAN_FITNESS_DISTANCE_MEAN,MEAN_FITNESS_DISTANCE_STD,MAX_FITNESS_DISTANCE_MEAN,MAX_FITNESS_DISTANCE_STD
0,SINGLE_CHANGE,"[-40.8900812378, -10.5762085715, 0.0, 25.1373955134, -40.6866793911, -23.2359743478, -3.902452278, 25.2572847486]",Flex Agent 1,0.0,0.1950685238,0.17500000000000002,6.5,0.0715922467,0.0157422862,41.7339440716,-0.0003666963,3.0,1.1666666667,0.9134312715,1.2948584563,,,,,,,,,,,,,,,,,,,,,,
1,SINGLE_CHANGE,"[-40.8900812378, -10.5762085715, 0.0, 25.1373955134, -40.6866793911, -23.2359743478, -3.902452278, 25.2572847486]",Flex Agent 1,1.0,0.1963482352,0.14750000000000002,5.75,0.0613654885,0.0096210375,45.4095595159,-0.0015804499000000001,6.5,1.0714285714,0.7159909756,0.7592015482000001,,,,,,,,,,,,,,,,,,,,,,
2,SINGLE_CHANGE,"[-40.8900812378, -10.5762085715, 0.0, 25.1373955134, -40.6866793911, -23.2359743478, -3.902452278, 25.2572847486]",Flex Agent 1,2.0,0.1981147692,0.15,6.0,0.07435505,0.0097066357,56.2895558068,-0.00032453310000000004,5.0,1.0714285714,0.7827011406000001,0.9682427225,,,,,,,,,,,,,,,,,,,,,,
3,SINGLE_CHANGE,"[-40.8900812378, -10.5762085715, 0.0, 25.1373955134, -40.6866793911, -23.2359743478, -3.902452278, 25.2572847486]",Flex Agent 1,3.0,0.20361806070000002,0.225,5.75,0.07649292340000001,0.0196918002,61.5555056234,-0.0011443068,3.0,1.2,0.9981797568,1.1063843107,,,,,,,,,,,,,,,,,,,,,,
4,SINGLE_CHANGE,"[-40.8900812378, -10.5762085715, 0.0, 25.1373955134, -40.6866793911, -23.2359743478, -3.902452278, 25.2572847486]",Flex Agent 1,4.0,0.1975173583,0.145,5.25,0.0738906949,0.0198334543,40.1776820679,1.43801e-05,4.5,1.4,0.7735215120000001,1.0332748408,,,,,,,,,,,,,,,,,,,,,,
5,SINGLE_CHANGE,"[-40.8900812378, -10.5762085715, 0.0, 25.1373955134, -40.6866793911, -23.2359743478, -3.902452278, 25.2572847486]",Flex Agent 2,0.0,0.192933091,0.17750000000000002,5.5,0.0672731565,0.0116657086,44.7195419325,-0.0003644609,6.0,1.1111111111,0.7578053808,0.8416427247,,,,,,,,,,,,,,,,,,,,,,
6,SINGLE_CHANGE,"[-40.8900812378, -10.5762085715, 0.0, 25.1373955134, -40.6866793911, -23.2359743478, -3.902452278, 25.2572847486]",Flex Agent 2,1.0,0.2040763908,0.21,5.75,0.074779012,0.0159501536,54.5330957007,-0.0003442875,3.5,2.1666666667,0.9073466644,0.9752688648000001,,,,,,,,,,,,,,,,,,,,,,
7,SINGLE_CHANGE,"[-40.8900812378, -10.5762085715, 0.0, 25.1373955134, -40.6866793911, -23.2359743478, -3.902452278, 25.2572847486]",Flex Agent 2,2.0,0.1996640411,0.155,5.25,0.057172169700000004,0.012632993200000001,44.1545871967,-0.0002953671,4.5,1.2,0.7164646036,0.8722880031,,,,,,,,,,,,,,,,,,,,,,
8,SINGLE_CHANGE,"[-40.8900812378, -10.5762085715, 0.0, 25.1373955134, -40.6866793911, -23.2359743478, -3.902452278, 25.2572847486]",Flex Agent 2,3.0,0.2022432868,0.20750000000000002,5.5,0.0842121264,0.0077316314,53.7099499502,0.0005699502,4.5,1.1428571429,1.0108926934,1.0852828414,,,,,,,,,,,,,,,,,,,,,,
9,SINGLE_CHANGE,"[-40.8900812378, -10.5762085715, 0.0, 25.1373955134, -40.6866793911, -23.2359743478, -3.902452278, 25.2572847486]",Flex Agent 2,4.0,0.1980233577,0.17,5.5,0.0658397403,0.0151606207,41.7611384242,0.0005996138,5.5,1.1833333333,0.8336750195,0.9705358158,,,,,,,,,,,,,,,,,,,,,,
10,SINGLE_CHANGE,"[-40.8900812378, -10.5762085715, 0.0, 25.1373955134, -40.6866793911, -23.2359743478, -3.902452278, 25.2572847486]",Flex Agent 4,0.0,0.0,0.0,1.0,0.0024507401,0.0042448064,44.5424205235,-9.42679e-05,7.5,1.6666666667,0.0004957705,0.0019830822000000002,,,,,,,,,,,,,,,,,,,,,,
11,SINGLE_CHANGE,"[-40.8900812378, -10.5762085715, 0.0, 25.1373955134, -40.6866793911, -23.2359743478, -3.902452278, 25.2572847486]",Flex Agent 4,1.0,0.0,0.0,1.0,0.0024507401,0.0042448064,44.747479352,0.0001126868,9.5,1.0,0.0022039985,0.008815994,,,,,,,,,,,,,,,,,,,,,,
12,SINGLE_CHANGE,"[-40.8900812378, -10.5762085715, 0.0, 25.1373955134, -40.6866793911, -23.2359743478, -3.902452278, 25.2572847486]",Flex Agent 4,2.0,0.0,0.0,1.0,0.0024507401,0.0042448064,55.3220030605,-2.82956e-05,8.0,1.0,0.0024999135,0.009999654,,,,,,,,,,,,,,,,,,,,,,
13,SINGLE_CHANGE,"[-40.8900812378, -10.5762085715, 0.0, 25.1373955134, -40.6866793911, -23.2359743478, -3.902452278, 25.2572847486]",Flex Agent 4,3.0,0.0,0.0,1.0,0.0024507401,0.0042448064,52.703301988,-5.3169000000000005e-05,8.5,1.0,0.0013416211000000001,0.0053664843,,,,,,,,,,,,,,,,,,,,,,
14,SINGLE_CHANGE,"[-40.8900812378, -10.5762085715, 0.0, 25.1373955134, -40.6866793911, -23.2359743478, -3.902452278, 25.2572847486]",Flex Agent 4,4.0,0.0,0.0,1.0,0.0024507401,0.0042448064,52.0247895128,-2.72716e-05,9.0,1.0,0.0011048897,0.0044195587,,,,,,,,,,,,,,,,,,,,,,
15,SINGLE_CHANGE,"[-40.8900812378, -10.5762085715, 0.0, 25.1373955134, -40.6866793911, -23.2359743478, -3.902452278, 25.2572847486]",Flex Agent 5,0.0,0.0,0.0,1.0,0.0024507401,0.0042448064,41.7709319112,-0.0001400878,5.5,1.4333333333,0.0014004173,0.0056016691000000006,,,,,,,,,,,,,,,,,,,,,,
16,SINGLE_CHANGE,"[-40.8900812378, -10.5762085715, 0.0, 25.1373955134, -40.6866793911, -23.2359743478, -3.902452278, 25.2572847486]",Flex Agent 5,1.0,0.006425486,0.0,1.25,0.0024507401,0.0042448064,57.9342336362,-9.045100000000001e-06,6.0,1.0,0.0045536072,0.018214429,,,,,,,,,,,,,,,,,,,,,,
17,SINGLE_CHANGE,"[-40.8900812378, -10.5762085715, 0.0, 25.1373955134, -40.6866793911, -23.2359743478, -3.902452278, 25.2572847486]",Flex Agent 5,2.0,0.006425486,0.0,1.25,0.0024507401,0.0042448064,55.2984417957,-9.170000000000001e-07,6.0,1.8333333333000001,0.0035517195000000002,0.014206877900000001,,,,,,,,,,,,,,,,,,,,,,
18,SINGLE_CHANGE,"[-40.8900812378, -10.5762085715, 0.0, 25.1373955134, -40.6866793911, -23.2359743478, -3.902452278, 25.2572847486]",Flex Agent 5,3.0,0.006425486,0.0,1.25,0.0024507401,0.0042448064,56.828641886,-8.3852e-06,5.0,1.0,0.0030379304,0.0121517216,,,,,,,,,,,,,,,,,,,,,,
19,SINGLE_CHANGE,"[-40.8900812378, -10.5762085715, 0.0, 25.1373955134, -40.6866793911, -23.2359743478, -3.902452278, 25.2572847486]",Flex Agent 5,4.0,0.006425486,0.0,1.25,0.0024507401,0.0042448064,49.4165452246,-7.266900000000001e-06,2.0,1.0,0.002536986,0.0101479441,,,,,,,,,,,,,,,,,,,,,,
20,SINGLE_CHANGE,"[-40.8900812378, -10.5762085715, 0.0, 25.1373955134, -40.6866793911, -23.2359743478, -3.902452278, 25.2572847486]",Flex Agent 6,0.0,0.2001694927,0.1575,3.75,0.0363398561,0.0049970971,37.2266263606,0.0001084159,22.0,2.9037267080999998,0.567162736,0.5996303026,,,,,,,,,,,,,,,,,,,,,,
21,SINGLE_CHANGE,"[-40.8900812378, -10.5762085715, 0.0, 25.1373955134, -40.6866793911, -23.2359743478, -3.902452278, 25.2572847486]",Flex Agent 6,1.0,0.19869265460000002,0.15,3.0,0.0493622643,0.0122223629,76.0151194242,9.14896e-05,22.0,2.6180124224,0.5665079150000001,0.6312396456,,,,,,,,,,,,,,,,,,,,,,
22,SINGLE_CHANGE,"[-40.8900812378, -10.5762085715, 0.0, 25.1373955134, -40.6866793911, -23.2359743478, -3.902452278, 25.2572847486]",Flex Agent 6,2.0,0.2008402419,0.17750000000000002,3.75,0.030083249700000002,0.0057862867000000005,48.569434476,7.85496e-05,17.0,3.3958333333,0.6490036863,0.7487273600000001,,,,,,,,,,,,,,,,,,,,,,
23,SINGLE_CHANGE,"[-40.8900812378, -10.5762085715, 0.0, 25.1373955134, -40.6866793911, -23.2359743478, -3.902452278, 25.2572847486]",Flex Agent 6,3.0,0.2027434234,0.1975,3.75,0.0407315373,0.0069222762,65.3997521882,-5.9901000000000005e-06,27.0,1.8063186813,0.6899928278,0.8008748631,,,,,,,,,,,,,,,,,,,,,,
24,SINGLE_CHANGE,"[-40.8900812378, -10.5762085715, 0.0, 25.1373955134, -40.6866793911, -23.2359743478, -3.902452278, 25.2572847486]",Flex Agent 6,4.0,0.1979804379,0.185,2.75,0.0412369571,0.0035271148000000003,62.9340194364,4.7178e-06,21.5,2.8543478261,0.684359845,0.7936806287,,,,,,,,,,,,,,,,,,,,,,
25,SINGLE_CHANGE,"[-40.8900812378, -10.5762085715, 0.0, 25.1373955134, -40.6866793911, -23.2359743478, -3.902452278, 25.2572847486]",Flex Agent 3,0.0,0.14182539560000001,0.0625,2.75,0.0374273976,0.0056375475,54.1239203332,2.66948e-05,19.5,3.2286096257,0.4061911606,0.5075318146,,,,,,,,,,,,,,,,,,,,,,
26,SINGLE_CHANGE,"[-40.8900812378, -10.5762085715, 0.0, 25.1373955134, -40.6866793911, -23.2359743478, -3.902452278, 25.2572847486]",Flex Agent 3,1.0,0.16304863760000002,0.0775,2.75,0.048951758000000005,0.005731008,58.9684205494,-1.5094700000000001e-05,22.0,2.8002070393,0.4463101242,0.4868182898,,,,,,,,,,,,,,,,,,,,,,
27,SINGLE_CHANGE,"[-40.8900812378, -10.5762085715, 0.0, 25.1373955134, -40.6866793911, -23.2359743478, -3.902452278, 25.2572847486]",Flex Agent 3,2.0,0.1674629855,0.085,2.5,0.0404837706,0.0074802538,61.8431540848,8.67365e-05,21.5,2.66,0.4440523355,0.48535317640000003,,,,,,,,,,,,,,,,,,,,,,
28,SINGLE_CHANGE,"[-40.8900812378, -10.5762085715, 0.0, 25.1373955134, -40.6866793911, -23.2359743478, -3.902452278, 25.2572847486]",Flex Agent 3,3.0,0.1709722004,0.0925,2.75,0.0411436554,0.0099681452,45.5153444314,-8.45361e-05,26.0,2.0833333333,0.4523332298,0.5390126829,,,,,,,,,,,,,,,,,,,,,,
29,SINGLE_CHANGE,"[-40.8900812378, -10.5762085715, 0.0, 25.1373955134, -40.6866793911, -23.2359743478, -3.902452278, 25.2572847486]",Flex Agent 3,4.0,0.1734458153,0.0925,2.5,0.0500222955,0.0088901623,61.798690057900004,0.0002297631,26.0,2.3268365817,0.4780632878,0.5338676176,,,,,,,,,,,,,,,,,,,,,,
30,SINGLE_CHANGE,"[-40.8900812378, -10.5762085715, 0.0, 25.1373955134, -40.6866793911, -23.2359743478, -3.902452278, 25.2572847486]",Flex Agent 7,0.0,0.006425486,0.0,4.25,0.0024507401,0.0042448064,103.6155796247,-0.0115878166,3.5,2.4166666667,0.0344361607,0.1377446428,,,,,,,,,,,,,,,,,,,,,,
31,SINGLE_CHANGE,"[-40.8900812378, -10.5762085715, 0.0, 25.1373955134, -40.6866793911, -23.2359743478, -3.902452278, 25.2572847486]",Flex Agent 7,1.0,0.006425486,0.0,5.5,0.0024507401,0.0042448064,110.2686532783,-0.0004977768000000001,3.0,2.3333333333,0.0470916776,0.1883667105,,,,,,,,,,,,,,,,,,,,,,
32,SINGLE_CHANGE,"[-40.8900812378, -10.5762085715, 0.0, 25.1373955134, -40.6866793911, -23.2359743478, -3.902452278, 25.2572847486]",Flex Agent 7,2.0,0.006425486,0.0,4.0,0.0024507401,0.0042448064,112.8904441748,-0.0002716414,3.0,2.3333333333,0.0314984964,0.12599398550000002,,,,,,,,,,,,,,,,,,,,,,
33,SINGLE_CHANGE,"[-40.8900812378, -10.5762085715, 0.0, 25.1373955134, -40.6866793911, -23.2359743478, -3.902452278, 25.2572847486]",Flex Agent 7,3.0,0.006425486,0.0,2.5,0.0024507401,0.0042448064,107.8006540446,-0.00020613480000000002,2.5,2.6666666667000003,0.0161378805,0.06455152210000001,,,,,,,,,,,,,,,,,,,,,,
34,SINGLE_CHANGE,"[-40.8900812378, -10.5762085715, 0.0, 25.1373955134, -40.6866793911, -23.2359743478, -3.902452278, 25.2572847486]",Flex Agent 7,4.0,0.006425486,0.0,3.25,0.0024507401,0.0042448064,101.4830770199,-0.00040353730000000003,3.0,2.3333333333,0.0236002992,0.0944011966,,,,,,,,,,,,,,,,,,,,,,
35,SINGLE_CHANGE,"[-40.8900812378, -10.5762085715, 0.0, 25.1373955134, -40.6866793911, -23.2359743478, -3.902452278, 25.2572847486]",Flex Agent 0,0.0,0.2040206114,0.1875,3.0,0.046926275,0.0059769184000000005,31.3536520278,-1.09695e-05,25.0,2.3205128205,0.6355086184000001,0.7600764535000001,,,,,,,,,,,,,,,,,,,,,,
36,SINGLE_CHANGE,"[-40.8900812378, -10.5762085715, 0.0, 25.1373955134, -40.6866793911, -23.2359743478, -3.902452278, 25.2572847486]",Flex Agent 0,1.0,0.2038559067,0.17,3.5,0.0430124522,0.009228140000000001,55.4331951356,0.0001228907,22.0,2.5833333333,0.6561497571,0.692961468,,,,,,,,,,,,,,,,,,,,,,
37,SINGLE_CHANGE,"[-40.8900812378, -10.5762085715, 0.0, 25.1373955134, -40.6866793911, -23.2359743478, -3.902452278, 25.2572847486]",Flex Agent 0,2.0,0.2039392377,0.17500000000000002,3.75,0.0431987096,0.0092001407,69.2418561369,7.06117e-05,18.0,3.9659442724,0.7180582937000001,0.8382012459,,,,,,,,,,,,,,,,,,,,,,
38,SINGLE_CHANGE,"[-40.8900812378, -10.5762085715, 0.0, 25.1373955134, -40.6866793911, -23.2359743478, -3.902452278, 25.2572847486]",Flex Agent 0,3.0,0.2038235273,0.18,3.25,0.0403566181,0.0074907769,43.1897446822,0.00020802060000000002,22.5,3.0577731092,0.6178835487000001,0.7153521018,,,,,,,,,,,,,,,,,,,,,,
39,SINGLE_CHANGE,"[-40.8900812378, -10.5762085715, 0.0, 25.1373955134, -40.6866793911, -23.2359743478, -3.902452278, 25.2572847486]",Flex Agent 0,4.0,0.201017361,0.165,3.75,0.045025595,0.0051451242,57.8129099569,-5.87244e-05,21.5,3.0248917749,0.6614324544,0.7368332295000001,,,,,,,,,,,,,,,,,,,,,,
40,SINGLE_CHANGE,"[-40.8900812378, -10.5762085715, 0.0, 25.1373955134, -40.6866793911, -23.2359743478, -3.902452278, 25.2572847486]",Flex Agent 9,0.0,0.1915504435,0.1325,5.5,0.0767008181,0.011242720500000001,42.7294777083,-0.0005317822,5.5,1.3666666667,0.6495900999,0.7345746741,,,,,,,,,,,,,,,,,,,,,,
41,SINGLE_CHANGE,"[-40.8900812378, -10.5762085715, 0.0, 25.1373955134, -40.6866793911, -23.2359743478, -3.902452278, 25.2572847486]",Flex Agent 9,1.0,0.19346172720000002,0.1375,5.0,0.0784539581,0.0067340510000000004,52.443251866,0.0002066217,4.5,1.1,0.6953314319,0.7892941603,,,,,,,,,,,,,,,,,,,,,,
42,SINGLE_CHANGE,"[-40.8900812378, -10.5762085715, 0.0, 25.1373955134, -40.6866793911, -23.2359743478, -3.902452278, 25.2572847486]",Flex Agent 9,2.0,0.1960641297,0.14750000000000002,4.5,0.054227735000000006,0.0041217621,44.8743131989,1.1326600000000001e-05,4.5,1.0714285714,0.6656639411,0.8991078541,,,,,,,,,,,,,,,,,,,,,,
43,SINGLE_CHANGE,"[-40.8900812378, -10.5762085715, 0.0, 25.1373955134, -40.6866793911, -23.2359743478, -3.902452278, 25.2572847486]",Flex Agent 9,3.0,0.1997224498,0.1575,6.0,0.0706116755,0.0245324065,53.6151617974,4.75926e-05,4.0,1.0,0.8062498079,0.8694962389,,,,,,,,,,,,,,,,,,,,,,
44,SINGLE_CHANGE,"[-40.8900812378, -10.5762085715, 0.0, 25.1373955134, -40.6866793911, -23.2359743478, -3.902452278, 25.2572847486]",Flex Agent 9,4.0,0.1796038154,0.115,5.75,0.06743517510000001,0.0098366652,52.8751184358,-0.00036994160000000003,7.0,1.0625,0.6384910075,0.7177861867,,,,,,,,,,,,,,,,,,,,,,
45,SINGLE_CHANGE,"[-40.8900812378, -10.5762085715, 0.0, 25.1373955134, -40.6866793911, -23.2359743478, -3.902452278, 25.2572847486]",Flex Agent 8,0.0,0.1358973405,0.0625,2.0,0.0391520359,0.0052078958,32.4081551647,0.0002000572,22.5,2.7946428571,0.3982661752,0.46439991900000005,,,,,,,,,,,,,,,,,,,,,,
46,SINGLE_CHANGE,"[-40.8900812378, -10.5762085715, 0.0, 25.1373955134, -40.6866793911, -23.2359743478, -3.902452278, 25.2572847486]",Flex Agent 8,1.0,0.1229692014,0.052500000000000005,2.25,0.0377221424,0.0032761860000000004,54.4918484637,-3.7157200000000004e-05,21.5,2.7511111111,0.3530095915,0.3945200846,,,,,,,,,,,,,,,,,,,,,,
47,SINGLE_CHANGE,"[-40.8900812378, -10.5762085715, 0.0, 25.1373955134, -40.6866793911, -23.2359743478, -3.902452278, 25.2572847486]",Flex Agent 8,2.0,0.1291007494,0.05,2.25,0.0401852919,0.0053602674,56.8246708777,0.000266286,23.0,2.3238636364,0.3672939832,0.4307202927,,,,,,,,,,,,,,,,,,,,,,
48,SINGLE_CHANGE,"[-40.8900812378, -10.5762085715, 0.0, 25.1373955134, -40.6866793911, -23.2359743478, -3.902452278, 25.2572847486]",Flex Agent 8,3.0,0.1293708966,0.05,2.5,0.0520214944,0.0052460204,58.8010002802,0.0006963088,25.5,2.24,0.3236691243,0.39079673610000004,,,,,,,,,,,,,,,,,,,,,,
49,SINGLE_CHANGE,"[-40.8900812378, -10.5762085715, 0.0, 25.1373955134, -40.6866793911, -23.2359743478, -3.902452278, 25.2572847486]",Flex Agent 8,4.0,0.1173385114,0.045,2.0,0.0409682007,0.0036868655000000003,47.7566125246,0.00020811470000000002,21.5,2.7236842105,0.3577360184,0.4005323476,,,,,,,,,,,,,,,,,,,,,,
50,,,Global,,,,,,,,,,,,,0.12948707365,0.08614668442264675,0.09735,0.07756565684920731,3.45,1.7165164058139881,0.03871029257,0.027256892034990828,0.007777132250000001,0.004848425004785749,57.13874413842999,19.05684407721971,-0.00029818163200000003,0.0016705229537007562,12.02,8.823646337760685,1.9358747328959998,0.8257241537869948,0.45027622775000004,0.3282341225457684,0.5314066994960001,0.37280641938488795
