,NeighborhoodDefinition,TargetSchedule,Agent,FLA_ID,INFORMATION_CONTENT,PARTIAL_INFORMATION_CONTENT,INFORMATION_STABILITY,FITNESS_VARIANCE_MEAN,FITNESS_VARIANCE_STD,FITNESS_MEAN,DISPERSION_INDEX,MEAN_NUMBER_OF_NEUTRAL_AREAS,MEAN_SIZE_OF_NEUTRAL_AREAS,MEAN_FITNESS_DISTANCE,MAX_FITNESS_DISTANCE,INFORMATION_CONTENT_MEAN,INFORMATION_CONTENT_STD,PARTIAL_INFORMATION_CONTENT_MEAN,PARTIAL_INFORMATION_CONTENT_STD,INFORMATION_STABILITY_MEAN,INFORMATION_STABILITY_STD,FITNESS_VARIANCE_MEAN_MEAN,FITNESS_VARIANCE_MEAN_STD,FITNESS_VARIANCE_STD_MEAN,FITNESS_VARIANCE_STD_STD,FITNESS_MEAN_MEAN,FITNESS_MEAN_STD,DISPERSION_INDEX_MEAN,DISPERSION_INDEX_STD,MEAN_NUMBER_OF_NEUTRAL_AREAS_MEAN,MEAN_NUMBER_OF_NEUTRAL_AREAS_STD,MEAN_SIZE_OF_NEUTRAL_AREAS_MEAN,MEAN_SIZE_OF_NEUTRAL_AREAS_STD,MEAN_FITNESS_DISTANCE_MEAN,MEAN_FITNESS_DISTANCE_STD,MAX_FITNESS_DISTANCE_MEAN,MAX_FITNESS_DISTANCE_STD
0,SINGLE_CHANGE,"[-12.1475911291, -23.6276683188, 3.0510421103, 1.3684839641, -13.5216811206, 3.0390574917, -0.9068248774000001, -6.7541852936]",Flex Agent 1,0.0,0.1549015229,0.08,3.0,0.0489209392,0.0038160716,24.8996116483,0.0011866404,22.5,2.4732142857,0.4263736902,0.5222396461000001,,,,,,,,,,,,,,,,,,,,,,
1,SINGLE_CHANGE,"[-12.1475911291, -23.6276683188, 3.0510421103, 1.3684839641, -13.5216811206, 3.0390574917, -0.9068248774000001, -6.7541852936]",Flex Agent 1,1.0,0.14594576380000002,0.0675,2.25,0.0336908229,0.0076385383,23.0079960078,0.0006477229,20.0,3.1892230576,0.37693311900000004,0.4361777128,,,,,,,,,,,,,,,,,,,,,,
2,SINGLE_CHANGE,"[-12.1475911291, -23.6276683188, 3.0510421103, 1.3684839641, -13.5216811206, 3.0390574917, -0.9068248774000001, -6.7541852936]",Flex Agent 1,2.0,0.1591838069,0.0775,2.5,0.040105406,0.005580046,20.9853084079,-0.0001289235,18.0,3.3390092879,0.4289952227,0.46403092160000003,,,,,,,,,,,,,,,,,,,,,,
3,SINGLE_CHANGE,"[-12.1475911291, -23.6276683188, 3.0510421103, 1.3684839641, -13.5216811206, 3.0390574917, -0.9068248774000001, -6.7541852936]",Flex Agent 1,3.0,0.1527358901,0.07,3.0,0.052363818400000005,0.010257032000000001,25.878604822,0.0005430117000000001,16.5,4.5666666667,0.39284261800000003,0.4260952535,,,,,,,,,,,,,,,,,,,,,,
4,SINGLE_CHANGE,"[-12.1475911291, -23.6276683188, 3.0510421103, 1.3684839641, -13.5216811206, 3.0390574917, -0.9068248774000001, -6.7541852936]",Flex Agent 1,4.0,0.1569407477,0.075,2.5,0.0387648023,0.006219531800000001,22.9235969929,0.0010576715,18.5,3.1169590643,0.4274053136,0.49222927990000004,,,,,,,,,,,,,,,,,,,,,,
5,SINGLE_CHANGE,"[-12.1475911291, -23.6276683188, 3.0510421103, 1.3684839641, -13.5216811206, 3.0390574917, -0.9068248774000001, -6.7541852936]",Flex Agent 4,0.0,0.1147335111,0.0425,2.0,0.0444241866,0.0116835011,18.9843313651,7.69742e-05,21.5,3.1222943723,0.3363124944,0.3745310591,,,,,,,,,,,,,,,,,,,,,,
6,SINGLE_CHANGE,"[-12.1475911291, -23.6276683188, 3.0510421103, 1.3684839641, -13.5216811206, 3.0390574917, -0.9068248774000001, -6.7541852936]",Flex Agent 4,1.0,0.10116474140000001,0.0375,2.25,0.0429072522,0.0070449995,11.264528318,6.33602e-05,20.0,3.1085858586,0.3022229087,0.3787141583,,,,,,,,,,,,,,,,,,,,,,
7,SINGLE_CHANGE,"[-12.1475911291, -23.6276683188, 3.0510421103, 1.3684839641, -13.5216811206, 3.0390574917, -0.9068248774000001, -6.7541852936]",Flex Agent 4,2.0,0.1317427779,0.052500000000000005,2.0,0.043974669200000004,0.0091849787,21.6565716745,2.9163000000000002e-05,17.5,4.0559210526,0.3679187814,0.3843974806,,,,,,,,,,,,,,,,,,,,,,
8,SINGLE_CHANGE,"[-12.1475911291, -23.6276683188, 3.0510421103, 1.3684839641, -13.5216811206, 3.0390574917, -0.9068248774000001, -6.7541852936]",Flex Agent 4,3.0,0.0991844134,0.035,2.0,0.043021696000000005,0.0030596655,12.2159397331,0.0002419643,22.0,2.8636363636,0.3471040749,0.3749223319,,,,,,,,,,,,,,,,,,,,,,
9,SINGLE_CHANGE,"[-12.1475911291, -23.6276683188, 3.0510421103, 1.3684839641, -13.5216811206, 3.0390574917, -0.9068248774000001, -6.7541852936]",Flex Agent 4,4.0,0.12516603910000001,0.0475,2.5,0.0450455716,0.0084539022,24.9162772245,9.50899e-05,21.5,3.2554112554,0.33615221710000004,0.3760875989,,,,,,,,,,,,,,,,,,,,,,
10,SINGLE_CHANGE,"[-12.1475911291, -23.6276683188, 3.0510421103, 1.3684839641, -13.5216811206, 3.0390574917, -0.9068248774000001, -6.7541852936]",Flex Agent 6,0.0,0.131590794,0.052500000000000005,2.0,0.0387396026,0.0116314416,27.9910334406,-5.343e-06,21.0,2.9659090909,0.3749127145,0.40484198790000003,,,,,,,,,,,,,,,,,,,,,,
11,SINGLE_CHANGE,"[-12.1475911291, -23.6276683188, 3.0510421103, 1.3684839641, -13.5216811206, 3.0390574917, -0.9068248774000001, -6.7541852936]",Flex Agent 6,1.0,0.1357326869,0.055,2.5,0.0468985643,0.0114825295,31.2804441042,0.0001872043,24.0,2.4408695652,0.3541834841,0.4041670358,,,,,,,,,,,,,,,,,,,,,,
12,SINGLE_CHANGE,"[-12.1475911291, -23.6276683188, 3.0510421103, 1.3684839641, -13.5216811206, 3.0390574917, -0.9068248774000001, -6.7541852936]",Flex Agent 6,2.0,0.1154238494,0.045,2.0,0.0364334679,0.0058829343,27.0672884063,0.00010773600000000001,21.5,3.1201298701,0.35293773,0.4198747396,,,,,,,,,,,,,,,,,,,,,,
13,SINGLE_CHANGE,"[-12.1475911291, -23.6276683188, 3.0510421103, 1.3684839641, -13.5216811206, 3.0390574917, -0.9068248774000001, -6.7541852936]",Flex Agent 6,3.0,0.1336358248,0.055,2.0,0.0404621428,0.0128307682,23.3468224518,-6.96472e-05,17.5,4.0970394737,0.329266854,0.3783342831,,,,,,,,,,,,,,,,,,,,,,
14,SINGLE_CHANGE,"[-12.1475911291, -23.6276683188, 3.0510421103, 1.3684839641, -13.5216811206, 3.0390574917, -0.9068248774000001, -6.7541852936]",Flex Agent 6,4.0,0.10985057620000001,0.04,2.0,0.0417479796,0.0102187919,15.4988920247,4.6045400000000005e-05,20.5,3.1678743961,0.3161211675,0.3557074411,,,,,,,,,,,,,,,,,,,,,,
15,SINGLE_CHANGE,"[-12.1475911291, -23.6276683188, 3.0510421103, 1.3684839641, -13.5216811206, 3.0390574917, -0.9068248774000001, -6.7541852936]",Flex Agent 3,0.0,0.1690717715,0.08750000000000001,4.75,0.069762396,0.010607278000000001,19.7674151693,-0.0012815740000000002,4.5,1.1,0.5461683587,0.6183436198000001,,,,,,,,,,,,,,,,,,,,,,
16,SINGLE_CHANGE,"[-12.1475911291, -23.6276683188, 3.0510421103, 1.3684839641, -13.5216811206, 3.0390574917, -0.9068248774000001, -6.7541852936]",Flex Agent 3,1.0,0.1868766073,0.12250000000000001,4.25,0.0673805567,0.0140922496,20.1659051943,-0.0026641242,5.0,1.0,0.6183463248000001,0.7472199864,,,,,,,,,,,,,,,,,,,,,,
17,SINGLE_CHANGE,"[-12.1475911291, -23.6276683188, 3.0510421103, 1.3684839641, -13.5216811206, 3.0390574917, -0.9068248774000001, -6.7541852936]",Flex Agent 3,2.0,0.1880473887,0.12250000000000001,4.0,0.0757971702,0.0195794765,23.5111368488,-0.0010939563,4.0,1.0,0.5958331222000001,0.7449834133000001,,,,,,,,,,,,,,,,,,,,,,
18,SINGLE_CHANGE,"[-12.1475911291, -23.6276683188, 3.0510421103, 1.3684839641, -13.5216811206, 3.0390574917, -0.9068248774000001, -6.7541852936]",Flex Agent 3,3.0,0.1942611115,0.1375,5.75,0.0797451725,0.014233535200000001,21.8787690872,-0.006403956200000001,6.5,1.2976190476,0.7516396133000001,0.8520839085,,,,,,,,,,,,,,,,,,,,,,
19,SINGLE_CHANGE,"[-12.1475911291, -23.6276683188, 3.0510421103, 1.3684839641, -13.5216811206, 3.0390574917, -0.9068248774000001, -6.7541852936]",Flex Agent 3,4.0,0.1957334373,0.15,4.75,0.0591097088,0.0085703422,22.4757902818,-0.0015534222000000001,6.5,1.2261904762,0.6487213933,0.7976550886,,,,,,,,,,,,,,,,,,,,,,
20,SINGLE_CHANGE,"[-12.1475911291, -23.6276683188, 3.0510421103, 1.3684839641, -13.5216811206, 3.0390574917, -0.9068248774000001, -6.7541852936]",Flex Agent 0,0.0,0.1314692284,0.055,2.5,0.029795789200000002,0.0013435206,20.0468466477,-3.3130700000000005e-05,23.0,2.6723484848,0.32731948310000003,0.3517997412,,,,,,,,,,,,,,,,,,,,,,
21,SINGLE_CHANGE,"[-12.1475911291, -23.6276683188, 3.0510421103, 1.3684839641, -13.5216811206, 3.0390574917, -0.9068248774000001, -6.7541852936]",Flex Agent 0,1.0,0.1095675966,0.0375,2.0,0.0573030901,0.0137308123,23.3121908195,0.0002173861,19.0,3.2329545455,0.3335346589,0.3519695979,,,,,,,,,,,,,,,,,,,,,,
22,SINGLE_CHANGE,"[-12.1475911291, -23.6276683188, 3.0510421103, 1.3684839641, -13.5216811206, 3.0390574917, -0.9068248774000001, -6.7541852936]",Flex Agent 0,2.0,0.09015143290000001,0.035,1.75,0.0450552128,0.0074721898,23.9797659414,0.00020562450000000002,18.0,3.5154798762,0.3453603583,0.3972728567,,,,,,,,,,,,,,,,,,,,,,
23,SINGLE_CHANGE,"[-12.1475911291, -23.6276683188, 3.0510421103, 1.3684839641, -13.5216811206, 3.0390574917, -0.9068248774000001, -6.7541852936]",Flex Agent 0,3.0,0.1120510313,0.0425,2.0,0.048574201000000004,0.012350884500000001,22.4830996892,1.36362e-05,21.0,3.2152777778,0.3077902265,0.3639218259,,,,,,,,,,,,,,,,,,,,,,
24,SINGLE_CHANGE,"[-12.1475911291, -23.6276683188, 3.0510421103, 1.3684839641, -13.5216811206, 3.0390574917, -0.9068248774000001, -6.7541852936]",Flex Agent 0,4.0,0.0892017462,0.03,2.25,0.040267966,0.0044852214,19.3921445721,5.5730000000000003e-05,21.5,3.2,0.3599477257,0.3999071476,,,,,,,,,,,,,,,,,,,,,,
25,SINGLE_CHANGE,"[-12.1475911291, -23.6276683188, 3.0510421103, 1.3684839641, -13.5216811206, 3.0390574917, -0.9068248774000001, -6.7541852936]",Flex Agent 7,0.0,0.1633514134,0.085,2.5,0.0386506906,0.0021033443,19.8319684022,-0.0001745618,24.0,2.3566433566000002,0.4669428055,0.5601525993,,,,,,,,,,,,,,,,,,,,,,
26,SINGLE_CHANGE,"[-12.1475911291, -23.6276683188, 3.0510421103, 1.3684839641, -13.5216811206, 3.0390574917, -0.9068248774000001, -6.7541852936]",Flex Agent 7,1.0,0.1603027669,0.08,2.5,0.0438719856,0.0045171369000000005,29.2246199622,0.0002700327,21.5,2.6666666667000003,0.46635775370000004,0.5093855088,,,,,,,,,,,,,,,,,,,,,,
27,SINGLE_CHANGE,"[-12.1475911291, -23.6276683188, 3.0510421103, 1.3684839641, -13.5216811206, 3.0390574917, -0.9068248774000001, -6.7541852936]",Flex Agent 7,2.0,0.1494587135,0.07250000000000001,2.0,0.041451054800000005,0.0092943357,27.1114232428,0.0008892033000000001,20.0,2.904040404,0.4210077041,0.4886034174,,,,,,,,,,,,,,,,,,,,,,
28,SINGLE_CHANGE,"[-12.1475911291, -23.6276683188, 3.0510421103, 1.3684839641, -13.5216811206, 3.0390574917, -0.9068248774000001, -6.7541852936]",Flex Agent 7,3.0,0.1594060021,0.0775,2.75,0.0393987435,0.0072003099,17.2874992798,8.19676e-05,20.5,3.3504784689,0.455985169,0.5079162712,,,,,,,,,,,,,,,,,,,,,,
29,SINGLE_CHANGE,"[-12.1475911291, -23.6276683188, 3.0510421103, 1.3684839641, -13.5216811206, 3.0390574917, -0.9068248774000001, -6.7541852936]",Flex Agent 7,4.0,0.1579430043,0.0775,3.0,0.0427574768,0.0147353067,24.742332026,0.0005453125,21.0,2.7116704805,0.42793876350000004,0.45841768060000004,,,,,,,,,,,,,,,,,,,,,,
30,SINGLE_CHANGE,"[-12.1475911291, -23.6276683188, 3.0510421103, 1.3684839641, -13.5216811206, 3.0390574917, -0.9068248774000001, -6.7541852936]",Flex Agent 5,0.0,0.20048846280000002,0.155,4.0,0.0500943838,0.0022225764,25.0327752473,-0.0001256038,19.5,3.3836898396,0.6658515739,0.7639206149000001,,,,,,,,,,,,,,,,,,,,,,
31,SINGLE_CHANGE,"[-12.1475911291, -23.6276683188, 3.0510421103, 1.3684839641, -13.5216811206, 3.0390574917, -0.9068248774000001, -6.7541852936]",Flex Agent 5,1.0,0.2019100995,0.20750000000000002,3.25,0.0406916926,0.0060487148000000004,32.6851164916,0.0001674617,18.0,3.6666666667000003,0.6872028625000001,0.7743995245,,,,,,,,,,,,,,,,,,,,,,
32,SINGLE_CHANGE,"[-12.1475911291, -23.6276683188, 3.0510421103, 1.3684839641, -13.5216811206, 3.0390574917, -0.9068248774000001, -6.7541852936]",Flex Agent 5,2.0,0.2031827753,0.17500000000000002,3.25,0.0370440099,0.0083636545,22.4675882395,0.0005154505,18.5,3.4897660819,0.6204531053,0.6660233093,,,,,,,,,,,,,,,,,,,,,,
33,SINGLE_CHANGE,"[-12.1475911291, -23.6276683188, 3.0510421103, 1.3684839641, -13.5216811206, 3.0390574917, -0.9068248774000001, -6.7541852936]",Flex Agent 5,3.0,0.20250405570000002,0.17250000000000001,3.5,0.049744839900000004,0.0098592485,24.7671429602,0.0008214190000000001,20.0,3.1111111111,0.6354766862,0.7034013799000001,,,,,,,,,,,,,,,,,,,,,,
34,SINGLE_CHANGE,"[-12.1475911291, -23.6276683188, 3.0510421103, 1.3684839641, -13.5216811206, 3.0390574917, -0.9068248774000001, -6.7541852936]",Flex Agent 5,4.0,0.20248432130000002,0.1575,4.0,0.0453185227,0.0110935443,34.7863148694,1.46996e-05,18.0,3.419047619,0.6695837353,0.7953280995,,,,,,,,,,,,,,,,,,,,,,
35,SINGLE_CHANGE,"[-12.1475911291, -23.6276683188, 3.0510421103, 1.3684839641, -13.5216811206, 3.0390574917, -0.9068248774000001, -6.7541852936]",Flex Agent 2,0.0,0.199260972,0.17250000000000001,5.75,0.073863804,0.008272707,17.7853058078,-0.0071912458,5.5,1.3833333333,0.8498763346,1.0623206023,,,,,,,,,,,,,,,,,,,,,,
36,SINGLE_CHANGE,"[-12.1475911291, -23.6276683188, 3.0510421103, 1.3684839641, -13.5216811206, 3.0390574917, -0.9068248774000001, -6.7541852936]",Flex Agent 2,1.0,0.1942058805,0.14250000000000002,5.5,0.0885394773,0.0131909859,19.6065618158,-0.0077027205,2.0,0.75,0.7511903047,0.8056199193,,,,,,,,,,,,,,,,,,,,,,
37,SINGLE_CHANGE,"[-12.1475911291, -23.6276683188, 3.0510421103, 1.3684839641, -13.5216811206, 3.0390574917, -0.9068248774000001, -6.7541852936]",Flex Agent 2,2.0,0.1968577099,0.14250000000000002,5.25,0.0924488388,0.0065520976,34.6980068613,-0.0007591352,3.5,1.125,0.7913423342,0.8932613163,,,,,,,,,,,,,,,,,,,,,,
38,SINGLE_CHANGE,"[-12.1475911291, -23.6276683188, 3.0510421103, 1.3684839641, -13.5216811206, 3.0390574917, -0.9068248774000001, -6.7541852936]",Flex Agent 2,3.0,0.1927956458,0.1325,5.0,0.0784718041,0.00729279,20.1686755984,-0.0054150302,8.0,1.0,0.67742736,0.838607545,,,,,,,,,,,,,,,,,,,,,,
39,SINGLE_CHANGE,"[-12.1475911291, -23.6276683188, 3.0510421103, 1.3684839641, -13.5216811206, 3.0390574917, -0.9068248774000001, -6.7541852936]",Flex Agent 2,4.0,0.1937309149,0.13,3.75,0.0657204987,0.0070805508,24.7100463279,-0.0026083794,3.5,1.25,0.6490537191,0.7153079138,,,,,,,,,,,,,,,,,,,,,,
40,SINGLE_CHANGE,"[-12.1475911291, -23.6276683188, 3.0510421103, 1.3684839641, -13.5216811206, 3.0390574917, -0.9068248774000001, -6.7541852936]",Flex Agent 8,0.0,0.006425486,0.0,4.25,0.0024507401,0.0042448064,88.5079362289,-0.0170108102,3.5,2.4166666667,0.034436160800000004,0.1377446431,,,,,,,,,,,,,,,,,,,,,,
41,SINGLE_CHANGE,"[-12.1475911291, -23.6276683188, 3.0510421103, 1.3684839641, -13.5216811206, 3.0390574917, -0.9068248774000001, -6.7541852936]",Flex Agent 8,1.0,0.006425486,0.0,5.5,0.0024507401,0.0042448064,79.6353975711,-0.0027432078,3.0,2.3333333333,0.0470916776,0.1883667105,,,,,,,,,,,,,,,,,,,,,,
42,SINGLE_CHANGE,"[-12.1475911291, -23.6276683188, 3.0510421103, 1.3684839641, -13.5216811206, 3.0390574917, -0.9068248774000001, -6.7541852936]",Flex Agent 8,2.0,0.006425486,0.0,4.0,0.0024507401,0.0042448064,102.9264297463,-0.0014553899,3.0,2.3333333333,0.0314984963,0.1259939852,,,,,,,,,,,,,,,,,,,,,,
43,SINGLE_CHANGE,"[-12.1475911291, -23.6276683188, 3.0510421103, 1.3684839641, -13.5216811206, 3.0390574917, -0.9068248774000001, -6.7541852936]",Flex Agent 8,3.0,0.006425486,0.0,2.5,0.0024507401,0.0042448064,106.8321736876,-0.0006144059,3.5,2.1666666667,0.0161378805,0.06455152210000001,,,,,,,,,,,,,,,,,,,,,,
44,SINGLE_CHANGE,"[-12.1475911291, -23.6276683188, 3.0510421103, 1.3684839641, -13.5216811206, 3.0390574917, -0.9068248774000001, -6.7541852936]",Flex Agent 8,4.0,0.006425486,0.0,3.25,0.0024507401,0.0042448064,82.7300553757,-0.0017321157,3.0,2.3333333333,0.0236002992,0.0944011966,,,,,,,,,,,,,,,,,,,,,,
45,SINGLE_CHANGE,"[-12.1475911291, -23.6276683188, 3.0510421103, 1.3684839641, -13.5216811206, 3.0390574917, -0.9068248774000001, -6.7541852936]",Flex Agent 9,0.0,0.006425486,0.0,4.25,0.0024507401,0.0042448064,80.389074492,-0.022075481100000002,3.5,2.4166666667,0.034436160800000004,0.1377446431,,,,,,,,,,,,,,,,,,,,,,
46,SINGLE_CHANGE,"[-12.1475911291, -23.6276683188, 3.0510421103, 1.3684839641, -13.5216811206, 3.0390574917, -0.9068248774000001, -6.7541852936]",Flex Agent 9,1.0,0.006425486,0.0,5.5,0.0024507401,0.0042448064,99.3672591545,-0.0089613902,3.0,2.3333333333,0.0470916776,0.1883667105,,,,,,,,,,,,,,,,,,,,,,
47,SINGLE_CHANGE,"[-12.1475911291, -23.6276683188, 3.0510421103, 1.3684839641, -13.5216811206, 3.0390574917, -0.9068248774000001, -6.7541852936]",Flex Agent 9,2.0,0.006425486,0.0,4.0,0.0024507401,0.0042448064,103.03226374,-0.0011089809,3.0,2.3333333333,0.0314984963,0.1259939852,,,,,,,,,,,,,,,,,,,,,,
48,SINGLE_CHANGE,"[-12.1475911291, -23.6276683188, 3.0510421103, 1.3684839641, -13.5216811206, 3.0390574917, -0.9068248774000001, -6.7541852936]",Flex Agent 9,3.0,0.006425486,0.0,2.5,0.0024507401,0.0042448064,109.160035401,-0.0042475537,3.5,2.1666666667,0.0161378805,0.06455152210000001,,,,,,,,,,,,,,,,,,,,,,
49,SINGLE_CHANGE,"[-12.1475911291, -23.6276683188, 3.0510421103, 1.3684839641, -13.5216811206, 3.0390574917, -0.9068248774000001, -6.7541852936]",Flex Agent 9,4.0,0.006425486,0.0,3.25,0.0024507401,0.0042448064,85.2778601831,-0.0043354519000000005,3.0,2.3333333333,0.0236002992,0.0944011966,,,,,,,,,,,,,,,,,,,,,,
50,,,Global,,,,,,,,,,,,,0.12553003790400002,0.06842468249984666,0.07264999999999999,0.0573020327665928,3.27,1.209908075442266,0.04125734818,0.024099639775572914,0.007834512192000001,0.003967307894385128,37.233883471708,29.351692514033246,-0.0018683006759999997,0.004380703799193073,13.74,8.187372058511192,2.6015478912740004,0.9109516316133183,0.39691125790600007,0.2340237445717062,0.471645798664,0.24799841811811066
