,NeighborhoodDefinition,TargetSchedule,Agent,FLA_ID,INFORMATION_CONTENT,PARTIAL_INFORMATION_CONTENT,INFORMATION_STABILITY,FITNESS_VARIANCE_MEAN,FITNESS_VARIANCE_STD,FITNESS_MEAN,DISPERSION_INDEX,MEAN_NUMBER_OF_NEUTRAL_AREAS,MEAN_SIZE_OF_NEUTRAL_AREAS,MEAN_FITNESS_DISTANCE,MAX_FITNESS_DISTANCE,INFORMATION_CONTENT_MEAN,INFORMATION_CONTENT_STD,PARTIAL_INFORMATION_CONTENT_MEAN,PARTIAL_INFORMATION_CONTENT_STD,INFORMATION_STABILITY_MEAN,INFORMATION_STABILITY_STD,FITNESS_VARIANCE_MEAN_MEAN,FITNESS_VARIANCE_MEAN_STD,FITNESS_VARIANCE_STD_MEAN,FITNESS_VARIANCE_STD_STD,FITNESS_MEAN_MEAN,FITNESS_MEAN_STD,DISPERSION_INDEX_MEAN,DISPERSION_INDEX_STD,MEAN_NUMBER_OF_NEUTRAL_AREAS_MEAN,MEAN_NUMBER_OF_NEUTRAL_AREAS_STD,MEAN_SIZE_OF_NEUTRAL_AREAS_MEAN,MEAN_SIZE_OF_NEUTRAL_AREAS_STD,MEAN_FITNESS_DISTANCE_MEAN,MEAN_FITNESS_DISTANCE_STD,MAX_FITNESS_DISTANCE_MEAN,MAX_FITNESS_DISTANCE_STD
0,SINGLE_CHANGE,"[-3.2797290472, -7.6283612162, 0.0, 0.0004775782, 0.0, -9.7896062204, -1.385606416, -8.735536477]",Flex Agent 0,0.0,0.1975562219,0.17250000000000001,7.0,0.0616041235,0.008108043,18.5595647769,-0.0195062865,4.0,1.1666666667,0.8955079286000001,1.1600626212,,,,,,,,,,,,,,,,,,,,,,
1,SINGLE_CHANGE,"[-3.2797290472, -7.6283612162, 0.0, 0.0004775782, 0.0, -9.7896062204, -1.385606416, -8.735536477]",Flex Agent 0,1.0,0.19758958270000002,0.145,5.0,0.0673446259,0.0061090731,24.4670621582,-0.0851882221,3.5,1.125,0.6768532584,0.7498053222000001,,,,,,,,,,,,,,,,,,,,,,
2,SINGLE_CHANGE,"[-3.2797290472, -7.6283612162, 0.0, 0.0004775782, 0.0, -9.7896062204, -1.385606416, -8.735536477]",Flex Agent 0,2.0,0.1940600814,0.1325,5.25,0.0705360939,0.0044637517,22.12492637,-0.043906495000000004,3.5,1.1666666667,0.6541692010000001,0.689531247,,,,,,,,,,,,,,,,,,,,,,
3,SINGLE_CHANGE,"[-3.2797290472, -7.6283612162, 0.0, 0.0004775782, 0.0, -9.7896062204, -1.385606416, -8.735536477]",Flex Agent 0,3.0,0.194893842,0.15,4.75,0.0686527128,0.0193410492,27.9045433664,-0.0537215429,2.0,1.0,0.6749337464,0.7666472098,,,,,,,,,,,,,,,,,,,,,,
4,SINGLE_CHANGE,"[-3.2797290472, -7.6283612162, 0.0, 0.0004775782, 0.0, -9.7896062204, -1.385606416, -8.735536477]",Flex Agent 0,4.0,0.2039276922,0.17750000000000002,5.0,0.07550938630000001,0.0206012476,30.376081835,-0.036051707,5.0,1.0625,0.7780680636,0.8324326028,,,,,,,,,,,,,,,,,,,,,,
5,SINGLE_CHANGE,"[-3.2797290472, -7.6283612162, 0.0, 0.0004775782, 0.0, -9.7896062204, -1.385606416, -8.735536477]",Flex Agent 3,0.0,0.19389176630000002,0.14,6.0,0.0679986528,0.0046357431,22.5037492149,-0.039132776200000004,4.5,1.1428571429,0.729399875,0.8866743191,,,,,,,,,,,,,,,,,,,,,,
6,SINGLE_CHANGE,"[-3.2797290472, -7.6283612162, 0.0, 0.0004775782, 0.0, -9.7896062204, -1.385606416, -8.735536477]",Flex Agent 3,1.0,0.18338245590000002,0.11750000000000001,6.0,0.0892230962,0.0057680244,25.1945140549,-0.0845704344,4.0,1.0,0.7226548538,0.8398648811,,,,,,,,,,,,,,,,,,,,,,
7,SINGLE_CHANGE,"[-3.2797290472, -7.6283612162, 0.0, 0.0004775782, 0.0, -9.7896062204, -1.385606416, -8.735536477]",Flex Agent 3,2.0,0.1973341711,0.17250000000000001,6.0,0.0835547126,0.0071105202000000005,29.0470297174,-0.0586706205,5.0,1.1666666667,0.874140322,1.1378894919,,,,,,,,,,,,,,,,,,,,,,
8,SINGLE_CHANGE,"[-3.2797290472, -7.6283612162, 0.0, 0.0004775782, 0.0, -9.7896062204, -1.385606416, -8.735536477]",Flex Agent 3,3.0,0.1984058111,0.18,5.0,0.0693224559,0.0203845373,37.4123720996,-0.0373041283,4.5,1.3214285714,0.8734853262000001,1.2703980337,,,,,,,,,,,,,,,,,,,,,,
9,SINGLE_CHANGE,"[-3.2797290472, -7.6283612162, 0.0, 0.0004775782, 0.0, -9.7896062204, -1.385606416, -8.735536477]",Flex Agent 3,4.0,0.1842875927,0.12,6.25,0.0543030402,0.0073814144,30.066365998,-0.07672283270000001,5.0,1.2083333333,0.6709433688,0.8363584235,,,,,,,,,,,,,,,,,,,,,,
10,SINGLE_CHANGE,"[-3.2797290472, -7.6283612162, 0.0, 0.0004775782, 0.0, -9.7896062204, -1.385606416, -8.735536477]",Flex Agent 1,0.0,0.2032723871,0.17,3.5,0.0435563874,0.0009674105,35.727307781,0.027556724100000003,20.5,2.7773809524,0.6486683376,0.705661977,,,,,,,,,,,,,,,,,,,,,,
11,SINGLE_CHANGE,"[-3.2797290472, -7.6283612162, 0.0, 0.0004775782, 0.0, -9.7896062204, -1.385606416, -8.735536477]",Flex Agent 1,1.0,0.19637944370000002,0.145,3.75,0.059202137700000004,0.0147229254,42.183887101,0.0223298234,24.0,2.2026086957,0.5737764649,0.7207460395,,,,,,,,,,,,,,,,,,,,,,
12,SINGLE_CHANGE,"[-3.2797290472, -7.6283612162, 0.0, 0.0004775782, 0.0, -9.7896062204, -1.385606416, -8.735536477]",Flex Agent 1,2.0,0.2047717867,0.195,3.25,0.048931488700000005,0.010871605500000001,39.0622684641,0.033757778,20.5,3.144047619,0.6715666616,0.7036680851,,,,,,,,,,,,,,,,,,,,,,
13,SINGLE_CHANGE,"[-3.2797290472, -7.6283612162, 0.0, 0.0004775782, 0.0, -9.7896062204, -1.385606416, -8.735536477]",Flex Agent 1,3.0,0.19864466020000002,0.15,3.25,0.0430717491,0.0113751601,44.666288875,0.0204335066,19.5,3.1605263158,0.5707244694,0.6295282461,,,,,,,,,,,,,,,,,,,,,,
14,SINGLE_CHANGE,"[-3.2797290472, -7.6283612162, 0.0, 0.0004775782, 0.0, -9.7896062204, -1.385606416, -8.735536477]",Flex Agent 1,4.0,0.20350090680000002,0.195,3.5,0.039049726800000004,0.0087156648,35.6680883242,0.0073788879000000005,20.5,3.5735294118,0.6957117248,0.7418296324,,,,,,,,,,,,,,,,,,,,,,
15,SINGLE_CHANGE,"[-3.2797290472, -7.6283612162, 0.0, 0.0004775782, 0.0, -9.7896062204, -1.385606416, -8.735536477]",Flex Agent 2,0.0,0.1605454145,0.0825,2.5,0.0405794436,0.0037842180000000002,42.5139825319,0.0025925690000000003,21.0,2.75,0.4310443883,0.4766426959,,,,,,,,,,,,,,,,,,,,,,
16,SINGLE_CHANGE,"[-3.2797290472, -7.6283612162, 0.0, 0.0004775782, 0.0, -9.7896062204, -1.385606416, -8.735536477]",Flex Agent 2,1.0,0.15187627850000002,0.07250000000000001,2.0,0.0378321844,0.0082070346,31.1310903864,-0.0008958923,22.5,2.7591093117,0.4304248811,0.4830518767,,,,,,,,,,,,,,,,,,,,,,
17,SINGLE_CHANGE,"[-3.2797290472, -7.6283612162, 0.0, 0.0004775782, 0.0, -9.7896062204, -1.385606416, -8.735536477]",Flex Agent 2,2.0,0.1563531639,0.08,2.25,0.0580922877,0.012614791700000001,24.0112398168,0.0003134551,18.0,4.0714285714,0.37887025350000003,0.4267830282,,,,,,,,,,,,,,,,,,,,,,
18,SINGLE_CHANGE,"[-3.2797290472, -7.6283612162, 0.0, 0.0004775782, 0.0, -9.7896062204, -1.385606416, -8.735536477]",Flex Agent 2,3.0,0.1616409566,0.08,2.5,0.0774639627,0.0026013154,32.3602398187,0.0048126467,19.0,3.6578947368,0.44763545260000004,0.5240081238000001,,,,,,,,,,,,,,,,,,,,,,
19,SINGLE_CHANGE,"[-3.2797290472, -7.6283612162, 0.0, 0.0004775782, 0.0, -9.7896062204, -1.385606416, -8.735536477]",Flex Agent 2,4.0,0.1547002424,0.075,2.75,0.0410596253,0.0075434533,42.8457876517,0.0044935357000000006,24.0,2.5895652174,0.45761838190000004,0.5524958482,,,,,,,,,,,,,,,,,,,,,,
20,SINGLE_CHANGE,"[-3.2797290472, -7.6283612162, 0.0, 0.0004775782, 0.0, -9.7896062204, -1.385606416, -8.735536477]",Flex Agent 6,0.0,0.18628624570000002,0.145,5.25,0.064595281,0.0239896011,27.4348131162,-0.0141939366,7.0,1.2291666667,0.7382252656,0.9291930115,,,,,,,,,,,,,,,,,,,,,,
21,SINGLE_CHANGE,"[-3.2797290472, -7.6283612162, 0.0, 0.0004775782, 0.0, -9.7896062204, -1.385606416, -8.735536477]",Flex Agent 6,1.0,0.19480423160000002,0.155,4.75,0.0787179239,0.013240376100000001,17.0062019746,-0.015385274800000001,3.5,1.0,0.7032767413000001,1.016660254,,,,,,,,,,,,,,,,,,,,,,
22,SINGLE_CHANGE,"[-3.2797290472, -7.6283612162, 0.0, 0.0004775782, 0.0, -9.7896062204, -1.385606416, -8.735536477]",Flex Agent 6,2.0,0.18336506800000002,0.12,5.25,0.0625862726,0.0105274107,25.8779210603,-0.0210066951,6.5,1.25,0.6149231652,0.7387190405,,,,,,,,,,,,,,,,,,,,,,
23,SINGLE_CHANGE,"[-3.2797290472, -7.6283612162, 0.0, 0.0004775782, 0.0, -9.7896062204, -1.385606416, -8.735536477]",Flex Agent 6,3.0,0.18686979210000002,0.11750000000000001,4.5,0.07544678590000001,0.0128345401,26.6461595392,-0.0184954068,5.5,1.1666666667,0.6194195382000001,0.6571894915000001,,,,,,,,,,,,,,,,,,,,,,
24,SINGLE_CHANGE,"[-3.2797290472, -7.6283612162, 0.0, 0.0004775782, 0.0, -9.7896062204, -1.385606416, -8.735536477]",Flex Agent 6,4.0,0.1839189939,0.1125,4.5,0.0797236918,0.0118158445,23.7007876745,-0.0326232605,3.5,1.0,0.5546552498,0.6254987806,,,,,,,,,,,,,,,,,,,,,,
25,SINGLE_CHANGE,"[-3.2797290472, -7.6283612162, 0.0, 0.0004775782, 0.0, -9.7896062204, -1.385606416, -8.735536477]",Flex Agent 4,0.0,0.006425486,0.0,1.25,0.0024507401,0.0042448064,31.8433504592,0.0226692699,10.0,1.0,0.0029083943,0.0116335773,,,,,,,,,,,,,,,,,,,,,,
26,SINGLE_CHANGE,"[-3.2797290472, -7.6283612162, 0.0, 0.0004775782, 0.0, -9.7896062204, -1.385606416, -8.735536477]",Flex Agent 4,1.0,0.006425486,0.0,1.5,0.0024507401,0.0042448064,31.0165703765,0.0303593172,1.0,1.0,0.005568341,0.0222733638,,,,,,,,,,,,,,,,,,,,,,
27,SINGLE_CHANGE,"[-3.2797290472, -7.6283612162, 0.0, 0.0004775782, 0.0, -9.7896062204, -1.385606416, -8.735536477]",Flex Agent 4,2.0,0.006425486,0.0,1.25,0.0024507401,0.0042448064,31.7813071074,0.0174858915,12.0,1.0,0.0028067254,0.0112269015,,,,,,,,,,,,,,,,,,,,,,
28,SINGLE_CHANGE,"[-3.2797290472, -7.6283612162, 0.0, 0.0004775782, 0.0, -9.7896062204, -1.385606416, -8.735536477]",Flex Agent 4,3.0,0.006425486,0.0,1.25,0.0024507401,0.0042448064,28.8093689784,0.0133399676,6.0,1.8333333333000001,0.0032177564,0.0128710256,,,,,,,,,,,,,,,,,,,,,,
29,SINGLE_CHANGE,"[-3.2797290472, -7.6283612162, 0.0, 0.0004775782, 0.0, -9.7896062204, -1.385606416, -8.735536477]",Flex Agent 4,4.0,0.006425486,0.0,1.25,0.0024507401,0.0042448064,30.3092498852,-0.0028205609,6.5,1.0,0.0028452594000000003,0.0113810377,,,,,,,,,,,,,,,,,,,,,,
30,SINGLE_CHANGE,"[-3.2797290472, -7.6283612162, 0.0, 0.0004775782, 0.0, -9.7896062204, -1.385606416, -8.735536477]",Flex Agent 7,0.0,0.10425786070000001,0.035,2.0,0.045007748800000004,0.0052225413,32.1205713506,0.0008613178000000001,22.0,2.6810526316,0.34210347010000003,0.4133444505,,,,,,,,,,,,,,,,,,,,,,
31,SINGLE_CHANGE,"[-3.2797290472, -7.6283612162, 0.0, 0.0004775782, 0.0, -9.7896062204, -1.385606416, -8.735536477]",Flex Agent 7,1.0,0.1008377313,0.0325,2.25,0.048368142600000004,0.0068281411,31.5431061314,0.0022818056000000002,20.5,3.2016908213,0.3384693726,0.3821804842,,,,,,,,,,,,,,,,,,,,,,
32,SINGLE_CHANGE,"[-3.2797290472, -7.6283612162, 0.0, 0.0004775782, 0.0, -9.7896062204, -1.385606416, -8.735536477]",Flex Agent 7,2.0,0.10985057620000001,0.04,2.0,0.047383800600000005,0.0047761751,32.3876674012,0.000716148,21.0,2.880952381,0.29600552,0.3756986705,,,,,,,,,,,,,,,,,,,,,,
33,SINGLE_CHANGE,"[-3.2797290472, -7.6283612162, 0.0, 0.0004775782, 0.0, -9.7896062204, -1.385606416, -8.735536477]",Flex Agent 7,3.0,0.13910550500000002,0.0575,2.25,0.0386438062,0.009809646600000001,35.8950747601,0.0072835622000000004,21.5,2.4880952381,0.3711938127,0.3807701077,,,,,,,,,,,,,,,,,,,,,,
34,SINGLE_CHANGE,"[-3.2797290472, -7.6283612162, 0.0, 0.0004775782, 0.0, -9.7896062204, -1.385606416, -8.735536477]",Flex Agent 7,4.0,0.1101761068,0.0375,2.0,0.052639121100000005,0.0085008662,29.0880452205,0.0017808677,22.0,2.5848861284,0.35566768990000003,0.391143934,,,,,,,,,,,,,,,,,,,,,,
35,SINGLE_CHANGE,"[-3.2797290472, -7.6283612162, 0.0, 0.0004775782, 0.0, -9.7896062204, -1.385606416, -8.735536477]",Flex Agent 8,0.0,0.1943008373,0.145,4.5,0.0802411445,0.0072582697,22.9987042978,-0.0195398201,4.5,1.0833333333,0.7170958012,0.8174290934,,,,,,,,,,,,,,,,,,,,,,
36,SINGLE_CHANGE,"[-3.2797290472, -7.6283612162, 0.0, 0.0004775782, 0.0, -9.7896062204, -1.385606416, -8.735536477]",Flex Agent 8,1.0,0.18006875930000002,0.115,4.0,0.0843067088,0.0108275395,21.3728542089,-0.049132047400000003,3.5,1.0,0.6568565632000001,0.7278826074,,,,,,,,,,,,,,,,,,,,,,
37,SINGLE_CHANGE,"[-3.2797290472, -7.6283612162, 0.0, 0.0004775782, 0.0, -9.7896062204, -1.385606416, -8.735536477]",Flex Agent 8,2.0,0.1660081197,0.095,4.75,0.0858681963,0.0083058564,31.0156139054,-0.0435954478,5.5,1.0,0.543596634,0.6202536224,,,,,,,,,,,,,,,,,,,,,,
38,SINGLE_CHANGE,"[-3.2797290472, -7.6283612162, 0.0, 0.0004775782, 0.0, -9.7896062204, -1.385606416, -8.735536477]",Flex Agent 8,3.0,0.17071708970000002,0.1,3.75,0.0658586713,0.0103892006,18.670086972900002,-0.023369980800000002,5.0,1.0,0.5188804,0.5717698435,,,,,,,,,,,,,,,,,,,,,,
39,SINGLE_CHANGE,"[-3.2797290472, -7.6283612162, 0.0, 0.0004775782, 0.0, -9.7896062204, -1.385606416, -8.735536477]",Flex Agent 8,4.0,0.19516037930000002,0.14,4.25,0.0807791837,0.0259204349,28.5371230972,0.0062011716,7.5,1.1964285714,0.6506347873,0.7107783724000001,,,,,,,,,,,,,,,,,,,,,,
40,SINGLE_CHANGE,"[-3.2797290472, -7.6283612162, 0.0, 0.0004775782, 0.0, -9.7896062204, -1.385606416, -8.735536477]",Flex Agent 5,0.0,0.1937774699,0.1375,5.75,0.0592912582,0.0078586674,31.5922527198,0.007708355300000001,4.5,1.0714285714,0.6974517575,0.8128559710000001,,,,,,,,,,,,,,,,,,,,,,
41,SINGLE_CHANGE,"[-3.2797290472, -7.6283612162, 0.0, 0.0004775782, 0.0, -9.7896062204, -1.385606416, -8.735536477]",Flex Agent 5,1.0,0.1990023172,0.1525,5.0,0.0686469829,0.0188274624,30.3869476204,-0.0237739029,9.0,1.0357142857,0.7207988795,0.8543173168,,,,,,,,,,,,,,,,,,,,,,
42,SINGLE_CHANGE,"[-3.2797290472, -7.6283612162, 0.0, 0.0004775782, 0.0, -9.7896062204, -1.385606416, -8.735536477]",Flex Agent 5,2.0,0.2021597829,0.17750000000000002,7.0,0.0701430079,0.0057347174,32.3570205253,0.0129159131,2.0,1.0,0.8759893305,1.0431752048,,,,,,,,,,,,,,,,,,,,,,
43,SINGLE_CHANGE,"[-3.2797290472, -7.6283612162, 0.0, 0.0004775782, 0.0, -9.7896062204, -1.385606416, -8.735536477]",Flex Agent 5,3.0,0.20369160600000003,0.18,6.0,0.06702819900000001,0.0163541255,29.039314309,0.0137839886,8.5,1.0555555556,0.8594307066,0.954059525,,,,,,,,,,,,,,,,,,,,,,
44,SINGLE_CHANGE,"[-3.2797290472, -7.6283612162, 0.0, 0.0004775782, 0.0, -9.7896062204, -1.385606416, -8.735536477]",Flex Agent 5,4.0,0.2012489837,0.17,6.25,0.0737236015,0.0013006611,27.0590142976,-0.061006431800000004,8.0,1.0833333333,0.8867147206,1.1020046075,,,,,,,,,,,,,,,,,,,,,,
45,SINGLE_CHANGE,"[-3.2797290472, -7.6283612162, 0.0, 0.0004775782, 0.0, -9.7896062204, -1.385606416, -8.735536477]",Flex Agent 9,0.0,0.2012599913,0.17,6.75,0.0689155068,0.0042919786,27.4520207792,-0.020810522,2.5,1.0,0.9084094405,1.0378501339,,,,,,,,,,,,,,,,,,,,,,
46,SINGLE_CHANGE,"[-3.2797290472, -7.6283612162, 0.0, 0.0004775782, 0.0, -9.7896062204, -1.385606416, -8.735536477]",Flex Agent 9,1.0,0.19730601150000002,0.17750000000000002,7.5,0.0849117491,0.0207589845,23.5410800765,-0.0960456033,3.0,1.0,0.9232604179,1.039865757,,,,,,,,,,,,,,,,,,,,,,
47,SINGLE_CHANGE,"[-3.2797290472, -7.6283612162, 0.0, 0.0004775782, 0.0, -9.7896062204, -1.385606416, -8.735536477]",Flex Agent 9,2.0,0.20147709660000002,0.2025,8.25,0.0735957267,0.011291475700000001,23.6959602953,0.0072820757000000005,2.5,0.5,1.136365528,1.370668942,,,,,,,,,,,,,,,,,,,,,,
48,SINGLE_CHANGE,"[-3.2797290472, -7.6283612162, 0.0, 0.0004775782, 0.0, -9.7896062204, -1.385606416, -8.735536477]",Flex Agent 9,3.0,0.1846056574,0.11750000000000001,5.0,0.0853376492,0.0162458366,25.4121816666,-0.0064624057,4.5,1.125,0.8005935577000001,0.9038158082000001,,,,,,,,,,,,,,,,,,,,,,
49,SINGLE_CHANGE,"[-3.2797290472, -7.6283612162, 0.0, 0.0004775782, 0.0, -9.7896062204, -1.385606416, -8.735536477]",Flex Agent 9,4.0,0.2028355601,0.165,6.0,0.06553171420000001,0.0112655422,30.9528151052,-0.0234033082,6.5,1.0833333333,0.8992605868,1.11018985,,,,,,,,,,,,,,,,,,,,,,
50,,,Global,,,,,,,,,,,,,0.163244673218,0.05932196404424487,0.117,0.059180198701654835,4.23,1.8522187467235844,0.05832866937200001,0.02360147790053928,0.009814138212000001,0.005980603538542125,29.54739150509,6.245323019200341,-0.014779939286,0.031852098566152676,9.92,7.707907416069155,1.651923614616,0.9236589979637823,0.5920564474540001,0.2684867417356422,0.695815609828,0.33090585314246085
