,NeighborhoodDefinition,TargetSchedule,Agent,FLA_ID,INFORMATION_CONTENT,PARTIAL_INFORMATION_CONTENT,INFORMATION_STABILITY,FITNESS_VARIANCE_MEAN,FITNESS_VARIANCE_STD,FITNESS_MEAN,DISPERSION_INDEX,MEAN_NUMBER_OF_NEUTRAL_AREAS,MEAN_SIZE_OF_NEUTRAL_AREAS,MEAN_FITNESS_DISTANCE,MAX_FITNESS_DISTANCE,INFORMATION_CONTENT_MEAN,INFORMATION_CONTENT_STD,PARTIAL_INFORMATION_CONTENT_MEAN,PARTIAL_INFORMATION_CONTENT_STD,INFORMATION_STABILITY_MEAN,INFORMATION_STABILITY_STD,FITNESS_VARIANCE_MEAN_MEAN,FITNESS_VARIANCE_MEAN_STD,FITNESS_VARIANCE_STD_MEAN,FITNESS_VARIANCE_STD_STD,FITNESS_MEAN_MEAN,FITNESS_MEAN_STD,DISPERSION_INDEX_MEAN,DISPERSION_INDEX_STD,MEAN_NUMBER_OF_NEUTRAL_AREAS_MEAN,MEAN_NUMBER_OF_NEUTRAL_AREAS_STD,MEAN_SIZE_OF_NEUTRAL_AREAS_MEAN,MEAN_SIZE_OF_NEUTRAL_AREAS_STD,MEAN_FITNESS_DISTANCE_MEAN,MEAN_FITNESS_DISTANCE_STD,MAX_FITNESS_DISTANCE_MEAN,MAX_FITNESS_DISTANCE_STD
0,SINGLE_CHANGE,"[11.7964379292, 12.235419132, 11.7996306512, 11.3161422976, 11.0776886625, 11.3396014249, 11.2583675412, 11.0880463277]",Flex Agent 2,0.0,0.006425486,0.0,1.25,0.0024507401,0.0042448064,4.1786200568,-0.0448695916,4.0,1.0,0.0030718813,0.012287525300000001,,,,,,,,,,,,,,,,,,,,,,
1,SINGLE_CHANGE,"[11.7964379292, 12.235419132, 11.7996306512, 11.3161422976, 11.0776886625, 11.3396014249, 11.2583675412, 11.0880463277]",Flex Agent 2,1.0,0.0,0.0,1.0,0.0024507401,0.0042448064,2.4737009377,-0.0028766522,4.5,1.125,0.0011029219,0.0044116876,,,,,,,,,,,,,,,,,,,,,,
2,SINGLE_CHANGE,"[11.7964379292, 12.235419132, 11.7996306512, 11.3161422976, 11.0776886625, 11.3396014249, 11.2583675412, 11.0880463277]",Flex Agent 2,2.0,0.006425486,0.0,1.25,0.0024507401,0.0042448064,2.382315777,0.004963618,4.0,1.25,0.0033922069,0.0135688276,,,,,,,,,,,,,,,,,,,,,,
3,SINGLE_CHANGE,"[11.7964379292, 12.235419132, 11.7996306512, 11.3161422976, 11.0776886625, 11.3396014249, 11.2583675412, 11.0880463277]",Flex Agent 2,3.0,0.006425486,0.0,1.25,0.0024507401,0.0042448064,1.3214099370999999,0.0019769475,4.0,1.25,0.003037929,0.012151716,,,,,,,,,,,,,,,,,,,,,,
4,SINGLE_CHANGE,"[11.7964379292, 12.235419132, 11.7996306512, 11.3161422976, 11.0776886625, 11.3396014249, 11.2583675412, 11.0880463277]",Flex Agent 2,4.0,0.006425486,0.0,1.25,0.0024507401,0.0042448064,0.9234984229000001,0.0007043717,4.0,1.25,0.0030026030000000004,0.0120104122,,,,,,,,,,,,,,,,,,,,,,
5,SINGLE_CHANGE,"[11.7964379292, 12.235419132, 11.7996306512, 11.3161422976, 11.0776886625, 11.3396014249, 11.2583675412, 11.0880463277]",Flex Agent 5,0.0,0.006425486,0.0,1.25,0.0024507401,0.0042448064,4.1786200568,-0.0111480296,4.0,1.0,0.0030718813,0.012287525300000001,,,,,,,,,,,,,,,,,,,,,,
6,SINGLE_CHANGE,"[11.7964379292, 12.235419132, 11.7996306512, 11.3161422976, 11.0776886625, 11.3396014249, 11.2583675412, 11.0880463277]",Flex Agent 5,1.0,0.0,0.0,1.0,0.0024507401,0.0042448064,2.4737009377,-0.0064885066,4.5,1.125,0.0011029219,0.0044116876,,,,,,,,,,,,,,,,,,,,,,
7,SINGLE_CHANGE,"[11.7964379292, 12.235419132, 11.7996306512, 11.3161422976, 11.0776886625, 11.3396014249, 11.2583675412, 11.0880463277]",Flex Agent 5,2.0,0.006425486,0.0,1.25,0.0024507401,0.0042448064,2.382315777,0.0017242163,4.0,1.25,0.0033922069,0.0135688276,,,,,,,,,,,,,,,,,,,,,,
8,SINGLE_CHANGE,"[11.7964379292, 12.235419132, 11.7996306512, 11.3161422976, 11.0776886625, 11.3396014249, 11.2583675412, 11.0880463277]",Flex Agent 5,3.0,0.006425486,0.0,1.25,0.0024507401,0.0042448064,1.3214099370999999,-0.0010893101,4.0,1.25,0.003037929,0.012151716,,,,,,,,,,,,,,,,,,,,,,
9,SINGLE_CHANGE,"[11.7964379292, 12.235419132, 11.7996306512, 11.3161422976, 11.0776886625, 11.3396014249, 11.2583675412, 11.0880463277]",Flex Agent 5,4.0,0.006425486,0.0,1.25,0.0024507401,0.0042448064,0.9234984229000001,-0.011357997600000001,4.0,1.125,0.0030026030000000004,0.0120104122,,,,,,,,,,,,,,,,,,,,,,
10,SINGLE_CHANGE,"[11.7964379292, 12.235419132, 11.7996306512, 11.3161422976, 11.0776886625, 11.3396014249, 11.2583675412, 11.0880463277]",Flex Agent 1,0.0,0.006425486,0.0,1.25,0.0024507401,0.0042448064,4.1786200568,0.0010965289000000001,4.0,1.0,0.0030718813,0.012287525300000001,,,,,,,,,,,,,,,,,,,,,,
11,SINGLE_CHANGE,"[11.7964379292, 12.235419132, 11.7996306512, 11.3161422976, 11.0776886625, 11.3396014249, 11.2583675412, 11.0880463277]",Flex Agent 1,1.0,0.0,0.0,1.0,0.0024507401,0.0042448064,2.4737009377,0.016852493,4.5,1.125,0.0011029219,0.0044116876,,,,,,,,,,,,,,,,,,,,,,
12,SINGLE_CHANGE,"[11.7964379292, 12.235419132, 11.7996306512, 11.3161422976, 11.0776886625, 11.3396014249, 11.2583675412, 11.0880463277]",Flex Agent 1,2.0,0.006425486,0.0,1.25,0.0024507401,0.0042448064,2.382315777,0.0198194852,4.0,1.25,0.0033922069,0.0135688276,,,,,,,,,,,,,,,,,,,,,,
13,SINGLE_CHANGE,"[11.7964379292, 12.235419132, 11.7996306512, 11.3161422976, 11.0776886625, 11.3396014249, 11.2583675412, 11.0880463277]",Flex Agent 1,3.0,0.006425486,0.0,1.25,0.0024507401,0.0042448064,1.3214099370999999,0.0198194852,4.0,1.25,0.003037929,0.012151716,,,,,,,,,,,,,,,,,,,,,,
14,SINGLE_CHANGE,"[11.7964379292, 12.235419132, 11.7996306512, 11.3161422976, 11.0776886625, 11.3396014249, 11.2583675412, 11.0880463277]",Flex Agent 1,4.0,0.006425486,0.0,1.25,0.0024507401,0.0042448064,0.9234984229000001,0.0198194852,4.0,1.25,0.0030026030000000004,0.0120104122,,,,,,,,,,,,,,,,,,,,,,
15,SINGLE_CHANGE,"[11.7964379292, 12.235419132, 11.7996306512, 11.3161422976, 11.0776886625, 11.3396014249, 11.2583675412, 11.0880463277]",Flex Agent 4,0.0,0.1755156612,0.0975,2.5,0.0805093462,0.0125855103,16.8109378928,-0.0334622678,5.0,1.625,0.5066528254,0.5791170957,,,,,,,,,,,,,,,,,,,,,,
16,SINGLE_CHANGE,"[11.7964379292, 12.235419132, 11.7996306512, 11.3161422976, 11.0776886625, 11.3396014249, 11.2583675412, 11.0880463277]",Flex Agent 4,1.0,0.1378334323,0.0675,2.25,0.0953940899,0.024003492300000002,16.8105732163,-0.0356785557,4.5,1.125,0.44875544300000003,0.570564077,,,,,,,,,,,,,,,,,,,,,,
17,SINGLE_CHANGE,"[11.7964379292, 12.235419132, 11.7996306512, 11.3161422976, 11.0776886625, 11.3396014249, 11.2583675412, 11.0880463277]",Flex Agent 4,2.0,0.172009038,0.095,2.25,0.0902766212,0.0115453024,17.7072993605,-0.0516458916,6.0,1.0714285714,0.5026279619,0.6214111306,,,,,,,,,,,,,,,,,,,,,,
18,SINGLE_CHANGE,"[11.7964379292, 12.235419132, 11.7996306512, 11.3161422976, 11.0776886625, 11.3396014249, 11.2583675412, 11.0880463277]",Flex Agent 4,3.0,0.12435017890000001,0.055,3.0,0.0745228849,0.0155710217,16.9371397766,-0.012208007100000001,5.0,1.125,0.4155374974,0.4667983738,,,,,,,,,,,,,,,,,,,,,,
19,SINGLE_CHANGE,"[11.7964379292, 12.235419132, 11.7996306512, 11.3161422976, 11.0776886625, 11.3396014249, 11.2583675412, 11.0880463277]",Flex Agent 4,4.0,0.152511268,0.07250000000000001,2.5,0.08812422980000001,0.0206803167,16.7824187354,-0.0777808152,6.0,1.4,0.4512891037,0.5142319831000001,,,,,,,,,,,,,,,,,,,,,,
20,SINGLE_CHANGE,"[11.7964379292, 12.235419132, 11.7996306512, 11.3161422976, 11.0776886625, 11.3396014249, 11.2583675412, 11.0880463277]",Flex Agent 0,0.0,0.18939443690000002,0.12250000000000001,4.0,0.08277672,0.0035292434,23.166714723,-0.0489964393,6.0,1.5,1.1245091671,1.181406973,,,,,,,,,,,,,,,,,,,,,,
21,SINGLE_CHANGE,"[11.7964379292, 12.235419132, 11.7996306512, 11.3161422976, 11.0776886625, 11.3396014249, 11.2583675412, 11.0880463277]",Flex Agent 0,1.0,0.1950596469,0.145,4.75,0.0769446635,0.003548396,22.0679265884,-0.0627801157,8.0,1.1428571429,1.0113163486,1.2402536895,,,,,,,,,,,,,,,,,,,,,,
22,SINGLE_CHANGE,"[11.7964379292, 12.235419132, 11.7996306512, 11.3161422976, 11.0776886625, 11.3396014249, 11.2583675412, 11.0880463277]",Flex Agent 0,2.0,0.1974009193,0.135,4.25,0.082495516,0.0212263487,21.5099085664,-0.0585492772,8.5,1.2642857143000001,0.7539319455,0.8285876430000001,,,,,,,,,,,,,,,,,,,,,,
23,SINGLE_CHANGE,"[11.7964379292, 12.235419132, 11.7996306512, 11.3161422976, 11.0776886625, 11.3396014249, 11.2583675412, 11.0880463277]",Flex Agent 0,3.0,0.2016015629,0.17,4.5,0.06534823690000001,0.0166526967,22.9882110708,0.0170668396,4.5,1.1,0.8179443398,0.9883424872000001,,,,,,,,,,,,,,,,,,,,,,
24,SINGLE_CHANGE,"[11.7964379292, 12.235419132, 11.7996306512, 11.3161422976, 11.0776886625, 11.3396014249, 11.2583675412, 11.0880463277]",Flex Agent 0,4.0,0.1978736683,0.14250000000000002,4.25,0.0849083913,0.017514253,23.2160382284,-0.0448693703,5.5,1.0,0.9085212819,1.0246122987,,,,,,,,,,,,,,,,,,,,,,
25,SINGLE_CHANGE,"[11.7964379292, 12.235419132, 11.7996306512, 11.3161422976, 11.0776886625, 11.3396014249, 11.2583675412, 11.0880463277]",Flex Agent 3,0.0,0.1305025129,0.0575,2.5,0.0354606549,0.0071965226000000005,5.4630927399,0.002967401,21.5,2.972826087,0.3197531938,0.368869622,,,,,,,,,,,,,,,,,,,,,,
26,SINGLE_CHANGE,"[11.7964379292, 12.235419132, 11.7996306512, 11.3161422976, 11.0776886625, 11.3396014249, 11.2583675412, 11.0880463277]",Flex Agent 3,1.0,0.146078644,0.0675,2.5,0.041386927000000004,0.0080995042,5.4137375747,-0.0044823579,21.5,3.1166666667,0.37550417540000003,0.4188045942,,,,,,,,,,,,,,,,,,,,,,
27,SINGLE_CHANGE,"[11.7964379292, 12.235419132, 11.7996306512, 11.3161422976, 11.0776886625, 11.3396014249, 11.2583675412, 11.0880463277]",Flex Agent 3,2.0,0.130937459,0.055,2.0,0.038673634000000005,0.012465927,5.4566058948,-0.007577645,23.5,2.6441176471,0.341020156,0.3630933906,,,,,,,,,,,,,,,,,,,,,,
28,SINGLE_CHANGE,"[11.7964379292, 12.235419132, 11.7996306512, 11.3161422976, 11.0776886625, 11.3396014249, 11.2583675412, 11.0880463277]",Flex Agent 3,3.0,0.1524521871,0.075,2.25,0.0327385134,0.0034305191,5.4484259855,-0.0119332077,21.0,2.9727272727000003,0.3832733581,0.4764480068,,,,,,,,,,,,,,,,,,,,,,
29,SINGLE_CHANGE,"[11.7964379292, 12.235419132, 11.7996306512, 11.3161422976, 11.0776886625, 11.3396014249, 11.2583675412, 11.0880463277]",Flex Agent 3,4.0,0.1314993512,0.0575,2.0,0.031403002,0.0067053086,5.4713955537,0.0009539835,19.0,3.1388888889,0.37684526290000003,0.4056853823,,,,,,,,,,,,,,,,,,,,,,
30,SINGLE_CHANGE,"[11.7964379292, 12.235419132, 11.7996306512, 11.3161422976, 11.0776886625, 11.3396014249, 11.2583675412, 11.0880463277]",Flex Agent 7,0.0,0.006425486,0.0,4.25,0.0024507401,0.0042448064,68.5605521408,-0.0270077303,3.5,2.4166666667,0.034436160800000004,0.1377446431,,,,,,,,,,,,,,,,,,,,,,
31,SINGLE_CHANGE,"[11.7964379292, 12.235419132, 11.7996306512, 11.3161422976, 11.0776886625, 11.3396014249, 11.2583675412, 11.0880463277]",Flex Agent 7,1.0,0.006425486,0.0,5.5,0.0024507401,0.0042448064,81.6182564823,-0.0127939122,3.0,2.3333333333,0.0470916776,0.1883667105,,,,,,,,,,,,,,,,,,,,,,
32,SINGLE_CHANGE,"[11.7964379292, 12.235419132, 11.7996306512, 11.3161422976, 11.0776886625, 11.3396014249, 11.2583675412, 11.0880463277]",Flex Agent 7,2.0,0.006425486,0.0,4.0,0.0024507401,0.0042448064,89.9264065761,-0.013203854400000001,3.0,2.3333333333,0.0314984963,0.1259939852,,,,,,,,,,,,,,,,,,,,,,
33,SINGLE_CHANGE,"[11.7964379292, 12.235419132, 11.7996306512, 11.3161422976, 11.0776886625, 11.3396014249, 11.2583675412, 11.0880463277]",Flex Agent 7,3.0,0.006425486,0.0,2.5,0.0024507401,0.0042448064,91.9476143622,-0.0107819974,3.5,2.1666666667,0.0161378805,0.06455152210000001,,,,,,,,,,,,,,,,,,,,,,
34,SINGLE_CHANGE,"[11.7964379292, 12.235419132, 11.7996306512, 11.3161422976, 11.0776886625, 11.3396014249, 11.2583675412, 11.0880463277]",Flex Agent 7,4.0,0.006425486,0.0,3.25,0.0024507401,0.0042448064,76.1940580545,-0.012306871300000001,3.0,2.3333333333,0.0236002992,0.0944011966,,,,,,,,,,,,,,,,,,,,,,
35,SINGLE_CHANGE,"[11.7964379292, 12.235419132, 11.7996306512, 11.3161422976, 11.0776886625, 11.3396014249, 11.2583675412, 11.0880463277]",Flex Agent 8,0.0,0.09753989860000001,0.035,2.0,0.0413975584,0.0074434187,3.0410416333,0.0020901276,20.5,3.2702380952,0.2736565346,0.2892778247,,,,,,,,,,,,,,,,,,,,,,
36,SINGLE_CHANGE,"[11.7964379292, 12.235419132, 11.7996306512, 11.3161422976, 11.0776886625, 11.3396014249, 11.2583675412, 11.0880463277]",Flex Agent 8,1.0,0.1221086838,0.0475,2.25,0.0433981237,0.0106689225,3.0550225051,-0.0069931229,23.5,2.8054545455,0.3095490453,0.3479692689,,,,,,,,,,,,,,,,,,,,,,
37,SINGLE_CHANGE,"[11.7964379292, 12.235419132, 11.7996306512, 11.3161422976, 11.0776886625, 11.3396014249, 11.2583675412, 11.0880463277]",Flex Agent 8,2.0,0.0988514687,0.0325,2.25,0.0364296048,0.0051064012,3.0575340176,-0.0043014926,21.0,3.0522727273,0.24638029390000002,0.2794205189,,,,,,,,,,,,,,,,,,,,,,
38,SINGLE_CHANGE,"[11.7964379292, 12.235419132, 11.7996306512, 11.3161422976, 11.0776886625, 11.3396014249, 11.2583675412, 11.0880463277]",Flex Agent 8,3.0,0.10984588890000001,0.0375,2.0,0.034572745,0.0059422498,3.0312788478,-0.0164363925,18.5,3.7926470588,0.2848759169,0.336311837,,,,,,,,,,,,,,,,,,,,,,
39,SINGLE_CHANGE,"[11.7964379292, 12.235419132, 11.7996306512, 11.3161422976, 11.0776886625, 11.3396014249, 11.2583675412, 11.0880463277]",Flex Agent 8,4.0,0.10699249870000001,0.045,2.0,0.037776624200000004,0.0052505254,3.0079462778,-0.0180373311,21.0,3.0629290618,0.3230775122,0.3571789225,,,,,,,,,,,,,,,,,,,,,,
40,SINGLE_CHANGE,"[11.7964379292, 12.235419132, 11.7996306512, 11.3161422976, 11.0776886625, 11.3396014249, 11.2583675412, 11.0880463277]",Flex Agent 6,0.0,0.006425486,0.0,4.25,0.0024507401,0.0042448064,68.5605521408,0.022972642600000003,3.5,2.4166666667,0.034436160800000004,0.1377446431,,,,,,,,,,,,,,,,,,,,,,
41,SINGLE_CHANGE,"[11.7964379292, 12.235419132, 11.7996306512, 11.3161422976, 11.0776886625, 11.3396014249, 11.2583675412, 11.0880463277]",Flex Agent 6,1.0,0.006425486,0.0,5.5,0.0024507401,0.0042448064,81.6182564823,0.033985483500000004,3.0,2.3333333333,0.0470916776,0.1883667105,,,,,,,,,,,,,,,,,,,,,,
42,SINGLE_CHANGE,"[11.7964379292, 12.235419132, 11.7996306512, 11.3161422976, 11.0776886625, 11.3396014249, 11.2583675412, 11.0880463277]",Flex Agent 6,2.0,0.006425486,0.0,4.0,0.0024507401,0.0042448064,89.9264065761,0.0332093563,3.0,2.3333333333,0.0314984963,0.1259939852,,,,,,,,,,,,,,,,,,,,,,
43,SINGLE_CHANGE,"[11.7964379292, 12.235419132, 11.7996306512, 11.3161422976, 11.0776886625, 11.3396014249, 11.2583675412, 11.0880463277]",Flex Agent 6,3.0,0.006425486,0.0,2.5,0.0024507401,0.0042448064,91.9476143622,0.0344217854,3.5,2.1666666667,0.0161378805,0.06455152210000001,,,,,,,,,,,,,,,,,,,,,,
44,SINGLE_CHANGE,"[11.7964379292, 12.235419132, 11.7996306512, 11.3161422976, 11.0776886625, 11.3396014249, 11.2583675412, 11.0880463277]",Flex Agent 6,4.0,0.006425486,0.0,3.25,0.0024507401,0.0042448064,76.1940580545,0.0360803914,3.0,2.3333333333,0.0236002992,0.0944011966,,,,,,,,,,,,,,,,,,,,,,
45,SINGLE_CHANGE,"[11.7964379292, 12.235419132, 11.7996306512, 11.3161422976, 11.0776886625, 11.3396014249, 11.2583675412, 11.0880463277]",Flex Agent 9,0.0,0.1242526246,0.05,2.0,0.033896139900000004,0.0037077506000000003,3.0408852002,-0.0227852923,22.0,2.7045454545,0.30749377780000003,0.34998904470000003,,,,,,,,,,,,,,,,,,,,,,
46,SINGLE_CHANGE,"[11.7964379292, 12.235419132, 11.7996306512, 11.3161422976, 11.0776886625, 11.3396014249, 11.2583675412, 11.0880463277]",Flex Agent 9,1.0,0.0886236368,0.0275,2.25,0.0383017498,0.0049792121,3.0498099554,0.0112230752,21.5,3.2244444444,0.2824537314,0.3188069376,,,,,,,,,,,,,,,,,,,,,,
47,SINGLE_CHANGE,"[11.7964379292, 12.235419132, 11.7996306512, 11.3161422976, 11.0776886625, 11.3396014249, 11.2583675412, 11.0880463277]",Flex Agent 9,2.0,0.1176592503,0.0475,2.25,0.0350945783,0.0036571077,3.0389054657,-0.010337881600000001,26.0,2.0785185185,0.3286541679,0.3655512527,,,,,,,,,,,,,,,,,,,,,,
48,SINGLE_CHANGE,"[11.7964379292, 12.235419132, 11.7996306512, 11.3161422976, 11.0776886625, 11.3396014249, 11.2583675412, 11.0880463277]",Flex Agent 9,3.0,0.064122496,0.02,2.0,0.0435449341,0.006574108,3.0440262899,-0.0247006043,19.5,3.0357142857,0.2998580685,0.34338775850000003,,,,,,,,,,,,,,,,,,,,,,
49,SINGLE_CHANGE,"[11.7964379292, 12.235419132, 11.7996306512, 11.3161422976, 11.0776886625, 11.3396014249, 11.2583675412, 11.0880463277]",Flex Agent 9,4.0,0.1013679754,0.0375,2.0,0.0446224344,0.0048250788,3.0597057983,0.0012554049,19.5,3.7419786096000003,0.31919627970000003,0.3344011041,,,,,,,,,,,,,,,,,,,,,,
50,,,Global,,,,,,,,,,,,,0.072154901614,0.07237513691657532,0.03590000000000001,0.04640043103248072,2.47,1.2398979549848086,0.029025328522,0.03127924143602386,0.0069805859500000015,0.00518594057264707,22.120179850492004,31.06613777908085,-0.008489547981999999,0.025718891949804038,9.44,7.983810148656837,1.9726841491779998,0.8630529980037702,0.24118058087600003,0.28851741340944287,0.29511855676399995,0.31740265284017743
