,NeighborhoodDefinition,TargetSchedule,Agent,FLA_ID,INFORMATION_CONTENT,PARTIAL_INFORMATION_CONTENT,INFORMATION_STABILITY,FITNESS_VARIANCE_MEAN,FITNESS_VARIANCE_STD,FITNESS_MEAN,DISPERSION_INDEX,MEAN_NUMBER_OF_NEUTRAL_AREAS,MEAN_SIZE_OF_NEUTRAL_AREAS,MEAN_FITNESS_DISTANCE,MAX_FITNESS_DISTANCE,INFORMATION_CONTENT_MEAN,INFORMATION_CONTENT_STD,PARTIAL_INFORMATION_CONTENT_MEAN,PARTIAL_INFORMATION_CONTENT_STD,INFORMATION_STABILITY_MEAN,INFORMATION_STABILITY_STD,FITNESS_VARIANCE_MEAN_MEAN,FITNESS_VARIANCE_MEAN_STD,FITNESS_VARIANCE_STD_MEAN,FITNESS_VARIANCE_STD_STD,FITNESS_MEAN_MEAN,FITNESS_MEAN_STD,DISPERSION_INDEX_MEAN,DISPERSION_INDEX_STD,MEAN_NUMBER_OF_NEUTRAL_AREAS_MEAN,MEAN_NUMBER_OF_NEUTRAL_AREAS_STD,MEAN_SIZE_OF_NEUTRAL_AREAS_MEAN,MEAN_SIZE_OF_NEUTRAL_AREAS_STD,MEAN_FITNESS_DISTANCE_MEAN,MEAN_FITNESS_DISTANCE_STD,MAX_FITNESS_DISTANCE_MEAN,MAX_FITNESS_DISTANCE_STD
0,SINGLE_CHANGE,"[-20.0392742388, -24.5438398441, 8.6731233196, -18.4473689545, 4.1351788754, 21.7744514325, 0.0009349041, 0.0243097865]",Flex Agent 2,0.0,0.1982628927,0.20500000000000002,5.75,0.0529063444,0.0079038474,28.8755829635,-0.0003785105,5.5,1.0625,0.9077190302,1.2408389035,,,,,,,,,,,,,,,,,,,,,,
1,SINGLE_CHANGE,"[-20.0392742388, -24.5438398441, 8.6731233196, -18.4473689545, 4.1351788754, 21.7744514325, 0.0009349041, 0.0243097865]",Flex Agent 2,1.0,0.201913996,0.165,6.0,0.062266423700000004,0.008345030600000001,34.078228973,-0.0020875264000000003,4.5,1.0,0.8142714125,0.8901362946,,,,,,,,,,,,,,,,,,,,,,
2,SINGLE_CHANGE,"[-20.0392742388, -24.5438398441, 8.6731233196, -18.4473689545, 4.1351788754, 21.7744514325, 0.0009349041, 0.0243097865]",Flex Agent 2,2.0,0.20410281970000002,0.2225,7.0,0.085552286,0.0091086697,40.7883748492,0.0021280642,3.5,1.125,1.0484284337,1.099891139,,,,,,,,,,,,,,,,,,,,,,
3,SINGLE_CHANGE,"[-20.0392742388, -24.5438398441, 8.6731233196, -18.4473689545, 4.1351788754, 21.7744514325, 0.0009349041, 0.0243097865]",Flex Agent 2,3.0,0.2017703951,0.17250000000000001,6.75,0.07530487550000001,0.0121964906,36.9380165888,-0.0034860111000000003,3.5,1.0,1.01495599,1.2436201737,,,,,,,,,,,,,,,,,,,,,,
4,SINGLE_CHANGE,"[-20.0392742388, -24.5438398441, 8.6731233196, -18.4473689545, 4.1351788754, 21.7744514325, 0.0009349041, 0.0243097865]",Flex Agent 2,4.0,0.2036744376,0.17,7.0,0.0835690303,0.005986067800000001,34.4207178954,0.0003752674,5.0,1.1428571429,0.9531280898000001,1.0277960764,,,,,,,,,,,,,,,,,,,,,,
5,SINGLE_CHANGE,"[-20.0392742388, -24.5438398441, 8.6731233196, -18.4473689545, 4.1351788754, 21.7744514325, 0.0009349041, 0.0243097865]",Flex Agent 3,0.0,0.1676584032,0.095,4.25,0.0831629266,0.0344211646,29.4213834318,-0.0007287032,6.5,1.125,0.5251261481,0.5473015115000001,,,,,,,,,,,,,,,,,,,,,,
6,SINGLE_CHANGE,"[-20.0392742388, -24.5438398441, 8.6731233196, -18.4473689545, 4.1351788754, 21.7744514325, 0.0009349041, 0.0243097865]",Flex Agent 3,1.0,0.1829386925,0.115,4.0,0.0674206645,0.011317013,34.4202532913,0.00044496010000000003,1.0,1.5,0.5880527636,0.6955290145,,,,,,,,,,,,,,,,,,,,,,
7,SINGLE_CHANGE,"[-20.0392742388, -24.5438398441, 8.6731233196, -18.4473689545, 4.1351788754, 21.7744514325, 0.0009349041, 0.0243097865]",Flex Agent 3,2.0,0.1681609397,0.09,5.25,0.0854310767,0.009534304700000001,27.9816431731,-0.0012832741,1.5,1.0,0.5421928243,0.7078691502000001,,,,,,,,,,,,,,,,,,,,,,
8,SINGLE_CHANGE,"[-20.0392742388, -24.5438398441, 8.6731233196, -18.4473689545, 4.1351788754, 21.7744514325, 0.0009349041, 0.0243097865]",Flex Agent 3,3.0,0.1798368199,0.11750000000000001,3.25,0.0675021855,0.018226193300000002,18.3111528518,-0.0009772027,3.5,1.0,0.5837442777,0.7235121415,,,,,,,,,,,,,,,,,,,,,,
9,SINGLE_CHANGE,"[-20.0392742388, -24.5438398441, 8.6731233196, -18.4473689545, 4.1351788754, 21.7744514325, 0.0009349041, 0.0243097865]",Flex Agent 3,4.0,0.16831059780000002,0.0975,4.0,0.0569325337,0.0173220761,32.7412031255,-0.00039487500000000004,6.0,1.0,0.49528794000000004,0.5993574597,,,,,,,,,,,,,,,,,,,,,,
10,SINGLE_CHANGE,"[-20.0392742388, -24.5438398441, 8.6731233196, -18.4473689545, 4.1351788754, 21.7744514325, 0.0009349041, 0.0243097865]",Flex Agent 4,0.0,0.006425486,0.0,4.25,0.0024507401,0.0042448064,77.2837540668,-0.0178389733,3.5,2.4166666667,0.034436160800000004,0.1377446431,,,,,,,,,,,,,,,,,,,,,,
11,SINGLE_CHANGE,"[-20.0392742388, -24.5438398441, 8.6731233196, -18.4473689545, 4.1351788754, 21.7744514325, 0.0009349041, 0.0243097865]",Flex Agent 4,1.0,0.006425486,0.0,5.5,0.0024507401,0.0042448064,96.1355933015,-0.0100821862,3.0,2.3333333333,0.0470916776,0.1883667105,,,,,,,,,,,,,,,,,,,,,,
12,SINGLE_CHANGE,"[-20.0392742388, -24.5438398441, 8.6731233196, -18.4473689545, 4.1351788754, 21.7744514325, 0.0009349041, 0.0243097865]",Flex Agent 4,2.0,0.006425486,0.0,4.0,0.0024507401,0.0042448064,75.2864799363,-0.0034796030000000004,3.0,2.3333333333,0.0314984963,0.1259939852,,,,,,,,,,,,,,,,,,,,,,
13,SINGLE_CHANGE,"[-20.0392742388, -24.5438398441, 8.6731233196, -18.4473689545, 4.1351788754, 21.7744514325, 0.0009349041, 0.0243097865]",Flex Agent 4,3.0,0.006425486,0.0,2.5,0.0024507401,0.0042448064,100.7378217868,-0.0019006624000000001,4.0,2.0,0.0161378805,0.06455152210000001,,,,,,,,,,,,,,,,,,,,,,
14,SINGLE_CHANGE,"[-20.0392742388, -24.5438398441, 8.6731233196, -18.4473689545, 4.1351788754, 21.7744514325, 0.0009349041, 0.0243097865]",Flex Agent 4,4.0,0.006425486,0.0,3.25,0.0024507401,0.0042448064,78.8635338636,-0.009329723600000001,3.0,2.3333333333,0.0236002992,0.0944011966,,,,,,,,,,,,,,,,,,,,,,
15,SINGLE_CHANGE,"[-20.0392742388, -24.5438398441, 8.6731233196, -18.4473689545, 4.1351788754, 21.7744514325, 0.0009349041, 0.0243097865]",Flex Agent 0,0.0,0.20277037250000002,0.21,6.0,0.0637467675,0.0100185887,30.8993136301,0.00020923530000000002,4.0,1.0,1.0328425092,1.188113614,,,,,,,,,,,,,,,,,,,,,,
16,SINGLE_CHANGE,"[-20.0392742388, -24.5438398441, 8.6731233196, -18.4473689545, 4.1351788754, 21.7744514325, 0.0009349041, 0.0243097865]",Flex Agent 0,1.0,0.2029574092,0.195,6.25,0.07175332250000001,0.0079387596,28.4619100447,-0.0019994735,5.5,1.1964285714,1.0812391862,1.2109614783,,,,,,,,,,,,,,,,,,,,,,
17,SINGLE_CHANGE,"[-20.0392742388, -24.5438398441, 8.6731233196, -18.4473689545, 4.1351788754, 21.7744514325, 0.0009349041, 0.0243097865]",Flex Agent 0,2.0,0.2020710912,0.1875,6.0,0.07780931490000001,0.0042052335,33.4536259113,0.0015821167,5.5,1.0625,0.8815774561,1.108645873,,,,,,,,,,,,,,,,,,,,,,
18,SINGLE_CHANGE,"[-20.0392742388, -24.5438398441, 8.6731233196, -18.4473689545, 4.1351788754, 21.7744514325, 0.0009349041, 0.0243097865]",Flex Agent 0,3.0,0.1988336045,0.16,6.5,0.0824459622,0.011194390200000001,22.4151586957,-0.0049625547,2.5,1.1666666667,0.8579428755,0.9413494476,,,,,,,,,,,,,,,,,,,,,,
19,SINGLE_CHANGE,"[-20.0392742388, -24.5438398441, 8.6731233196, -18.4473689545, 4.1351788754, 21.7744514325, 0.0009349041, 0.0243097865]",Flex Agent 0,4.0,0.19822427280000002,0.15,6.25,0.08055926120000001,0.0049233374,29.106206364,-0.0015435359,3.5,0.5,0.7652652888,0.8123917993,,,,,,,,,,,,,,,,,,,,,,
20,SINGLE_CHANGE,"[-20.0392742388, -24.5438398441, 8.6731233196, -18.4473689545, 4.1351788754, 21.7744514325, 0.0009349041, 0.0243097865]",Flex Agent 6,0.0,0.0,0.0,1.0,0.0024507401,0.0042448064,24.7793702401,-0.0002731119,5.5,2.6333333333,0.0014004166,0.0056016664,,,,,,,,,,,,,,,,,,,,,,
21,SINGLE_CHANGE,"[-20.0392742388, -24.5438398441, 8.6731233196, -18.4473689545, 4.1351788754, 21.7744514325, 0.0009349041, 0.0243097865]",Flex Agent 6,1.0,0.0,0.0,1.0,0.0024507401,0.0042448064,16.6228329056,1.79911e-05,7.0,1.0,0.001585732,0.0063429279,,,,,,,,,,,,,,,,,,,,,,
22,SINGLE_CHANGE,"[-20.0392742388, -24.5438398441, 8.6731233196, -18.4473689545, 4.1351788754, 21.7744514325, 0.0009349041, 0.0243097865]",Flex Agent 6,2.0,0.006425486,0.0,1.25,0.0024507401,0.0042448064,23.3094084346,1.1451000000000001e-05,6.0,1.8333333333000001,0.0042581792,0.017032717000000003,,,,,,,,,,,,,,,,,,,,,,
23,SINGLE_CHANGE,"[-20.0392742388, -24.5438398441, 8.6731233196, -18.4473689545, 4.1351788754, 21.7744514325, 0.0009349041, 0.0243097865]",Flex Agent 6,3.0,0.006425486,0.0,1.25,0.0024507401,0.0042448064,29.0257240609,-2.1181000000000003e-05,6.0,1.1666666667,0.003037929,0.012151716,,,,,,,,,,,,,,,,,,,,,,
24,SINGLE_CHANGE,"[-20.0392742388, -24.5438398441, 8.6731233196, -18.4473689545, 4.1351788754, 21.7744514325, 0.0009349041, 0.0243097865]",Flex Agent 6,4.0,0.006425486,0.0,1.25,0.0024507401,0.0042448064,17.9222602323,3.90956e-05,6.5,2.2976190476,0.0031535316,0.012614126600000001,,,,,,,,,,,,,,,,,,,,,,
25,SINGLE_CHANGE,"[-20.0392742388, -24.5438398441, 8.6731233196, -18.4473689545, 4.1351788754, 21.7744514325, 0.0009349041, 0.0243097865]",Flex Agent 1,0.0,0.006425486,0.0,4.25,0.0024507401,0.0042448064,81.4206869536,-0.011733585900000001,3.5,2.4166666667,0.034436160800000004,0.1377446431,,,,,,,,,,,,,,,,,,,,,,
26,SINGLE_CHANGE,"[-20.0392742388, -24.5438398441, 8.6731233196, -18.4473689545, 4.1351788754, 21.7744514325, 0.0009349041, 0.0243097865]",Flex Agent 1,1.0,0.006425486,0.0,5.5,0.0024507401,0.0042448064,86.948686493,-0.00040667080000000004,3.0,2.3333333333,0.0470916776,0.1883667105,,,,,,,,,,,,,,,,,,,,,,
27,SINGLE_CHANGE,"[-20.0392742388, -24.5438398441, 8.6731233196, -18.4473689545, 4.1351788754, 21.7744514325, 0.0009349041, 0.0243097865]",Flex Agent 1,2.0,0.006425486,0.0,4.0,0.0024507401,0.0042448064,95.5375706552,-0.000301651,3.0,2.3333333333,0.0314984963,0.1259939852,,,,,,,,,,,,,,,,,,,,,,
28,SINGLE_CHANGE,"[-20.0392742388, -24.5438398441, 8.6731233196, -18.4473689545, 4.1351788754, 21.7744514325, 0.0009349041, 0.0243097865]",Flex Agent 1,3.0,0.006425486,0.0,2.5,0.0024507401,0.0042448064,108.2922375121,-0.00012159330000000001,3.5,2.1666666667,0.0161378805,0.06455152210000001,,,,,,,,,,,,,,,,,,,,,,
29,SINGLE_CHANGE,"[-20.0392742388, -24.5438398441, 8.6731233196, -18.4473689545, 4.1351788754, 21.7744514325, 0.0009349041, 0.0243097865]",Flex Agent 1,4.0,0.006425486,0.0,3.25,0.0024507401,0.0042448064,87.4974965569,-0.0005092752,3.0,2.3333333333,0.0236002992,0.0944011966,,,,,,,,,,,,,,,,,,,,,,
30,SINGLE_CHANGE,"[-20.0392742388, -24.5438398441, 8.6731233196, -18.4473689545, 4.1351788754, 21.7744514325, 0.0009349041, 0.0243097865]",Flex Agent 8,0.0,0.1815036478,0.12250000000000001,4.25,0.0754703324,0.009759403100000001,20.4158885123,-0.0013658394000000001,5.0,1.0,0.5622245020000001,0.7570444827,,,,,,,,,,,,,,,,,,,,,,
31,SINGLE_CHANGE,"[-20.0392742388, -24.5438398441, 8.6731233196, -18.4473689545, 4.1351788754, 21.7744514325, 0.0009349041, 0.0243097865]",Flex Agent 8,1.0,0.1929187543,0.1325,4.75,0.0802517495,0.0141075735,32.1505017376,-0.0002486408,4.0,1.3,0.7823860117,0.8281365914000001,,,,,,,,,,,,,,,,,,,,,,
32,SINGLE_CHANGE,"[-20.0392742388, -24.5438398441, 8.6731233196, -18.4473689545, 4.1351788754, 21.7744514325, 0.0009349041, 0.0243097865]",Flex Agent 8,2.0,0.1851954183,0.125,4.5,0.08160894660000001,0.0088380271,24.5460675399,-0.0009915775,2.5,1.1666666667,0.6896472648,0.8043619163,,,,,,,,,,,,,,,,,,,,,,
33,SINGLE_CHANGE,"[-20.0392742388, -24.5438398441, 8.6731233196, -18.4473689545, 4.1351788754, 21.7744514325, 0.0009349041, 0.0243097865]",Flex Agent 8,3.0,0.1717277964,0.105,3.75,0.0702136497,0.0135427056,26.8603603808,0.0005488124,9.5,1.1130952381,0.5222272305,0.6371842607,,,,,,,,,,,,,,,,,,,,,,
34,SINGLE_CHANGE,"[-20.0392742388, -24.5438398441, 8.6731233196, -18.4473689545, 4.1351788754, 21.7744514325, 0.0009349041, 0.0243097865]",Flex Agent 8,4.0,0.1651406719,0.0825,4.25,0.06716334460000001,0.014240846100000001,21.8434572676,-0.0008675584000000001,7.0,1.3333333333000001,0.5334014476,0.6346068843,,,,,,,,,,,,,,,,,,,,,,
35,SINGLE_CHANGE,"[-20.0392742388, -24.5438398441, 8.6731233196, -18.4473689545, 4.1351788754, 21.7744514325, 0.0009349041, 0.0243097865]",Flex Agent 7,0.0,0.006425486,0.0,4.0,0.0024507401,0.0042448064,89.2793355067,-0.0096333992,3.5,2.4166666667,0.0318853729,0.1275414917,,,,,,,,,,,,,,,,,,,,,,
36,SINGLE_CHANGE,"[-20.0392742388, -24.5438398441, 8.6731233196, -18.4473689545, 4.1351788754, 21.7744514325, 0.0009349041, 0.0243097865]",Flex Agent 7,1.0,0.006425486,0.0,5.5,0.0024507401,0.0042448064,83.390209986,-0.0027903511,3.0,2.3333333333,0.0470916776,0.1883667105,,,,,,,,,,,,,,,,,,,,,,
37,SINGLE_CHANGE,"[-20.0392742388, -24.5438398441, 8.6731233196, -18.4473689545, 4.1351788754, 21.7744514325, 0.0009349041, 0.0243097865]",Flex Agent 7,2.0,0.006425486,0.0,4.0,0.0024507401,0.0042448064,98.3938650081,-0.0059805718,3.0,2.3333333333,0.0314984963,0.1259939852,,,,,,,,,,,,,,,,,,,,,,
38,SINGLE_CHANGE,"[-20.0392742388, -24.5438398441, 8.6731233196, -18.4473689545, 4.1351788754, 21.7744514325, 0.0009349041, 0.0243097865]",Flex Agent 7,3.0,0.006425486,0.0,2.5,0.0024507401,0.0042448064,96.7693484734,-0.004507174,3.5,2.1666666667,0.0161378805,0.06455152210000001,,,,,,,,,,,,,,,,,,,,,,
39,SINGLE_CHANGE,"[-20.0392742388, -24.5438398441, 8.6731233196, -18.4473689545, 4.1351788754, 21.7744514325, 0.0009349041, 0.0243097865]",Flex Agent 7,4.0,0.006425486,0.0,3.25,0.0024507401,0.0042448064,84.9071007723,-0.0064113032,3.0,2.3333333333,0.0236002992,0.0944011966,,,,,,,,,,,,,,,,,,,,,,
40,SINGLE_CHANGE,"[-20.0392742388, -24.5438398441, 8.6731233196, -18.4473689545, 4.1351788754, 21.7744514325, 0.0009349041, 0.0243097865]",Flex Agent 5,0.0,0.1294241976,0.052500000000000005,2.0,0.045095937700000005,0.014806400400000001,29.7535643244,5.8176e-06,20.0,3.0814536341,0.3540079591,0.4067413472,,,,,,,,,,,,,,,,,,,,,,
41,SINGLE_CHANGE,"[-20.0392742388, -24.5438398441, 8.6731233196, -18.4473689545, 4.1351788754, 21.7744514325, 0.0009349041, 0.0243097865]",Flex Agent 5,1.0,0.1621777965,0.0825,2.5,0.037672981200000004,0.0060339245,22.6357966965,7.51232e-05,16.5,3.8529411765,0.4073446348,0.4266445419,,,,,,,,,,,,,,,,,,,,,,
42,SINGLE_CHANGE,"[-20.0392742388, -24.5438398441, 8.6731233196, -18.4473689545, 4.1351788754, 21.7744514325, 0.0009349041, 0.0243097865]",Flex Agent 5,2.0,0.10725580330000001,0.0375,2.0,0.0420366853,0.0016438983,27.1301342122,-1.4415600000000001e-05,18.0,3.6346749226,0.3560454692,0.3846883638,,,,,,,,,,,,,,,,,,,,,,
43,SINGLE_CHANGE,"[-20.0392742388, -24.5438398441, 8.6731233196, -18.4473689545, 4.1351788754, 21.7744514325, 0.0009349041, 0.0243097865]",Flex Agent 5,3.0,0.0981694352,0.035,2.0,0.031586640900000004,0.0026515257000000003,35.7981247847,3.6375000000000003e-06,20.0,2.8182957393,0.2857134971,0.3399075299,,,,,,,,,,,,,,,,,,,,,,
44,SINGLE_CHANGE,"[-20.0392742388, -24.5438398441, 8.6731233196, -18.4473689545, 4.1351788754, 21.7744514325, 0.0009349041, 0.0243097865]",Flex Agent 5,4.0,0.1229248373,0.0475,2.5,0.0347270033,0.0076922424,34.4293254689,-1.84143e-05,21.5,2.9577922078,0.35902424650000003,0.3892625348,,,,,,,,,,,,,,,,,,,,,,
45,SINGLE_CHANGE,"[-20.0392742388, -24.5438398441, 8.6731233196, -18.4473689545, 4.1351788754, 21.7744514325, 0.0009349041, 0.0243097865]",Flex Agent 9,0.0,0.1256516812,0.05,2.0,0.0425914359,0.0032471527,25.4536215385,-7.4725e-06,25.5,2.3066770186,0.3105296343,0.3363531491,,,,,,,,,,,,,,,,,,,,,,
46,SINGLE_CHANGE,"[-20.0392742388, -24.5438398441, 8.6731233196, -18.4473689545, 4.1351788754, 21.7744514325, 0.0009349041, 0.0243097865]",Flex Agent 9,1.0,0.08591471240000001,0.03,2.25,0.0323156738,0.0048026085000000005,23.1961231973,1.06273e-05,21.5,3.2816742081,0.3063040215,0.3670237012,,,,,,,,,,,,,,,,,,,,,,
47,SINGLE_CHANGE,"[-20.0392742388, -24.5438398441, 8.6731233196, -18.4473689545, 4.1351788754, 21.7744514325, 0.0009349041, 0.0243097865]",Flex Agent 9,2.0,0.1396372744,0.06,2.5,0.0275600641,0.0083506593,24.8706092955,2.23321e-05,21.0,3.2136363636,0.3080758796,0.34024145580000004,,,,,,,,,,,,,,,,,,,,,,
48,SINGLE_CHANGE,"[-20.0392742388, -24.5438398441, 8.6731233196, -18.4473689545, 4.1351788754, 21.7744514325, 0.0009349041, 0.0243097865]",Flex Agent 9,3.0,0.1194358719,0.05,2.0,0.0439606748,0.009009036100000001,28.9964984372,-5.00344e-05,21.5,3.3,0.3396351077,0.3653036918,,,,,,,,,,,,,,,,,,,,,,
49,SINGLE_CHANGE,"[-20.0392742388, -24.5438398441, 8.6731233196, -18.4473689545, 4.1351788754, 21.7744514325, 0.0009349041, 0.0243097865]",Flex Agent 9,4.0,0.1206403003,0.045,2.0,0.037032556700000004,0.008234531100000001,30.7159642393,-1.64021e-05,25.0,2.4951298701,0.3208039529,0.363099274,,,,,,,,,,,,,,,,,,,,,,
50,,,Global,,,,,,,,,,,,,0.10209727382400001,0.08427162802092389,0.0682,0.07226481911437027,3.83,1.7411877250536631,0.03789330907400001,0.03278533540737747,0.007689956592,0.0055427448276121685,46.470242523354,29.233849302047094,-0.0020253701499999997,0.003822421944060207,7.59,7.065069290646246,1.925012169478,0.8426565460010209,0.37996647257400007,0.35716986086823194,0.465892559534,0.39035634809174624
