,NeighborhoodDefinition,TargetSchedule,Agent,FLA_ID,INFORMATION_CONTENT,PARTIAL_INFORMATION_CONTENT,INFORMATION_STABILITY,FITNESS_VARIANCE_MEAN,FITNESS_VARIANCE_STD,FITNESS_MEAN,DISPERSION_INDEX,MEAN_NUMBER_OF_NEUTRAL_AREAS,MEAN_SIZE_OF_NEUTRAL_AREAS,MEAN_FITNESS_DISTANCE,MAX_FITNESS_DISTANCE,INFORMATION_CONTENT_MEAN,INFORMATION_CONTENT_STD,PARTIAL_INFORMATION_CONTENT_MEAN,PARTIAL_INFORMATION_CONTENT_STD,INFORMATION_STABILITY_MEAN,INFORMATION_STABILITY_STD,FITNESS_VARIANCE_MEAN_MEAN,FITNESS_VARIANCE_MEAN_STD,FITNESS_VARIANCE_STD_MEAN,FITNESS_VARIANCE_STD_STD,FITNESS_MEAN_MEAN,FITNESS_MEAN_STD,DISPERSION_INDEX_MEAN,DISPERSION_INDEX_STD,MEAN_NUMBER_OF_NEUTRAL_AREAS_MEAN,MEAN_NUMBER_OF_NEUTRAL_AREAS_STD,MEAN_SIZE_OF_NEUTRAL_AREAS_MEAN,MEAN_SIZE_OF_NEUTRAL_AREAS_STD,MEAN_FITNESS_DISTANCE_MEAN,MEAN_FITNESS_DISTANCE_STD,MAX_FITNESS_DISTANCE_MEAN,MAX_FITNESS_DISTANCE_STD
0,SINGLE_CHANGE,"[5.4205284063, 5.3884893186, 5.3774602906, 4.9081280057, 4.9741484403000005, 4.9366938745, 4.9041395006, 4.7394914448000005]",Flex Agent 0,0.0,0.1943020234,0.1325,3.75,0.0786068885,0.010450454100000001,16.2564744355,0.0364004355,20.0,3.2395833333,0.6000375737,0.6536961357000001,,,,,,,,,,,,,,,,,,,,,,
1,SINGLE_CHANGE,"[5.4205284063, 5.3884893186, 5.3774602906, 4.9081280057, 4.9741484403000005, 4.9366938745, 4.9041395006, 4.7394914448000005]",Flex Agent 0,1.0,0.1976733712,0.15,3.0,0.0706295238,0.010241407400000001,16.2603604474,-0.0129799319,17.5,3.1928104575,0.5964440231,0.6388676042,,,,,,,,,,,,,,,,,,,,,,
2,SINGLE_CHANGE,"[5.4205284063, 5.3884893186, 5.3774602906, 4.9081280057, 4.9741484403000005, 4.9366938745, 4.9041395006, 4.7394914448000005]",Flex Agent 0,2.0,0.20212582380000002,0.16,3.0,0.06125639,0.0032578149000000002,16.3703231666,0.0813697239,19.0,3.3778409091,0.5547420187000001,0.636801308,,,,,,,,,,,,,,,,,,,,,,
3,SINGLE_CHANGE,"[5.4205284063, 5.3884893186, 5.3774602906, 4.9081280057, 4.9741484403000005, 4.9366938745, 4.9041395006, 4.7394914448000005]",Flex Agent 0,3.0,0.19720329120000002,0.1525,3.0,0.0652875019,0.0099138852,16.3059513943,0.0027742961,21.0,2.8611111111,0.590875284,0.6424745199,,,,,,,,,,,,,,,,,,,,,,
4,SINGLE_CHANGE,"[5.4205284063, 5.3884893186, 5.3774602906, 4.9081280057, 4.9741484403000005, 4.9366938745, 4.9041395006, 4.7394914448000005]",Flex Agent 0,4.0,0.1947848019,0.1325,3.75,0.08358709040000001,0.009590200200000001,16.4053578957,0.006154423500000001,22.5,2.6517857143,0.6112504703,0.7334587878000001,,,,,,,,,,,,,,,,,,,,,,
5,SINGLE_CHANGE,"[5.4205284063, 5.3884893186, 5.3774602906, 4.9081280057, 4.9741484403000005, 4.9366938745, 4.9041395006, 4.7394914448000005]",Flex Agent 1,0.0,0.20172433950000002,0.1925,6.25,0.0729097854,0.0064577273000000004,20.2092514737,-0.029184720100000002,5.0,1.1666666667,0.97345657,1.1267609375,,,,,,,,,,,,,,,,,,,,,,
6,SINGLE_CHANGE,"[5.4205284063, 5.3884893186, 5.3774602906, 4.9081280057, 4.9741484403000005, 4.9366938745, 4.9041395006, 4.7394914448000005]",Flex Agent 1,1.0,0.2001353553,0.1575,5.75,0.06793257970000001,0.0169161229,19.2405507988,-0.0020233411,4.5,1.225,0.8103660957000001,1.1009769242,,,,,,,,,,,,,,,,,,,,,,
7,SINGLE_CHANGE,"[5.4205284063, 5.3884893186, 5.3774602906, 4.9081280057, 4.9741484403000005, 4.9366938745, 4.9041395006, 4.7394914448000005]",Flex Agent 1,2.0,0.1994413469,0.1525,5.25,0.0657964629,0.0101867868,20.4214207704,-0.0834199957,8.0,1.0833333333,0.8784336223,1.0898666602,,,,,,,,,,,,,,,,,,,,,,
8,SINGLE_CHANGE,"[5.4205284063, 5.3884893186, 5.3774602906, 4.9081280057, 4.9741484403000005, 4.9366938745, 4.9041395006, 4.7394914448000005]",Flex Agent 1,3.0,0.2000361388,0.195,6.0,0.0579571038,0.0119156492,20.0489374087,-0.0726792958,4.5,1.0833333333,0.9728988391000001,1.0705519835,,,,,,,,,,,,,,,,,,,,,,
9,SINGLE_CHANGE,"[5.4205284063, 5.3884893186, 5.3774602906, 4.9081280057, 4.9741484403000005, 4.9366938745, 4.9041395006, 4.7394914448000005]",Flex Agent 1,4.0,0.2023905527,0.17,5.5,0.08132677320000001,0.0027464190000000004,19.8680101965,-0.0883428151,4.5,1.35,0.9119347602000001,1.16581078,,,,,,,,,,,,,,,,,,,,,,
10,SINGLE_CHANGE,"[5.4205284063, 5.3884893186, 5.3774602906, 4.9081280057, 4.9741484403000005, 4.9366938745, 4.9041395006, 4.7394914448000005]",Flex Agent 2,0.0,0.0,0.0,1.0,0.0024507401,0.0042448064,2.3323631102,0.0235467275,3.0,1.0,0.0012733412,0.0050933647,,,,,,,,,,,,,,,,,,,,,,
11,SINGLE_CHANGE,"[5.4205284063, 5.3884893186, 5.3774602906, 4.9081280057, 4.9741484403000005, 4.9366938745, 4.9041395006, 4.7394914448000005]",Flex Agent 2,1.0,0.0,0.0,1.0,0.0024507401,0.0042448064,1.23924656,-0.0127718452,2.5,1.4166666667,0.0001193812,0.00047752490000000004,,,,,,,,,,,,,,,,,,,,,,
12,SINGLE_CHANGE,"[5.4205284063, 5.3884893186, 5.3774602906, 4.9081280057, 4.9741484403000005, 4.9366938745, 4.9041395006, 4.7394914448000005]",Flex Agent 2,2.0,0.0,0.0,1.0,0.0024507401,0.0042448064,1.7993525381,-0.0122070254,3.0,1.3333333333000001,0.0013275299000000001,0.005310119800000001,,,,,,,,,,,,,,,,,,,,,,
13,SINGLE_CHANGE,"[5.4205284063, 5.3884893186, 5.3774602906, 4.9081280057, 4.9741484403000005, 4.9366938745, 4.9041395006, 4.7394914448000005]",Flex Agent 2,3.0,0.0,0.0,1.0,0.0024507401,0.0042448064,0.6391096896,-0.0386236284,3.0,1.3333333333000001,0.0010654345,0.0042617379000000006,,,,,,,,,,,,,,,,,,,,,,
14,SINGLE_CHANGE,"[5.4205284063, 5.3884893186, 5.3774602906, 4.9081280057, 4.9741484403000005, 4.9366938745, 4.9041395006, 4.7394914448000005]",Flex Agent 2,4.0,0.0,0.0,1.0,0.0024507401,0.0042448064,0.2119797378,-0.014828715000000001,3.5,1.2916666667,0.0014835602000000002,0.0059342406000000006,,,,,,,,,,,,,,,,,,,,,,
15,SINGLE_CHANGE,"[5.4205284063, 5.3884893186, 5.3774602906, 4.9081280057, 4.9741484403000005, 4.9366938745, 4.9041395006, 4.7394914448000005]",Flex Agent 3,0.0,0.13070875170000001,0.055,2.25,0.0740836596,0.0126658664,6.9201095179,0.0030872433,21.0,3.2276887872,0.3036876054,0.3255803003,,,,,,,,,,,,,,,,,,,,,,
16,SINGLE_CHANGE,"[5.4205284063, 5.3884893186, 5.3774602906, 4.9081280057, 4.9741484403000005, 4.9366938745, 4.9041395006, 4.7394914448000005]",Flex Agent 3,1.0,0.1105509823,0.0375,2.0,0.06354656510000001,0.0073139801,6.9820067125000005,0.0175377522,20.5,2.8224637681,0.2964413041,0.32766355880000003,,,,,,,,,,,,,,,,,,,,,,
17,SINGLE_CHANGE,"[5.4205284063, 5.3884893186, 5.3774602906, 4.9081280057, 4.9741484403000005, 4.9366938745, 4.9041395006, 4.7394914448000005]",Flex Agent 3,2.0,0.1067172643,0.04,2.25,0.0672565487,0.00367773,6.9628757768,-0.0207429197,23.0,2.4514285714,0.29903695890000004,0.31537273180000003,,,,,,,,,,,,,,,,,,,,,,
18,SINGLE_CHANGE,"[5.4205284063, 5.3884893186, 5.3774602906, 4.9081280057, 4.9741484403000005, 4.9366938745, 4.9041395006, 4.7394914448000005]",Flex Agent 3,3.0,0.0949829407,0.035,2.0,0.0768722183,0.0132045288,6.9638312155,0.0429354621,20.5,3.3875598086,0.2910279836,0.3248632596,,,,,,,,,,,,,,,,,,,,,,
19,SINGLE_CHANGE,"[5.4205284063, 5.3884893186, 5.3774602906, 4.9081280057, 4.9741484403000005, 4.9366938745, 4.9041395006, 4.7394914448000005]",Flex Agent 3,4.0,0.11448569260000001,0.0425,2.25,0.0653251532,0.0115174361,6.9294960314,0.0311463407,22.5,2.6295546559,0.29445802050000003,0.33203092440000004,,,,,,,,,,,,,,,,,,,,,,
20,SINGLE_CHANGE,"[5.4205284063, 5.3884893186, 5.3774602906, 4.9081280057, 4.9741484403000005, 4.9366938745, 4.9041395006, 4.7394914448000005]",Flex Agent 6,0.0,0.1954024408,0.185,5.0,0.0713016553,0.0097978348,14.8845642056,-0.08507185240000001,5.5,1.0,0.8392321627,1.1053437659,,,,,,,,,,,,,,,,,,,,,,
21,SINGLE_CHANGE,"[5.4205284063, 5.3884893186, 5.3774602906, 4.9081280057, 4.9741484403000005, 4.9366938745, 4.9041395006, 4.7394914448000005]",Flex Agent 6,1.0,0.17309739200000002,0.095,3.75,0.07809244230000001,0.0129667506,12.3875388625,-0.0906253776,4.5,1.1,0.5496853393000001,0.6125604424000001,,,,,,,,,,,,,,,,,,,,,,
22,SINGLE_CHANGE,"[5.4205284063, 5.3884893186, 5.3774602906, 4.9081280057, 4.9741484403000005, 4.9366938745, 4.9041395006, 4.7394914448000005]",Flex Agent 6,2.0,0.1635415259,0.0925,4.0,0.0689363278,0.0101911106,13.908486705,-0.1003978377,2.0,1.0,0.5454231333,0.6448256239,,,,,,,,,,,,,,,,,,,,,,
23,SINGLE_CHANGE,"[5.4205284063, 5.3884893186, 5.3774602906, 4.9081280057, 4.9741484403000005, 4.9366938745, 4.9041395006, 4.7394914448000005]",Flex Agent 6,3.0,0.18149967790000002,0.1075,3.5,0.0988638231,0.018075632600000002,13.5077195173,0.0011926641,3.5,0.5,0.5813836113,0.6751639013,,,,,,,,,,,,,,,,,,,,,,
24,SINGLE_CHANGE,"[5.4205284063, 5.3884893186, 5.3774602906, 4.9081280057, 4.9741484403000005, 4.9366938745, 4.9041395006, 4.7394914448000005]",Flex Agent 6,4.0,0.1888634085,0.12,3.75,0.0730190636,0.0152090385,13.0846140768,-0.07323049150000001,8.5,1.0909090909,0.6139280603,0.6871634791,,,,,,,,,,,,,,,,,,,,,,
25,SINGLE_CHANGE,"[5.4205284063, 5.3884893186, 5.3774602906, 4.9081280057, 4.9741484403000005, 4.9366938745, 4.9041395006, 4.7394914448000005]",Flex Agent 7,0.0,0.1917969603,0.125,4.25,0.0972175261,0.0058353308,16.7233517136,0.0187793675,7.0,1.125,0.6593151498,0.7015402512000001,,,,,,,,,,,,,,,,,,,,,,
26,SINGLE_CHANGE,"[5.4205284063, 5.3884893186, 5.3774602906, 4.9081280057, 4.9741484403000005, 4.9366938745, 4.9041395006, 4.7394914448000005]",Flex Agent 7,1.0,0.1846367211,0.1125,4.5,0.0694744401,0.0024793054,16.2089937335,-0.0116217895,2.0,1.0,0.6303032368,0.7284394573,,,,,,,,,,,,,,,,,,,,,,
27,SINGLE_CHANGE,"[5.4205284063, 5.3884893186, 5.3774602906, 4.9081280057, 4.9741484403000005, 4.9366938745, 4.9041395006, 4.7394914448000005]",Flex Agent 7,2.0,0.1972330158,0.145,4.5,0.0748715502,0.012732404400000001,17.4168337083,-0.0676942325,7.0,1.3125,0.7334319798000001,0.913294691,,,,,,,,,,,,,,,,,,,,,,
28,SINGLE_CHANGE,"[5.4205284063, 5.3884893186, 5.3774602906, 4.9081280057, 4.9741484403000005, 4.9366938745, 4.9041395006, 4.7394914448000005]",Flex Agent 7,3.0,0.1978706856,0.1525,5.0,0.073438634,0.0165644525,16.391261747,-0.1055870069,3.5,1.1666666667,0.7251929289,0.7912639057,,,,,,,,,,,,,,,,,,,,,,
29,SINGLE_CHANGE,"[5.4205284063, 5.3884893186, 5.3774602906, 4.9081280057, 4.9741484403000005, 4.9366938745, 4.9041395006, 4.7394914448000005]",Flex Agent 7,4.0,0.1992777999,0.1575,5.75,0.0869540558,0.0186218004,17.0688458179,-0.1157280177,7.0,1.1428571429,0.8693008012000001,1.0283088834,,,,,,,,,,,,,,,,,,,,,,
30,SINGLE_CHANGE,"[5.4205284063, 5.3884893186, 5.3774602906, 4.9081280057, 4.9741484403000005, 4.9366938745, 4.9041395006, 4.7394914448000005]",Flex Agent 5,0.0,0.2011929037,0.1675,4.5,0.0570091209,0.0106096099,17.6391253639,0.0033330849,2.5,1.125,0.7241779769000001,0.8503491517,,,,,,,,,,,,,,,,,,,,,,
31,SINGLE_CHANGE,"[5.4205284063, 5.3884893186, 5.3774602906, 4.9081280057, 4.9741484403000005, 4.9366938745, 4.9041395006, 4.7394914448000005]",Flex Agent 5,1.0,0.18744313910000002,0.11750000000000001,5.0,0.0756441249,0.008095647000000001,15.2661647675,-0.0825504018,7.5,1.25,0.6605497607,0.7801935177,,,,,,,,,,,,,,,,,,,,,,
32,SINGLE_CHANGE,"[5.4205284063, 5.3884893186, 5.3774602906, 4.9081280057, 4.9741484403000005, 4.9366938745, 4.9041395006, 4.7394914448000005]",Flex Agent 5,2.0,0.2014469525,0.1575,5.25,0.0682436295,0.0084370496,16.5343124885,0.0031730849,9.0,1.55,0.7950811316,0.8588371746000001,,,,,,,,,,,,,,,,,,,,,,
33,SINGLE_CHANGE,"[5.4205284063, 5.3884893186, 5.3774602906, 4.9081280057, 4.9741484403000005, 4.9366938745, 4.9041395006, 4.7394914448000005]",Flex Agent 5,3.0,0.1946293608,0.14750000000000002,4.5,0.0937949846,0.0179823684,15.2622974076,-0.0526554658,8.0,1.0833333333,0.7043351631,0.8096661113,,,,,,,,,,,,,,,,,,,,,,
34,SINGLE_CHANGE,"[5.4205284063, 5.3884893186, 5.3774602906, 4.9081280057, 4.9741484403000005, 4.9366938745, 4.9041395006, 4.7394914448000005]",Flex Agent 5,4.0,0.19902677840000002,0.17500000000000002,5.25,0.0776623667,0.0063857113,16.0059635978,0.0447301476,4.5,1.0,0.7781886522,0.9492319963,,,,,,,,,,,,,,,,,,,,,,
35,SINGLE_CHANGE,"[5.4205284063, 5.3884893186, 5.3774602906, 4.9081280057, 4.9741484403000005, 4.9366938745, 4.9041395006, 4.7394914448000005]",Flex Agent 4,0.0,0.1424163547,0.06,2.5,0.0707796398,0.0031147399,9.6065539758,0.11661246580000001,19.5,3.1785714286,0.39957056550000003,0.4556912873,,,,,,,,,,,,,,,,,,,,,,
36,SINGLE_CHANGE,"[5.4205284063, 5.3884893186, 5.3774602906, 4.9081280057, 4.9741484403000005, 4.9366938745, 4.9041395006, 4.7394914448000005]",Flex Agent 4,1.0,0.11135706790000001,0.04,2.25,0.060023006100000005,0.0047622516000000005,9.6529956551,0.011188068300000001,20.5,3.13647343,0.3751856993,0.4170183744,,,,,,,,,,,,,,,,,,,,,,
37,SINGLE_CHANGE,"[5.4205284063, 5.3884893186, 5.3774602906, 4.9081280057, 4.9741484403000005, 4.9366938745, 4.9041395006, 4.7394914448000005]",Flex Agent 4,2.0,0.1598860889,0.0775,2.25,0.0753940458,0.010547286000000001,9.6677313538,0.055197403000000006,22.0,2.5541666667,0.3491246883,0.41305270920000003,,,,,,,,,,,,,,,,,,,,,,
38,SINGLE_CHANGE,"[5.4205284063, 5.3884893186, 5.3774602906, 4.9081280057, 4.9741484403000005, 4.9366938745, 4.9041395006, 4.7394914448000005]",Flex Agent 4,3.0,0.1493478333,0.07250000000000001,2.25,0.0614892155,0.0058112157000000005,9.7052557704,0.0451924066,20.0,3.1967418546,0.35123899270000003,0.41793133330000004,,,,,,,,,,,,,,,,,,,,,,
39,SINGLE_CHANGE,"[5.4205284063, 5.3884893186, 5.3774602906, 4.9081280057, 4.9741484403000005, 4.9366938745, 4.9041395006, 4.7394914448000005]",Flex Agent 4,4.0,0.1498093721,0.075,2.25,0.07973911880000001,0.0211763905,9.609828282,0.030764073000000003,22.5,2.675,0.3921305666,0.4439753014,,,,,,,,,,,,,,,,,,,,,,
40,SINGLE_CHANGE,"[5.4205284063, 5.3884893186, 5.3774602906, 4.9081280057, 4.9741484403000005, 4.9366938745, 4.9041395006, 4.7394914448000005]",Flex Agent 8,0.0,0.1327822606,0.06,2.25,0.0570530566,0.008619062,9.6267333105,0.0468161081,22.5,2.5612648221,0.3796948397,0.4141551278,,,,,,,,,,,,,,,,,,,,,,
41,SINGLE_CHANGE,"[5.4205284063, 5.3884893186, 5.3774602906, 4.9081280057, 4.9741484403000005, 4.9366938745, 4.9041395006, 4.7394914448000005]",Flex Agent 8,1.0,0.1351088263,0.055,2.0,0.07880079770000001,0.0182865011,9.59814344,0.020964507900000002,23.0,2.4053030303,0.3470833696,0.3717378764,,,,,,,,,,,,,,,,,,,,,,
42,SINGLE_CHANGE,"[5.4205284063, 5.3884893186, 5.3774602906, 4.9081280057, 4.9741484403000005, 4.9366938745, 4.9041395006, 4.7394914448000005]",Flex Agent 8,2.0,0.1543296435,0.07250000000000001,2.5,0.07762769480000001,0.0089815215,9.7018353762,0.1441913008,18.0,3.8380952381,0.3341094799,0.3855002584,,,,,,,,,,,,,,,,,,,,,,
43,SINGLE_CHANGE,"[5.4205284063, 5.3884893186, 5.3774602906, 4.9081280057, 4.9741484403000005, 4.9366938745, 4.9041395006, 4.7394914448000005]",Flex Agent 8,3.0,0.154968444,0.08,2.25,0.07089777530000001,0.0031284812000000003,9.5883039213,0.0318410277,20.0,3.3721804511,0.3932162064,0.43915315730000004,,,,,,,,,,,,,,,,,,,,,,
44,SINGLE_CHANGE,"[5.4205284063, 5.3884893186, 5.3774602906, 4.9081280057, 4.9741484403000005, 4.9366938745, 4.9041395006, 4.7394914448000005]",Flex Agent 8,4.0,0.15884378,0.075,2.25,0.0721475447,0.005584503,9.5888694282,0.0503803696,19.0,3.2670454545,0.3895085481,0.42019769290000003,,,,,,,,,,,,,,,,,,,,,,
45,SINGLE_CHANGE,"[5.4205284063, 5.3884893186, 5.3774602906, 4.9081280057, 4.9741484403000005, 4.9366938745, 4.9041395006, 4.7394914448000005]",Flex Agent 9,0.0,0.1498272185,0.07,2.25,0.0703797097,0.0125264378,9.5841345332,0.049002331100000004,18.5,3.9211309524,0.3902271147,0.43639442700000003,,,,,,,,,,,,,,,,,,,,,,
46,SINGLE_CHANGE,"[5.4205284063, 5.3884893186, 5.3774602906, 4.9081280057, 4.9741484403000005, 4.9366938745, 4.9041395006, 4.7394914448000005]",Flex Agent 9,1.0,0.13759901330000002,0.0575,2.0,0.0840468706,0.0182137185,9.6937929658,0.08328231970000001,16.5,4.0416666667,0.3385243603,0.38098922500000004,,,,,,,,,,,,,,,,,,,,,,
47,SINGLE_CHANGE,"[5.4205284063, 5.3884893186, 5.3774602906, 4.9081280057, 4.9741484403000005, 4.9366938745, 4.9041395006, 4.7394914448000005]",Flex Agent 9,2.0,0.1447094193,0.0625,3.0,0.0742726919,0.0140434024,9.5856348323,0.0350981917,18.5,3.8128654971,0.3901321555,0.4134927452,,,,,,,,,,,,,,,,,,,,,,
48,SINGLE_CHANGE,"[5.4205284063, 5.3884893186, 5.3774602906, 4.9081280057, 4.9741484403000005, 4.9366938745, 4.9041395006, 4.7394914448000005]",Flex Agent 9,3.0,0.1401045441,0.06,2.75,0.06727169470000001,0.0067319755,9.6031747255,0.1492595964,18.0,3.6764705882,0.37008904140000004,0.4797015887,,,,,,,,,,,,,,,,,,,,,,
49,SINGLE_CHANGE,"[5.4205284063, 5.3884893186, 5.3774602906, 4.9081280057, 4.9741484403000005, 4.9366938745, 4.9041395006, 4.7394914448000005]",Flex Agent 9,4.0,0.1289636976,0.05,2.5,0.0593400549,0.0053061752,9.6554126084,0.029475080400000003,21.5,2.9047619048,0.38342086400000003,0.4051577954,,,,,,,,,,,,,,,,,,,,,,
50,,,Global,,,,,,,,,,,,,0.15108550005399998,0.05956534805881203,0.0966,0.057032840521573036,3.295,1.4903516226661657,0.065768292136,0.023238245035735544,0.009641954982,0.005052258970718727,11.982509655373999,5.389553846386377,0.0008491859419999983,0.06189680704845077,12.62,8.014374840349848,2.1422632933759997,1.0668624340519441,0.49966291913,0.2598360457590429,0.578723693126,0.3165154658610934
