,NeighborhoodDefinition,TargetSchedule,Agent,FLA_ID,INFORMATION_CONTENT,PARTIAL_INFORMATION_CONTENT,INFORMATION_STABILITY,FITNESS_VARIANCE_MEAN,FITNESS_VARIANCE_STD,FITNESS_MEAN,DISPERSION_INDEX,MEAN_NUMBER_OF_NEUTRAL_AREAS,MEAN_SIZE_OF_NEUTRAL_AREAS,MEAN_FITNESS_DISTANCE,MAX_FITNESS_DISTANCE,INFORMATION_CONTENT_MEAN,INFORMATION_CONTENT_STD,PARTIAL_INFORMATION_CONTENT_MEAN,PARTIAL_INFORMATION_CONTENT_STD,INFORMATION_STABILITY_MEAN,INFORMATION_STABILITY_STD,FITNESS_VARIANCE_MEAN_MEAN,FITNESS_VARIANCE_MEAN_STD,FITNESS_VARIANCE_STD_MEAN,FITNESS_VARIANCE_STD_STD,FITNESS_MEAN_MEAN,FITNESS_MEAN_STD,DISPERSION_INDEX_MEAN,DISPERSION_INDEX_STD,MEAN_NUMBER_OF_NEUTRAL_AREAS_MEAN,MEAN_NUMBER_OF_NEUTRAL_AREAS_STD,MEAN_SIZE_OF_NEUTRAL_AREAS_MEAN,MEAN_SIZE_OF_NEUTRAL_AREAS_STD,MEAN_FITNESS_DISTANCE_MEAN,MEAN_FITNESS_DISTANCE_STD,MAX_FITNESS_DISTANCE_MEAN,MAX_FITNESS_DISTANCE_STD
0,SINGLE_CHANGE,"[-21.8796339771, -6.4559928506, 10.8572617881, -31.2796291571, -19.2672816876, -18.8447294777, 25.4573582218, -25.1644743832]",Flex Agent 3,0.0,0.0,0.0,1.0,0.0024507401,0.0042448064,21.6168520729,-9.19061e-05,6.0,1.1714285714,0.00029989350000000003,0.0011995741,,,,,,,,,,,,,,,,,,,,,,
1,SINGLE_CHANGE,"[-21.8796339771, -6.4559928506, 10.8572617881, -31.2796291571, -19.2672816876, -18.8447294777, 25.4573582218, -25.1644743832]",Flex Agent 3,1.0,0.0,0.0,1.0,0.0024507401,0.0042448064,31.8805688502,-4.8927e-05,8.0,1.625,0.000763104,0.0030524162,,,,,,,,,,,,,,,,,,,,,,
2,SINGLE_CHANGE,"[-21.8796339771, -6.4559928506, 10.8572617881, -31.2796291571, -19.2672816876, -18.8447294777, 25.4573582218, -25.1644743832]",Flex Agent 3,2.0,0.0,0.0,1.0,0.0024507401,0.0042448064,26.6364315447,-5.90538e-05,7.0,1.0,0.0019644485,0.0078577938,,,,,,,,,,,,,,,,,,,,,,
3,SINGLE_CHANGE,"[-21.8796339771, -6.4559928506, 10.8572617881, -31.2796291571, -19.2672816876, -18.8447294777, 25.4573582218, -25.1644743832]",Flex Agent 3,3.0,0.0,0.0,1.0,0.0024507401,0.0042448064,33.8925146705,-5.19335e-05,9.0,1.1111111111,0.0007999107,0.0031996429000000002,,,,,,,,,,,,,,,,,,,,,,
4,SINGLE_CHANGE,"[-21.8796339771, -6.4559928506, 10.8572617881, -31.2796291571, -19.2672816876, -18.8447294777, 25.4573582218, -25.1644743832]",Flex Agent 3,4.0,0.0,0.0,1.0,0.0024507401,0.0042448064,24.1284049502,-3.44095e-05,1.0,1.0,0.0013244078,0.0052976311,,,,,,,,,,,,,,,,,,,,,,
5,SINGLE_CHANGE,"[-21.8796339771, -6.4559928506, 10.8572617881, -31.2796291571, -19.2672816876, -18.8447294777, 25.4573582218, -25.1644743832]",Flex Agent 4,0.0,0.0,0.0,1.0,0.0024507401,0.0042448064,30.291041721,0.0003755732,6.0,1.8285714286,0.00029989350000000003,0.0011995741,,,,,,,,,,,,,,,,,,,,,,
6,SINGLE_CHANGE,"[-21.8796339771, -6.4559928506, 10.8572617881, -31.2796291571, -19.2672816876, -18.8447294777, 25.4573582218, -25.1644743832]",Flex Agent 4,1.0,0.0,0.0,1.0,0.0024507401,0.0042448064,26.4657250123,-3.3013e-06,7.0,1.0,0.0008399758,0.0033599032,,,,,,,,,,,,,,,,,,,,,,
7,SINGLE_CHANGE,"[-21.8796339771, -6.4559928506, 10.8572617881, -31.2796291571, -19.2672816876, -18.8447294777, 25.4573582218, -25.1644743832]",Flex Agent 4,2.0,0.0,0.0,1.0,0.0024507401,0.0042448064,17.233673017,-1.2140000000000002e-06,7.0,2.5714285714000003,0.0019306297000000001,0.0077225188000000005,,,,,,,,,,,,,,,,,,,,,,
8,SINGLE_CHANGE,"[-21.8796339771, -6.4559928506, 10.8572617881, -31.2796291571, -19.2672816876, -18.8447294777, 25.4573582218, -25.1644743832]",Flex Agent 4,3.0,0.0,0.0,1.0,0.0024507401,0.0042448064,24.7933507791,-8.121e-07,7.0,2.5714285714000003,0.0016290791,0.0065163165,,,,,,,,,,,,,,,,,,,,,,
9,SINGLE_CHANGE,"[-21.8796339771, -6.4559928506, 10.8572617881, -31.2796291571, -19.2672816876, -18.8447294777, 25.4573582218, -25.1644743832]",Flex Agent 4,4.0,0.0,0.0,1.0,0.0024507401,0.0042448064,19.8574909275,6.8579e-06,7.5,1.9375,0.0015896241,0.0063584963000000005,,,,,,,,,,,,,,,,,,,,,,
10,SINGLE_CHANGE,"[-21.8796339771, -6.4559928506, 10.8572617881, -31.2796291571, -19.2672816876, -18.8447294777, 25.4573582218, -25.1644743832]",Flex Agent 2,0.0,0.17909318600000002,0.1125,4.75,0.06728850900000001,0.015073461600000001,40.2777030198,0.0006558055,4.5,1.1,0.6233402713,0.7784044587000001,,,,,,,,,,,,,,,,,,,,,,
11,SINGLE_CHANGE,"[-21.8796339771, -6.4559928506, 10.8572617881, -31.2796291571, -19.2672816876, -18.8447294777, 25.4573582218, -25.1644743832]",Flex Agent 2,1.0,0.1881656551,0.1275,4.75,0.0730723924,0.0213573317,43.4516213012,-0.0037218193,4.0,1.4666666667000001,0.6769495433,0.8140221320000001,,,,,,,,,,,,,,,,,,,,,,
12,SINGLE_CHANGE,"[-21.8796339771, -6.4559928506, 10.8572617881, -31.2796291571, -19.2672816876, -18.8447294777, 25.4573582218, -25.1644743832]",Flex Agent 2,2.0,0.17269524990000001,0.1075,4.75,0.0690421169,0.010704358800000001,30.2050680897,-0.0003749472,4.5,1.5,0.5840648919,0.6793140617,,,,,,,,,,,,,,,,,,,,,,
13,SINGLE_CHANGE,"[-21.8796339771, -6.4559928506, 10.8572617881, -31.2796291571, -19.2672816876, -18.8447294777, 25.4573582218, -25.1644743832]",Flex Agent 2,3.0,0.1864123172,0.1325,4.75,0.062342170100000004,0.010831302800000001,34.7671665843,-0.0015550391,10.0,1.1333333333,0.6802176927,0.7612338372,,,,,,,,,,,,,,,,,,,,,,
14,SINGLE_CHANGE,"[-21.8796339771, -6.4559928506, 10.8572617881, -31.2796291571, -19.2672816876, -18.8447294777, 25.4573582218, -25.1644743832]",Flex Agent 2,4.0,0.1918743994,0.1325,5.0,0.0691685222,0.0065471134,33.2259558592,-0.0015503506,4.5,1.1,0.6639679293,0.7327376855000001,,,,,,,,,,,,,,,,,,,,,,
15,SINGLE_CHANGE,"[-21.8796339771, -6.4559928506, 10.8572617881, -31.2796291571, -19.2672816876, -18.8447294777, 25.4573582218, -25.1644743832]",Flex Agent 5,0.0,0.1811832541,0.11,5.0,0.07460442,0.0064288335,25.6838477613,-0.0004401106,3.5,1.25,0.5705295161,0.6213295014,,,,,,,,,,,,,,,,,,,,,,
16,SINGLE_CHANGE,"[-21.8796339771, -6.4559928506, 10.8572617881, -31.2796291571, -19.2672816876, -18.8447294777, 25.4573582218, -25.1644743832]",Flex Agent 5,1.0,0.1712534766,0.10250000000000001,4.5,0.0712959115,0.0159276824,34.2568141001,0.0011311543,5.0,1.25,0.5682452819,0.7685812804000001,,,,,,,,,,,,,,,,,,,,,,
17,SINGLE_CHANGE,"[-21.8796339771, -6.4559928506, 10.8572617881, -31.2796291571, -19.2672816876, -18.8447294777, 25.4573582218, -25.1644743832]",Flex Agent 5,2.0,0.1868688142,0.1375,5.0,0.0741280233,0.018324286000000002,28.283610804,0.0001453983,5.5,1.1833333333,0.7207487647,1.0061657862,,,,,,,,,,,,,,,,,,,,,,
18,SINGLE_CHANGE,"[-21.8796339771, -6.4559928506, 10.8572617881, -31.2796291571, -19.2672816876, -18.8447294777, 25.4573582218, -25.1644743832]",Flex Agent 5,3.0,0.1824293129,0.11750000000000001,4.75,0.0843168667,0.016934282800000002,27.9336642248,-0.0011050268000000001,5.0,1.25,0.6807323431,0.9063709232,,,,,,,,,,,,,,,,,,,,,,
19,SINGLE_CHANGE,"[-21.8796339771, -6.4559928506, 10.8572617881, -31.2796291571, -19.2672816876, -18.8447294777, 25.4573582218, -25.1644743832]",Flex Agent 5,4.0,0.19213542,0.1375,5.0,0.0865350637,0.019955870100000002,30.7507595234,-0.0010124572,7.0,1.1458333333,0.6111105107,0.6637533629,,,,,,,,,,,,,,,,,,,,,,
20,SINGLE_CHANGE,"[-21.8796339771, -6.4559928506, 10.8572617881, -31.2796291571, -19.2672816876, -18.8447294777, 25.4573582218, -25.1644743832]",Flex Agent 1,0.0,0.19820346760000002,0.1525,5.75,0.0958504161,0.0164835695,30.7355643562,-0.0020499805,5.0,1.1,0.8478436999000001,1.1179024906,,,,,,,,,,,,,,,,,,,,,,
21,SINGLE_CHANGE,"[-21.8796339771, -6.4559928506, 10.8572617881, -31.2796291571, -19.2672816876, -18.8447294777, 25.4573582218, -25.1644743832]",Flex Agent 1,1.0,0.2027995162,0.17,5.0,0.062264171400000005,0.013129094800000001,31.6366127095,-0.0010516092,8.0,1.5333333332999999,0.7495746735000001,0.8783506820000001,,,,,,,,,,,,,,,,,,,,,,
22,SINGLE_CHANGE,"[-21.8796339771, -6.4559928506, 10.8572617881, -31.2796291571, -19.2672816876, -18.8447294777, 25.4573582218, -25.1644743832]",Flex Agent 1,2.0,0.1999286711,0.17,6.75,0.060850314200000005,0.0090328443,32.0498838639,-0.0025453077,7.0,1.6111111111,0.8251088838,1.0192500994,,,,,,,,,,,,,,,,,,,,,,
23,SINGLE_CHANGE,"[-21.8796339771, -6.4559928506, 10.8572617881, -31.2796291571, -19.2672816876, -18.8447294777, 25.4573582218, -25.1644743832]",Flex Agent 1,3.0,0.2047635196,0.20500000000000002,5.75,0.0771287709,0.0092092462,34.9821485893,-0.0025791673,5.0,1.3095238095,0.9372600832,1.0821249498,,,,,,,,,,,,,,,,,,,,,,
24,SINGLE_CHANGE,"[-21.8796339771, -6.4559928506, 10.8572617881, -31.2796291571, -19.2672816876, -18.8447294777, 25.4573582218, -25.1644743832]",Flex Agent 1,4.0,0.2015500701,0.1675,5.5,0.06672703840000001,0.019853393900000002,39.2244699256,-0.00374644,3.0,1.8333333333000001,0.8133863214,0.9817348944000001,,,,,,,,,,,,,,,,,,,,,,
25,SINGLE_CHANGE,"[-21.8796339771, -6.4559928506, 10.8572617881, -31.2796291571, -19.2672816876, -18.8447294777, 25.4573582218, -25.1644743832]",Flex Agent 0,0.0,0.0,0.0,1.0,0.0024507401,0.0042448064,17.6624647953,-0.0001421323,1.0,1.0,0.0014004171,0.0056016682,,,,,,,,,,,,,,,,,,,,,,
26,SINGLE_CHANGE,"[-21.8796339771, -6.4559928506, 10.8572617881, -31.2796291571, -19.2672816876, -18.8447294777, 25.4573582218, -25.1644743832]",Flex Agent 0,1.0,0.0,0.0,1.0,0.0024507401,0.0042448064,45.3701842772,-2.2025e-06,6.0,1.8333333333000001,0.0022030226,0.0088120904,,,,,,,,,,,,,,,,,,,,,,
27,SINGLE_CHANGE,"[-21.8796339771, -6.4559928506, 10.8572617881, -31.2796291571, -19.2672816876, -18.8447294777, 25.4573582218, -25.1644743832]",Flex Agent 0,2.0,0.006425486,0.0,1.25,0.0024507401,0.0042448064,44.7698883861,5.9630900000000005e-05,6.0,1.8333333333000001,0.0045921407000000004,0.0183685627,,,,,,,,,,,,,,,,,,,,,,
28,SINGLE_CHANGE,"[-21.8796339771, -6.4559928506, 10.8572617881, -31.2796291571, -19.2672816876, -18.8447294777, 25.4573582218, -25.1644743832]",Flex Agent 0,3.0,0.006425486,0.0,1.25,0.0024507401,0.0042448064,29.6769576456,2.0934900000000002e-05,7.0,1.1428571429,0.0033462037,0.0133848149,,,,,,,,,,,,,,,,,,,,,,
29,SINGLE_CHANGE,"[-21.8796339771, -6.4559928506, 10.8572617881, -31.2796291571, -19.2672816876, -18.8447294777, 25.4573582218, -25.1644743832]",Flex Agent 0,4.0,0.006425486,0.0,1.25,0.0024507401,0.0042448064,16.9382613907,1.11368e-05,7.5,1.6696428571,0.0032819789,0.0131279155,,,,,,,,,,,,,,,,,,,,,,
30,SINGLE_CHANGE,"[-21.8796339771, -6.4559928506, 10.8572617881, -31.2796291571, -19.2672816876, -18.8447294777, 25.4573582218, -25.1644743832]",Flex Agent 7,0.0,0.12481451680000001,0.05,2.5,0.034400184,0.0067439289000000005,24.0338734676,-7.02719e-05,18.5,3.4868421053,0.329187736,0.4012831405,,,,,,,,,,,,,,,,,,,,,,
31,SINGLE_CHANGE,"[-21.8796339771, -6.4559928506, 10.8572617881, -31.2796291571, -19.2672816876, -18.8447294777, 25.4573582218, -25.1644743832]",Flex Agent 7,1.0,0.11532728360000001,0.0475,2.0,0.0364916837,0.0087214714,33.3863686875,4.90046e-05,20.5,3.3852657005,0.3347522604,0.37451361790000004,,,,,,,,,,,,,,,,,,,,,,
32,SINGLE_CHANGE,"[-21.8796339771, -6.4559928506, 10.8572617881, -31.2796291571, -19.2672816876, -18.8447294777, 25.4573582218, -25.1644743832]",Flex Agent 7,2.0,0.1120657863,0.04,2.0,0.0434221723,0.0027993825,26.0024310022,-9.3937e-06,18.0,3.6125,0.3631790319,0.3797301779,,,,,,,,,,,,,,,,,,,,,,
33,SINGLE_CHANGE,"[-21.8796339771, -6.4559928506, 10.8572617881, -31.2796291571, -19.2672816876, -18.8447294777, 25.4573582218, -25.1644743832]",Flex Agent 7,3.0,0.12399836330000001,0.05,2.0,0.0443006738,0.0110284509,16.2060555893,-4.378e-07,19.0,3.6315789474,0.3282427115,0.41337556810000003,,,,,,,,,,,,,,,,,,,,,,
34,SINGLE_CHANGE,"[-21.8796339771, -6.4559928506, 10.8572617881, -31.2796291571, -19.2672816876, -18.8447294777, 25.4573582218, -25.1644743832]",Flex Agent 7,4.0,0.10018463650000001,0.035,2.0,0.0394497469,0.0059245916,17.4814371488,2.4315e-06,18.0,3.9566563467,0.3139299198,0.34640572740000003,,,,,,,,,,,,,,,,,,,,,,
35,SINGLE_CHANGE,"[-21.8796339771, -6.4559928506, 10.8572617881, -31.2796291571, -19.2672816876, -18.8447294777, 25.4573582218, -25.1644743832]",Flex Agent 9,0.0,0.006425486,0.0,4.25,0.0024507401,0.0042448064,77.9264434567,-0.0107497993,3.5,2.4166666667,0.034436160800000004,0.1377446431,,,,,,,,,,,,,,,,,,,,,,
36,SINGLE_CHANGE,"[-21.8796339771, -6.4559928506, 10.8572617881, -31.2796291571, -19.2672816876, -18.8447294777, 25.4573582218, -25.1644743832]",Flex Agent 9,1.0,0.006425486,0.0,5.5,0.0024507401,0.0042448064,79.5618535557,-0.0008731792,4.0,2.0,0.0470916776,0.1883667105,,,,,,,,,,,,,,,,,,,,,,
37,SINGLE_CHANGE,"[-21.8796339771, -6.4559928506, 10.8572617881, -31.2796291571, -19.2672816876, -18.8447294777, 25.4573582218, -25.1644743832]",Flex Agent 9,2.0,0.006425486,0.0,4.0,0.0024507401,0.0042448064,106.386246368,-0.0010102059,3.0,2.3333333333,0.0314984963,0.1259939852,,,,,,,,,,,,,,,,,,,,,,
38,SINGLE_CHANGE,"[-21.8796339771, -6.4559928506, 10.8572617881, -31.2796291571, -19.2672816876, -18.8447294777, 25.4573582218, -25.1644743832]",Flex Agent 9,3.0,0.006425486,0.0,2.5,0.0024507401,0.0042448064,107.8992284111,-0.0006840201000000001,3.5,2.1666666667,0.0161378805,0.06455152210000001,,,,,,,,,,,,,,,,,,,,,,
39,SINGLE_CHANGE,"[-21.8796339771, -6.4559928506, 10.8572617881, -31.2796291571, -19.2672816876, -18.8447294777, 25.4573582218, -25.1644743832]",Flex Agent 9,4.0,0.006425486,0.0,3.25,0.0024507401,0.0042448064,87.1642683771,-0.0014039657,3.0,2.3333333333,0.0236002992,0.0944011966,,,,,,,,,,,,,,,,,,,,,,
40,SINGLE_CHANGE,"[-21.8796339771, -6.4559928506, 10.8572617881, -31.2796291571, -19.2672816876, -18.8447294777, 25.4573582218, -25.1644743832]",Flex Agent 8,0.0,0.0,0.0,1.0,0.0024507401,0.0042448064,46.5098480296,-0.00032667870000000003,6.0,2.4857142857,0.00029989350000000003,0.0011995741,,,,,,,,,,,,,,,,,,,,,,
41,SINGLE_CHANGE,"[-21.8796339771, -6.4559928506, 10.8572617881, -31.2796291571, -19.2672816876, -18.8447294777, 25.4573582218, -25.1644743832]",Flex Agent 8,1.0,0.0,0.0,1.0,0.0024507401,0.0042448064,28.1717340851,-4.6168e-06,7.0,1.7142857142999999,0.0007631043,0.0030524173,,,,,,,,,,,,,,,,,,,,,,
42,SINGLE_CHANGE,"[-21.8796339771, -6.4559928506, 10.8572617881, -31.2796291571, -19.2672816876, -18.8447294777, 25.4573582218, -25.1644743832]",Flex Agent 8,2.0,0.0,0.0,1.0,0.0024507401,0.0042448064,25.6663742882,-4.0710000000000005e-06,7.0,1.0,0.0019644485,0.0078577938,,,,,,,,,,,,,,,,,,,,,,
43,SINGLE_CHANGE,"[-21.8796339771, -6.4559928506, 10.8572617881, -31.2796291571, -19.2672816876, -18.8447294777, 25.4573582218, -25.1644743832]",Flex Agent 8,3.0,0.0,0.0,1.0,0.0024507401,0.0042448064,25.6758968134,3.3563e-06,7.0,1.1428571429,0.0016290805000000002,0.006516322000000001,,,,,,,,,,,,,,,,,,,,,,
44,SINGLE_CHANGE,"[-21.8796339771, -6.4559928506, 10.8572617881, -31.2796291571, -19.2672816876, -18.8447294777, 25.4573582218, -25.1644743832]",Flex Agent 8,4.0,0.0,0.0,1.0,0.0024507401,0.0042448064,27.4294594258,2.213e-07,8.0,1.0,0.0015896241,0.0063584963000000005,,,,,,,,,,,,,,,,,,,,,,
45,SINGLE_CHANGE,"[-21.8796339771, -6.4559928506, 10.8572617881, -31.2796291571, -19.2672816876, -18.8447294777, 25.4573582218, -25.1644743832]",Flex Agent 6,0.0,0.2031310597,0.195,5.5,0.0704888236,0.0085596123,27.8942623881,-0.0047908835,6.0,0.5833333333,0.8476302210000001,0.9496737016000001,,,,,,,,,,,,,,,,,,,,,,
46,SINGLE_CHANGE,"[-21.8796339771, -6.4559928506, 10.8572617881, -31.2796291571, -19.2672816876, -18.8447294777, 25.4573582218, -25.1644743832]",Flex Agent 6,1.0,0.1982516618,0.14750000000000002,5.75,0.07906779500000001,0.0061566436,48.5346836774,-0.0041713997,3.5,1.0,0.8470504655000001,0.9169133112000001,,,,,,,,,,,,,,,,,,,,,,
47,SINGLE_CHANGE,"[-21.8796339771, -6.4559928506, 10.8572617881, -31.2796291571, -19.2672816876, -18.8447294777, 25.4573582218, -25.1644743832]",Flex Agent 6,2.0,0.19904437930000002,0.185,5.25,0.0805399207,0.022927774600000003,41.1136389551,-0.0019873033000000003,3.0,1.1666666667,0.7876029857,0.9329172825000001,,,,,,,,,,,,,,,,,,,,,,
48,SINGLE_CHANGE,"[-21.8796339771, -6.4559928506, 10.8572617881, -31.2796291571, -19.2672816876, -18.8447294777, 25.4573582218, -25.1644743832]",Flex Agent 6,3.0,0.1994800448,0.1525,6.25,0.0926524467,0.0152609779,32.7484619824,-0.0037109564,6.5,1.2166666667000001,0.8139380939,0.8816983552000001,,,,,,,,,,,,,,,,,,,,,,
49,SINGLE_CHANGE,"[-21.8796339771, -6.4559928506, 10.8572617881, -31.2796291571, -19.2672816876, -18.8447294777, 25.4573582218, -25.1644743832]",Flex Agent 6,4.0,0.1920837481,0.14750000000000002,5.75,0.0767314471,0.008423199400000001,28.8612860606,-0.0015930631,6.0,1.2714285714,0.8086755611,0.8837969355,,,,,,,,,,,,,,,,,,,,,,
50,,,Global,,,,,,,,,,,,,0.089182833964,0.0909642556999179,0.06265,0.07196833558260614,3.125,2.0191999324848786,0.035068562062,0.03498491892842479,0.008249177298000001,0.0056304234644164505,36.346651050446,20.612961519076997,-0.001021937764,0.0019374471416535373,6.91,4.435121883606919,1.6993179731040002,0.8068296068455046,0.330250895772,0.35228578527565935,0.400653710858,0.4105430665540576
