,NeighborhoodDefinition,TargetSchedule,Agent,FLA_ID,INFORMATION_CONTENT,PARTIAL_INFORMATION_CONTENT,INFORMATION_STABILITY,FITNESS_VARIANCE_MEAN,FITNESS_VARIANCE_STD,FITNESS_MEAN,DISPERSION_INDEX,MEAN_NUMBER_OF_NEUTRAL_AREAS,MEAN_SIZE_OF_NEUTRAL_AREAS,MEAN_FITNESS_DISTANCE,MAX_FITNESS_DISTANCE,INFORMATION_CONTENT_MEAN,INFORMATION_CONTENT_STD,PARTIAL_INFORMATION_CONTENT_MEAN,PARTIAL_INFORMATION_CONTENT_STD,INFORMATION_STABILITY_MEAN,INFORMATION_STABILITY_STD,FITNESS_VARIANCE_MEAN_MEAN,FITNESS_VARIANCE_MEAN_STD,FITNESS_VARIANCE_STD_MEAN,FITNESS_VARIANCE_STD_STD,FITNESS_MEAN_MEAN,FITNESS_MEAN_STD,DISPERSION_INDEX_MEAN,DISPERSION_INDEX_STD,MEAN_NUMBER_OF_NEUTRAL_AREAS_MEAN,MEAN_NUMBER_OF_NEUTRAL_AREAS_STD,MEAN_SIZE_OF_NEUTRAL_AREAS_MEAN,MEAN_SIZE_OF_NEUTRAL_AREAS_STD,MEAN_FITNESS_DISTANCE_MEAN,MEAN_FITNESS_DISTANCE_STD,MAX_FITNESS_DISTANCE_MEAN,MAX_FITNESS_DISTANCE_STD
0,SINGLE_CHANGE,"[-4.1788084503, 0.0, -31.8379364916, -37.9038299517, -32.0155834191, 0.0033427448, -13.0112253479, -8.5103071988]",Flex Agent 1,0.0,0.2027927854,0.17750000000000002,3.75,0.0377998406,0.0073544038,28.6370914873,-3.89297e-05,25.0,2.2431561997,0.6449224262000001,0.7228729685,,,,,,,,,,,,,,,,,,,,,,
1,SINGLE_CHANGE,"[-4.1788084503, 0.0, -31.8379364916, -37.9038299517, -32.0155834191, 0.0033427448, -13.0112253479, -8.5103071988]",Flex Agent 1,1.0,0.2023543076,0.20500000000000002,4.5,0.0413584035,0.0030862429,29.1039815153,8.39736e-05,22.0,2.8654244306,0.7442779371,0.8426440940000001,,,,,,,,,,,,,,,,,,,,,,
2,SINGLE_CHANGE,"[-4.1788084503, 0.0, -31.8379364916, -37.9038299517, -32.0155834191, 0.0033427448, -13.0112253479, -8.5103071988]",Flex Agent 1,2.0,0.20391193100000002,0.17250000000000001,3.25,0.0458904908,0.0151001946,31.81290094,-0.0001344135,19.0,3.6315789474,0.6481367641,0.7378212536000001,,,,,,,,,,,,,,,,,,,,,,
3,SINGLE_CHANGE,"[-4.1788084503, 0.0, -31.8379364916, -37.9038299517, -32.0155834191, 0.0033427448, -13.0112253479, -8.5103071988]",Flex Agent 1,3.0,0.20445097780000002,0.17750000000000002,3.25,0.0405060571,0.0108688061,30.5106994304,0.0001640694,22.5,2.8660714286,0.6200986249,0.6698454702000001,,,,,,,,,,,,,,,,,,,,,,
4,SINGLE_CHANGE,"[-4.1788084503, 0.0, -31.8379364916, -37.9038299517, -32.0155834191, 0.0033427448, -13.0112253479, -8.5103071988]",Flex Agent 1,4.0,0.1923685121,0.1375,3.25,0.0596116831,0.026630426500000002,31.5234569803,0.00016181500000000002,20.5,3.5923076923,0.5518436224000001,0.6424493370000001,,,,,,,,,,,,,,,,,,,,,,
5,SINGLE_CHANGE,"[-4.1788084503, 0.0, -31.8379364916, -37.9038299517, -32.0155834191, 0.0033427448, -13.0112253479, -8.5103071988]",Flex Agent 4,0.0,0.1556070238,0.0775,4.0,0.0582831391,0.0175205826,38.4072762957,-0.0003136262,4.5,1.2142857143,0.48771052940000004,0.5786116448,,,,,,,,,,,,,,,,,,,,,,
6,SINGLE_CHANGE,"[-4.1788084503, 0.0, -31.8379364916, -37.9038299517, -32.0155834191, 0.0033427448, -13.0112253479, -8.5103071988]",Flex Agent 4,1.0,0.1584173956,0.08,3.75,0.0838528743,0.0178548038,24.1976811607,-0.0023736715,4.0,1.2666666667,0.4982467129,0.5852257774,,,,,,,,,,,,,,,,,,,,,,
7,SINGLE_CHANGE,"[-4.1788084503, 0.0, -31.8379364916, -37.9038299517, -32.0155834191, 0.0033427448, -13.0112253479, -8.5103071988]",Flex Agent 4,2.0,0.1628373116,0.085,3.0,0.0807128733,0.017773204600000002,23.4431955831,-0.0031352155,5.0,1.125,0.5232377042,0.5692705742,,,,,,,,,,,,,,,,,,,,,,
8,SINGLE_CHANGE,"[-4.1788084503, 0.0, -31.8379364916, -37.9038299517, -32.0155834191, 0.0033427448, -13.0112253479, -8.5103071988]",Flex Agent 4,3.0,0.1813732446,0.115,4.75,0.0721362019,0.0087557452,37.0600918998,-0.0005789808,9.5,1.0555555556,0.6165137432000001,0.8208793488,,,,,,,,,,,,,,,,,,,,,,
9,SINGLE_CHANGE,"[-4.1788084503, 0.0, -31.8379364916, -37.9038299517, -32.0155834191, 0.0033427448, -13.0112253479, -8.5103071988]",Flex Agent 4,4.0,0.1883212619,0.1275,4.0,0.0836182739,0.017206367900000002,31.1490803402,-0.0008322628,5.5,1.0714285714,0.6884808135,0.8669458586000001,,,,,,,,,,,,,,,,,,,,,,
10,SINGLE_CHANGE,"[-4.1788084503, 0.0, -31.8379364916, -37.9038299517, -32.0155834191, 0.0033427448, -13.0112253479, -8.5103071988]",Flex Agent 5,0.0,0.1821075688,0.1375,5.25,0.0685483951,0.013148035700000001,31.8313526764,-0.0010801744,3.5,1.0,0.7060022466,0.9373233242000001,,,,,,,,,,,,,,,,,,,,,,
11,SINGLE_CHANGE,"[-4.1788084503, 0.0, -31.8379364916, -37.9038299517, -32.0155834191, 0.0033427448, -13.0112253479, -8.5103071988]",Flex Agent 5,1.0,0.18904038410000001,0.12250000000000001,4.75,0.0809826988,0.0031072816,17.2304372325,-0.0013606048000000001,4.0,1.0,0.6694182158,0.7905846094000001,,,,,,,,,,,,,,,,,,,,,,
12,SINGLE_CHANGE,"[-4.1788084503, 0.0, -31.8379364916, -37.9038299517, -32.0155834191, 0.0033427448, -13.0112253479, -8.5103071988]",Flex Agent 5,2.0,0.1841810652,0.125,4.5,0.08475432690000001,0.0115988033,32.2209494938,4.572e-05,7.5,1.0,0.6358602053,0.7658519426,,,,,,,,,,,,,,,,,,,,,,
13,SINGLE_CHANGE,"[-4.1788084503, 0.0, -31.8379364916, -37.9038299517, -32.0155834191, 0.0033427448, -13.0112253479, -8.5103071988]",Flex Agent 5,3.0,0.2000246872,0.1575,5.25,0.0839090853,0.0162907354,18.091512934,-0.0021243874000000003,6.5,1.1111111111,0.7377272370000001,0.8148199532,,,,,,,,,,,,,,,,,,,,,,
14,SINGLE_CHANGE,"[-4.1788084503, 0.0, -31.8379364916, -37.9038299517, -32.0155834191, 0.0033427448, -13.0112253479, -8.5103071988]",Flex Agent 5,4.0,0.1819378597,0.1125,5.5,0.0747249493,0.0038351578000000003,31.7679674864,-9.64282e-05,3.5,1.0833333333,0.6257670198,0.7050900452000001,,,,,,,,,,,,,,,,,,,,,,
15,SINGLE_CHANGE,"[-4.1788084503, 0.0, -31.8379364916, -37.9038299517, -32.0155834191, 0.0033427448, -13.0112253479, -8.5103071988]",Flex Agent 6,0.0,0.1976948635,0.16,4.0,0.0528505905,0.0089604443,29.625244311,0.000823013,22.5,2.9169960474,0.6621627013,0.7389523984,,,,,,,,,,,,,,,,,,,,,,
16,SINGLE_CHANGE,"[-4.1788084503, 0.0, -31.8379364916, -37.9038299517, -32.0155834191, 0.0033427448, -13.0112253479, -8.5103071988]",Flex Agent 6,1.0,0.2000059672,0.1625,4.25,0.0462577563,0.0078420762,31.7504398373,0.00029871790000000003,17.5,4.2976190476,0.6465007695,0.774415383,,,,,,,,,,,,,,,,,,,,,,
17,SINGLE_CHANGE,"[-4.1788084503, 0.0, -31.8379364916, -37.9038299517, -32.0155834191, 0.0033427448, -13.0112253479, -8.5103071988]",Flex Agent 6,2.0,0.19757132930000001,0.145,3.25,0.0445451118,0.0064663778,23.5194063572,0.0001305408,19.5,3.1223684211,0.6068261042,0.6576729268,,,,,,,,,,,,,,,,,,,,,,
18,SINGLE_CHANGE,"[-4.1788084503, 0.0, -31.8379364916, -37.9038299517, -32.0155834191, 0.0033427448, -13.0112253479, -8.5103071988]",Flex Agent 6,3.0,0.1908155996,0.1375,3.5,0.0410203764,0.0046219234,28.3619228876,3.14476e-05,20.5,3.2226190476,0.6393995783,0.7120768753000001,,,,,,,,,,,,,,,,,,,,,,
19,SINGLE_CHANGE,"[-4.1788084503, 0.0, -31.8379364916, -37.9038299517, -32.0155834191, 0.0033427448, -13.0112253479, -8.5103071988]",Flex Agent 6,4.0,0.2031587627,0.18,2.75,0.044165510500000005,0.0071805916,36.6476846117,0.00022129810000000001,22.0,2.8716356108000003,0.6023465726,0.6963296516,,,,,,,,,,,,,,,,,,,,,,
20,SINGLE_CHANGE,"[-4.1788084503, 0.0, -31.8379364916, -37.9038299517, -32.0155834191, 0.0033427448, -13.0112253479, -8.5103071988]",Flex Agent 2,0.0,0.1840820789,0.1275,6.0,0.0762699077,0.0173736312,34.9470556012,0.0008100878000000001,4.0,1.125,0.7338260418,0.9283746961,,,,,,,,,,,,,,,,,,,,,,
21,SINGLE_CHANGE,"[-4.1788084503, 0.0, -31.8379364916, -37.9038299517, -32.0155834191, 0.0033427448, -13.0112253479, -8.5103071988]",Flex Agent 2,1.0,0.1735511291,0.0975,4.5,0.0607818623,0.0116019443,31.2024217552,-0.002558701,6.0,1.1666666667,0.6170908844,0.6602533776,,,,,,,,,,,,,,,,,,,,,,
22,SINGLE_CHANGE,"[-4.1788084503, 0.0, -31.8379364916, -37.9038299517, -32.0155834191, 0.0033427448, -13.0112253479, -8.5103071988]",Flex Agent 2,2.0,0.1910807853,0.1375,5.5,0.07094709710000001,0.0081608837,36.1494341065,0.0010123804000000001,7.5,1.3611111111,0.7019024336,0.831372581,,,,,,,,,,,,,,,,,,,,,,
23,SINGLE_CHANGE,"[-4.1788084503, 0.0, -31.8379364916, -37.9038299517, -32.0155834191, 0.0033427448, -13.0112253479, -8.5103071988]",Flex Agent 2,3.0,0.1974522847,0.14750000000000002,4.75,0.0727077934,0.0174926098,33.6978591815,-0.0007877446,3.0,1.0,0.6880727126,0.8231585993,,,,,,,,,,,,,,,,,,,,,,
24,SINGLE_CHANGE,"[-4.1788084503, 0.0, -31.8379364916, -37.9038299517, -32.0155834191, 0.0033427448, -13.0112253479, -8.5103071988]",Flex Agent 2,4.0,0.2025850268,0.18,5.0,0.0767822722,0.0127379393,27.0541317069,-0.0052818035000000004,5.5,1.0,0.8570040394,0.9811541456,,,,,,,,,,,,,,,,,,,,,,
25,SINGLE_CHANGE,"[-4.1788084503, 0.0, -31.8379364916, -37.9038299517, -32.0155834191, 0.0033427448, -13.0112253479, -8.5103071988]",Flex Agent 3,0.0,0.1531234218,0.07,2.5,0.035490237200000004,0.0050756702,31.1047979245,0.0006014232,19.0,3.7787114846,0.43367568570000004,0.4921685646,,,,,,,,,,,,,,,,,,,,,,
26,SINGLE_CHANGE,"[-4.1788084503, 0.0, -31.8379364916, -37.9038299517, -32.0155834191, 0.0033427448, -13.0112253479, -8.5103071988]",Flex Agent 3,1.0,0.1694117984,0.0925,3.0,0.0337758721,0.0033496348,41.7691792671,-8.289630000000001e-05,22.5,3.14,0.42876165850000003,0.4471555813,,,,,,,,,,,,,,,,,,,,,,
27,SINGLE_CHANGE,"[-4.1788084503, 0.0, -31.8379364916, -37.9038299517, -32.0155834191, 0.0033427448, -13.0112253479, -8.5103071988]",Flex Agent 3,2.0,0.17101783980000002,0.09,2.5,0.040648980200000004,0.0015086468,39.5098021755,0.0003220875,19.5,3.2608695652,0.43653548900000005,0.515908473,,,,,,,,,,,,,,,,,,,,,,
28,SINGLE_CHANGE,"[-4.1788084503, 0.0, -31.8379364916, -37.9038299517, -32.0155834191, 0.0033427448, -13.0112253479, -8.5103071988]",Flex Agent 3,3.0,0.1427523543,0.065,2.75,0.0432685165,0.0091595073,24.7697457513,0.00010202590000000001,24.0,2.3808695652000003,0.39261557690000004,0.4546908341,,,,,,,,,,,,,,,,,,,,,,
29,SINGLE_CHANGE,"[-4.1788084503, 0.0, -31.8379364916, -37.9038299517, -32.0155834191, 0.0033427448, -13.0112253479, -8.5103071988]",Flex Agent 3,4.0,0.1755472488,0.095,2.5,0.0518544076,0.0037233592,40.1155974314,0.0007040719,22.5,2.5839920949,0.4629660324,0.47118146850000003,,,,,,,,,,,,,,,,,,,,,,
30,SINGLE_CHANGE,"[-4.1788084503, 0.0, -31.8379364916, -37.9038299517, -32.0155834191, 0.0033427448, -13.0112253479, -8.5103071988]",Flex Agent 7,0.0,0.2007514715,0.17500000000000002,3.5,0.0421944417,0.0077586267,34.0897090511,0.0015276467000000001,20.5,2.6964285714000003,0.6295406762,0.7281442813,,,,,,,,,,,,,,,,,,,,,,
31,SINGLE_CHANGE,"[-4.1788084503, 0.0, -31.8379364916, -37.9038299517, -32.0155834191, 0.0033427448, -13.0112253479, -8.5103071988]",Flex Agent 7,1.0,0.196321044,0.15,3.0,0.037442649,0.0129988528,18.3499246931,0.0005631311000000001,19.0,3.6805555556,0.5456556336,0.7238271565000001,,,,,,,,,,,,,,,,,,,,,,
32,SINGLE_CHANGE,"[-4.1788084503, 0.0, -31.8379364916, -37.9038299517, -32.0155834191, 0.0033427448, -13.0112253479, -8.5103071988]",Flex Agent 7,2.0,0.1968159995,0.14750000000000002,3.75,0.0513184395,0.0068391863,40.5989442146,0.0018497122000000002,23.0,2.7215909091,0.6242018934,0.7242028370000001,,,,,,,,,,,,,,,,,,,,,,
33,SINGLE_CHANGE,"[-4.1788084503, 0.0, -31.8379364916, -37.9038299517, -32.0155834191, 0.0033427448, -13.0112253479, -8.5103071988]",Flex Agent 7,3.0,0.20371716480000002,0.20500000000000002,3.25,0.0404716357,0.0052649048,37.7216704544,5.2397e-06,12.5,5.9294871795,0.6529244754,0.8089557574,,,,,,,,,,,,,,,,,,,,,,
34,SINGLE_CHANGE,"[-4.1788084503, 0.0, -31.8379364916, -37.9038299517, -32.0155834191, 0.0033427448, -13.0112253479, -8.5103071988]",Flex Agent 7,4.0,0.1998883898,0.1525,4.5,0.0401481958,0.0082607656,33.3503911028,-0.0002111494,22.5,2.5327380952,0.7107361317,0.8238789565,,,,,,,,,,,,,,,,,,,,,,
35,SINGLE_CHANGE,"[-4.1788084503, 0.0, -31.8379364916, -37.9038299517, -32.0155834191, 0.0033427448, -13.0112253479, -8.5103071988]",Flex Agent 0,0.0,0.2040827799,0.185,3.5,0.044459209900000005,0.0053063527,40.0985210112,-0.0001355755,22.5,2.585,0.6800462759,0.8150271172,,,,,,,,,,,,,,,,,,,,,,
36,SINGLE_CHANGE,"[-4.1788084503, 0.0, -31.8379364916, -37.9038299517, -32.0155834191, 0.0033427448, -13.0112253479, -8.5103071988]",Flex Agent 0,1.0,0.2023792083,0.185,3.25,0.0415364516,0.004302770300000001,35.0792077095,0.0003102548,23.0,2.7561904762,0.6587593982000001,0.7275033307000001,,,,,,,,,,,,,,,,,,,,,,
37,SINGLE_CHANGE,"[-4.1788084503, 0.0, -31.8379364916, -37.9038299517, -32.0155834191, 0.0033427448, -13.0112253479, -8.5103071988]",Flex Agent 0,2.0,0.2005862991,0.1625,4.25,0.0425556391,0.007943164400000001,37.3205378358,0.000467503,21.5,2.7489130435,0.6467868324,0.7266240205000001,,,,,,,,,,,,,,,,,,,,,,
38,SINGLE_CHANGE,"[-4.1788084503, 0.0, -31.8379364916, -37.9038299517, -32.0155834191, 0.0033427448, -13.0112253479, -8.5103071988]",Flex Agent 0,3.0,0.198354261,0.17,3.25,0.0398289093,0.0151548524,23.5519500918,4.12034e-05,20.0,3.398989899,0.6725239186,0.7657210147,,,,,,,,,,,,,,,,,,,,,,
39,SINGLE_CHANGE,"[-4.1788084503, 0.0, -31.8379364916, -37.9038299517, -32.0155834191, 0.0033427448, -13.0112253479, -8.5103071988]",Flex Agent 0,4.0,0.2047656559,0.1825,3.25,0.0410812563,0.006866262000000001,30.2129179756,0.0003772542,19.5,3.1815789474,0.694987011,0.7564659918000001,,,,,,,,,,,,,,,,,,,,,,
40,SINGLE_CHANGE,"[-4.1788084503, 0.0, -31.8379364916, -37.9038299517, -32.0155834191, 0.0033427448, -13.0112253479, -8.5103071988]",Flex Agent 8,0.0,0.1986056253,0.16,6.25,0.0877359016,0.019775605300000002,20.0978256796,-0.0037105174,5.5,1.125,0.8764060652000001,1.0412945009,,,,,,,,,,,,,,,,,,,,,,
41,SINGLE_CHANGE,"[-4.1788084503, 0.0, -31.8379364916, -37.9038299517, -32.0155834191, 0.0033427448, -13.0112253479, -8.5103071988]",Flex Agent 8,1.0,0.1998983386,0.14750000000000002,6.25,0.0798833835,0.0150197873,24.708485225,-0.0039434602,1.5,1.0,0.800704096,0.9644277701,,,,,,,,,,,,,,,,,,,,,,
42,SINGLE_CHANGE,"[-4.1788084503, 0.0, -31.8379364916, -37.9038299517, -32.0155834191, 0.0033427448, -13.0112253479, -8.5103071988]",Flex Agent 8,2.0,0.2035496846,0.1675,6.5,0.0962587879,0.0079376442,29.121913552,-0.0002048001,4.0,1.0714285714,0.980292547,1.0326541989,,,,,,,,,,,,,,,,,,,,,,
43,SINGLE_CHANGE,"[-4.1788084503, 0.0, -31.8379364916, -37.9038299517, -32.0155834191, 0.0033427448, -13.0112253479, -8.5103071988]",Flex Agent 8,3.0,0.2019364954,0.215,6.5,0.0774242025,0.0143127045,41.4706827705,-0.0013082721000000001,3.5,1.1666666667,0.9976534756000001,1.048614172,,,,,,,,,,,,,,,,,,,,,,
44,SINGLE_CHANGE,"[-4.1788084503, 0.0, -31.8379364916, -37.9038299517, -32.0155834191, 0.0033427448, -13.0112253479, -8.5103071988]",Flex Agent 8,4.0,0.2033776482,0.19,8.0,0.0658692944,0.009400744400000001,41.4445859092,-0.0030988612,8.0,1.25,1.1146168249,1.3244351081,,,,,,,,,,,,,,,,,,,,,,
45,SINGLE_CHANGE,"[-4.1788084503, 0.0, -31.8379364916, -37.9038299517, -32.0155834191, 0.0033427448, -13.0112253479, -8.5103071988]",Flex Agent 9,0.0,0.1994312786,0.15,4.75,0.0706527238,0.0151509281,25.4722287833,-0.0052093076,7.5,1.1339285714,0.6792297956000001,0.7690921154,,,,,,,,,,,,,,,,,,,,,,
46,SINGLE_CHANGE,"[-4.1788084503, 0.0, -31.8379364916, -37.9038299517, -32.0155834191, 0.0033427448, -13.0112253479, -8.5103071988]",Flex Agent 9,1.0,0.2016861546,0.17750000000000002,5.0,0.0831511505,0.013935454600000001,33.3244955158,-4.0034e-05,5.0,1.2,0.7305823216,0.8492644115,,,,,,,,,,,,,,,,,,,,,,
47,SINGLE_CHANGE,"[-4.1788084503, 0.0, -31.8379364916, -37.9038299517, -32.0155834191, 0.0033427448, -13.0112253479, -8.5103071988]",Flex Agent 9,2.0,0.19066795820000002,0.135,5.0,0.0851684977,0.0064475315,25.5954734125,-0.0027020389000000002,6.0,1.1428571429,0.7394933531,0.863957434,,,,,,,,,,,,,,,,,,,,,,
48,SINGLE_CHANGE,"[-4.1788084503, 0.0, -31.8379364916, -37.9038299517, -32.0155834191, 0.0033427448, -13.0112253479, -8.5103071988]",Flex Agent 9,3.0,0.19190109100000002,0.145,5.25,0.0680588001,0.0120428064,35.0547365307,-0.0029263102,5.5,1.9722222222,0.6946477939,0.8260408719000001,,,,,,,,,,,,,,,,,,,,,,
49,SINGLE_CHANGE,"[-4.1788084503, 0.0, -31.8379364916, -37.9038299517, -32.0155834191, 0.0033427448, -13.0112253479, -8.5103071988]",Flex Agent 9,4.0,0.191339176,0.13,5.5,0.06890500570000001,0.0169175704,36.6823141585,-0.0006716395,9.0,1.1666666667,0.6675110953000001,0.7403518709,,,,,,,,,,,,,,,,,,,,,,
50,,,Global,,,,,,,,,,,,,0.19059265061800001,0.015392119682685237,0.14459999999999998,0.0370994251564465,4.28,1.235776216449749,0.059844003208,0.01837201420104036,0.010540450928,0.0054738418592785,31.411178280776,6.437976947327481,-0.000685743782,0.0016287059036498356,13.15,8.143013782954549,2.156292416628,1.151477277722502,0.662104593944,0.13930202229511027,0.7659116935039999,0.16524283592939484
