,NeighborhoodDefinition,TargetSchedule,Agent,FLA_ID,INFORMATION_CONTENT,PARTIAL_INFORMATION_CONTENT,INFORMATION_STABILITY,FITNESS_VARIANCE_MEAN,FITNESS_VARIANCE_STD,FITNESS_MEAN,DISPERSION_INDEX,MEAN_NUMBER_OF_NEUTRAL_AREAS,MEAN_SIZE_OF_NEUTRAL_AREAS,MEAN_FITNESS_DISTANCE,MAX_FITNESS_DISTANCE,INFORMATION_CONTENT_MEAN,INFORMATION_CONTENT_STD,PARTIAL_INFORMATION_CONTENT_MEAN,PARTIAL_INFORMATION_CONTENT_STD,INFORMATION_STABILITY_MEAN,INFORMATION_STABILITY_STD,FITNESS_VARIANCE_MEAN_MEAN,FITNESS_VARIANCE_MEAN_STD,FITNESS_VARIANCE_STD_MEAN,FITNESS_VARIANCE_STD_STD,FITNESS_MEAN_MEAN,FITNESS_MEAN_STD,DISPERSION_INDEX_MEAN,DISPERSION_INDEX_STD,MEAN_NUMBER_OF_NEUTRAL_AREAS_MEAN,MEAN_NUMBER_OF_NEUTRAL_AREAS_STD,MEAN_SIZE_OF_NEUTRAL_AREAS_MEAN,MEAN_SIZE_OF_NEUTRAL_AREAS_STD,MEAN_FITNESS_DISTANCE_MEAN,MEAN_FITNESS_DISTANCE_STD,MAX_FITNESS_DISTANCE_MEAN,MAX_FITNESS_DISTANCE_STD
0,SINGLE_CHANGE,"[18.682805299199998, 14.7785652285, 7.0301881001, 18.7024616723, 18.7869088803, 18.8493203955, 8.3404963999, 18.8671101172]",Flex Agent 0,0.0,0.0,0.0,1.0,0.0024507401,0.0042448064,13.6540236017,-0.00159208,6.0,1.0,0.0010774646,0.0043098582,,,,,,,,,,,,,,,,,,,,,,
1,SINGLE_CHANGE,"[18.682805299199998, 14.7785652285, 7.0301881001, 18.7024616723, 18.7869088803, 18.8493203955, 8.3404963999, 18.8671101172]",Flex Agent 0,1.0,0.0,0.0,1.0,0.0024507401,0.0042448064,8.8285847511,0.000401659,1.0,1.0,0.0008399758,0.0033599032,,,,,,,,,,,,,,,,,,,,,,
2,SINGLE_CHANGE,"[18.682805299199998, 14.7785652285, 7.0301881001, 18.7024616723, 18.7869088803, 18.8493203955, 8.3404963999, 18.8671101172]",Flex Agent 0,2.0,0.0,0.0,1.0,0.0024507401,0.0042448064,10.7237704654,0.0002399028,1.0,1.0,0.0019306311000000002,0.007722524400000001,,,,,,,,,,,,,,,,,,,,,,
3,SINGLE_CHANGE,"[18.682805299199998, 14.7785652285, 7.0301881001, 18.7024616723, 18.7869088803, 18.8493203955, 8.3404963999, 18.8671101172]",Flex Agent 0,3.0,0.0,0.0,1.0,0.0024507401,0.0042448064,7.5199650229,0.0003348871,1.0,1.0,0.0010654345,0.0042617379000000006,,,,,,,,,,,,,,,,,,,,,,
4,SINGLE_CHANGE,"[18.682805299199998, 14.7785652285, 7.0301881001, 18.7024616723, 18.7869088803, 18.8493203955, 8.3404963999, 18.8671101172]",Flex Agent 0,4.0,0.0,0.0,1.0,0.0024507401,0.0042448064,13.3390620964,0.0002373694,1.0,1.0,0.0013472573,0.0053890294,,,,,,,,,,,,,,,,,,,,,,
5,SINGLE_CHANGE,"[18.682805299199998, 14.7785652285, 7.0301881001, 18.7024616723, 18.7869088803, 18.8493203955, 8.3404963999, 18.8671101172]",Flex Agent 5,0.0,0.18399268400000002,0.115,4.0,0.0737460415,0.0049597752000000005,21.1530988926,-0.0305066334,4.5,1.125,0.7340245686,1.0059339682,,,,,,,,,,,,,,,,,,,,,,
6,SINGLE_CHANGE,"[18.682805299199998, 14.7785652285, 7.0301881001, 18.7024616723, 18.7869088803, 18.8493203955, 8.3404963999, 18.8671101172]",Flex Agent 5,1.0,0.18747923290000001,0.12,3.75,0.0586783273,0.0064550745000000005,20.2524892876,-0.025314894100000002,6.0,1.3428571429,0.6583865497,0.8302471717000001,,,,,,,,,,,,,,,,,,,,,,
7,SINGLE_CHANGE,"[18.682805299199998, 14.7785652285, 7.0301881001, 18.7024616723, 18.7869088803, 18.8493203955, 8.3404963999, 18.8671101172]",Flex Agent 5,2.0,0.1801682994,0.11,4.25,0.0991605428,0.018142286,22.5894834238,-0.0345354903,6.5,1.1428571429,0.5987965738000001,0.673093978,,,,,,,,,,,,,,,,,,,,,,
8,SINGLE_CHANGE,"[18.682805299199998, 14.7785652285, 7.0301881001, 18.7024616723, 18.7869088803, 18.8493203955, 8.3404963999, 18.8671101172]",Flex Agent 5,3.0,0.1834422466,0.1125,4.75,0.0938026792,0.0112661338,22.0726125114,-0.037451867300000004,5.0,1.1666666667,0.6147134069,0.7016691967,,,,,,,,,,,,,,,,,,,,,,
9,SINGLE_CHANGE,"[18.682805299199998, 14.7785652285, 7.0301881001, 18.7024616723, 18.7869088803, 18.8493203955, 8.3404963999, 18.8671101172]",Flex Agent 5,4.0,0.1964352697,0.14,4.5,0.0896622861,0.0043606733,21.8470203502,-0.0314359898,6.0,1.1666666667,0.722510305,0.8181051531,,,,,,,,,,,,,,,,,,,,,,
10,SINGLE_CHANGE,"[18.682805299199998, 14.7785652285, 7.0301881001, 18.7024616723, 18.7869088803, 18.8493203955, 8.3404963999, 18.8671101172]",Flex Agent 1,0.0,0.0,0.0,1.0,0.0024507401,0.0042448064,9.4069089941,-0.0030144709000000003,4.0,1.0833333333,0.0022096827,0.0088387307,,,,,,,,,,,,,,,,,,,,,,
11,SINGLE_CHANGE,"[18.682805299199998, 14.7785652285, 7.0301881001, 18.7024616723, 18.7869088803, 18.8493203955, 8.3404963999, 18.8671101172]",Flex Agent 1,1.0,0.0,0.0,1.0,0.0024507401,0.0042448064,6.4320905958,0.0006366028000000001,6.0,1.1666666667,0.0021714085000000003,0.008685634000000001,,,,,,,,,,,,,,,,,,,,,,
12,SINGLE_CHANGE,"[18.682805299199998, 14.7785652285, 7.0301881001, 18.7024616723, 18.7869088803, 18.8493203955, 8.3404963999, 18.8671101172]",Flex Agent 1,2.0,0.0,0.0,1.0,0.0024507401,0.0042448064,7.4229640296,0.0001900858,6.0,1.1666666667,0.0021701099000000002,0.0086804395,,,,,,,,,,,,,,,,,,,,,,
13,SINGLE_CHANGE,"[18.682805299199998, 14.7785652285, 7.0301881001, 18.7024616723, 18.7869088803, 18.8493203955, 8.3404963999, 18.8671101172]",Flex Agent 1,3.0,0.0,0.0,1.0,0.0024507401,0.0042448064,5.9309087525,-0.0003382661,6.0,2.0,0.0008214136,0.0032856543,,,,,,,,,,,,,,,,,,,,,,
14,SINGLE_CHANGE,"[18.682805299199998, 14.7785652285, 7.0301881001, 18.7024616723, 18.7869088803, 18.8493203955, 8.3404963999, 18.8671101172]",Flex Agent 1,4.0,0.0,0.0,1.0,0.0024507401,0.0042448064,7.6983791527,0.0009983356000000001,5.5,1.1833333333,0.0001406419,0.0005625676,,,,,,,,,,,,,,,,,,,,,,
15,SINGLE_CHANGE,"[18.682805299199998, 14.7785652285, 7.0301881001, 18.7024616723, 18.7869088803, 18.8493203955, 8.3404963999, 18.8671101172]",Flex Agent 2,0.0,0.1486441296,0.0675,2.0,0.04598328,0.007510468,5.6931258305,-0.0005946915,20.0,3.3266666667,0.37674015110000003,0.41305946260000004,,,,,,,,,,,,,,,,,,,,,,
16,SINGLE_CHANGE,"[18.682805299199998, 14.7785652285, 7.0301881001, 18.7024616723, 18.7869088803, 18.8493203955, 8.3404963999, 18.8671101172]",Flex Agent 2,1.0,0.10821292140000001,0.04,2.0,0.045658138800000005,0.0069674475000000005,8.0769374129,-0.001009183,22.0,2.8181818182000002,0.3425703907,0.41930859870000003,,,,,,,,,,,,,,,,,,,,,,
17,SINGLE_CHANGE,"[18.682805299199998, 14.7785652285, 7.0301881001, 18.7024616723, 18.7869088803, 18.8493203955, 8.3404963999, 18.8671101172]",Flex Agent 2,2.0,0.13249194,0.0575,2.5,0.0346661766,0.0138932555,9.9542800417,-0.0005013754,25.0,2.2740384615,0.3637577005,0.3927338199,,,,,,,,,,,,,,,,,,,,,,
18,SINGLE_CHANGE,"[18.682805299199998, 14.7785652285, 7.0301881001, 18.7024616723, 18.7869088803, 18.8493203955, 8.3404963999, 18.8671101172]",Flex Agent 2,3.0,0.1219686437,0.0475,2.25,0.0401906803,0.0064228846000000004,5.6846525174,-0.0005471438,19.0,3.4722222222,0.3606468054,0.3960838896,,,,,,,,,,,,,,,,,,,,,,
19,SINGLE_CHANGE,"[18.682805299199998, 14.7785652285, 7.0301881001, 18.7024616723, 18.7869088803, 18.8493203955, 8.3404963999, 18.8671101172]",Flex Agent 2,4.0,0.1099829407,0.045,2.0,0.0442764441,0.0036126937,7.635982866,-0.0002850789,20.5,2.8095238095,0.3439793608,0.3970393734,,,,,,,,,,,,,,,,,,,,,,
20,SINGLE_CHANGE,"[18.682805299199998, 14.7785652285, 7.0301881001, 18.7024616723, 18.7869088803, 18.8493203955, 8.3404963999, 18.8671101172]",Flex Agent 3,0.0,0.1545116796,0.07250000000000001,2.5,0.0444319873,0.008665170100000001,6.7334301212,-0.0021886609,23.5,2.5769927536,0.4069397303,0.4601078799,,,,,,,,,,,,,,,,,,,,,,
21,SINGLE_CHANGE,"[18.682805299199998, 14.7785652285, 7.0301881001, 18.7024616723, 18.7869088803, 18.8493203955, 8.3404963999, 18.8671101172]",Flex Agent 3,1.0,0.1344071004,0.06,2.25,0.0359718338,0.0025632285,6.8706895797000005,-0.0026927954,23.5,2.6376811594,0.38470549540000004,0.4120968963,,,,,,,,,,,,,,,,,,,,,,
22,SINGLE_CHANGE,"[18.682805299199998, 14.7785652285, 7.0301881001, 18.7024616723, 18.7869088803, 18.8493203955, 8.3404963999, 18.8671101172]",Flex Agent 3,2.0,0.1634256463,0.085,2.25,0.0424132463,0.0064270724,7.7846978922000005,-0.0016332258000000001,20.0,3.1052631579,0.4413551518,0.4563414336,,,,,,,,,,,,,,,,,,,,,,
23,SINGLE_CHANGE,"[18.682805299199998, 14.7785652285, 7.0301881001, 18.7024616723, 18.7869088803, 18.8493203955, 8.3404963999, 18.8671101172]",Flex Agent 3,3.0,0.1616409566,0.0825,2.0,0.0442589389,0.0093728386,8.1040291361,0.0001014991,16.0,4.1031746032,0.4383226383,0.4604719678,,,,,,,,,,,,,,,,,,,,,,
24,SINGLE_CHANGE,"[18.682805299199998, 14.7785652285, 7.0301881001, 18.7024616723, 18.7869088803, 18.8493203955, 8.3404963999, 18.8671101172]",Flex Agent 3,4.0,0.16370263570000002,0.0825,3.0,0.0376279609,0.0049842305,5.3640924641,-0.0025254735,21.5,2.899122807,0.3934932806,0.4093162752,,,,,,,,,,,,,,,,,,,,,,
25,SINGLE_CHANGE,"[18.682805299199998, 14.7785652285, 7.0301881001, 18.7024616723, 18.7869088803, 18.8493203955, 8.3404963999, 18.8671101172]",Flex Agent 7,0.0,0.1722727098,0.0925,3.25,0.0814401669,0.0249731566,18.1573477623,-0.0169387387,6.0,1.3333333333000001,0.5711133173,0.6550634559,,,,,,,,,,,,,,,,,,,,,,
26,SINGLE_CHANGE,"[18.682805299199998, 14.7785652285, 7.0301881001, 18.7024616723, 18.7869088803, 18.8493203955, 8.3404963999, 18.8671101172]",Flex Agent 7,1.0,0.1425805648,0.07,3.25,0.0812247416,0.007267504100000001,19.355143805,-0.0150863143,4.0,1.25,0.4731305556,0.5991016078,,,,,,,,,,,,,,,,,,,,,,
27,SINGLE_CHANGE,"[18.682805299199998, 14.7785652285, 7.0301881001, 18.7024616723, 18.7869088803, 18.8493203955, 8.3404963999, 18.8671101172]",Flex Agent 7,2.0,0.1634509629,0.0825,3.0,0.0844671345,0.0123146913,20.8627726613,-0.009083398500000001,5.0,1.3095238095,0.4804281895,0.5566224094000001,,,,,,,,,,,,,,,,,,,,,,
28,SINGLE_CHANGE,"[18.682805299199998, 14.7785652285, 7.0301881001, 18.7024616723, 18.7869088803, 18.8493203955, 8.3404963999, 18.8671101172]",Flex Agent 7,3.0,0.17316495910000002,0.0975,3.5,0.0886983269,0.026916339900000003,19.8162086261,-0.028015013000000002,4.5,1.2,0.49330083350000004,0.5583121418,,,,,,,,,,,,,,,,,,,,,,
29,SINGLE_CHANGE,"[18.682805299199998, 14.7785652285, 7.0301881001, 18.7024616723, 18.7869088803, 18.8493203955, 8.3404963999, 18.8671101172]",Flex Agent 7,4.0,0.13816090550000001,0.0575,4.5,0.1042073151,0.0118311304,19.118813751,-0.0280397072,7.0,1.2291666667,0.49452241,0.5259482057,,,,,,,,,,,,,,,,,,,,,,
30,SINGLE_CHANGE,"[18.682805299199998, 14.7785652285, 7.0301881001, 18.7024616723, 18.7869088803, 18.8493203955, 8.3404963999, 18.8671101172]",Flex Agent 8,0.0,0.0,0.0,1.0,0.0024507401,0.0042448064,13.2202915224,-0.0020358403000000002,2.5,1.0,0.0004957704,0.0019830816,,,,,,,,,,,,,,,,,,,,,,
31,SINGLE_CHANGE,"[18.682805299199998, 14.7785652285, 7.0301881001, 18.7024616723, 18.7869088803, 18.8493203955, 8.3404963999, 18.8671101172]",Flex Agent 8,1.0,0.0,0.0,1.0,0.0024507401,0.0042448064,11.4088507296,-0.00021855500000000002,7.0,1.0,0.0016572624,0.0066290497,,,,,,,,,,,,,,,,,,,,,,
32,SINGLE_CHANGE,"[18.682805299199998, 14.7785652285, 7.0301881001, 18.7024616723, 18.7869088803, 18.8493203955, 8.3404963999, 18.8671101172]",Flex Agent 8,2.0,0.0,0.0,1.0,0.0024507401,0.0042448064,9.1778149581,0.0001180336,7.0,1.0,0.0013613487,0.0054453948,,,,,,,,,,,,,,,,,,,,,,
33,SINGLE_CHANGE,"[18.682805299199998, 14.7785652285, 7.0301881001, 18.7024616723, 18.7869088803, 18.8493203955, 8.3404963999, 18.8671101172]",Flex Agent 8,3.0,0.0,0.0,1.0,0.0024507401,0.0042448064,9.3681103665,-0.0003075596,1.0,1.0,0.0016290804000000001,0.0065163216000000005,,,,,,,,,,,,,,,,,,,,,,
34,SINGLE_CHANGE,"[18.682805299199998, 14.7785652285, 7.0301881001, 18.7024616723, 18.7869088803, 18.8493203955, 8.3404963999, 18.8671101172]",Flex Agent 8,4.0,0.0,0.0,1.0,0.0024507401,0.0042448064,9.400269692,-0.0004780844,1.0,1.0,0.0009921604,0.0039686416,,,,,,,,,,,,,,,,,,,,,,
35,SINGLE_CHANGE,"[18.682805299199998, 14.7785652285, 7.0301881001, 18.7024616723, 18.7869088803, 18.8493203955, 8.3404963999, 18.8671101172]",Flex Agent 6,0.0,0.1986599457,0.155,4.0,0.0805213813,0.0118654143,21.7639745393,-0.0355215955,5.5,1.0,0.8145859307000001,0.9078738412,,,,,,,,,,,,,,,,,,,,,,
36,SINGLE_CHANGE,"[18.682805299199998, 14.7785652285, 7.0301881001, 18.7024616723, 18.7869088803, 18.8493203955, 8.3404963999, 18.8671101172]",Flex Agent 6,1.0,0.1933979666,0.125,4.0,0.0881202645,0.0218036234,23.1481088673,-0.044122223700000004,4.5,1.1,0.6430639144,0.7129110349000001,,,,,,,,,,,,,,,,,,,,,,
37,SINGLE_CHANGE,"[18.682805299199998, 14.7785652285, 7.0301881001, 18.7024616723, 18.7869088803, 18.8493203955, 8.3404963999, 18.8671101172]",Flex Agent 6,2.0,0.19562479060000001,0.14,6.25,0.0870364842,0.011952412800000001,22.4120892336,-0.0466537766,5.5,1.0,0.6553740073000001,0.8231474032,,,,,,,,,,,,,,,,,,,,,,
38,SINGLE_CHANGE,"[18.682805299199998, 14.7785652285, 7.0301881001, 18.7024616723, 18.7869088803, 18.8493203955, 8.3404963999, 18.8671101172]",Flex Agent 6,3.0,0.2044830912,0.21,5.75,0.0647670832,0.009162030100000001,26.1716096812,-0.0235774618,5.0,1.0,0.8938372683,0.9857302188,,,,,,,,,,,,,,,,,,,,,,
39,SINGLE_CHANGE,"[18.682805299199998, 14.7785652285, 7.0301881001, 18.7024616723, 18.7869088803, 18.8493203955, 8.3404963999, 18.8671101172]",Flex Agent 6,4.0,0.1795790874,0.10250000000000001,4.0,0.0657338615,0.0066854881,23.0062696245,-0.028537256900000002,3.5,1.1,0.49699840700000003,0.5290280482,,,,,,,,,,,,,,,,,,,,,,
40,SINGLE_CHANGE,"[18.682805299199998, 14.7785652285, 7.0301881001, 18.7024616723, 18.7869088803, 18.8493203955, 8.3404963999, 18.8671101172]",Flex Agent 9,0.0,0.19121437360000001,0.135,3.75,0.08412763200000001,0.0070496102000000005,21.777392521,-0.022109181500000002,2.0,1.0,0.6016319284,0.7346768775,,,,,,,,,,,,,,,,,,,,,,
41,SINGLE_CHANGE,"[18.682805299199998, 14.7785652285, 7.0301881001, 18.7024616723, 18.7869088803, 18.8493203955, 8.3404963999, 18.8671101172]",Flex Agent 9,1.0,0.1929508523,0.145,5.25,0.0890633945,0.0201129179,21.6834771748,-0.0077302185,6.5,1.1428571429,0.7108437166,0.8331022086000001,,,,,,,,,,,,,,,,,,,,,,
42,SINGLE_CHANGE,"[18.682805299199998, 14.7785652285, 7.0301881001, 18.7024616723, 18.7869088803, 18.8493203955, 8.3404963999, 18.8671101172]",Flex Agent 9,2.0,0.1799619812,0.11,3.5,0.08035867070000001,0.0173654547,23.1695254891,-0.053957239500000004,5.0,1.25,0.6091995467,0.6712403595,,,,,,,,,,,,,,,,,,,,,,
43,SINGLE_CHANGE,"[18.682805299199998, 14.7785652285, 7.0301881001, 18.7024616723, 18.7869088803, 18.8493203955, 8.3404963999, 18.8671101172]",Flex Agent 9,3.0,0.1806777104,0.1075,3.75,0.059288935,0.0085316896,22.4209884872,-0.0143600622,3.0,0.5,0.5708096096,0.6798682533,,,,,,,,,,,,,,,,,,,,,,
44,SINGLE_CHANGE,"[18.682805299199998, 14.7785652285, 7.0301881001, 18.7024616723, 18.7869088803, 18.8493203955, 8.3404963999, 18.8671101172]",Flex Agent 9,4.0,0.19283366640000002,0.1325,6.0,0.0803496185,0.010118973100000001,23.1857239691,-0.0272575629,5.5,1.3055555556,0.6936977986,0.8058918876000001,,,,,,,,,,,,,,,,,,,,,,
45,SINGLE_CHANGE,"[18.682805299199998, 14.7785652285, 7.0301881001, 18.7024616723, 18.7869088803, 18.8493203955, 8.3404963999, 18.8671101172]",Flex Agent 4,0.0,0.006425486,0.0,4.25,0.0024507401,0.0042448064,67.9951293227,-0.0028930608,3.5,2.4166666667,0.034436160800000004,0.1377446431,,,,,,,,,,,,,,,,,,,,,,
46,SINGLE_CHANGE,"[18.682805299199998, 14.7785652285, 7.0301881001, 18.7024616723, 18.7869088803, 18.8493203955, 8.3404963999, 18.8671101172]",Flex Agent 4,1.0,0.006425486,0.0,5.5,0.0024507401,0.0042448064,78.0011665117,0.0062037963,3.0,2.3333333333,0.0470916776,0.1883667105,,,,,,,,,,,,,,,,,,,,,,
47,SINGLE_CHANGE,"[18.682805299199998, 14.7785652285, 7.0301881001, 18.7024616723, 18.7869088803, 18.8493203955, 8.3404963999, 18.8671101172]",Flex Agent 4,2.0,0.006425486,0.0,4.0,0.0024507401,0.0042448064,87.8289417727,0.0056169243,3.0,2.3333333333,0.0314984963,0.1259939852,,,,,,,,,,,,,,,,,,,,,,
48,SINGLE_CHANGE,"[18.682805299199998, 14.7785652285, 7.0301881001, 18.7024616723, 18.7869088803, 18.8493203955, 8.3404963999, 18.8671101172]",Flex Agent 4,3.0,0.006425486,0.0,2.5,0.0024507401,0.0042448064,89.9901979917,0.0043376374,3.5,2.1666666667,0.0161378805,0.06455152210000001,,,,,,,,,,,,,,,,,,,,,,
49,SINGLE_CHANGE,"[18.682805299199998, 14.7785652285, 7.0301881001, 18.7024616723, 18.7869088803, 18.8493203955, 8.3404963999, 18.8671101172]",Flex Agent 4,4.0,0.006425486,0.0,3.25,0.0024507401,0.0042448064,74.2600809797,0.0051814742,3.0,2.3333333333,0.0236002992,0.0944011966,,,,,,,,,,,,,,,,,,,,,,
50,,,Global,,,,,,,,,,,,,0.10123294648200001,0.08480619659917249,0.06,0.057642901398460615,2.845,1.5762021651127505,0.041978967526,0.0366586956340824,0.008168995934,0.00582793179711815,20.94947159659,20.97689933510811,-0.011169839272,0.015917320723443658,7.67,7.082322056662328,1.617413698394,0.8369143592581578,0.33112307398000007,0.28982378437327483,0.39029647288200003,0.32924268573009297
