,NeighborhoodDefinition,TargetSchedule,Agent,FLA_ID,INFORMATION_CONTENT,PARTIAL_INFORMATION_CONTENT,INFORMATION_STABILITY,FITNESS_VARIANCE_MEAN,FITNESS_VARIANCE_STD,FITNESS_MEAN,DISPERSION_INDEX,MEAN_NUMBER_OF_NEUTRAL_AREAS,MEAN_SIZE_OF_NEUTRAL_AREAS,MEAN_FITNESS_DISTANCE,MAX_FITNESS_DISTANCE,INFORMATION_CONTENT_MEAN,INFORMATION_CONTENT_STD,PARTIAL_INFORMATION_CONTENT_MEAN,PARTIAL_INFORMATION_CONTENT_STD,INFORMATION_STABILITY_MEAN,INFORMATION_STABILITY_STD,FITNESS_VARIANCE_MEAN_MEAN,FITNESS_VARIANCE_MEAN_STD,FITNESS_VARIANCE_STD_MEAN,FITNESS_VARIANCE_STD_STD,FITNESS_MEAN_MEAN,FITNESS_MEAN_STD,DISPERSION_INDEX_MEAN,DISPERSION_INDEX_STD,MEAN_NUMBER_OF_NEUTRAL_AREAS_MEAN,MEAN_NUMBER_OF_NEUTRAL_AREAS_STD,MEAN_SIZE_OF_NEUTRAL_AREAS_MEAN,MEAN_SIZE_OF_NEUTRAL_AREAS_STD,MEAN_FITNESS_DISTANCE_MEAN,MEAN_FITNESS_DISTANCE_STD,MAX_FITNESS_DISTANCE_MEAN,MAX_FITNESS_DISTANCE_STD
0,SINGLE_CHANGE,"[5.3913336236, 5.3967729951, 5.2681131903, 4.8188549829, 4.9757217362, 4.9274821577, 4.8838788052, 4.6793577106]",Flex Agent 0,0.0,0.1779391407,0.1275,3.5,0.08187580430000001,0.009403523300000001,14.0688862516,-0.0294719669,5.5,1.4444444444,0.6388175435,0.9149654963,,,,,,,,,,,,,,,,,,,,,,
1,SINGLE_CHANGE,"[5.3913336236, 5.3967729951, 5.2681131903, 4.8188549829, 4.9757217362, 4.9274821577, 4.8838788052, 4.6793577106]",Flex Agent 0,1.0,0.1650141711,0.08750000000000001,4.0,0.0723474412,0.0121835329,13.6760498648,-0.08211195360000001,4.0,1.1666666667,0.5061815666,0.5905427691,,,,,,,,,,,,,,,,,,,,,,
2,SINGLE_CHANGE,"[5.3913336236, 5.3967729951, 5.2681131903, 4.8188549829, 4.9757217362, 4.9274821577, 4.8838788052, 4.6793577106]",Flex Agent 0,2.0,0.1868030723,0.12,3.75,0.0817182031,0.005259302,13.7199244326,-0.06272881720000001,4.5,1.0,0.5338411368,0.6211531982,,,,,,,,,,,,,,,,,,,,,,
3,SINGLE_CHANGE,"[5.3913336236, 5.3967729951, 5.2681131903, 4.8188549829, 4.9757217362, 4.9274821577, 4.8838788052, 4.6793577106]",Flex Agent 0,3.0,0.1926938013,0.125,3.75,0.0856581518,0.0225210432,13.3922668986,-0.125760321,7.5,1.3636363636,0.6031559964000001,0.6686517319,,,,,,,,,,,,,,,,,,,,,,
4,SINGLE_CHANGE,"[5.3913336236, 5.3967729951, 5.2681131903, 4.8188549829, 4.9757217362, 4.9274821577, 4.8838788052, 4.6793577106]",Flex Agent 0,4.0,0.1836272101,0.125,4.0,0.0586730275,0.0196257195,14.1640967469,-0.09239951980000001,3.0,1.0,0.6579394936,0.767260429,,,,,,,,,,,,,,,,,,,,,,
5,SINGLE_CHANGE,"[5.3913336236, 5.3967729951, 5.2681131903, 4.8188549829, 4.9757217362, 4.9274821577, 4.8838788052, 4.6793577106]",Flex Agent 3,0.0,0.20092381780000002,0.2,7.25,0.0728886271,0.0041177262000000004,19.2218100662,-0.049948443,4.0,1.375,1.0036426403,1.1969508864,,,,,,,,,,,,,,,,,,,,,,
6,SINGLE_CHANGE,"[5.3913336236, 5.3967729951, 5.2681131903, 4.8188549829, 4.9757217362, 4.9274821577, 4.8838788052, 4.6793577106]",Flex Agent 3,1.0,0.2033422171,0.17500000000000002,6.25,0.08236017770000001,0.0147284237,17.4318797608,-0.0521051536,3.5,1.0,0.8343485399,0.9139295134000001,,,,,,,,,,,,,,,,,,,,,,
7,SINGLE_CHANGE,"[5.3913336236, 5.3967729951, 5.2681131903, 4.8188549829, 4.9757217362, 4.9274821577, 4.8838788052, 4.6793577106]",Flex Agent 3,2.0,0.20277618360000002,0.19,5.25,0.0789019298,0.0139634757,18.1693511493,-0.09272215140000001,4.5,1.0,0.9440140896,1.1670719972999999,,,,,,,,,,,,,,,,,,,,,,
8,SINGLE_CHANGE,"[5.3913336236, 5.3967729951, 5.2681131903, 4.8188549829, 4.9757217362, 4.9274821577, 4.8838788052, 4.6793577106]",Flex Agent 3,3.0,0.1972432931,0.145,6.5,0.0894852807,0.014928107000000001,18.1622993667,-0.08382274590000001,4.0,1.0,0.8295138947,0.9425436573,,,,,,,,,,,,,,,,,,,,,,
9,SINGLE_CHANGE,"[5.3913336236, 5.3967729951, 5.2681131903, 4.8188549829, 4.9757217362, 4.9274821577, 4.8838788052, 4.6793577106]",Flex Agent 3,4.0,0.20144300480000002,0.21,5.75,0.0673907134,0.008336077,19.3665563888,-0.0770038475,2.0,1.0,0.9604080751,1.1043783233,,,,,,,,,,,,,,,,,,,,,,
10,SINGLE_CHANGE,"[5.3913336236, 5.3967729951, 5.2681131903, 4.8188549829, 4.9757217362, 4.9274821577, 4.8838788052, 4.6793577106]",Flex Agent 4,0.0,0.08182859170000001,0.03,2.25,0.0623271633,0.0110405461,7.26905391,0.1174675471,17.5,3.4638157895,0.2921108664,0.3065992926,,,,,,,,,,,,,,,,,,,,,,
11,SINGLE_CHANGE,"[5.3913336236, 5.3967729951, 5.2681131903, 4.8188549829, 4.9757217362, 4.9274821577, 4.8838788052, 4.6793577106]",Flex Agent 4,1.0,0.0879347607,0.03,2.0,0.0695275826,0.0161469094,7.2761018433,0.0397896469,17.0,4.0105263158,0.2689712534,0.28448081410000003,,,,,,,,,,,,,,,,,,,,,,
12,SINGLE_CHANGE,"[5.3913336236, 5.3967729951, 5.2681131903, 4.8188549829, 4.9757217362, 4.9274821577, 4.8838788052, 4.6793577106]",Flex Agent 4,2.0,0.1096426549,0.0425,2.0,0.0666626131,0.0069799147,7.2716802576,-0.0083126489,23.0,2.6944444444,0.2567740615,0.26740013760000003,,,,,,,,,,,,,,,,,,,,,,
13,SINGLE_CHANGE,"[5.3913336236, 5.3967729951, 5.2681131903, 4.8188549829, 4.9757217362, 4.9274821577, 4.8838788052, 4.6793577106]",Flex Agent 4,3.0,0.0923152159,0.03,2.0,0.0656539128,0.0067439603,7.2290463334,0.026040211,19.0,3.3947368421,0.29159805780000003,0.3258747084,,,,,,,,,,,,,,,,,,,,,,
14,SINGLE_CHANGE,"[5.3913336236, 5.3967729951, 5.2681131903, 4.8188549829, 4.9757217362, 4.9274821577, 4.8838788052, 4.6793577106]",Flex Agent 4,4.0,0.0673021479,0.022500000000000003,1.75,0.0717948283,0.0153752417,7.2650773907,-0.0135493625,21.5,3.0043290043,0.2755448526,0.3114085084,,,,,,,,,,,,,,,,,,,,,,
15,SINGLE_CHANGE,"[5.3913336236, 5.3967729951, 5.2681131903, 4.8188549829, 4.9757217362, 4.9274821577, 4.8838788052, 4.6793577106]",Flex Agent 1,0.0,0.14899499130000002,0.0675,3.25,0.0768007649,0.0074561048,12.6353791111,-0.08985082550000001,5.0,1.1875,0.5392837504,0.6749593049,,,,,,,,,,,,,,,,,,,,,,
16,SINGLE_CHANGE,"[5.3913336236, 5.3967729951, 5.2681131903, 4.8188549829, 4.9757217362, 4.9274821577, 4.8838788052, 4.6793577106]",Flex Agent 1,1.0,0.1684622225,0.08750000000000001,4.25,0.0783456171,0.0158367645,13.4922734688,-0.058778151,4.0,1.0,0.5075785202,0.5638882062,,,,,,,,,,,,,,,,,,,,,,
17,SINGLE_CHANGE,"[5.3913336236, 5.3967729951, 5.2681131903, 4.8188549829, 4.9757217362, 4.9274821577, 4.8838788052, 4.6793577106]",Flex Agent 1,2.0,0.16414318930000002,0.085,4.0,0.08657553100000001,0.0190606466,13.4150421833,-0.039775429800000005,6.0,1.1,0.49813346290000005,0.6523108251,,,,,,,,,,,,,,,,,,,,,,
18,SINGLE_CHANGE,"[5.3913336236, 5.3967729951, 5.2681131903, 4.8188549829, 4.9757217362, 4.9274821577, 4.8838788052, 4.6793577106]",Flex Agent 1,3.0,0.1613896803,0.08750000000000001,3.5,0.07312538810000001,0.0098503693,12.8926103228,-0.1312010112,4.5,1.0,0.5085065040000001,0.6643276938,,,,,,,,,,,,,,,,,,,,,,
19,SINGLE_CHANGE,"[5.3913336236, 5.3967729951, 5.2681131903, 4.8188549829, 4.9757217362, 4.9274821577, 4.8838788052, 4.6793577106]",Flex Agent 1,4.0,0.18549148910000002,0.1275,4.0,0.07635368220000001,0.0043657549,13.7824374251,-0.1332058884,6.5,1.25,0.6417666362000001,0.7174010848,,,,,,,,,,,,,,,,,,,,,,
20,SINGLE_CHANGE,"[5.3913336236, 5.3967729951, 5.2681131903, 4.8188549829, 4.9757217362, 4.9274821577, 4.8838788052, 4.6793577106]",Flex Agent 5,0.0,0.17579418830000001,0.1,3.75,0.0731037184,0.0104923832,13.847939601,-0.0561707542,5.0,1.25,0.5154426774,0.5966131359,,,,,,,,,,,,,,,,,,,,,,
21,SINGLE_CHANGE,"[5.3913336236, 5.3967729951, 5.2681131903, 4.8188549829, 4.9757217362, 4.9274821577, 4.8838788052, 4.6793577106]",Flex Agent 5,1.0,0.1798873759,0.1075,3.75,0.09153234040000001,0.0127439349,12.0642315254,-0.0841888698,7.5,0.6666666667000001,0.5687055004,0.6574212366000001,,,,,,,,,,,,,,,,,,,,,,
22,SINGLE_CHANGE,"[5.3913336236, 5.3967729951, 5.2681131903, 4.8188549829, 4.9757217362, 4.9274821577, 4.8838788052, 4.6793577106]",Flex Agent 5,2.0,0.19736918620000002,0.15,4.75,0.074286353,0.011162024500000001,13.0575494627,0.0241341324,3.5,1.1,0.693495107,0.7676851459,,,,,,,,,,,,,,,,,,,,,,
23,SINGLE_CHANGE,"[5.3913336236, 5.3967729951, 5.2681131903, 4.8188549829, 4.9757217362, 4.9274821577, 4.8838788052, 4.6793577106]",Flex Agent 5,3.0,0.17100786340000002,0.0975,3.75,0.0741366383,0.0114532542,13.5973070581,-0.1113285244,2.5,1.125,0.5038927243,0.5566968553,,,,,,,,,,,,,,,,,,,,,,
24,SINGLE_CHANGE,"[5.3913336236, 5.3967729951, 5.2681131903, 4.8188549829, 4.9757217362, 4.9274821577, 4.8838788052, 4.6793577106]",Flex Agent 5,4.0,0.146784778,0.0825,3.25,0.0580747287,0.0174116795,14.329085167,-0.1187135161,7.5,1.2222222222,0.47340296660000003,0.6788609554,,,,,,,,,,,,,,,,,,,,,,
25,SINGLE_CHANGE,"[5.3913336236, 5.3967729951, 5.2681131903, 4.8188549829, 4.9757217362, 4.9274821577, 4.8838788052, 4.6793577106]",Flex Agent 2,0.0,0.1930006772,0.155,3.25,0.0927124408,0.014252395000000001,12.9985994924,-0.049833151000000006,6.5,1.3095238095,0.7644743948,1.090222286,,,,,,,,,,,,,,,,,,,,,,
26,SINGLE_CHANGE,"[5.3913336236, 5.3967729951, 5.2681131903, 4.8188549829, 4.9757217362, 4.9274821577, 4.8838788052, 4.6793577106]",Flex Agent 2,1.0,0.15884378,0.0775,4.0,0.0982098024,0.0090303059,13.810650666899999,-0.0156162737,4.0,1.0,0.45435225170000004,0.4667528367,,,,,,,,,,,,,,,,,,,,,,
27,SINGLE_CHANGE,"[5.3913336236, 5.3967729951, 5.2681131903, 4.8188549829, 4.9757217362, 4.9274821577, 4.8838788052, 4.6793577106]",Flex Agent 2,2.0,0.1639206171,0.0825,3.5,0.0599595216,0.0074895376,13.717386597,-0.0703703553,6.0,1.0454545455,0.4811599516,0.5045197425,,,,,,,,,,,,,,,,,,,,,,
28,SINGLE_CHANGE,"[5.3913336236, 5.3967729951, 5.2681131903, 4.8188549829, 4.9757217362, 4.9274821577, 4.8838788052, 4.6793577106]",Flex Agent 2,3.0,0.1699575842,0.09,3.0,0.07978537420000001,0.0124046164,14.1753815005,-0.0480499163,7.0,1.0625,0.5332584487,0.7019256864,,,,,,,,,,,,,,,,,,,,,,
29,SINGLE_CHANGE,"[5.3913336236, 5.3967729951, 5.2681131903, 4.8188549829, 4.9757217362, 4.9274821577, 4.8838788052, 4.6793577106]",Flex Agent 2,4.0,0.1694117984,0.08750000000000001,3.75,0.0966785205,0.0155534005,12.8171826057,-0.0780498374,4.0,1.0,0.5026828228,0.5458047374,,,,,,,,,,,,,,,,,,,,,,
30,SINGLE_CHANGE,"[5.3913336236, 5.3967729951, 5.2681131903, 4.8188549829, 4.9757217362, 4.9274821577, 4.8838788052, 4.6793577106]",Flex Agent 7,0.0,0.20040574390000002,0.1575,3.25,0.0672451848,0.0127369784,16.5862725119,0.0472451234,21.0,2.9047619048,0.6081077914,0.6794239907,,,,,,,,,,,,,,,,,,,,,,
31,SINGLE_CHANGE,"[5.3913336236, 5.3967729951, 5.2681131903, 4.8188549829, 4.9757217362, 4.9274821577, 4.8838788052, 4.6793577106]",Flex Agent 7,1.0,0.2005305208,0.155,3.0,0.060927148800000004,0.0142858011,16.733826714,0.0623726147,18.0,3.1656346749,0.6068643885,0.6586826971,,,,,,,,,,,,,,,,,,,,,,
32,SINGLE_CHANGE,"[5.3913336236, 5.3967729951, 5.2681131903, 4.8188549829, 4.9757217362, 4.9274821577, 4.8838788052, 4.6793577106]",Flex Agent 7,2.0,0.20099274960000002,0.14750000000000002,3.25,0.07194574720000001,0.0166931272,16.6594425738,0.037751208700000004,23.5,2.467032967,0.5877014481,0.6488863973,,,,,,,,,,,,,,,,,,,,,,
33,SINGLE_CHANGE,"[5.3913336236, 5.3967729951, 5.2681131903, 4.8188549829, 4.9757217362, 4.9274821577, 4.8838788052, 4.6793577106]",Flex Agent 7,3.0,0.1828219503,0.115,4.0,0.0698926933,0.0115326075,16.6165907886,0.0185747214,25.0,2.2141706924,0.5858882767,0.6083748692000001,,,,,,,,,,,,,,,,,,,,,,
34,SINGLE_CHANGE,"[5.3913336236, 5.3967729951, 5.2681131903, 4.8188549829, 4.9757217362, 4.9274821577, 4.8838788052, 4.6793577106]",Flex Agent 7,4.0,0.19668996600000002,0.135,4.0,0.0650721739,0.009038842200000001,16.7848712552,0.0863140037,20.0,3.1792929293,0.5558154489,0.6076976964,,,,,,,,,,,,,,,,,,,,,,
35,SINGLE_CHANGE,"[5.3913336236, 5.3967729951, 5.2681131903, 4.8188549829, 4.9757217362, 4.9274821577, 4.8838788052, 4.6793577106]",Flex Agent 8,0.0,0.1954005392,0.135,3.0,0.07286777650000001,0.010069974,16.6482990018,-0.0241581674,24.0,2.5,0.5900277823,0.7279107073000001,,,,,,,,,,,,,,,,,,,,,,
36,SINGLE_CHANGE,"[5.3913336236, 5.3967729951, 5.2681131903, 4.8188549829, 4.9757217362, 4.9274821577, 4.8838788052, 4.6793577106]",Flex Agent 8,1.0,0.19883692360000002,0.145,3.5,0.0646717034,0.0142530594,16.6911495208,0.0286362727,20.0,3.34375,0.5902318844000001,0.6081741229000001,,,,,,,,,,,,,,,,,,,,,,
37,SINGLE_CHANGE,"[5.3913336236, 5.3967729951, 5.2681131903, 4.8188549829, 4.9757217362, 4.9274821577, 4.8838788052, 4.6793577106]",Flex Agent 8,2.0,0.1972690181,0.14250000000000002,2.75,0.07771908100000001,0.0113670994,16.6098838398,0.0616506548,24.0,2.6851851852,0.5492416137,0.6061839353,,,,,,,,,,,,,,,,,,,,,,
38,SINGLE_CHANGE,"[5.3913336236, 5.3967729951, 5.2681131903, 4.8188549829, 4.9757217362, 4.9274821577, 4.8838788052, 4.6793577106]",Flex Agent 8,3.0,0.2030891282,0.1675,3.5,0.0709501646,0.0101055207,16.6295686795,0.080068473,18.5,3.6636904762,0.6104625142,0.6621494082,,,,,,,,,,,,,,,,,,,,,,
39,SINGLE_CHANGE,"[5.3913336236, 5.3967729951, 5.2681131903, 4.8188549829, 4.9757217362, 4.9274821577, 4.8838788052, 4.6793577106]",Flex Agent 8,4.0,0.1980219986,0.14250000000000002,3.0,0.0612659814,0.018329374500000002,16.5956693183,0.0044441867,19.0,3.3083333333000002,0.5564073513000001,0.6181567561,,,,,,,,,,,,,,,,,,,,,,
40,SINGLE_CHANGE,"[5.3913336236, 5.3967729951, 5.2681131903, 4.8188549829, 4.9757217362, 4.9274821577, 4.8838788052, 4.6793577106]",Flex Agent 9,0.0,0.2029584439,0.1675,3.5,0.0613241002,0.008317014900000001,16.6473543855,0.1151742721,18.5,3.6827485380000002,0.6108186579,0.647499153,,,,,,,,,,,,,,,,,,,,,,
41,SINGLE_CHANGE,"[5.3913336236, 5.3967729951, 5.2681131903, 4.8188549829, 4.9757217362, 4.9274821577, 4.8838788052, 4.6793577106]",Flex Agent 9,1.0,0.20037009290000002,0.1575,3.75,0.0732754546,0.0091088895,16.5758203555,0.012580601200000001,19.5,3.4484126984,0.6147097597,0.6647429135,,,,,,,,,,,,,,,,,,,,,,
42,SINGLE_CHANGE,"[5.3913336236, 5.3967729951, 5.2681131903, 4.8188549829, 4.9757217362, 4.9274821577, 4.8838788052, 4.6793577106]",Flex Agent 9,2.0,0.1947224233,0.14,3.25,0.08309056170000001,0.0103549572,16.7335996661,0.092425533,20.5,3.4066985646,0.5134280334,0.5566941527,,,,,,,,,,,,,,,,,,,,,,
43,SINGLE_CHANGE,"[5.3913336236, 5.3967729951, 5.2681131903, 4.8188549829, 4.9757217362, 4.9274821577, 4.8838788052, 4.6793577106]",Flex Agent 9,3.0,0.1904934695,0.13,3.5,0.0926573841,0.0208868827,16.5804443154,0.0654882205,18.5,3.6754385965000003,0.50759131,0.5468837753,,,,,,,,,,,,,,,,,,,,,,
44,SINGLE_CHANGE,"[5.3913336236, 5.3967729951, 5.2681131903, 4.8188549829, 4.9757217362, 4.9274821577, 4.8838788052, 4.6793577106]",Flex Agent 9,4.0,0.1981093143,0.14250000000000002,2.75,0.061234922000000004,0.0037650080000000002,16.7553218321,-0.0036483895000000003,22.5,2.755,0.5975453957,0.6732746179,,,,,,,,,,,,,,,,,,,,,,
45,SINGLE_CHANGE,"[5.3913336236, 5.3967729951, 5.2681131903, 4.8188549829, 4.9757217362, 4.9274821577, 4.8838788052, 4.6793577106]",Flex Agent 6,0.0,0.2007364993,0.1875,6.0,0.0816786063,0.0100141877,19.2765435675,-0.0783209936,6.0,1.2714285714,0.9854263935,1.1586506481,,,,,,,,,,,,,,,,,,,,,,
46,SINGLE_CHANGE,"[5.3913336236, 5.3967729951, 5.2681131903, 4.8188549829, 4.9757217362, 4.9274821577, 4.8838788052, 4.6793577106]",Flex Agent 6,1.0,0.20187060910000001,0.165,5.0,0.0998674274,0.0270086381,19.2151887698,0.022806392,3.5,1.0,0.8729812769,0.9904468828,,,,,,,,,,,,,,,,,,,,,,
47,SINGLE_CHANGE,"[5.3913336236, 5.3967729951, 5.2681131903, 4.8188549829, 4.9757217362, 4.9274821577, 4.8838788052, 4.6793577106]",Flex Agent 6,2.0,0.2043948639,0.17500000000000002,5.5,0.0878106075,0.0066104404000000005,18.1772321539,-0.1019762201,3.5,1.35,0.8537422952,0.9361731327,,,,,,,,,,,,,,,,,,,,,,
48,SINGLE_CHANGE,"[5.3913336236, 5.3967729951, 5.2681131903, 4.8188549829, 4.9757217362, 4.9274821577, 4.8838788052, 4.6793577106]",Flex Agent 6,3.0,0.19627199820000002,0.155,6.75,0.0723789287,0.0195375473,18.632055945,-0.0665417189,4.0,1.5,0.9117071731,1.078406109,,,,,,,,,,,,,,,,,,,,,,
49,SINGLE_CHANGE,"[5.3913336236, 5.3967729951, 5.2681131903, 4.8188549829, 4.9757217362, 4.9274821577, 4.8838788052, 4.6793577106]",Flex Agent 6,4.0,0.20258940900000003,0.2175,5.5,0.0755887002,0.0069101249,19.0556988803,-0.038221618900000004,3.0,1.0,0.9888834969,1.1274074455,,,,,,,,,,,,,,,,,,,,,,
50,,,Global,,,,,,,,,,,,,0.17743728731800001,0.03420685563987988,0.12450000000000003,0.047742399758431475,3.89,1.248631904386982,0.07536820451800001,0.010850414822072958,0.012216854991999999,0.005003586941407687,14.850439418477999,3.290706304590573,-0.024499454569999995,0.06800530396812556,11.05,8.045311728971509,1.9351609249339998,1.053231361514753,0.60761160158,0.1899016048923686,0.7005684121439999,0.23522749975149723
