,NeighborhoodDefinition,TargetSchedule,Agent,FLA_ID,INFORMATION_CONTENT,PARTIAL_INFORMATION_CONTENT,INFORMATION_STABILITY,FITNESS_VARIANCE_MEAN,FITNESS_VARIANCE_STD,FITNESS_MEAN,DISPERSION_INDEX,MEAN_NUMBER_OF_NEUTRAL_AREAS,MEAN_SIZE_OF_NEUTRAL_AREAS,MEAN_FITNESS_DISTANCE,MAX_FITNESS_DISTANCE,INFORMATION_CONTENT_MEAN,INFORMATION_CONTENT_STD,PARTIAL_INFORMATION_CONTENT_MEAN,PARTIAL_INFORMATION_CONTENT_STD,INFORMATION_STABILITY_MEAN,INFORMATION_STABILITY_STD,FITNESS_VARIANCE_MEAN_MEAN,FITNESS_VARIANCE_MEAN_STD,FITNESS_VARIANCE_STD_MEAN,FITNESS_VARIANCE_STD_STD,FITNESS_MEAN_MEAN,FITNESS_MEAN_STD,DISPERSION_INDEX_MEAN,DISPERSION_INDEX_STD,MEAN_NUMBER_OF_NEUTRAL_AREAS_MEAN,MEAN_NUMBER_OF_NEUTRAL_AREAS_STD,MEAN_SIZE_OF_NEUTRAL_AREAS_MEAN,MEAN_SIZE_OF_NEUTRAL_AREAS_STD,MEAN_FITNESS_DISTANCE_MEAN,MEAN_FITNESS_DISTANCE_STD,MAX_FITNESS_DISTANCE_MEAN,MAX_FITNESS_DISTANCE_STD
0,SINGLE_CHANGE,"[-5.8068304820000005, -4.4835566732, -5.3123523933, -2.4923892183, -5.2356501689, 0.0, -12.020155745, -21.0368137284]",Flex Agent 0,0.0,0.12516603910000001,0.05,2.25,0.0676776197,0.0151930445,28.7838636764,0.0005697160000000001,26.0,2.22,0.34971856970000004,0.38728170640000004,,,,,,,,,,,,,,,,,,,,,,
1,SINGLE_CHANGE,"[-5.8068304820000005, -4.4835566732, -5.3123523933, -2.4923892183, -5.2356501689, 0.0, -12.020155745, -21.0368137284]",Flex Agent 0,1.0,0.1221308529,0.05,2.0,0.0411478932,0.0041683718,31.0812879595,0.0011519651,17.5,3.1895424837,0.3637661799,0.4123018008,,,,,,,,,,,,,,,,,,,,,,
2,SINGLE_CHANGE,"[-5.8068304820000005, -4.4835566732, -5.3123523933, -2.4923892183, -5.2356501689, 0.0, -12.020155745, -21.0368137284]",Flex Agent 0,2.0,0.1176390595,0.045,2.25,0.06862238650000001,0.010449180800000001,23.4407817081,0.0006141871,26.0,2.1955555556,0.3421665879,0.3790244249,,,,,,,,,,,,,,,,,,,,,,
3,SINGLE_CHANGE,"[-5.8068304820000005, -4.4835566732, -5.3123523933, -2.4923892183, -5.2356501689, 0.0, -12.020155745, -21.0368137284]",Flex Agent 0,3.0,0.13910550500000002,0.06,2.25,0.0479120184,0.0065628066,34.9524186161,0.0003865561,18.5,3.575,0.3626500633,0.381954605,,,,,,,,,,,,,,,,,,,,,,
4,SINGLE_CHANGE,"[-5.8068304820000005, -4.4835566732, -5.3123523933, -2.4923892183, -5.2356501689, 0.0, -12.020155745, -21.0368137284]",Flex Agent 0,4.0,0.1279634918,0.05,2.0,0.058525394700000004,0.008736343300000001,33.8090934489,0.0001457591,21.0,3.2619047619,0.3622459559,0.4136443967,,,,,,,,,,,,,,,,,,,,,,
5,SINGLE_CHANGE,"[-5.8068304820000005, -4.4835566732, -5.3123523933, -2.4923892183, -5.2356501689, 0.0, -12.020155745, -21.0368137284]",Flex Agent 1,0.0,0.17243216900000002,0.0925,2.25,0.044839803000000004,0.0091197588,37.7374962761,0.0001304714,21.5,3.0974025974,0.4832628725,0.5491852124000001,,,,,,,,,,,,,,,,,,,,,,
6,SINGLE_CHANGE,"[-5.8068304820000005, -4.4835566732, -5.3123523933, -2.4923892183, -5.2356501689, 0.0, -12.020155745, -21.0368137284]",Flex Agent 1,1.0,0.1701127029,0.09,2.5,0.063702782,0.0135301815,31.4276410785,0.0005474885,22.0,2.4708333333,0.4431081032,0.47209224780000003,,,,,,,,,,,,,,,,,,,,,,
7,SINGLE_CHANGE,"[-5.8068304820000005, -4.4835566732, -5.3123523933, -2.4923892183, -5.2356501689, 0.0, -12.020155745, -21.0368137284]",Flex Agent 1,2.0,0.1703958086,0.0925,3.0,0.065013503,0.011685675500000001,35.5737395263,-8.96842e-05,22.5,2.765,0.4923085414,0.5254846066000001,,,,,,,,,,,,,,,,,,,,,,
8,SINGLE_CHANGE,"[-5.8068304820000005, -4.4835566732, -5.3123523933, -2.4923892183, -5.2356501689, 0.0, -12.020155745, -21.0368137284]",Flex Agent 1,3.0,0.1504404107,0.07,2.5,0.057013133,0.0060326748,24.106302755,0.0005186293,22.0,2.6894409938,0.4255633198,0.5380844526,,,,,,,,,,,,,,,,,,,,,,
9,SINGLE_CHANGE,"[-5.8068304820000005, -4.4835566732, -5.3123523933, -2.4923892183, -5.2356501689, 0.0, -12.020155745, -21.0368137284]",Flex Agent 1,4.0,0.1662485963,0.09,2.75,0.0574285524,0.0091627064,29.346297719,0.0001291711,21.5,2.9805194805,0.4920229058,0.5375905839,,,,,,,,,,,,,,,,,,,,,,
10,SINGLE_CHANGE,"[-5.8068304820000005, -4.4835566732, -5.3123523933, -2.4923892183, -5.2356501689, 0.0, -12.020155745, -21.0368137284]",Flex Agent 5,0.0,0.199809924,0.195,6.5,0.06903116320000001,0.0080087578,26.6970746073,-0.007839773900000001,4.0,1.0,0.9478874596,1.1701145579,,,,,,,,,,,,,,,,,,,,,,
11,SINGLE_CHANGE,"[-5.8068304820000005, -4.4835566732, -5.3123523933, -2.4923892183, -5.2356501689, 0.0, -12.020155745, -21.0368137284]",Flex Agent 5,1.0,0.1985968984,0.1625,6.0,0.07663656020000001,0.0051684379,28.7624529538,0.010641710700000001,4.5,1.0,0.7906634714,0.9440933952,,,,,,,,,,,,,,,,,,,,,,
12,SINGLE_CHANGE,"[-5.8068304820000005, -4.4835566732, -5.3123523933, -2.4923892183, -5.2356501689, 0.0, -12.020155745, -21.0368137284]",Flex Agent 5,2.0,0.2048690243,0.1975,5.5,0.0663503194,0.0096536341,25.9413332693,-0.010633157800000001,2.5,1.0,0.8985767410000001,1.2128135849000001,,,,,,,,,,,,,,,,,,,,,,
13,SINGLE_CHANGE,"[-5.8068304820000005, -4.4835566732, -5.3123523933, -2.4923892183, -5.2356501689, 0.0, -12.020155745, -21.0368137284]",Flex Agent 5,3.0,0.2044757275,0.19,6.5,0.076989257,0.0205488653,28.1666531256,-0.013099481000000001,6.0,1.0,0.8026511085,0.8530491041,,,,,,,,,,,,,,,,,,,,,,
14,SINGLE_CHANGE,"[-5.8068304820000005, -4.4835566732, -5.3123523933, -2.4923892183, -5.2356501689, 0.0, -12.020155745, -21.0368137284]",Flex Agent 5,4.0,0.1962481291,0.2225,5.5,0.060705283900000004,0.0111333725,25.0082363085,-0.0062714216,1.5,1.0,0.9921479091000001,1.2782580904,,,,,,,,,,,,,,,,,,,,,,
15,SINGLE_CHANGE,"[-5.8068304820000005, -4.4835566732, -5.3123523933, -2.4923892183, -5.2356501689, 0.0, -12.020155745, -21.0368137284]",Flex Agent 6,0.0,0.1593766778,0.0775,2.75,0.0504496067,0.0052852844000000005,30.2410051165,0.0026584877,21.0,2.7619047619,0.4683815248,0.503760784,,,,,,,,,,,,,,,,,,,,,,
16,SINGLE_CHANGE,"[-5.8068304820000005, -4.4835566732, -5.3123523933, -2.4923892183, -5.2356501689, 0.0, -12.020155745, -21.0368137284]",Flex Agent 6,1.0,0.155025654,0.08,2.75,0.0653584849,0.0101204219,35.4212750161,0.0032332552,21.5,3.3217391304,0.4191462523,0.4826214331,,,,,,,,,,,,,,,,,,,,,,
17,SINGLE_CHANGE,"[-5.8068304820000005, -4.4835566732, -5.3123523933, -2.4923892183, -5.2356501689, 0.0, -12.020155745, -21.0368137284]",Flex Agent 6,2.0,0.1541004179,0.08,2.5,0.044032437800000004,0.0099898159,34.432383766,-0.000646938,21.5,2.9106334842,0.4173537127,0.5163510629,,,,,,,,,,,,,,,,,,,,,,
18,SINGLE_CHANGE,"[-5.8068304820000005, -4.4835566732, -5.3123523933, -2.4923892183, -5.2356501689, 0.0, -12.020155745, -21.0368137284]",Flex Agent 6,3.0,0.1576375583,0.0775,2.75,0.06931209740000001,0.014539973400000001,30.4873386163,0.0028487937000000003,20.5,3.5894607843,0.4105330351,0.4705940722,,,,,,,,,,,,,,,,,,,,,,
19,SINGLE_CHANGE,"[-5.8068304820000005, -4.4835566732, -5.3123523933, -2.4923892183, -5.2356501689, 0.0, -12.020155745, -21.0368137284]",Flex Agent 6,4.0,0.1681946118,0.085,2.5,0.0608828422,0.009765073400000001,32.8124603364,0.0042280599,22.5,2.8005952381,0.4551285774,0.5281724162,,,,,,,,,,,,,,,,,,,,,,
20,SINGLE_CHANGE,"[-5.8068304820000005, -4.4835566732, -5.3123523933, -2.4923892183, -5.2356501689, 0.0, -12.020155745, -21.0368137284]",Flex Agent 4,0.0,0.1580782527,0.0775,2.5,0.0582237512,0.007172678500000001,41.1991947464,0.0034793418000000002,21.5,2.9025974026,0.43891792560000004,0.5194348743,,,,,,,,,,,,,,,,,,,,,,
21,SINGLE_CHANGE,"[-5.8068304820000005, -4.4835566732, -5.3123523933, -2.4923892183, -5.2356501689, 0.0, -12.020155745, -21.0368137284]",Flex Agent 4,1.0,0.1675296168,0.085,2.25,0.0764598744,0.0154831433,35.0625418531,0.0007837976,20.0,2.5513784461,0.4614564922,0.5098475058,,,,,,,,,,,,,,,,,,,,,,
22,SINGLE_CHANGE,"[-5.8068304820000005, -4.4835566732, -5.3123523933, -2.4923892183, -5.2356501689, 0.0, -12.020155745, -21.0368137284]",Flex Agent 4,2.0,0.1449065417,0.065,2.25,0.061243379900000006,0.0074702192,37.5133327823,0.0009293458,21.0,2.8571428571,0.4495692423,0.48578699000000003,,,,,,,,,,,,,,,,,,,,,,
23,SINGLE_CHANGE,"[-5.8068304820000005, -4.4835566732, -5.3123523933, -2.4923892183, -5.2356501689, 0.0, -12.020155745, -21.0368137284]",Flex Agent 4,3.0,0.1754349324,0.095,2.75,0.0476553347,0.004992174,33.6892275204,0.0019482846,24.5,2.7040133779,0.5010641768,0.5395316808,,,,,,,,,,,,,,,,,,,,,,
24,SINGLE_CHANGE,"[-5.8068304820000005, -4.4835566732, -5.3123523933, -2.4923892183, -5.2356501689, 0.0, -12.020155745, -21.0368137284]",Flex Agent 4,4.0,0.14341011010000002,0.0625,2.75,0.0447004209,0.0034020098,30.4697154949,0.0011773113,18.5,3.1382352941000002,0.4263907798,0.4977460783,,,,,,,,,,,,,,,,,,,,,,
25,SINGLE_CHANGE,"[-5.8068304820000005, -4.4835566732, -5.3123523933, -2.4923892183, -5.2356501689, 0.0, -12.020155745, -21.0368137284]",Flex Agent 2,0.0,0.1867507857,0.135,4.0,0.0773755592,0.0156759128,20.3282493886,0.0017979352000000001,6.5,1.0,0.6413581546,0.8703234110000001,,,,,,,,,,,,,,,,,,,,,,
26,SINGLE_CHANGE,"[-5.8068304820000005, -4.4835566732, -5.3123523933, -2.4923892183, -5.2356501689, 0.0, -12.020155745, -21.0368137284]",Flex Agent 2,1.0,0.1783325205,0.1,3.75,0.0653923523,0.018448206800000002,21.9951538556,-0.012018923,4.5,1.1,0.5765898477,0.609958175,,,,,,,,,,,,,,,,,,,,,,
27,SINGLE_CHANGE,"[-5.8068304820000005, -4.4835566732, -5.3123523933, -2.4923892183, -5.2356501689, 0.0, -12.020155745, -21.0368137284]",Flex Agent 2,2.0,0.1501371949,0.0675,4.5,0.0713762074,0.0216388366,25.0687375944,-0.0052316753,5.0,1.1666666667,0.48549706060000003,0.5506426698,,,,,,,,,,,,,,,,,,,,,,
28,SINGLE_CHANGE,"[-5.8068304820000005, -4.4835566732, -5.3123523933, -2.4923892183, -5.2356501689, 0.0, -12.020155745, -21.0368137284]",Flex Agent 2,3.0,0.1843777911,0.125,5.25,0.0671498512,0.0033762735,20.4180177544,-0.0015959399,6.5,1.225,0.6559944363,0.8073054559,,,,,,,,,,,,,,,,,,,,,,
29,SINGLE_CHANGE,"[-5.8068304820000005, -4.4835566732, -5.3123523933, -2.4923892183, -5.2356501689, 0.0, -12.020155745, -21.0368137284]",Flex Agent 2,4.0,0.2008033506,0.1675,5.25,0.0780450058,0.014043950500000001,23.3287523662,-0.0059138876,2.5,1.1666666667,0.7515062809,0.7861645105,,,,,,,,,,,,,,,,,,,,,,
30,SINGLE_CHANGE,"[-5.8068304820000005, -4.4835566732, -5.3123523933, -2.4923892183, -5.2356501689, 0.0, -12.020155745, -21.0368137284]",Flex Agent 7,0.0,0.1869150172,0.13,4.75,0.0477601173,0.0061605646000000005,21.2136191758,-0.007262635700000001,6.5,1.0625,0.5804456572000001,0.6818958618000001,,,,,,,,,,,,,,,,,,,,,,
31,SINGLE_CHANGE,"[-5.8068304820000005, -4.4835566732, -5.3123523933, -2.4923892183, -5.2356501689, 0.0, -12.020155745, -21.0368137284]",Flex Agent 7,1.0,0.2034952085,0.17,5.25,0.0744058323,0.0155544852,22.4918384132,-0.0029975536000000002,8.0,1.375,0.8397920066000001,0.8969444273,,,,,,,,,,,,,,,,,,,,,,
32,SINGLE_CHANGE,"[-5.8068304820000005, -4.4835566732, -5.3123523933, -2.4923892183, -5.2356501689, 0.0, -12.020155745, -21.0368137284]",Flex Agent 7,2.0,0.2001443135,0.18,5.0,0.07391809390000001,0.009759779100000001,25.3274370656,-6.85188e-05,4.5,1.0,0.8281138291,1.1820873973000001,,,,,,,,,,,,,,,,,,,,,,
33,SINGLE_CHANGE,"[-5.8068304820000005, -4.4835566732, -5.3123523933, -2.4923892183, -5.2356501689, 0.0, -12.020155745, -21.0368137284]",Flex Agent 7,3.0,0.2014855442,0.17500000000000002,5.25,0.0587187984,0.0134943098,25.7381982423,-0.0070614309,5.5,1.0,0.8227659878,0.9646054497000001,,,,,,,,,,,,,,,,,,,,,,
34,SINGLE_CHANGE,"[-5.8068304820000005, -4.4835566732, -5.3123523933, -2.4923892183, -5.2356501689, 0.0, -12.020155745, -21.0368137284]",Flex Agent 7,4.0,0.2022364878,0.17250000000000001,5.0,0.0650678253,0.0103856973,23.8684679391,-0.0062735618,2.5,1.1666666667,0.8091549815,0.9904111940000001,,,,,,,,,,,,,,,,,,,,,,
35,SINGLE_CHANGE,"[-5.8068304820000005, -4.4835566732, -5.3123523933, -2.4923892183, -5.2356501689, 0.0, -12.020155745, -21.0368137284]",Flex Agent 9,0.0,0.1938914492,0.14250000000000002,4.0,0.07877496290000001,0.0176884203,24.1584390936,-0.0028659129000000003,7.0,1.1111111111,0.6864748141,0.8445992999,,,,,,,,,,,,,,,,,,,,,,
36,SINGLE_CHANGE,"[-5.8068304820000005, -4.4835566732, -5.3123523933, -2.4923892183, -5.2356501689, 0.0, -12.020155745, -21.0368137284]",Flex Agent 9,1.0,0.20187060280000002,0.1925,4.5,0.0774382806,0.0041608021,28.8050324885,-0.0039502116000000006,5.5,1.0,0.8438319155,0.915664196,,,,,,,,,,,,,,,,,,,,,,
37,SINGLE_CHANGE,"[-5.8068304820000005, -4.4835566732, -5.3123523933, -2.4923892183, -5.2356501689, 0.0, -12.020155745, -21.0368137284]",Flex Agent 9,2.0,0.1912296876,0.1275,4.5,0.07284068960000001,0.0110396376,19.6718265174,-0.0133939321,5.5,1.2666666667,0.7096264164,0.7965966716,,,,,,,,,,,,,,,,,,,,,,
38,SINGLE_CHANGE,"[-5.8068304820000005, -4.4835566732, -5.3123523933, -2.4923892183, -5.2356501689, 0.0, -12.020155745, -21.0368137284]",Flex Agent 9,3.0,0.2047431027,0.20500000000000002,5.5,0.0738988782,0.0141509237,22.8145988472,-0.0055130984,7.0,1.1666666667,0.8701968318000001,1.1428770852,,,,,,,,,,,,,,,,,,,,,,
39,SINGLE_CHANGE,"[-5.8068304820000005, -4.4835566732, -5.3123523933, -2.4923892183, -5.2356501689, 0.0, -12.020155745, -21.0368137284]",Flex Agent 9,4.0,0.18916859930000002,0.1275,5.5,0.060324739,0.014499225800000001,29.4919896607,0.0038595793000000002,3.5,1.0833333333,0.6351529943,0.7198204085000001,,,,,,,,,,,,,,,,,,,,,,
40,SINGLE_CHANGE,"[-5.8068304820000005, -4.4835566732, -5.3123523933, -2.4923892183, -5.2356501689, 0.0, -12.020155745, -21.0368137284]",Flex Agent 3,0.0,0.1995821387,0.20500000000000002,6.0,0.0695323983,0.0113377435,25.3425079936,-0.0034211399,7.0,1.0,0.9801331909000001,1.0783214553,,,,,,,,,,,,,,,,,,,,,,
41,SINGLE_CHANGE,"[-5.8068304820000005, -4.4835566732, -5.3123523933, -2.4923892183, -5.2356501689, 0.0, -12.020155745, -21.0368137284]",Flex Agent 3,1.0,0.1874101934,0.1375,5.75,0.0621581867,0.011603661500000001,20.2833295233,-0.0080038511,5.0,1.0,0.7164421362000001,0.9440118807000001,,,,,,,,,,,,,,,,,,,,,,
42,SINGLE_CHANGE,"[-5.8068304820000005, -4.4835566732, -5.3123523933, -2.4923892183, -5.2356501689, 0.0, -12.020155745, -21.0368137284]",Flex Agent 3,2.0,0.1964304866,0.14250000000000002,4.5,0.0657396532,0.0148750866,26.3559328929,-0.0071770473,8.5,1.2,0.7410034031,0.8782838087,,,,,,,,,,,,,,,,,,,,,,
43,SINGLE_CHANGE,"[-5.8068304820000005, -4.4835566732, -5.3123523933, -2.4923892183, -5.2356501689, 0.0, -12.020155745, -21.0368137284]",Flex Agent 3,3.0,0.19475979240000002,0.14,5.0,0.0714088341,0.0093062784,21.0012793646,-0.0015850321000000001,3.5,1.625,0.7279213499,0.8448490733,,,,,,,,,,,,,,,,,,,,,,
44,SINGLE_CHANGE,"[-5.8068304820000005, -4.4835566732, -5.3123523933, -2.4923892183, -5.2356501689, 0.0, -12.020155745, -21.0368137284]",Flex Agent 3,4.0,0.2030235168,0.1875,4.5,0.0600154592,0.0058976351000000005,24.1114812009,-0.014905747300000001,5.5,1.2678571429,0.7912316674000001,0.8509287247,,,,,,,,,,,,,,,,,,,,,,
45,SINGLE_CHANGE,"[-5.8068304820000005, -4.4835566732, -5.3123523933, -2.4923892183, -5.2356501689, 0.0, -12.020155745, -21.0368137284]",Flex Agent 8,0.0,0.2042113478,0.18,3.5,0.042229760500000005,0.00221022,40.2470875118,0.0042780428,20.5,2.8238095238,0.7265394364000001,0.8067546819,,,,,,,,,,,,,,,,,,,,,,
46,SINGLE_CHANGE,"[-5.8068304820000005, -4.4835566732, -5.3123523933, -2.4923892183, -5.2356501689, 0.0, -12.020155745, -21.0368137284]",Flex Agent 8,1.0,0.1998103119,0.17500000000000002,3.5,0.0498227023,0.0079529868,45.1273368158,0.0039639753,23.0,2.6420454545,0.6791025227,0.7598525044000001,,,,,,,,,,,,,,,,,,,,,,
47,SINGLE_CHANGE,"[-5.8068304820000005, -4.4835566732, -5.3123523933, -2.4923892183, -5.2356501689, 0.0, -12.020155745, -21.0368137284]",Flex Agent 8,2.0,0.2019679168,0.17250000000000001,3.75,0.0722854409,0.0058740811,28.5168224269,0.0031146521,21.5,2.8464912281,0.6840616881,0.7674603362,,,,,,,,,,,,,,,,,,,,,,
48,SINGLE_CHANGE,"[-5.8068304820000005, -4.4835566732, -5.3123523933, -2.4923892183, -5.2356501689, 0.0, -12.020155745, -21.0368137284]",Flex Agent 8,3.0,0.2046083333,0.1925,3.5,0.0689534839,0.0123440479,36.0475209066,0.0024062977,21.0,2.619047619,0.7399960041,0.7802014863000001,,,,,,,,,,,,,,,,,,,,,,
49,SINGLE_CHANGE,"[-5.8068304820000005, -4.4835566732, -5.3123523933, -2.4923892183, -5.2356501689, 0.0, -12.020155745, -21.0368137284]",Flex Agent 8,4.0,0.2044695622,0.1925,3.25,0.0459883685,0.0022499312000000002,37.1013189545,0.007446709,16.5,4.0900735294,0.7035857177,0.7681897834,,,,,,,,,,,,,,,,,,,,,,
50,,,Global,,,,,,,,,,,,,0.178423679362,0.025788082470127358,0.1277,0.05292910159749896,3.895,1.3740395532434833,0.06301070761400002,0.010894628693245943,0.010222066064000002,0.004700314882041912,28.900362485406003,6.193743319822821,-0.001696620648,0.0055129745579982035,13.24,8.423872782340746,2.01975004517,0.9633450582812023,0.624463996778,0.1883126013977787,0.726951392312,0.2457322056257512
