,NeighborhoodDefinition,TargetSchedule,Agent,FLA_ID,INFORMATION_CONTENT,PARTIAL_INFORMATION_CONTENT,INFORMATION_STABILITY,FITNESS_VARIANCE_MEAN,FITNESS_VARIANCE_STD,FITNESS_MEAN,DISPERSION_INDEX,MEAN_NUMBER_OF_NEUTRAL_AREAS,MEAN_SIZE_OF_NEUTRAL_AREAS,MEAN_FITNESS_DISTANCE,MAX_FITNESS_DISTANCE,INFORMATION_CONTENT_MEAN,INFORMATION_CONTENT_STD,PARTIAL_INFORMATION_CONTENT_MEAN,PARTIAL_INFORMATION_CONTENT_STD,INFORMATION_STABILITY_MEAN,INFORMATION_STABILITY_STD,FITNESS_VARIANCE_MEAN_MEAN,FITNESS_VARIANCE_MEAN_STD,FITNESS_VARIANCE_STD_MEAN,FITNESS_VARIANCE_STD_STD,FITNESS_MEAN_MEAN,FITNESS_MEAN_STD,DISPERSION_INDEX_MEAN,DISPERSION_INDEX_STD,MEAN_NUMBER_OF_NEUTRAL_AREAS_MEAN,MEAN_NUMBER_OF_NEUTRAL_AREAS_STD,MEAN_SIZE_OF_NEUTRAL_AREAS_MEAN,MEAN_SIZE_OF_NEUTRAL_AREAS_STD,MEAN_FITNESS_DISTANCE_MEAN,MEAN_FITNESS_DISTANCE_STD,MAX_FITNESS_DISTANCE_MEAN,MAX_FITNESS_DISTANCE_STD
0,SINGLE_CHANGE,"[18.8034503319, 18.9772311012, 18.702268556, 18.8416892091, 18.1899690464, 18.5379548876, 16.8556292092, 18.8603560708]",Flex Agent 1,0.0,0.006425486,0.0,4.25,0.0024507401,0.0042448064,65.3711960593,0.046189520500000004,3.5,2.4166666667,0.034436160800000004,0.1377446431,,,,,,,,,,,,,,,,,,,,,,
1,SINGLE_CHANGE,"[18.8034503319, 18.9772311012, 18.702268556, 18.8416892091, 18.1899690464, 18.5379548876, 16.8556292092, 18.8603560708]",Flex Agent 1,1.0,0.006425486,0.0,5.5,0.0024507401,0.0042448064,76.6788519951,0.0304261525,3.0,2.3333333333,0.0470916776,0.1883667105,,,,,,,,,,,,,,,,,,,,,,
2,SINGLE_CHANGE,"[18.8034503319, 18.9772311012, 18.702268556, 18.8416892091, 18.1899690464, 18.5379548876, 16.8556292092, 18.8603560708]",Flex Agent 1,2.0,0.006425486,0.0,4.0,0.0024507401,0.0042448064,85.8450496835,0.043629493000000005,3.0,2.3333333333,0.0314984963,0.1259939852,,,,,,,,,,,,,,,,,,,,,,
3,SINGLE_CHANGE,"[18.8034503319, 18.9772311012, 18.702268556, 18.8416892091, 18.1899690464, 18.5379548876, 16.8556292092, 18.8603560708]",Flex Agent 1,3.0,0.006425486,0.0,2.5,0.0024507401,0.0042448064,86.9107945474,0.0326511595,3.5,2.1666666667,0.0161378805,0.06455152210000001,,,,,,,,,,,,,,,,,,,,,,
4,SINGLE_CHANGE,"[18.8034503319, 18.9772311012, 18.702268556, 18.8416892091, 18.1899690464, 18.5379548876, 16.8556292092, 18.8603560708]",Flex Agent 1,4.0,0.006425486,0.0,3.25,0.0024507401,0.0042448064,72.0665692747,0.037606788200000005,3.0,2.3333333333,0.0236002992,0.0944011966,,,,,,,,,,,,,,,,,,,,,,
5,SINGLE_CHANGE,"[18.8034503319, 18.9772311012, 18.702268556, 18.8416892091, 18.1899690464, 18.5379548876, 16.8556292092, 18.8603560708]",Flex Agent 4,0.0,0.20422874570000002,0.1825,3.25,0.0360846299,0.0097671106,9.1233206578,-0.011323477200000001,19.5,3.4612299465,0.6136151504,0.6437647455000001,,,,,,,,,,,,,,,,,,,,,,
6,SINGLE_CHANGE,"[18.8034503319, 18.9772311012, 18.702268556, 18.8416892091, 18.1899690464, 18.5379548876, 16.8556292092, 18.8603560708]",Flex Agent 4,1.0,0.1932053408,0.15,3.25,0.0285639295,0.0012165767,8.7021149399,0.0131836146,20.0,3.350877193,0.48814881800000004,0.5587118836,,,,,,,,,,,,,,,,,,,,,,
7,SINGLE_CHANGE,"[18.8034503319, 18.9772311012, 18.702268556, 18.8416892091, 18.1899690464, 18.5379548876, 16.8556292092, 18.8603560708]",Flex Agent 4,2.0,0.2038265482,0.1825,3.25,0.0330913521,0.0044105452,8.9032146648,-0.004231539,22.0,3.1333333333,0.6007529729000001,0.6765966351,,,,,,,,,,,,,,,,,,,,,,
8,SINGLE_CHANGE,"[18.8034503319, 18.9772311012, 18.702268556, 18.8416892091, 18.1899690464, 18.5379548876, 16.8556292092, 18.8603560708]",Flex Agent 4,3.0,0.1999825881,0.17,3.25,0.0379165012,0.0057644686,9.2521287826,0.0209811138,22.0,2.891025641,0.5681647334000001,0.6396545908,,,,,,,,,,,,,,,,,,,,,,
9,SINGLE_CHANGE,"[18.8034503319, 18.9772311012, 18.702268556, 18.8416892091, 18.1899690464, 18.5379548876, 16.8556292092, 18.8603560708]",Flex Agent 4,4.0,0.2007296505,0.16,4.0,0.029574077100000002,0.0070817319,7.9838517512,-0.0147148539,22.5,2.6393280632,0.5580258554,0.5776696829,,,,,,,,,,,,,,,,,,,,,,
10,SINGLE_CHANGE,"[18.8034503319, 18.9772311012, 18.702268556, 18.8416892091, 18.1899690464, 18.5379548876, 16.8556292092, 18.8603560708]",Flex Agent 0,0.0,0.1743119019,0.10250000000000001,4.5,0.0736956676,0.020301954100000002,24.9959589088,0.029514444400000003,6.5,1.1,0.5300893756,0.5620484097,,,,,,,,,,,,,,,,,,,,,,
11,SINGLE_CHANGE,"[18.8034503319, 18.9772311012, 18.702268556, 18.8416892091, 18.1899690464, 18.5379548876, 16.8556292092, 18.8603560708]",Flex Agent 0,1.0,0.187535942,0.12,5.25,0.0762989478,0.0131634647,24.6975202637,0.010073508,4.5,1.0833333333,0.6412980935,0.7405808810000001,,,,,,,,,,,,,,,,,,,,,,
12,SINGLE_CHANGE,"[18.8034503319, 18.9772311012, 18.702268556, 18.8416892091, 18.1899690464, 18.5379548876, 16.8556292092, 18.8603560708]",Flex Agent 0,2.0,0.1864550858,0.1275,4.75,0.07826449070000001,0.017253225100000002,23.2582135886,-0.055650669300000004,2.5,1.25,0.6613941629,0.6894824023,,,,,,,,,,,,,,,,,,,,,,
13,SINGLE_CHANGE,"[18.8034503319, 18.9772311012, 18.702268556, 18.8416892091, 18.1899690464, 18.5379548876, 16.8556292092, 18.8603560708]",Flex Agent 0,3.0,0.198384056,0.1625,5.25,0.0719717134,0.006079593800000001,25.9611651968,-0.0817098824,5.5,1.4166666667,0.7433418657,0.8743510292000001,,,,,,,,,,,,,,,,,,,,,,
14,SINGLE_CHANGE,"[18.8034503319, 18.9772311012, 18.702268556, 18.8416892091, 18.1899690464, 18.5379548876, 16.8556292092, 18.8603560708]",Flex Agent 0,4.0,0.1959521679,0.135,2.75,0.0793060492,0.0134666691,24.6491222102,-0.0166283267,6.0,1.1111111111,0.6198055137,0.6792887865,,,,,,,,,,,,,,,,,,,,,,
15,SINGLE_CHANGE,"[18.8034503319, 18.9772311012, 18.702268556, 18.8416892091, 18.1899690464, 18.5379548876, 16.8556292092, 18.8603560708]",Flex Agent 5,0.0,0.1657217806,0.09,2.25,0.0732060841,0.0107997441,20.3357444828,-0.055853062700000004,4.0,1.0,0.4694698102,0.5355082098,,,,,,,,,,,,,,,,,,,,,,
16,SINGLE_CHANGE,"[18.8034503319, 18.9772311012, 18.702268556, 18.8416892091, 18.1899690464, 18.5379548876, 16.8556292092, 18.8603560708]",Flex Agent 5,1.0,0.1626067008,0.0825,3.25,0.0818284252,0.013237031000000002,22.0663694792,-0.048242464900000004,7.5,1.0714285714,0.4644175928,0.5733867736,,,,,,,,,,,,,,,,,,,,,,
17,SINGLE_CHANGE,"[18.8034503319, 18.9772311012, 18.702268556, 18.8416892091, 18.1899690464, 18.5379548876, 16.8556292092, 18.8603560708]",Flex Agent 5,2.0,0.14306946680000002,0.0675,3.25,0.0655225696,0.0088306786,20.0024109556,-0.055332244,3.5,1.1666666667,0.4512864898,0.537142549,,,,,,,,,,,,,,,,,,,,,,
18,SINGLE_CHANGE,"[18.8034503319, 18.9772311012, 18.702268556, 18.8416892091, 18.1899690464, 18.5379548876, 16.8556292092, 18.8603560708]",Flex Agent 5,3.0,0.1414173156,0.065,2.25,0.09600886580000001,0.007873430800000001,22.1834705387,-0.1090029324,4.0,1.25,0.4424850547,0.47253824860000004,,,,,,,,,,,,,,,,,,,,,,
19,SINGLE_CHANGE,"[18.8034503319, 18.9772311012, 18.702268556, 18.8416892091, 18.1899690464, 18.5379548876, 16.8556292092, 18.8603560708]",Flex Agent 5,4.0,0.18106222600000002,0.1125,4.0,0.0726011957,0.012857683100000001,22.7924720617,-0.0639696064,6.5,1.1,0.5628662108,0.6538576299000001,,,,,,,,,,,,,,,,,,,,,,
20,SINGLE_CHANGE,"[18.8034503319, 18.9772311012, 18.702268556, 18.8416892091, 18.1899690464, 18.5379548876, 16.8556292092, 18.8603560708]",Flex Agent 3,0.0,0.1958884073,0.135,4.75,0.0806692324,0.0140405058,24.2273839303,-0.11836321570000001,4.5,1.7142857142999999,0.646256685,0.6889963731000001,,,,,,,,,,,,,,,,,,,,,,
21,SINGLE_CHANGE,"[18.8034503319, 18.9772311012, 18.702268556, 18.8416892091, 18.1899690464, 18.5379548876, 16.8556292092, 18.8603560708]",Flex Agent 3,1.0,0.1925622928,0.135,4.75,0.07546534170000001,0.0189460403,24.3668680422,-0.1403479136,6.5,1.0714285714,0.6983961877,0.7509754963,,,,,,,,,,,,,,,,,,,,,,
22,SINGLE_CHANGE,"[18.8034503319, 18.9772311012, 18.702268556, 18.8416892091, 18.1899690464, 18.5379548876, 16.8556292092, 18.8603560708]",Flex Agent 3,2.0,0.1963097511,0.1375,3.75,0.07939109,0.0132341865,23.4994189274,-0.0262929594,4.0,1.0833333333,0.6515829081,0.7289014285000001,,,,,,,,,,,,,,,,,,,,,,
23,SINGLE_CHANGE,"[18.8034503319, 18.9772311012, 18.702268556, 18.8416892091, 18.1899690464, 18.5379548876, 16.8556292092, 18.8603560708]",Flex Agent 3,3.0,0.1855710072,0.125,4.5,0.0645710322,0.0170611962,21.9917014206,-0.0117337438,2.5,1.0,0.6340096825,0.7890254035,,,,,,,,,,,,,,,,,,,,,,
24,SINGLE_CHANGE,"[18.8034503319, 18.9772311012, 18.702268556, 18.8416892091, 18.1899690464, 18.5379548876, 16.8556292092, 18.8603560708]",Flex Agent 3,4.0,0.1981725483,0.15,5.0,0.0754794697,0.0079010959,23.5805368736,-0.096242912,6.5,1.0,0.6745605493,0.7830521611,,,,,,,,,,,,,,,,,,,,,,
25,SINGLE_CHANGE,"[18.8034503319, 18.9772311012, 18.702268556, 18.8416892091, 18.1899690464, 18.5379548876, 16.8556292092, 18.8603560708]",Flex Agent 2,0.0,0.2044054612,0.17750000000000002,5.5,0.0839513587,0.014379784100000001,26.6910445996,-0.0631520263,4.5,1.0,0.8025217658,0.9232373898,,,,,,,,,,,,,,,,,,,,,,
26,SINGLE_CHANGE,"[18.8034503319, 18.9772311012, 18.702268556, 18.8416892091, 18.1899690464, 18.5379548876, 16.8556292092, 18.8603560708]",Flex Agent 2,1.0,0.2016131935,0.17500000000000002,3.25,0.0636829589,0.017968507,29.0357708627,-0.0965466099,7.0,1.2142857143,0.7247516764,0.7942046337,,,,,,,,,,,,,,,,,,,,,,
27,SINGLE_CHANGE,"[18.8034503319, 18.9772311012, 18.702268556, 18.8416892091, 18.1899690464, 18.5379548876, 16.8556292092, 18.8603560708]",Flex Agent 2,2.0,0.2018838879,0.1675,3.5,0.07692309400000001,0.0120155572,27.6889079053,-0.0937407552,3.0,0.6666666667000001,0.6852568371000001,0.7587630443000001,,,,,,,,,,,,,,,,,,,,,,
28,SINGLE_CHANGE,"[18.8034503319, 18.9772311012, 18.702268556, 18.8416892091, 18.1899690464, 18.5379548876, 16.8556292092, 18.8603560708]",Flex Agent 2,3.0,0.1930866397,0.15,5.5,0.0622183991,0.013302857500000001,25.2760776972,-0.1016592174,5.5,1.2222222222,0.6958658823,0.9099878598000001,,,,,,,,,,,,,,,,,,,,,,
29,SINGLE_CHANGE,"[18.8034503319, 18.9772311012, 18.702268556, 18.8416892091, 18.1899690464, 18.5379548876, 16.8556292092, 18.8603560708]",Flex Agent 2,4.0,0.20191059500000003,0.17250000000000001,5.5,0.09391298020000001,0.0091523912,28.380050708,-0.11383630530000001,6.5,1.375,0.8114007067000001,0.892365901,,,,,,,,,,,,,,,,,,,,,,
30,SINGLE_CHANGE,"[18.8034503319, 18.9772311012, 18.702268556, 18.8416892091, 18.1899690464, 18.5379548876, 16.8556292092, 18.8603560708]",Flex Agent 6,0.0,0.0,0.0,1.0,0.0024507401,0.0042448064,13.2920338367,-0.009530107000000001,6.5,1.0833333333,0.0006916470000000001,0.0027665880000000004,,,,,,,,,,,,,,,,,,,,,,
31,SINGLE_CHANGE,"[18.8034503319, 18.9772311012, 18.702268556, 18.8416892091, 18.1899690464, 18.5379548876, 16.8556292092, 18.8603560708]",Flex Agent 6,1.0,0.0,0.0,1.0,0.0024507401,0.0042448064,10.8808162613,-0.0032957311,7.0,1.0,0.0022039990000000003,0.0088159959,,,,,,,,,,,,,,,,,,,,,,
32,SINGLE_CHANGE,"[18.8034503319, 18.9772311012, 18.702268556, 18.8416892091, 18.1899690464, 18.5379548876, 16.8556292092, 18.8603560708]",Flex Agent 6,2.0,0.0,0.0,1.0,0.0024507401,0.0042448064,8.4364936719,0.011259106500000001,1.0,1.0,0.0013275299000000001,0.005310119800000001,,,,,,,,,,,,,,,,,,,,,,
33,SINGLE_CHANGE,"[18.8034503319, 18.9772311012, 18.702268556, 18.8416892091, 18.1899690464, 18.5379548876, 16.8556292092, 18.8603560708]",Flex Agent 6,3.0,0.0,0.0,1.0,0.0024507401,0.0042448064,10.6071463199,-0.015664744300000002,7.5,1.0,0.001341621,0.0053664839,,,,,,,,,,,,,,,,,,,,,,
34,SINGLE_CHANGE,"[18.8034503319, 18.9772311012, 18.702268556, 18.8416892091, 18.1899690464, 18.5379548876, 16.8556292092, 18.8603560708]",Flex Agent 6,4.0,0.0,0.0,1.0,0.0024507401,0.0042448064,10.0303265858,0.0095227808,7.5,1.0,0.0011048896,0.0044195583,,,,,,,,,,,,,,,,,,,,,,
35,SINGLE_CHANGE,"[18.8034503319, 18.9772311012, 18.702268556, 18.8416892091, 18.1899690464, 18.5379548876, 16.8556292092, 18.8603560708]",Flex Agent 7,0.0,0.20330185110000001,0.17250000000000001,3.75,0.0356847155,0.0059130020000000005,9.6419770386,-0.0261327885,24.0,2.2083333333,0.6224264432000001,0.6789490327000001,,,,,,,,,,,,,,,,,,,,,,
36,SINGLE_CHANGE,"[18.8034503319, 18.9772311012, 18.702268556, 18.8416892091, 18.1899690464, 18.5379548876, 16.8556292092, 18.8603560708]",Flex Agent 7,1.0,0.1970558402,0.17250000000000001,3.25,0.0348319128,0.0097983866,8.4751427277,0.0090327868,21.5,2.8377777778,0.5820969693,0.6589342466,,,,,,,,,,,,,,,,,,,,,,
37,SINGLE_CHANGE,"[18.8034503319, 18.9772311012, 18.702268556, 18.8416892091, 18.1899690464, 18.5379548876, 16.8556292092, 18.8603560708]",Flex Agent 7,2.0,0.2034102736,0.17,3.25,0.0336994137,0.0031207346,8.9199984592,0.0171485499,18.5,3.2748538012,0.5627725588,0.6020851338000001,,,,,,,,,,,,,,,,,,,,,,
38,SINGLE_CHANGE,"[18.8034503319, 18.9772311012, 18.702268556, 18.8416892091, 18.1899690464, 18.5379548876, 16.8556292092, 18.8603560708]",Flex Agent 7,3.0,0.1986520253,0.17,3.5,0.0368632278,0.0058439056,9.3027523347,-0.0089822886,22.5,2.8507905138,0.5625404916,0.6401324962,,,,,,,,,,,,,,,,,,,,,,
39,SINGLE_CHANGE,"[18.8034503319, 18.9772311012, 18.702268556, 18.8416892091, 18.1899690464, 18.5379548876, 16.8556292092, 18.8603560708]",Flex Agent 7,4.0,0.19666153890000002,0.1525,3.5,0.0363523319,0.0027601867,9.4673681023,0.0230055088,22.5,2.7084980237,0.5291678735,0.5745519773000001,,,,,,,,,,,,,,,,,,,,,,
40,SINGLE_CHANGE,"[18.8034503319, 18.9772311012, 18.702268556, 18.8416892091, 18.1899690464, 18.5379548876, 16.8556292092, 18.8603560708]",Flex Agent 8,0.0,0.16035027170000002,0.0775,2.5,0.0949852359,0.0099846502,21.7378391562,-0.0386465781,5.0,1.0,0.4730470684,0.5105532488,,,,,,,,,,,,,,,,,,,,,,
41,SINGLE_CHANGE,"[18.8034503319, 18.9772311012, 18.702268556, 18.8416892091, 18.1899690464, 18.5379548876, 16.8556292092, 18.8603560708]",Flex Agent 8,1.0,0.17222820400000002,0.0975,3.0,0.0690861846,0.0096767281,22.2957355099,-0.07575105430000001,4.0,1.0833333333,0.5399616636,0.5989071088,,,,,,,,,,,,,,,,,,,,,,
42,SINGLE_CHANGE,"[18.8034503319, 18.9772311012, 18.702268556, 18.8416892091, 18.1899690464, 18.5379548876, 16.8556292092, 18.8603560708]",Flex Agent 8,2.0,0.17100786340000002,0.0925,3.25,0.0760104596,0.0154708494,23.0176020415,-0.0247472603,5.5,1.3666666667,0.5834089955,0.7140449958,,,,,,,,,,,,,,,,,,,,,,
43,SINGLE_CHANGE,"[18.8034503319, 18.9772311012, 18.702268556, 18.8416892091, 18.1899690464, 18.5379548876, 16.8556292092, 18.8603560708]",Flex Agent 8,3.0,0.1601984725,0.085,3.75,0.07489276880000001,0.0165367833,19.5986447079,-0.0264622927,5.5,1.2291666667,0.4839014715,0.530443781,,,,,,,,,,,,,,,,,,,,,,
44,SINGLE_CHANGE,"[18.8034503319, 18.9772311012, 18.702268556, 18.8416892091, 18.1899690464, 18.5379548876, 16.8556292092, 18.8603560708]",Flex Agent 8,4.0,0.1505199972,0.0825,3.75,0.0704274327,0.011660496000000001,20.4474587571,-0.0046648178,3.0,1.0,0.5272861647,0.6708563133000001,,,,,,,,,,,,,,,,,,,,,,
45,SINGLE_CHANGE,"[18.8034503319, 18.9772311012, 18.702268556, 18.8416892091, 18.1899690464, 18.5379548876, 16.8556292092, 18.8603560708]",Flex Agent 9,0.0,0.1977053885,0.1925,3.0,0.0416420406,0.009223925400000001,8.5082432625,-0.0378872129,18.0,3.6362229102,0.6208203870000001,0.7566495344,,,,,,,,,,,,,,,,,,,,,,
46,SINGLE_CHANGE,"[18.8034503319, 18.9772311012, 18.702268556, 18.8416892091, 18.1899690464, 18.5379548876, 16.8556292092, 18.8603560708]",Flex Agent 9,1.0,0.1958762819,0.14,3.0,0.0268870681,0.0037968513,8.4956860894,-0.0145021083,21.5,2.8804347826,0.46446293520000004,0.5023544281,,,,,,,,,,,,,,,,,,,,,,
47,SINGLE_CHANGE,"[18.8034503319, 18.9772311012, 18.702268556, 18.8416892091, 18.1899690464, 18.5379548876, 16.8556292092, 18.8603560708]",Flex Agent 9,2.0,0.1990382802,0.16,3.5,0.0367188143,0.0041066637,9.5157618793,0.0705180928,18.5,3.6228070175,0.4950066336,0.5625847387,,,,,,,,,,,,,,,,,,,,,,
48,SINGLE_CHANGE,"[18.8034503319, 18.9772311012, 18.702268556, 18.8416892091, 18.1899690464, 18.5379548876, 16.8556292092, 18.8603560708]",Flex Agent 9,3.0,0.2037615124,0.18,3.0,0.0353725692,0.0019493187,9.0931065845,0.0434238648,19.0,3.5,0.5843358826,0.632002703,,,,,,,,,,,,,,,,,,,,,,
49,SINGLE_CHANGE,"[18.8034503319, 18.9772311012, 18.702268556, 18.8416892091, 18.1899690464, 18.5379548876, 16.8556292092, 18.8603560708]",Flex Agent 9,4.0,0.1950473279,0.14750000000000002,3.0,0.036374620600000004,0.010381932,9.4637244967,-0.0374954511,21.0,2.9590909091,0.5083146032,0.6167484886,,,,,,,,,,,,,,,,,,,,,,
50,,,Global,,,,,,,,,,,,,0.15093671719,0.07631751240519856,0.11055,0.06479026208640068,3.48,1.2077977935913289,0.049090713058,0.03053331817875506,0.009055570134,0.005051443853755279,23.354903176648005,19.69249077255145,-0.025083413351999997,0.04997229817398733,9.65,7.618619779654237,1.823937303018,0.9302966822491571,0.47477497846600003,0.2468219964020051,0.546432543582,0.2661232726284249
