,NeighborhoodDefinition,TargetSchedule,Agent,FLA_ID,INFORMATION_CONTENT,PARTIAL_INFORMATION_CONTENT,INFORMATION_STABILITY,FITNESS_VARIANCE_MEAN,FITNESS_VARIANCE_STD,FITNESS_MEAN,DISPERSION_INDEX,MEAN_NUMBER_OF_NEUTRAL_AREAS,MEAN_SIZE_OF_NEUTRAL_AREAS,MEAN_FITNESS_DISTANCE,MAX_FITNESS_DISTANCE,INFORMATION_CONTENT_MEAN,INFORMATION_CONTENT_STD,PARTIAL_INFORMATION_CONTENT_MEAN,PARTIAL_INFORMATION_CONTENT_STD,INFORMATION_STABILITY_MEAN,INFORMATION_STABILITY_STD,FITNESS_VARIANCE_MEAN_MEAN,FITNESS_VARIANCE_MEAN_STD,FITNESS_VARIANCE_STD_MEAN,FITNESS_VARIANCE_STD_STD,FITNESS_MEAN_MEAN,FITNESS_MEAN_STD,DISPERSION_INDEX_MEAN,DISPERSION_INDEX_STD,MEAN_NUMBER_OF_NEUTRAL_AREAS_MEAN,MEAN_NUMBER_OF_NEUTRAL_AREAS_STD,MEAN_SIZE_OF_NEUTRAL_AREAS_MEAN,MEAN_SIZE_OF_NEUTRAL_AREAS_STD,MEAN_FITNESS_DISTANCE_MEAN,MEAN_FITNESS_DISTANCE_STD,MAX_FITNESS_DISTANCE_MEAN,MAX_FITNESS_DISTANCE_STD
0,SINGLE_CHANGE,"[108.5859879408, 108.5789200717, 108.1634614955, 106.2055813262, 105.0649943052, 109.0082534614, 106.7166690574, 102.3693134457]",Flex Agent 0,0.0,0.1681124893,0.08750000000000001,2.75,0.0673561144,0.0058800145,71.9486137501,-0.0025593551,19.5,3.4381578946999998,0.46255768900000005,0.4935447784,,,,,,,,,,,,,,,,,,,,,,
1,SINGLE_CHANGE,"[108.5859879408, 108.5789200717, 108.1634614955, 106.2055813262, 105.0649943052, 109.0082534614, 106.7166690574, 102.3693134457]",Flex Agent 0,1.0,0.1789181601,0.105,3.0,0.060394114000000006,0.0097825129,72.1379911519,-0.0012372992000000001,20.5,3.345,0.5153027172,0.5481225209,,,,,,,,,,,,,,,,,,,,,,
2,SINGLE_CHANGE,"[108.5859879408, 108.5789200717, 108.1634614955, 106.2055813262, 105.0649943052, 109.0082534614, 106.7166690574, 102.3693134457]",Flex Agent 0,2.0,0.1670754538,0.08750000000000001,3.0,0.0722444718,0.0172705294,72.0130959924,-0.0027826943,25.5,2.3125,0.44421378110000004,0.5280915715,,,,,,,,,,,,,,,,,,,,,,
3,SINGLE_CHANGE,"[108.5859879408, 108.5789200717, 108.1634614955, 106.2055813262, 105.0649943052, 109.0082534614, 106.7166690574, 102.3693134457]",Flex Agent 0,3.0,0.18018537780000002,0.10250000000000001,2.5,0.06286608390000001,0.015748672800000002,72.0571819147,-0.0008874690000000001,17.5,3.8916666667,0.5186423369000001,0.5818248544,,,,,,,,,,,,,,,,,,,,,,
4,SINGLE_CHANGE,"[108.5859879408, 108.5789200717, 108.1634614955, 106.2055813262, 105.0649943052, 109.0082534614, 106.7166690574, 102.3693134457]",Flex Agent 0,4.0,0.1612620492,0.0775,2.5,0.0755089857,0.0034192161,71.9902327613,-0.0018702670000000001,21.5,3.0930735931,0.4565052069,0.5295981562000001,,,,,,,,,,,,,,,,,,,,,,
5,SINGLE_CHANGE,"[108.5859879408, 108.5789200717, 108.1634614955, 106.2055813262, 105.0649943052, 109.0082534614, 106.7166690574, 102.3693134457]",Flex Agent 2,0.0,0.1502968727,0.07,2.25,0.054295357,0.011055216100000001,74.7785964482,-0.002577457,21.0,2.7380952381,0.3837417429,0.4087518915,,,,,,,,,,,,,,,,,,,,,,
6,SINGLE_CHANGE,"[108.5859879408, 108.5789200717, 108.1634614955, 106.2055813262, 105.0649943052, 109.0082534614, 106.7166690574, 102.3693134457]",Flex Agent 2,1.0,0.13319703330000002,0.0575,2.0,0.0612386133,0.0077719893000000005,74.8354595398,-0.0010688413,22.0,2.765010352,0.37562938900000004,0.4127367329,,,,,,,,,,,,,,,,,,,,,,
7,SINGLE_CHANGE,"[108.5859879408, 108.5789200717, 108.1634614955, 106.2055813262, 105.0649943052, 109.0082534614, 106.7166690574, 102.3693134457]",Flex Agent 2,2.0,0.1184265523,0.05,2.0,0.0720578573,0.013359467000000002,74.7209415056,-0.0011762039,18.5,3.5,0.36514813900000004,0.39813803070000003,,,,,,,,,,,,,,,,,,,,,,
8,SINGLE_CHANGE,"[108.5859879408, 108.5789200717, 108.1634614955, 106.2055813262, 105.0649943052, 109.0082534614, 106.7166690574, 102.3693134457]",Flex Agent 2,3.0,0.1443094017,0.0625,2.0,0.0738507573,0.0127653989,74.8128275814,-0.0026863150000000003,20.5,2.9420289855,0.3756436487,0.4270905091,,,,,,,,,,,,,,,,,,,,,,
9,SINGLE_CHANGE,"[108.5859879408, 108.5789200717, 108.1634614955, 106.2055813262, 105.0649943052, 109.0082534614, 106.7166690574, 102.3693134457]",Flex Agent 2,4.0,0.124323894,0.0475,2.25,0.06572435880000001,0.0120037566,74.8158099578,-0.0008198412,19.0,3.6842105263000002,0.35912743900000005,0.395554711,,,,,,,,,,,,,,,,,,,,,,
10,SINGLE_CHANGE,"[108.5859879408, 108.5789200717, 108.1634614955, 106.2055813262, 105.0649943052, 109.0082534614, 106.7166690574, 102.3693134457]",Flex Agent 4,0.0,0.2028318164,0.17500000000000002,7.25,0.059404428,0.0146830412,91.9579937572,-0.0016593550000000002,5.5,1.3833333333,0.757511353,0.8234673639000001,,,,,,,,,,,,,,,,,,,,,,
11,SINGLE_CHANGE,"[108.5859879408, 108.5789200717, 108.1634614955, 106.2055813262, 105.0649943052, 109.0082534614, 106.7166690574, 102.3693134457]",Flex Agent 4,1.0,0.2036754522,0.22,5.75,0.0674050694,0.0129792443,93.2327820062,-0.0424152041,5.0,1.1,0.8945069813000001,1.0403116369,,,,,,,,,,,,,,,,,,,,,,
12,SINGLE_CHANGE,"[108.5859879408, 108.5789200717, 108.1634614955, 106.2055813262, 105.0649943052, 109.0082534614, 106.7166690574, 102.3693134457]",Flex Agent 4,2.0,0.20383089100000001,0.20500000000000002,5.75,0.10342928180000001,0.0165350217,93.4657613765,0.0126943643,3.0,1.0,0.9403022216,1.0283246842,,,,,,,,,,,,,,,,,,,,,,
13,SINGLE_CHANGE,"[108.5859879408, 108.5789200717, 108.1634614955, 106.2055813262, 105.0649943052, 109.0082534614, 106.7166690574, 102.3693134457]",Flex Agent 4,3.0,0.2050109028,0.20500000000000002,6.0,0.0821475814,0.0078654932,92.3869902897,0.1142642802,4.0,1.1,0.9180090488,1.0840435758,,,,,,,,,,,,,,,,,,,,,,
14,SINGLE_CHANGE,"[108.5859879408, 108.5789200717, 108.1634614955, 106.2055813262, 105.0649943052, 109.0082534614, 106.7166690574, 102.3693134457]",Flex Agent 4,4.0,0.20340960260000002,0.1975,6.5,0.09068615320000001,0.028235696,94.8704614879,0.0076465825000000005,4.5,1.25,0.9626157957,1.1510985425,,,,,,,,,,,,,,,,,,,,,,
15,SINGLE_CHANGE,"[108.5859879408, 108.5789200717, 108.1634614955, 106.2055813262, 105.0649943052, 109.0082534614, 106.7166690574, 102.3693134457]",Flex Agent 5,0.0,0.006425486,0.0,1.25,0.0024507401,0.0042448064,80.5927877701,0.0189249868,1.0,1.0,0.0032180682,0.0128722729,,,,,,,,,,,,,,,,,,,,,,
16,SINGLE_CHANGE,"[108.5859879408, 108.5789200717, 108.1634614955, 106.2055813262, 105.0649943052, 109.0082534614, 106.7166690574, 102.3693134457]",Flex Agent 5,1.0,0.006425486,0.0,1.5,0.0024507401,0.0042448064,76.0798603858,-0.0006216253,1.0,1.0,0.005568341,0.0222733638,,,,,,,,,,,,,,,,,,,,,,
17,SINGLE_CHANGE,"[108.5859879408, 108.5789200717, 108.1634614955, 106.2055813262, 105.0649943052, 109.0082534614, 106.7166690574, 102.3693134457]",Flex Agent 5,2.0,0.006425486,0.0,1.25,0.0024507401,0.0042448064,74.0325763604,-0.0010104899000000001,1.0,1.0,0.0028067254,0.0112269015,,,,,,,,,,,,,,,,,,,,,,
18,SINGLE_CHANGE,"[108.5859879408, 108.5789200717, 108.1634614955, 106.2055813262, 105.0649943052, 109.0082534614, 106.7166690574, 102.3693134457]",Flex Agent 5,3.0,0.006425486,0.0,1.25,0.0024507401,0.0042448064,75.4765269616,-0.0006512592,1.0,1.0,0.0026012097,0.0104048386,,,,,,,,,,,,,,,,,,,,,,
19,SINGLE_CHANGE,"[108.5859879408, 108.5789200717, 108.1634614955, 106.2055813262, 105.0649943052, 109.0082534614, 106.7166690574, 102.3693134457]",Flex Agent 5,4.0,0.006425486,0.0,1.25,0.0024507401,0.0042448064,76.5041685733,-0.0004345137,1.0,1.0,0.002536986,0.010147943900000001,,,,,,,,,,,,,,,,,,,,,,
20,SINGLE_CHANGE,"[108.5859879408, 108.5789200717, 108.1634614955, 106.2055813262, 105.0649943052, 109.0082534614, 106.7166690574, 102.3693134457]",Flex Agent 9,0.0,0.11189560700000001,0.0425,2.0,0.07325760020000001,0.019541599700000002,74.7427715438,0.0004849295,20.0,3.2957393484,0.3492678372,0.376988247,,,,,,,,,,,,,,,,,,,,,,
21,SINGLE_CHANGE,"[108.5859879408, 108.5789200717, 108.1634614955, 106.2055813262, 105.0649943052, 109.0082534614, 106.7166690574, 102.3693134457]",Flex Agent 9,1.0,0.1326032955,0.052500000000000005,2.25,0.0721226338,0.0064034022,74.7846531397,0.0018379958,21.0,3.1386363636,0.3789657274,0.3911970953,,,,,,,,,,,,,,,,,,,,,,
22,SINGLE_CHANGE,"[108.5859879408, 108.5789200717, 108.1634614955, 106.2055813262, 105.0649943052, 109.0082534614, 106.7166690574, 102.3693134457]",Flex Agent 9,2.0,0.12179322100000001,0.0475,2.0,0.0909418042,0.0139165956,74.8223213974,0.0011943795000000001,23.5,2.5263636364,0.3389879112,0.3693512707,,,,,,,,,,,,,,,,,,,,,,
23,SINGLE_CHANGE,"[108.5859879408, 108.5789200717, 108.1634614955, 106.2055813262, 105.0649943052, 109.0082534614, 106.7166690574, 102.3693134457]",Flex Agent 9,3.0,0.13728709490000002,0.06,2.0,0.054927956400000005,0.0166539349,74.7549858912,0.0010434259,22.5,2.630952381,0.38661452430000004,0.4232677835,,,,,,,,,,,,,,,,,,,,,,
24,SINGLE_CHANGE,"[108.5859879408, 108.5789200717, 108.1634614955, 106.2055813262, 105.0649943052, 109.0082534614, 106.7166690574, 102.3693134457]",Flex Agent 9,4.0,0.1254747323,0.052500000000000005,2.25,0.0678840794,0.010595103,74.6898012488,0.0013047028,21.0,3.175,0.3445684113,0.368514918,,,,,,,,,,,,,,,,,,,,,,
25,SINGLE_CHANGE,"[108.5859879408, 108.5789200717, 108.1634614955, 106.2055813262, 105.0649943052, 109.0082534614, 106.7166690574, 102.3693134457]",Flex Agent 6,0.0,0.09283391270000001,0.035,2.25,0.0481816013,0.0090424215,74.7378663608,-0.0010189311,23.5,2.6730769231,0.3674084957,0.4019383519,,,,,,,,,,,,,,,,,,,,,,
26,SINGLE_CHANGE,"[108.5859879408, 108.5789200717, 108.1634614955, 106.2055813262, 105.0649943052, 109.0082534614, 106.7166690574, 102.3693134457]",Flex Agent 6,1.0,0.1259721247,0.05,2.25,0.0733398188,0.0087564706,74.7247466498,-0.0011733497,21.0,3.119047619,0.34756671580000004,0.3925445689,,,,,,,,,,,,,,,,,,,,,,
27,SINGLE_CHANGE,"[108.5859879408, 108.5789200717, 108.1634614955, 106.2055813262, 105.0649943052, 109.0082534614, 106.7166690574, 102.3693134457]",Flex Agent 6,2.0,0.1484512946,0.065,2.5,0.0574299329,0.0096113837,74.8324450673,-0.0010065931,21.5,2.847826087,0.3970878668,0.4257201058,,,,,,,,,,,,,,,,,,,,,,
28,SINGLE_CHANGE,"[108.5859879408, 108.5789200717, 108.1634614955, 106.2055813262, 105.0649943052, 109.0082534614, 106.7166690574, 102.3693134457]",Flex Agent 6,3.0,0.1332185581,0.0575,2.0,0.0732502838,0.0105873606,74.8270494889,-0.00053276,18.5,3.6301169591,0.3699320923,0.4192120563,,,,,,,,,,,,,,,,,,,,,,
29,SINGLE_CHANGE,"[108.5859879408, 108.5789200717, 108.1634614955, 106.2055813262, 105.0649943052, 109.0082534614, 106.7166690574, 102.3693134457]",Flex Agent 6,4.0,0.1418918367,0.0625,2.25,0.0753054148,0.0181618618,74.8383642483,-0.0006701907,18.0,4.0,0.3534378017,0.3854149458,,,,,,,,,,,,,,,,,,,,,,
30,SINGLE_CHANGE,"[108.5859879408, 108.5789200717, 108.1634614955, 106.2055813262, 105.0649943052, 109.0082534614, 106.7166690574, 102.3693134457]",Flex Agent 7,0.0,0.204570888,0.1975,3.5,0.0618232442,0.010745169800000001,65.1119903855,-0.0110030821,20.5,3.1464285714,0.6977779083,0.7314891353,,,,,,,,,,,,,,,,,,,,,,
31,SINGLE_CHANGE,"[108.5859879408, 108.5789200717, 108.1634614955, 106.2055813262, 105.0649943052, 109.0082534614, 106.7166690574, 102.3693134457]",Flex Agent 7,1.0,0.1895677063,0.155,4.0,0.062376584000000006,0.002263105,65.2359331391,-0.0064124494,22.5,2.912055336,0.6924547358,0.8338742313,,,,,,,,,,,,,,,,,,,,,,
32,SINGLE_CHANGE,"[108.5859879408, 108.5789200717, 108.1634614955, 106.2055813262, 105.0649943052, 109.0082534614, 106.7166690574, 102.3693134457]",Flex Agent 7,2.0,0.20128466080000001,0.1675,3.25,0.0661372424,0.0136083617,65.1744799668,-0.009091932300000001,24.5,2.3516666667,0.6698125597,0.7545538254,,,,,,,,,,,,,,,,,,,,,,
33,SINGLE_CHANGE,"[108.5859879408, 108.5789200717, 108.1634614955, 106.2055813262, 105.0649943052, 109.0082534614, 106.7166690574, 102.3693134457]",Flex Agent 7,3.0,0.2024062194,0.165,3.25,0.06880336100000001,0.0125998466,65.2733263716,-0.0094954297,21.5,3.1195652174,0.6377024919000001,0.6501937022000001,,,,,,,,,,,,,,,,,,,,,,
34,SINGLE_CHANGE,"[108.5859879408, 108.5789200717, 108.1634614955, 106.2055813262, 105.0649943052, 109.0082534614, 106.7166690574, 102.3693134457]",Flex Agent 7,4.0,0.19514446670000002,0.1575,3.75,0.08054784150000001,0.012985093900000001,65.1542616849,-0.0073532161000000006,22.5,2.7322134387,0.6328325666,0.7720797552,,,,,,,,,,,,,,,,,,,,,,
35,SINGLE_CHANGE,"[108.5859879408, 108.5789200717, 108.1634614955, 106.2055813262, 105.0649943052, 109.0082534614, 106.7166690574, 102.3693134457]",Flex Agent 1,0.0,0.1929187543,0.135,5.5,0.0764560861,0.0222008317,91.6523761063,0.0094916303,6.0,1.05,0.7419029296,0.8250033026,,,,,,,,,,,,,,,,,,,,,,
36,SINGLE_CHANGE,"[108.5859879408, 108.5789200717, 108.1634614955, 106.2055813262, 105.0649943052, 109.0082534614, 106.7166690574, 102.3693134457]",Flex Agent 1,1.0,0.2023262981,0.20750000000000002,5.25,0.06960177570000001,0.013323749400000001,92.7994357891,0.0083929994,4.5,1.2,0.9208440655000001,1.0382453284,,,,,,,,,,,,,,,,,,,,,,
37,SINGLE_CHANGE,"[108.5859879408, 108.5789200717, 108.1634614955, 106.2055813262, 105.0649943052, 109.0082534614, 106.7166690574, 102.3693134457]",Flex Agent 1,2.0,0.2021068474,0.195,6.25,0.0883266815,0.0238052071,93.4840485292,0.0700837644,1.0,0.5,0.8903081368,1.1496665516,,,,,,,,,,,,,,,,,,,,,,
38,SINGLE_CHANGE,"[108.5859879408, 108.5789200717, 108.1634614955, 106.2055813262, 105.0649943052, 109.0082534614, 106.7166690574, 102.3693134457]",Flex Agent 1,3.0,0.2033942605,0.2,6.5,0.06978709999999999,0.0210580332,91.8675135215,-0.053962523000000005,4.0,2.1666666667,0.8420215597,0.9415677328000001,,,,,,,,,,,,,,,,,,,,,,
39,SINGLE_CHANGE,"[108.5859879408, 108.5789200717, 108.1634614955, 106.2055813262, 105.0649943052, 109.0082534614, 106.7166690574, 102.3693134457]",Flex Agent 1,4.0,0.20403837600000002,0.1925,5.5,0.081461454,0.011186822,94.8295419372,-0.0489287795,4.5,1.1,0.9257968904,1.0988365547,,,,,,,,,,,,,,,,,,,,,,
40,SINGLE_CHANGE,"[108.5859879408, 108.5789200717, 108.1634614955, 106.2055813262, 105.0649943052, 109.0082534614, 106.7166690574, 102.3693134457]",Flex Agent 8,0.0,0.11447093750000001,0.0425,2.0,0.0581422975,0.0104311223,74.7986546625,-0.0009852501,19.5,3.5873015873,0.3560812518,0.3894325551,,,,,,,,,,,,,,,,,,,,,,
41,SINGLE_CHANGE,"[108.5859879408, 108.5789200717, 108.1634614955, 106.2055813262, 105.0649943052, 109.0082534614, 106.7166690574, 102.3693134457]",Flex Agent 8,1.0,0.1158303173,0.0425,2.0,0.0771048685,0.0046492406,74.7426112745,-0.0005166149,20.5,3.6053921569,0.3094569752,0.3351440238,,,,,,,,,,,,,,,,,,,,,,
42,SINGLE_CHANGE,"[108.5859879408, 108.5789200717, 108.1634614955, 106.2055813262, 105.0649943052, 109.0082534614, 106.7166690574, 102.3693134457]",Flex Agent 8,2.0,0.1344657014,0.055,2.0,0.072561808,0.0110338794,74.7279408364,-0.001078834,23.0,2.9047619048,0.3752670248,0.41323827230000004,,,,,,,,,,,,,,,,,,,,,,
43,SINGLE_CHANGE,"[108.5859879408, 108.5789200717, 108.1634614955, 106.2055813262, 105.0649943052, 109.0082534614, 106.7166690574, 102.3693134457]",Flex Agent 8,3.0,0.13552550430000002,0.055,2.0,0.0646766242,0.0110397696,74.7652991442,-0.0014594928,25.5,2.4666149068,0.3773600245,0.3990383698,,,,,,,,,,,,,,,,,,,,,,
44,SINGLE_CHANGE,"[108.5859879408, 108.5789200717, 108.1634614955, 106.2055813262, 105.0649943052, 109.0082534614, 106.7166690574, 102.3693134457]",Flex Agent 8,4.0,0.10824359830000001,0.04,2.25,0.0648046531,0.018210533100000002,74.7908274806,-0.001140263,21.0,3.2,0.36355609850000004,0.40863010450000004,,,,,,,,,,,,,,,,,,,,,,
45,SINGLE_CHANGE,"[108.5859879408, 108.5789200717, 108.1634614955, 106.2055813262, 105.0649943052, 109.0082534614, 106.7166690574, 102.3693134457]",Flex Agent 3,0.0,0.1417853964,0.06,2.0,0.0726462563,0.0166287435,74.7299952704,-0.0005491321000000001,21.0,3.0972222222,0.34771134730000003,0.3757319315,,,,,,,,,,,,,,,,,,,,,,
46,SINGLE_CHANGE,"[108.5859879408, 108.5789200717, 108.1634614955, 106.2055813262, 105.0649943052, 109.0082534614, 106.7166690574, 102.3693134457]",Flex Agent 3,1.0,0.138208095,0.06,2.25,0.07135214520000001,0.0156559659,74.8657801644,-0.0009248756,20.0,3.2819548872,0.328107768,0.3612667772,,,,,,,,,,,,,,,,,,,,,,
47,SINGLE_CHANGE,"[108.5859879408, 108.5789200717, 108.1634614955, 106.2055813262, 105.0649943052, 109.0082534614, 106.7166690574, 102.3693134457]",Flex Agent 3,2.0,0.1470378903,0.065,2.5,0.0638593729,0.0167770583,74.801287722,-0.0009007958000000001,21.5,2.8293478261000002,0.37123405870000004,0.39726560590000004,,,,,,,,,,,,,,,,,,,,,,
48,SINGLE_CHANGE,"[108.5859879408, 108.5789200717, 108.1634614955, 106.2055813262, 105.0649943052, 109.0082534614, 106.7166690574, 102.3693134457]",Flex Agent 3,3.0,0.1384525775,0.06,2.25,0.0703669307,0.0189212471,74.7935443248,-0.0007968451,18.5,3.7663690476,0.3884031665,0.42631999670000004,,,,,,,,,,,,,,,,,,,,,,
49,SINGLE_CHANGE,"[108.5859879408, 108.5789200717, 108.1634614955, 106.2055813262, 105.0649943052, 109.0082534614, 106.7166690574, 102.3693134457]",Flex Agent 3,4.0,0.11937331470000001,0.045,2.5,0.055810087700000004,0.0035810707000000002,74.8105176719,-0.0019259035,21.0,2.9851258581,0.3911676947,0.4452682499,,,,,,,,,,,,,,,,,,,,,,
50,,,Global,,,,,,,,,,,,,0.142791337338,0.056753556761385805,0.09144999999999999,0.06697183766939897,3.045,1.6293622766504166,0.06328300935799999,0.02283429131587666,0.012091085730000001,0.005839149335239548,77.37750061181599,8.513453910421223,0.00043957215200000053,0.023148541922072368,15.72,8.542307674637064,2.511650444024,1.0033283491146177,0.4727965091680001,0.2598339019133777,0.5323724045999999,0.3049184939699342
