,NeighborhoodDefinition,TargetSchedule,Agent,FLA_ID,INFORMATION_CONTENT,PARTIAL_INFORMATION_CONTENT,INFORMATION_STABILITY,FITNESS_VARIANCE_MEAN,FITNESS_VARIANCE_STD,FITNESS_MEAN,DISPERSION_INDEX,MEAN_NUMBER_OF_NEUTRAL_AREAS,MEAN_SIZE_OF_NEUTRAL_AREAS,MEAN_FITNESS_DISTANCE,MAX_FITNESS_DISTANCE,INFORMATION_CONTENT_MEAN,INFORMATION_CONTENT_STD,PARTIAL_INFORMATION_CONTENT_MEAN,PARTIAL_INFORMATION_CONTENT_STD,INFORMATION_STABILITY_MEAN,INFORMATION_STABILITY_STD,FITNESS_VARIANCE_MEAN_MEAN,FITNESS_VARIANCE_MEAN_STD,FITNESS_VARIANCE_STD_MEAN,FITNESS_VARIANCE_STD_STD,FITNESS_MEAN_MEAN,FITNESS_MEAN_STD,DISPERSION_INDEX_MEAN,DISPERSION_INDEX_STD,MEAN_NUMBER_OF_NEUTRAL_AREAS_MEAN,MEAN_NUMBER_OF_NEUTRAL_AREAS_STD,MEAN_SIZE_OF_NEUTRAL_AREAS_MEAN,MEAN_SIZE_OF_NEUTRAL_AREAS_STD,MEAN_FITNESS_DISTANCE_MEAN,MEAN_FITNESS_DISTANCE_STD,MAX_FITNESS_DISTANCE_MEAN,MAX_FITNESS_DISTANCE_STD
0,SINGLE_CHANGE,"[-4.744343897, -5.9618090828, -4.7543409603, -3.8867336478, -40.3378322265, 17.862016680300002, -28.1539467012, -8.1810815708]",Flex Agent 2,0.0,0.1229839565,0.0475,2.0,0.0437935078,0.010928132200000001,28.9556753928,0.000249443,21.0,3.0881006865,0.3081730207,0.3622447734,,,,,,,,,,,,,,,,,,,,,,
1,SINGLE_CHANGE,"[-4.744343897, -5.9618090828, -4.7543409603, -3.8867336478, -40.3378322265, 17.862016680300002, -28.1539467012, -8.1810815708]",Flex Agent 2,1.0,0.1147335111,0.0425,2.0,0.0386588,0.0049286673,38.4846734719,4.32217e-05,22.0,2.7208333333,0.3213795398,0.3723994874,,,,,,,,,,,,,,,,,,,,,,
2,SINGLE_CHANGE,"[-4.744343897, -5.9618090828, -4.7543409603, -3.8867336478, -40.3378322265, 17.862016680300002, -28.1539467012, -8.1810815708]",Flex Agent 2,2.0,0.12141834550000001,0.05,2.25,0.0327269647,0.010698486600000001,37.5263097924,9.866200000000001e-05,21.5,2.7673913043000002,0.31165480100000004,0.358015501,,,,,,,,,,,,,,,,,,,,,,
3,SINGLE_CHANGE,"[-4.744343897, -5.9618090828, -4.7543409603, -3.8867336478, -40.3378322265, 17.862016680300002, -28.1539467012, -8.1810815708]",Flex Agent 2,3.0,0.12232459250000001,0.05,2.25,0.0380758909,0.0054239693,24.5371842299,7.38662e-05,21.5,2.8967391304000003,0.32311744540000004,0.3535036203,,,,,,,,,,,,,,,,,,,,,,
4,SINGLE_CHANGE,"[-4.744343897, -5.9618090828, -4.7543409603, -3.8867336478, -40.3378322265, 17.862016680300002, -28.1539467012, -8.1810815708]",Flex Agent 2,4.0,0.1215453642,0.045,2.0,0.0466761776,0.0036758799000000003,42.8088333518,0.0004532223,24.5,2.212962963,0.3777593298,0.40205392360000003,,,,,,,,,,,,,,,,,,,,,,
5,SINGLE_CHANGE,"[-4.744343897, -5.9618090828, -4.7543409603, -3.8867336478, -40.3378322265, 17.862016680300002, -28.1539467012, -8.1810815708]",Flex Agent 4,0.0,0.0,0.0,1.0,0.0024507401,0.0042448064,29.4205873849,-0.0002992981,4.0,1.3333333333000001,0.00020211370000000002,0.0008084548000000001,,,,,,,,,,,,,,,,,,,,,,
6,SINGLE_CHANGE,"[-4.744343897, -5.9618090828, -4.7543409603, -3.8867336478, -40.3378322265, 17.862016680300002, -28.1539467012, -8.1810815708]",Flex Agent 4,1.0,0.006425486,0.0,1.5,0.0024507401,0.0042448064,35.4946893123,-2.4813500000000002e-05,1.0,1.0,0.005568341,0.0222733638,,,,,,,,,,,,,,,,,,,,,,
7,SINGLE_CHANGE,"[-4.744343897, -5.9618090828, -4.7543409603, -3.8867336478, -40.3378322265, 17.862016680300002, -28.1539467012, -8.1810815708]",Flex Agent 4,2.0,0.006425486,0.0,1.25,0.0024507401,0.0042448064,44.0657646927,-2.54294e-05,7.0,1.0,0.0031792223000000003,0.0127168893,,,,,,,,,,,,,,,,,,,,,,
8,SINGLE_CHANGE,"[-4.744343897, -5.9618090828, -4.7543409603, -3.8867336478, -40.3378322265, 17.862016680300002, -28.1539467012, -8.1810815708]",Flex Agent 4,3.0,0.006425486,0.0,1.25,0.0024507401,0.0042448064,26.0952256544,-1.66156e-05,7.0,1.0,0.002909483,0.011637932,,,,,,,,,,,,,,,,,,,,,,
9,SINGLE_CHANGE,"[-4.744343897, -5.9618090828, -4.7543409603, -3.8867336478, -40.3378322265, 17.862016680300002, -28.1539467012, -8.1810815708]",Flex Agent 4,4.0,0.006425486,0.0,1.25,0.0024507401,0.0042448064,36.6658242506,-1.94062e-05,7.0,1.0,0.0026654332,0.0106617328,,,,,,,,,,,,,,,,,,,,,,
10,SINGLE_CHANGE,"[-4.744343897, -5.9618090828, -4.7543409603, -3.8867336478, -40.3378322265, 17.862016680300002, -28.1539467012, -8.1810815708]",Flex Agent 0,0.0,0.2004310907,0.1625,4.25,0.044461656,0.0065589916,58.7279507901,0.0001105372,23.0,2.4659090909,0.7359288119,0.8106172862000001,,,,,,,,,,,,,,,,,,,,,,
11,SINGLE_CHANGE,"[-4.744343897, -5.9618090828, -4.7543409603, -3.8867336478, -40.3378322265, 17.862016680300002, -28.1539467012, -8.1810815708]",Flex Agent 0,1.0,0.2016058802,0.1675,4.25,0.0518584024,0.0087312623,51.2117144176,0.0001205068,21.5,2.7576086957,0.6895378028,0.7388697455000001,,,,,,,,,,,,,,,,,,,,,,
12,SINGLE_CHANGE,"[-4.744343897, -5.9618090828, -4.7543409603, -3.8867336478, -40.3378322265, 17.862016680300002, -28.1539467012, -8.1810815708]",Flex Agent 0,2.0,0.19760781630000002,0.14,3.5,0.0399359117,0.0022198285000000002,38.8142469151,0.0002085726,21.5,3.1,0.6029027972000001,0.6399504865,,,,,,,,,,,,,,,,,,,,,,
13,SINGLE_CHANGE,"[-4.744343897, -5.9618090828, -4.7543409603, -3.8867336478, -40.3378322265, 17.862016680300002, -28.1539467012, -8.1810815708]",Flex Agent 0,3.0,0.19978749210000002,0.155,3.5,0.0430333201,0.006014367400000001,54.6361740983,0.0003358312,20.5,3.005952381,0.6857980711,0.7735605713,,,,,,,,,,,,,,,,,,,,,,
14,SINGLE_CHANGE,"[-4.744343897, -5.9618090828, -4.7543409603, -3.8867336478, -40.3378322265, 17.862016680300002, -28.1539467012, -8.1810815708]",Flex Agent 0,4.0,0.1986679218,0.14750000000000002,3.5,0.0431675269,0.0071756617000000005,46.6327559122,0.0002372164,21.5,2.6880434783,0.586377695,0.6744521051,,,,,,,,,,,,,,,,,,,,,,
15,SINGLE_CHANGE,"[-4.744343897, -5.9618090828, -4.7543409603, -3.8867336478, -40.3378322265, 17.862016680300002, -28.1539467012, -8.1810815708]",Flex Agent 3,0.0,0.1843393938,0.12250000000000001,4.5,0.0749672774,0.0229096353,24.2229780305,-0.0027466225,4.5,1.2142857143,0.6540296177,0.7571619134,,,,,,,,,,,,,,,,,,,,,,
16,SINGLE_CHANGE,"[-4.744343897, -5.9618090828, -4.7543409603, -3.8867336478, -40.3378322265, 17.862016680300002, -28.1539467012, -8.1810815708]",Flex Agent 3,1.0,0.1972592446,0.1575,4.75,0.0698607287,0.0064926879,27.6048909705,-0.000219821,8.5,1.3214285714,0.6895196915,0.8420564815,,,,,,,,,,,,,,,,,,,,,,
17,SINGLE_CHANGE,"[-4.744343897, -5.9618090828, -4.7543409603, -3.8867336478, -40.3378322265, 17.862016680300002, -28.1539467012, -8.1810815708]",Flex Agent 3,2.0,0.1705038444,0.095,4.0,0.0698381501,0.009305749,49.1090875553,0.0026162378000000003,4.0,1.3333333333000001,0.5350286453,0.6716373665,,,,,,,,,,,,,,,,,,,,,,
18,SINGLE_CHANGE,"[-4.744343897, -5.9618090828, -4.7543409603, -3.8867336478, -40.3378322265, 17.862016680300002, -28.1539467012, -8.1810815708]",Flex Agent 3,3.0,0.2001453783,0.1625,5.0,0.0796082806,0.0176121023,44.2612952629,-0.0017920539000000001,3.0,1.5,0.7717890318,0.9286352926,,,,,,,,,,,,,,,,,,,,,,
19,SINGLE_CHANGE,"[-4.744343897, -5.9618090828, -4.7543409603, -3.8867336478, -40.3378322265, 17.862016680300002, -28.1539467012, -8.1810815708]",Flex Agent 3,4.0,0.1942262673,0.135,4.25,0.07214526140000001,0.017343182500000002,31.0185280197,0.0001835257,5.5,1.7666666667,0.6577122769,0.7409025922,,,,,,,,,,,,,,,,,,,,,,
20,SINGLE_CHANGE,"[-4.744343897, -5.9618090828, -4.7543409603, -3.8867336478, -40.3378322265, 17.862016680300002, -28.1539467012, -8.1810815708]",Flex Agent 5,0.0,0.0,0.0,1.0,0.0024507401,0.0042448064,38.9584267375,-0.0003554424,5.5,1.35,0.000202114,0.0008084559,,,,,,,,,,,,,,,,,,,,,,
21,SINGLE_CHANGE,"[-4.744343897, -5.9618090828, -4.7543409603, -3.8867336478, -40.3378322265, 17.862016680300002, -28.1539467012, -8.1810815708]",Flex Agent 5,1.0,0.006425486,0.0,1.25,0.0024507401,0.0042448064,30.9235705386,-1.97921e-05,6.0,1.0,0.0045536079,0.0182144314,,,,,,,,,,,,,,,,,,,,,,
22,SINGLE_CHANGE,"[-4.744343897, -5.9618090828, -4.7543409603, -3.8867336478, -40.3378322265, 17.862016680300002, -28.1539467012, -8.1810815708]",Flex Agent 5,2.0,0.006425486,0.0,1.25,0.0024507401,0.0042448064,38.3933711201,-1.5333800000000002e-05,6.0,1.0,0.0031792223000000003,0.0127168893,,,,,,,,,,,,,,,,,,,,,,
23,SINGLE_CHANGE,"[-4.744343897, -5.9618090828, -4.7543409603, -3.8867336478, -40.3378322265, 17.862016680300002, -28.1539467012, -8.1810815708]",Flex Agent 5,3.0,0.006425486,0.0,1.25,0.0024507401,0.0042448064,36.8057059713,-1.18117e-05,6.0,1.6666666667,0.0030401819,0.0121607276,,,,,,,,,,,,,,,,,,,,,,
24,SINGLE_CHANGE,"[-4.744343897, -5.9618090828, -4.7543409603, -3.8867336478, -40.3378322265, 17.862016680300002, -28.1539467012, -8.1810815708]",Flex Agent 5,4.0,0.006425486,0.0,1.25,0.0024507401,0.0042448064,35.8292663902,-7.485900000000001e-06,6.0,1.0,0.0026654332,0.0106617329,,,,,,,,,,,,,,,,,,,,,,
25,SINGLE_CHANGE,"[-4.744343897, -5.9618090828, -4.7543409603, -3.8867336478, -40.3378322265, 17.862016680300002, -28.1539467012, -8.1810815708]",Flex Agent 6,0.0,0.006425486,0.0,4.25,0.0024507401,0.0042448064,99.2124112838,-0.015448037400000001,3.5,2.4166666667,0.034436160800000004,0.1377446431,,,,,,,,,,,,,,,,,,,,,,
26,SINGLE_CHANGE,"[-4.744343897, -5.9618090828, -4.7543409603, -3.8867336478, -40.3378322265, 17.862016680300002, -28.1539467012, -8.1810815708]",Flex Agent 6,1.0,0.006425486,0.0,5.5,0.0024507401,0.0042448064,112.1783620882,-0.0108196868,3.0,2.3333333333,0.0470916776,0.1883667105,,,,,,,,,,,,,,,,,,,,,,
27,SINGLE_CHANGE,"[-4.744343897, -5.9618090828, -4.7543409603, -3.8867336478, -40.3378322265, 17.862016680300002, -28.1539467012, -8.1810815708]",Flex Agent 6,2.0,0.006425486,0.0,4.0,0.0024507401,0.0042448064,119.7466277709,-0.0056601714000000004,3.0,2.3333333333,0.0314984963,0.1259939852,,,,,,,,,,,,,,,,,,,,,,
28,SINGLE_CHANGE,"[-4.744343897, -5.9618090828, -4.7543409603, -3.8867336478, -40.3378322265, 17.862016680300002, -28.1539467012, -8.1810815708]",Flex Agent 6,3.0,0.006425486,0.0,2.5,0.0024507401,0.0042448064,116.3061884049,-0.0036133739000000003,3.5,2.1666666667,0.0161378805,0.06455152210000001,,,,,,,,,,,,,,,,,,,,,,
29,SINGLE_CHANGE,"[-4.744343897, -5.9618090828, -4.7543409603, -3.8867336478, -40.3378322265, 17.862016680300002, -28.1539467012, -8.1810815708]",Flex Agent 6,4.0,0.006425486,0.0,3.25,0.0024507401,0.0042448064,105.7562095825,-0.0010760023,3.0,2.3333333333,0.0236002992,0.0944011966,,,,,,,,,,,,,,,,,,,,,,
30,SINGLE_CHANGE,"[-4.744343897, -5.9618090828, -4.7543409603, -3.8867336478, -40.3378322265, 17.862016680300002, -28.1539467012, -8.1810815708]",Flex Agent 1,0.0,0.18204676290000002,0.1125,4.75,0.0578919092,0.0051810185000000005,39.5752283576,0.0036539084,7.5,1.0555555556,0.6052662405,0.6532770605,,,,,,,,,,,,,,,,,,,,,,
31,SINGLE_CHANGE,"[-4.744343897, -5.9618090828, -4.7543409603, -3.8867336478, -40.3378322265, 17.862016680300002, -28.1539467012, -8.1810815708]",Flex Agent 1,1.0,0.18271407080000002,0.11,3.25,0.0885938198,0.021993776200000002,28.3224334719,-0.0009668202,6.5,1.2261904762,0.5177189882000001,0.5611691124,,,,,,,,,,,,,,,,,,,,,,
32,SINGLE_CHANGE,"[-4.744343897, -5.9618090828, -4.7543409603, -3.8867336478, -40.3378322265, 17.862016680300002, -28.1539467012, -8.1810815708]",Flex Agent 1,2.0,0.18424227440000002,0.1125,4.25,0.07082531410000001,0.0062832044,33.6184417194,-0.0018228583,3.0,1.0,0.5844806697,0.7063787336,,,,,,,,,,,,,,,,,,,,,,
33,SINGLE_CHANGE,"[-4.744343897, -5.9618090828, -4.7543409603, -3.8867336478, -40.3378322265, 17.862016680300002, -28.1539467012, -8.1810815708]",Flex Agent 1,3.0,0.1656057656,0.08750000000000001,3.75,0.073554702,0.010850233400000001,27.725570788,-0.0011940962,3.0,1.0,0.5160399291000001,0.5466861409,,,,,,,,,,,,,,,,,,,,,,
34,SINGLE_CHANGE,"[-4.744343897, -5.9618090828, -4.7543409603, -3.8867336478, -40.3378322265, 17.862016680300002, -28.1539467012, -8.1810815708]",Flex Agent 1,4.0,0.1512389403,0.095,3.75,0.0706021315,0.0231124779,33.6979652083,-0.001020703,4.5,1.45,0.5736200484,0.8799384225,,,,,,,,,,,,,,,,,,,,,,
35,SINGLE_CHANGE,"[-4.744343897, -5.9618090828, -4.7543409603, -3.8867336478, -40.3378322265, 17.862016680300002, -28.1539467012, -8.1810815708]",Flex Agent 8,0.0,0.006425486,0.0,1.25,0.0024507401,0.0042448064,28.8382492099,-0.0003910553,1.0,1.0,0.0032180682,0.0128722729,,,,,,,,,,,,,,,,,,,,,,
36,SINGLE_CHANGE,"[-4.744343897, -5.9618090828, -4.7543409603, -3.8867336478, -40.3378322265, 17.862016680300002, -28.1539467012, -8.1810815708]",Flex Agent 8,1.0,0.0,0.0,1.0,0.0024507401,0.0042448064,37.665107505,2.7555e-06,6.0,1.9166666667,0.0001374592,0.0005498369,,,,,,,,,,,,,,,,,,,,,,
37,SINGLE_CHANGE,"[-4.744343897, -5.9618090828, -4.7543409603, -3.8867336478, -40.3378322265, 17.862016680300002, -28.1539467012, -8.1810815708]",Flex Agent 8,2.0,0.006425486,0.0,1.25,0.0024507401,0.0042448064,36.9871249094,-1.35523e-05,6.0,1.8333333333000001,0.0032535495000000003,0.0130141978,,,,,,,,,,,,,,,,,,,,,,
38,SINGLE_CHANGE,"[-4.744343897, -5.9618090828, -4.7543409603, -3.8867336478, -40.3378322265, 17.862016680300002, -28.1539467012, -8.1810815708]",Flex Agent 8,3.0,0.006425486,0.0,1.25,0.0024507401,0.0042448064,47.7405916243,-2.8525100000000002e-05,6.0,1.0,0.002909483,0.011637932,,,,,,,,,,,,,,,,,,,,,,
39,SINGLE_CHANGE,"[-4.744343897, -5.9618090828, -4.7543409603, -3.8867336478, -40.3378322265, 17.862016680300002, -28.1539467012, -8.1810815708]",Flex Agent 8,4.0,0.006425486,0.0,1.25,0.0024507401,0.0042448064,32.5129790516,-1.56932e-05,1.0,1.0,0.002536986,0.010147944,,,,,,,,,,,,,,,,,,,,,,
40,SINGLE_CHANGE,"[-4.744343897, -5.9618090828, -4.7543409603, -3.8867336478, -40.3378322265, 17.862016680300002, -28.1539467012, -8.1810815708]",Flex Agent 9,0.0,0.0,0.0,1.0,0.0024507401,0.0042448064,43.7920245464,-0.0002566585,6.5,1.775,0.00010995280000000001,0.0004398114,,,,,,,,,,,,,,,,,,,,,,
41,SINGLE_CHANGE,"[-4.744343897, -5.9618090828, -4.7543409603, -3.8867336478, -40.3378322265, 17.862016680300002, -28.1539467012, -8.1810815708]",Flex Agent 9,1.0,0.0,0.0,1.0,0.0024507401,0.0042448064,34.8514327467,-1.28351e-05,7.0,1.1428571429,0.0022039993,0.0088159971,,,,,,,,,,,,,,,,,,,,,,
42,SINGLE_CHANGE,"[-4.744343897, -5.9618090828, -4.7543409603, -3.8867336478, -40.3378322265, 17.862016680300002, -28.1539467012, -8.1810815708]",Flex Agent 9,2.0,0.0,0.0,1.0,0.0024507401,0.0042448064,43.5302487288,-1.11985e-05,7.0,1.0,0.0018968121000000001,0.007587248600000001,,,,,,,,,,,,,,,,,,,,,,
43,SINGLE_CHANGE,"[-4.744343897, -5.9618090828, -4.7543409603, -3.8867336478, -40.3378322265, 17.862016680300002, -28.1539467012, -8.1810815708]",Flex Agent 9,3.0,0.0,0.0,1.0,0.0024507401,0.0042448064,32.5653077407,-2.5742000000000003e-06,7.0,1.0,0.0019052668000000001,0.0076210673,,,,,,,,,,,,,,,,,,,,,,
44,SINGLE_CHANGE,"[-4.744343897, -5.9618090828, -4.7543409603, -3.8867336478, -40.3378322265, 17.862016680300002, -28.1539467012, -8.1810815708]",Flex Agent 9,4.0,0.0,0.0,1.0,0.0024507401,0.0042448064,29.2037931956,-5.8276e-06,7.0,1.0,0.0011048895000000001,0.004419558200000001,,,,,,,,,,,,,,,,,,,,,,
45,SINGLE_CHANGE,"[-4.744343897, -5.9618090828, -4.7543409603, -3.8867336478, -40.3378322265, 17.862016680300002, -28.1539467012, -8.1810815708]",Flex Agent 7,0.0,0.0,0.0,1.0,0.0024507401,0.0042448064,36.7331723013,-0.00017477440000000002,6.0,1.0,8.59235e-05,0.00034369420000000003,,,,,,,,,,,,,,,,,,,,,,
46,SINGLE_CHANGE,"[-4.744343897, -5.9618090828, -4.7543409603, -3.8867336478, -40.3378322265, 17.862016680300002, -28.1539467012, -8.1810815708]",Flex Agent 7,1.0,0.0,0.0,1.0,0.0024507401,0.0042448064,26.1214442906,2.4686e-06,8.0,1.0,2.26895e-05,9.0758e-05,,,,,,,,,,,,,,,,,,,,,,
47,SINGLE_CHANGE,"[-4.744343897, -5.9618090828, -4.7543409603, -3.8867336478, -40.3378322265, 17.862016680300002, -28.1539467012, -8.1810815708]",Flex Agent 7,2.0,0.0,0.0,1.0,0.0024507401,0.0042448064,38.3266980909,-8.0574e-06,7.0,1.0,0.0018968121000000001,0.007587248600000001,,,,,,,,,,,,,,,,,,,,,,
48,SINGLE_CHANGE,"[-4.744343897, -5.9618090828, -4.7543409603, -3.8867336478, -40.3378322265, 17.862016680300002, -28.1539467012, -8.1810815708]",Flex Agent 7,3.0,0.0,0.0,1.0,0.0024507401,0.0042448064,33.142236053,4.2926e-06,8.0,1.75,0.0016178075000000001,0.0064712300000000006,,,,,,,,,,,,,,,,,,,,,,
49,SINGLE_CHANGE,"[-4.744343897, -5.9618090828, -4.7543409603, -3.8867336478, -40.3378322265, 17.862016680300002, -28.1539467012, -8.1810815708]",Flex Agent 7,4.0,0.0,0.0,1.0,0.0024507401,0.0042448064,32.9535440106,-7.2139000000000005e-06,7.0,1.0,0.0011048895000000001,0.004419558200000001,,,,,,,,,,,,,,,,,,,,,,
50,,,Global,,,,,,,,,,,,,0.070453223506,0.08512322557423095,0.043949999999999996,0.06093047643982175,2.39,1.4578779658343515,0.024475958718,0.02922350604506855,0.006695670124000002,0.0051078963917983895,44.046162458878,23.784158989554548,-0.000794187462,0.0028897238600649857,8.61,6.945333185760385,1.638443837142,0.7158192277361219,0.22505537418400007,0.28568208347065754,0.27186495277800005,0.3257502300696566
