,NeighborhoodDefinition,TargetSchedule,Agent,FLA_ID,INFORMATION_CONTENT,PARTIAL_INFORMATION_CONTENT,INFORMATION_STABILITY,FITNESS_VARIANCE_MEAN,FITNESS_VARIANCE_STD,FITNESS_MEAN,DISPERSION_INDEX,MEAN_NUMBER_OF_NEUTRAL_AREAS,MEAN_SIZE_OF_NEUTRAL_AREAS,MEAN_FITNESS_DISTANCE,MAX_FITNESS_DISTANCE,INFORMATION_CONTENT_MEAN,INFORMATION_CONTENT_STD,PARTIAL_INFORMATION_CONTENT_MEAN,PARTIAL_INFORMATION_CONTENT_STD,INFORMATION_STABILITY_MEAN,INFORMATION_STABILITY_STD,FITNESS_VARIANCE_MEAN_MEAN,FITNESS_VARIANCE_MEAN_STD,FITNESS_VARIANCE_STD_MEAN,FITNESS_VARIANCE_STD_STD,FITNESS_MEAN_MEAN,FITNESS_MEAN_STD,DISPERSION_INDEX_MEAN,DISPERSION_INDEX_STD,MEAN_NUMBER_OF_NEUTRAL_AREAS_MEAN,MEAN_NUMBER_OF_NEUTRAL_AREAS_STD,MEAN_SIZE_OF_NEUTRAL_AREAS_MEAN,MEAN_SIZE_OF_NEUTRAL_AREAS_STD,MEAN_FITNESS_DISTANCE_MEAN,MEAN_FITNESS_DISTANCE_STD,MAX_FITNESS_DISTANCE_MEAN,MAX_FITNESS_DISTANCE_STD
0,SINGLE_CHANGE,"[18.6353646068, 18.7069836852, 18.7603490731, 18.577318052, 18.4840097988, 18.8966607144, 18.8185303886, 14.6178659033]",Flex Agent 1,0.0,0.1975655524,0.14750000000000002,3.0,0.0674376316,0.008899494800000001,25.5960873868,-0.036645262000000005,5.0,1.2083333333,0.6790831852,0.7577306697,,,,,,,,,,,,,,,,,,,,,,
1,SINGLE_CHANGE,"[18.6353646068, 18.7069836852, 18.7603490731, 18.577318052, 18.4840097988, 18.8966607144, 18.8185303886, 14.6178659033]",Flex Agent 1,1.0,0.18730263490000001,0.135,4.25,0.07197001,0.0189574404,25.2006962652,-0.09651118040000001,8.0,1.4272727273,0.6527999141,0.7221473258000001,,,,,,,,,,,,,,,,,,,,,,
2,SINGLE_CHANGE,"[18.6353646068, 18.7069836852, 18.7603490731, 18.577318052, 18.4840097988, 18.8966607144, 18.8185303886, 14.6178659033]",Flex Agent 1,2.0,0.2029671502,0.195,4.25,0.0754532252,0.012018836500000001,26.1605442724,-0.1331556654,1.0,0.5,0.9696879380000001,1.0454188197,,,,,,,,,,,,,,,,,,,,,,
3,SINGLE_CHANGE,"[18.6353646068, 18.7069836852, 18.7603490731, 18.577318052, 18.4840097988, 18.8966607144, 18.8185303886, 14.6178659033]",Flex Agent 1,3.0,0.19881763200000002,0.15,3.0,0.07918952900000001,0.0109019322,26.9869933786,-0.0424504764,4.5,1.0,0.6616823692,0.7563994098,,,,,,,,,,,,,,,,,,,,,,
4,SINGLE_CHANGE,"[18.6353646068, 18.7069836852, 18.7603490731, 18.577318052, 18.4840097988, 18.8966607144, 18.8185303886, 14.6178659033]",Flex Agent 1,4.0,0.20224907,0.1675,3.75,0.0684051572,0.0071908904,26.1006802904,-0.0996081238,6.0,1.3428571429,0.8298942140000001,0.8783591329,,,,,,,,,,,,,,,,,,,,,,
5,SINGLE_CHANGE,"[18.6353646068, 18.7069836852, 18.7603490731, 18.577318052, 18.4840097988, 18.8966607144, 18.8185303886, 14.6178659033]",Flex Agent 2,0.0,0.0,0.0,1.0,0.0024507401,0.0042448064,11.9753305862,-0.0028007398000000003,1.5,1.0,0.0012733412,0.0050933647,,,,,,,,,,,,,,,,,,,,,,
6,SINGLE_CHANGE,"[18.6353646068, 18.7069836852, 18.7603490731, 18.577318052, 18.4840097988, 18.8966607144, 18.8185303886, 14.6178659033]",Flex Agent 2,1.0,0.006425486,0.0,1.25,0.0024507401,0.0042448064,9.852116296,-0.0025414968,1.0,1.0,0.0030212856,0.0120851424,,,,,,,,,,,,,,,,,,,,,,
7,SINGLE_CHANGE,"[18.6353646068, 18.7069836852, 18.7603490731, 18.577318052, 18.4840097988, 18.8966607144, 18.8185303886, 14.6178659033]",Flex Agent 2,2.0,0.0,0.0,1.0,0.0024507401,0.0042448064,7.1444587887,0.0071271578000000006,1.0,1.0,0.0013275299000000001,0.005310119800000001,,,,,,,,,,,,,,,,,,,,,,
8,SINGLE_CHANGE,"[18.6353646068, 18.7069836852, 18.7603490731, 18.577318052, 18.4840097988, 18.8966607144, 18.8185303886, 14.6178659033]",Flex Agent 2,3.0,0.0,0.0,1.0,0.0024507401,0.0042448064,9.4818102001,0.0058364765,1.0,1.0,0.0010654345,0.0042617379000000006,,,,,,,,,,,,,,,,,,,,,,
9,SINGLE_CHANGE,"[18.6353646068, 18.7069836852, 18.7603490731, 18.577318052, 18.4840097988, 18.8966607144, 18.8185303886, 14.6178659033]",Flex Agent 2,4.0,0.0,0.0,1.0,0.0024507401,0.0042448064,11.8710151191,-0.0009534089000000001,1.0,1.0,0.0009921604,0.0039686416,,,,,,,,,,,,,,,,,,,,,,
10,SINGLE_CHANGE,"[18.6353646068, 18.7069836852, 18.7603490731, 18.577318052, 18.4840097988, 18.8966607144, 18.8185303886, 14.6178659033]",Flex Agent 3,0.0,0.1361999566,0.055,2.5,0.0525133174,0.0091374747,4.7250386512,-0.0103557374,22.5,2.6729249012,0.3183026471,0.3351399168,,,,,,,,,,,,,,,,,,,,,,
11,SINGLE_CHANGE,"[18.6353646068, 18.7069836852, 18.7603490731, 18.577318052, 18.4840097988, 18.8966607144, 18.8185303886, 14.6178659033]",Flex Agent 3,1.0,0.09813220900000001,0.0375,1.75,0.059528808,0.006996444100000001,6.4441555575,-0.00723349,18.5,3.7205882353,0.34868207960000003,0.4011986736,,,,,,,,,,,,,,,,,,,,,,
12,SINGLE_CHANGE,"[18.6353646068, 18.7069836852, 18.7603490731, 18.577318052, 18.4840097988, 18.8966607144, 18.8185303886, 14.6178659033]",Flex Agent 3,2.0,0.13759901330000002,0.0575,2.0,0.057279701700000005,0.017079824900000002,4.2150853608,-0.0043628059,20.0,3.275,0.38244175900000005,0.4169616524,,,,,,,,,,,,,,,,,,,,,,
13,SINGLE_CHANGE,"[18.6353646068, 18.7069836852, 18.7603490731, 18.577318052, 18.4840097988, 18.8966607144, 18.8185303886, 14.6178659033]",Flex Agent 3,3.0,0.1361999566,0.0575,2.0,0.0416643784,0.0021057365,3.6533909923,-0.0077928885,20.5,2.88647343,0.3989631944,0.42346632630000003,,,,,,,,,,,,,,,,,,,,,,
14,SINGLE_CHANGE,"[18.6353646068, 18.7069836852, 18.7603490731, 18.577318052, 18.4840097988, 18.8966607144, 18.8185303886, 14.6178659033]",Flex Agent 3,4.0,0.1275646409,0.0475,2.25,0.06898082430000001,0.0142194907,3.6475283394,-0.0041902654000000004,18.5,3.5476190476,0.38136444620000004,0.4211038206,,,,,,,,,,,,,,,,,,,,,,
15,SINGLE_CHANGE,"[18.6353646068, 18.7069836852, 18.7603490731, 18.577318052, 18.4840097988, 18.8966607144, 18.8185303886, 14.6178659033]",Flex Agent 4,0.0,0.13188253900000002,0.052500000000000005,2.0,0.0627956294,0.0146246021,4.6390884765,-0.0027901872,19.0,3.5166666667,0.3659786887,0.398383784,,,,,,,,,,,,,,,,,,,,,,
16,SINGLE_CHANGE,"[18.6353646068, 18.7069836852, 18.7603490731, 18.577318052, 18.4840097988, 18.8966607144, 18.8185303886, 14.6178659033]",Flex Agent 4,1.0,0.1267740414,0.055,2.0,0.0833553663,0.0079863303,3.7658091766,-0.0039433607,20.0,3.1186868687000002,0.3489198987,0.3987103348,,,,,,,,,,,,,,,,,,,,,,
17,SINGLE_CHANGE,"[18.6353646068, 18.7069836852, 18.7603490731, 18.577318052, 18.4840097988, 18.8966607144, 18.8185303886, 14.6178659033]",Flex Agent 4,2.0,0.11775041500000001,0.045,2.5,0.0478524911,0.0049379576,3.8856686536,-0.004641699,22.0,2.6573498965,0.3680401043,0.3962801959,,,,,,,,,,,,,,,,,,,,,,
18,SINGLE_CHANGE,"[18.6353646068, 18.7069836852, 18.7603490731, 18.577318052, 18.4840097988, 18.8966607144, 18.8185303886, 14.6178659033]",Flex Agent 4,3.0,0.1273859365,0.05,2.0,0.0605622467,0.0134215913,5.0230915776,-0.004561726800000001,23.0,2.5096153846,0.3551406508,0.3962611272,,,,,,,,,,,,,,,,,,,,,,
19,SINGLE_CHANGE,"[18.6353646068, 18.7069836852, 18.7603490731, 18.577318052, 18.4840097988, 18.8966607144, 18.8185303886, 14.6178659033]",Flex Agent 4,4.0,0.1071592376,0.0425,2.25,0.0609526649,0.0166972516,3.4580267653,-0.0068856152,23.5,2.2426739927,0.35336591040000004,0.4050848373,,,,,,,,,,,,,,,,,,,,,,
20,SINGLE_CHANGE,"[18.6353646068, 18.7069836852, 18.7603490731, 18.577318052, 18.4840097988, 18.8966607144, 18.8185303886, 14.6178659033]",Flex Agent 0,0.0,0.006425486,0.0,1.25,0.0024507401,0.0042448064,9.4449414132,-0.0106512913,5.0,1.2,0.003218068,0.0128722718,,,,,,,,,,,,,,,,,,,,,,
21,SINGLE_CHANGE,"[18.6353646068, 18.7069836852, 18.7603490731, 18.577318052, 18.4840097988, 18.8966607144, 18.8185303886, 14.6178659033]",Flex Agent 0,1.0,0.006425486,0.0,1.5,0.0024507401,0.0042448064,4.8789489875,0.0159102773,5.5,1.0833333333,0.0052995228,0.0211980913,,,,,,,,,,,,,,,,,,,,,,
22,SINGLE_CHANGE,"[18.6353646068, 18.7069836852, 18.7603490731, 18.577318052, 18.4840097988, 18.8966607144, 18.8185303886, 14.6178659033]",Flex Agent 0,2.0,0.006425486,0.0,1.25,0.0024507401,0.0042448064,2.8511353181,0.0054068961,5.0,1.2,0.0041927286,0.0167709142,,,,,,,,,,,,,,,,,,,,,,
23,SINGLE_CHANGE,"[18.6353646068, 18.7069836852, 18.7603490731, 18.577318052, 18.4840097988, 18.8966607144, 18.8185303886, 14.6178659033]",Flex Agent 0,3.0,0.0,0.0,1.0,0.0024507401,0.0042448064,4.2192955305,0.0156143175,5.0,1.0,0.0022403304,0.008961321500000001,,,,,,,,,,,,,,,,,,,,,,
24,SINGLE_CHANGE,"[18.6353646068, 18.7069836852, 18.7603490731, 18.577318052, 18.4840097988, 18.8966607144, 18.8185303886, 14.6178659033]",Flex Agent 0,4.0,0.0,0.0,1.0,0.0024507401,0.0042448064,9.2783048548,0.0065781822,5.5,1.1833333333,0.0008145660000000001,0.0032582640000000003,,,,,,,,,,,,,,,,,,,,,,
25,SINGLE_CHANGE,"[18.6353646068, 18.7069836852, 18.7603490731, 18.577318052, 18.4840097988, 18.8966607144, 18.8185303886, 14.6178659033]",Flex Agent 6,0.0,0.13759901330000002,0.0575,2.0,0.0558025165,0.005532768600000001,3.7639603571,-0.0064642609,21.0,3.1121281465,0.384308099,0.41364175000000003,,,,,,,,,,,,,,,,,,,,,,
26,SINGLE_CHANGE,"[18.6353646068, 18.7069836852, 18.7603490731, 18.577318052, 18.4840097988, 18.8966607144, 18.8185303886, 14.6178659033]",Flex Agent 6,1.0,0.1055363032,0.035,2.0,0.0490757012,0.014013135500000001,3.4196182065,-0.0040995851,23.0,2.5652173913,0.34323001670000003,0.37897121170000003,,,,,,,,,,,,,,,,,,,,,,
27,SINGLE_CHANGE,"[18.6353646068, 18.7069836852, 18.7603490731, 18.577318052, 18.4840097988, 18.8966607144, 18.8185303886, 14.6178659033]",Flex Agent 6,2.0,0.09790324410000001,0.0325,2.0,0.06227984500000001,0.0144114499,3.8636193382,-0.0075788326,22.0,2.9125,0.32198777700000003,0.3694511824,,,,,,,,,,,,,,,,,,,,,,
28,SINGLE_CHANGE,"[18.6353646068, 18.7069836852, 18.7603490731, 18.577318052, 18.4840097988, 18.8966607144, 18.8185303886, 14.6178659033]",Flex Agent 6,3.0,0.1327822606,0.0575,2.75,0.0491909439,0.011291671900000001,3.7147842156,-0.005452099,19.0,2.9565826331,0.36212847730000003,0.3855233081,,,,,,,,,,,,,,,,,,,,,,
29,SINGLE_CHANGE,"[18.6353646068, 18.7069836852, 18.7603490731, 18.577318052, 18.4840097988, 18.8966607144, 18.8185303886, 14.6178659033]",Flex Agent 6,4.0,0.08215356630000001,0.0275,2.0,0.0584789285,0.0046293386,4.6931547304,-0.0024687196,19.0,3.0263157895,0.32964753010000003,0.3682476783,,,,,,,,,,,,,,,,,,,,,,
30,SINGLE_CHANGE,"[18.6353646068, 18.7069836852, 18.7603490731, 18.577318052, 18.4840097988, 18.8966607144, 18.8185303886, 14.6178659033]",Flex Agent 8,0.0,0.006425486,0.0,4.25,0.0024507401,0.0042448064,64.2115042702,0.0177934289,3.5,2.4166666667,0.034436160800000004,0.1377446431,,,,,,,,,,,,,,,,,,,,,,
31,SINGLE_CHANGE,"[18.6353646068, 18.7069836852, 18.7603490731, 18.577318052, 18.4840097988, 18.8966607144, 18.8185303886, 14.6178659033]",Flex Agent 8,1.0,0.006425486,0.0,5.5,0.0024507401,0.0042448064,73.299567805,0.0262181603,3.0,2.3333333333,0.0470916776,0.1883667105,,,,,,,,,,,,,,,,,,,,,,
32,SINGLE_CHANGE,"[18.6353646068, 18.7069836852, 18.7603490731, 18.577318052, 18.4840097988, 18.8966607144, 18.8185303886, 14.6178659033]",Flex Agent 8,2.0,0.006425486,0.0,4.0,0.0024507401,0.0042448064,83.4518917156,0.0248168444,3.0,2.3333333333,0.0314984963,0.1259939852,,,,,,,,,,,,,,,,,,,,,,
33,SINGLE_CHANGE,"[18.6353646068, 18.7069836852, 18.7603490731, 18.577318052, 18.4840097988, 18.8966607144, 18.8185303886, 14.6178659033]",Flex Agent 8,3.0,0.006425486,0.0,2.5,0.0024507401,0.0042448064,87.9541933528,0.0312389257,3.5,2.1666666667,0.0161378805,0.06455152210000001,,,,,,,,,,,,,,,,,,,,,,
34,SINGLE_CHANGE,"[18.6353646068, 18.7069836852, 18.7603490731, 18.577318052, 18.4840097988, 18.8966607144, 18.8185303886, 14.6178659033]",Flex Agent 8,4.0,0.006425486,0.0,3.25,0.0024507401,0.0042448064,67.6244874692,0.0187127479,3.0,2.3333333333,0.0236002992,0.0944011966,,,,,,,,,,,,,,,,,,,,,,
35,SINGLE_CHANGE,"[18.6353646068, 18.7069836852, 18.7603490731, 18.577318052, 18.4840097988, 18.8966607144, 18.8185303886, 14.6178659033]",Flex Agent 5,0.0,0.131576039,0.055,2.25,0.0606648256,0.0077449774,5.3839878492,-0.0057827851,25.5,2.3330769231,0.3760350383,0.4048281369,,,,,,,,,,,,,,,,,,,,,,
36,SINGLE_CHANGE,"[18.6353646068, 18.7069836852, 18.7603490731, 18.577318052, 18.4840097988, 18.8966607144, 18.8185303886, 14.6178659033]",Flex Agent 5,1.0,0.1307826638,0.055,2.25,0.0577153377,0.0100444934,6.1284130474,-0.0011873098,21.5,3.2171052632,0.3531754841,0.3904028062,,,,,,,,,,,,,,,,,,,,,,
37,SINGLE_CHANGE,"[18.6353646068, 18.7069836852, 18.7603490731, 18.577318052, 18.4840097988, 18.8966607144, 18.8185303886, 14.6178659033]",Flex Agent 5,2.0,0.11937331470000001,0.045,2.0,0.0777323464,0.0108956647,4.4970319792,-0.0029500762,19.5,3.1328947368,0.3819006763,0.4644801046,,,,,,,,,,,,,,,,,,,,,,
38,SINGLE_CHANGE,"[18.6353646068, 18.7069836852, 18.7603490731, 18.577318052, 18.4840097988, 18.8966607144, 18.8185303886, 14.6178659033]",Flex Agent 5,3.0,0.13188253900000002,0.052500000000000005,2.0,0.0509230773,0.0097404907,5.6649850108,-0.0029942483000000002,18.0,4.0047619048,0.3346364982,0.3744889912,,,,,,,,,,,,,,,,,,,,,,
39,SINGLE_CHANGE,"[18.6353646068, 18.7069836852, 18.7603490731, 18.577318052, 18.4840097988, 18.8966607144, 18.8185303886, 14.6178659033]",Flex Agent 5,4.0,0.12971341020000002,0.052500000000000005,2.25,0.0701355377,0.0026761839000000003,4.3656771685,-0.0051488332,22.0,2.7045454545,0.36567687130000004,0.3904792802,,,,,,,,,,,,,,,,,,,,,,
40,SINGLE_CHANGE,"[18.6353646068, 18.7069836852, 18.7603490731, 18.577318052, 18.4840097988, 18.8966607144, 18.8185303886, 14.6178659033]",Flex Agent 9,0.0,0.13765838760000002,0.0625,2.75,0.0544984216,0.0130501036,2.6469215105,-0.0104853037,21.5,2.9363425926,0.4098324021,0.4714023724,,,,,,,,,,,,,,,,,,,,,,
41,SINGLE_CHANGE,"[18.6353646068, 18.7069836852, 18.7603490731, 18.577318052, 18.4840097988, 18.8966607144, 18.8185303886, 14.6178659033]",Flex Agent 9,1.0,0.13904353660000002,0.0575,2.0,0.0482176974,0.0061032328,3.0231129811,-0.0118582019,23.0,2.3495238095,0.4140626962,0.4458631979,,,,,,,,,,,,,,,,,,,,,,
42,SINGLE_CHANGE,"[18.6353646068, 18.7069836852, 18.7603490731, 18.577318052, 18.4840097988, 18.8966607144, 18.8185303886, 14.6178659033]",Flex Agent 9,2.0,0.1773034453,0.0975,2.75,0.048182900300000005,0.0069607056,2.6384986213,-0.019016236500000002,22.5,2.7529761905,0.4922917183,0.5166483908,,,,,,,,,,,,,,,,,,,,,,
43,SINGLE_CHANGE,"[18.6353646068, 18.7069836852, 18.7603490731, 18.577318052, 18.4840097988, 18.8966607144, 18.8185303886, 14.6178659033]",Flex Agent 9,3.0,0.14136892480000002,0.065,2.5,0.057126706000000006,0.0123308566,3.0362626343,-0.0079868583,20.5,2.8115942029000003,0.41949112200000005,0.43171887600000003,,,,,,,,,,,,,,,,,,,,,,
44,SINGLE_CHANGE,"[18.6353646068, 18.7069836852, 18.7603490731, 18.577318052, 18.4840097988, 18.8966607144, 18.8185303886, 14.6178659033]",Flex Agent 9,4.0,0.1403491375,0.0675,2.25,0.0614945243,0.0104794138,2.0650237078,-0.0101860616,23.0,2.8115384615,0.3967990645,0.43475694930000003,,,,,,,,,,,,,,,,,,,,,,
45,SINGLE_CHANGE,"[18.6353646068, 18.7069836852, 18.7603490731, 18.577318052, 18.4840097988, 18.8966607144, 18.8185303886, 14.6178659033]",Flex Agent 7,0.0,0.14441468600000001,0.065,2.5,0.073327811,0.020821098700000002,20.6857822312,-0.0424540756,5.0,1.0,0.4585470598,0.4732895241,,,,,,,,,,,,,,,,,,,,,,
46,SINGLE_CHANGE,"[18.6353646068, 18.7069836852, 18.7603490731, 18.577318052, 18.4840097988, 18.8966607144, 18.8185303886, 14.6178659033]",Flex Agent 7,1.0,0.1566913245,0.0825,2.75,0.085254273,0.0164369345,21.514683797300002,-0.0066745984000000005,4.5,1.1,0.5566710537,0.6366913663,,,,,,,,,,,,,,,,,,,,,,
47,SINGLE_CHANGE,"[18.6353646068, 18.7069836852, 18.7603490731, 18.577318052, 18.4840097988, 18.8966607144, 18.8185303886, 14.6178659033]",Flex Agent 7,2.0,0.1627230077,0.0925,2.5,0.08286557700000001,0.0081894561,20.7596484209,-0.07658231360000001,2.0,1.0,0.49876058110000004,0.6092345588,,,,,,,,,,,,,,,,,,,,,,
48,SINGLE_CHANGE,"[18.6353646068, 18.7069836852, 18.7603490731, 18.577318052, 18.4840097988, 18.8966607144, 18.8185303886, 14.6178659033]",Flex Agent 7,3.0,0.14594454140000002,0.075,2.75,0.0762407183,0.014246977400000001,22.041852527,-0.0934055503,6.0,1.0833333333,0.4530999196,0.5158949997,,,,,,,,,,,,,,,,,,,,,,
49,SINGLE_CHANGE,"[18.6353646068, 18.7069836852, 18.7603490731, 18.577318052, 18.4840097988, 18.8966607144, 18.8185303886, 14.6178659033]",Flex Agent 7,4.0,0.1584395473,0.0825,2.5,0.08865537250000001,0.0190831313,23.158220064,-0.0538385825,4.5,1.0,0.49983641640000004,0.5820931485,,,,,,,,,,,,,,,,,,,,,,
50,,,Global,,,,,,,,,,,,,0.09993236504600002,0.06827042501140838,0.05025,0.04705145359831389,2.34,0.9606545387688245,0.045251302877999985,0.030091805610922163,0.008950589582,0.0050122364305607865,15.962122504990003,21.642978565517975,-0.01366873077,0.03356815814045391,12.45,8.984822803835728,2.1337299691959997,0.956914543636121,0.31485349967000004,0.23580481421338995,0.35831183573799996,0.24851220032038235
