,NeighborhoodDefinition,TargetSchedule,Agent,FLA_ID,INFORMATION_CONTENT,PARTIAL_INFORMATION_CONTENT,INFORMATION_STABILITY,FITNESS_VARIANCE_MEAN,FITNESS_VARIANCE_STD,FITNESS_MEAN,DISPERSION_INDEX,MEAN_NUMBER_OF_NEUTRAL_AREAS,MEAN_SIZE_OF_NEUTRAL_AREAS,MEAN_FITNESS_DISTANCE,MAX_FITNESS_DISTANCE,INFORMATION_CONTENT_MEAN,INFORMATION_CONTENT_STD,PARTIAL_INFORMATION_CONTENT_MEAN,PARTIAL_INFORMATION_CONTENT_STD,INFORMATION_STABILITY_MEAN,INFORMATION_STABILITY_STD,FITNESS_VARIANCE_MEAN_MEAN,FITNESS_VARIANCE_MEAN_STD,FITNESS_VARIANCE_STD_MEAN,FITNESS_VARIANCE_STD_STD,FITNESS_MEAN_MEAN,FITNESS_MEAN_STD,DISPERSION_INDEX_MEAN,DISPERSION_INDEX_STD,MEAN_NUMBER_OF_NEUTRAL_AREAS_MEAN,MEAN_NUMBER_OF_NEUTRAL_AREAS_STD,MEAN_SIZE_OF_NEUTRAL_AREAS_MEAN,MEAN_SIZE_OF_NEUTRAL_AREAS_STD,MEAN_FITNESS_DISTANCE_MEAN,MEAN_FITNESS_DISTANCE_STD,MAX_FITNESS_DISTANCE_MEAN,MAX_FITNESS_DISTANCE_STD
0,SINGLE_CHANGE,"[17.8298525451, 11.8452788369, 16.1189169307, 11.6432805359, 21.8059494487, 18.4327555177, 16.2946873938, 7.6527888292]",Flex Agent 1,0.0,0.1697316369,0.10250000000000001,4.0,0.08821184630000001,0.0186257019,30.159118957,0.0083307923,4.5,1.1666666667,0.5906750613,0.7727705983000001,,,,,,,,,,,,,,,,,,,,,,
1,SINGLE_CHANGE,"[17.8298525451, 11.8452788369, 16.1189169307, 11.6432805359, 21.8059494487, 18.4327555177, 16.2946873938, 7.6527888292]",Flex Agent 1,1.0,0.19534053540000001,0.1325,4.75,0.0769466196,0.0106969134,30.8126998209,-0.0099757566,4.5,1.0,0.697432952,0.7221757531,,,,,,,,,,,,,,,,,,,,,,
2,SINGLE_CHANGE,"[17.8298525451, 11.8452788369, 16.1189169307, 11.6432805359, 21.8059494487, 18.4327555177, 16.2946873938, 7.6527888292]",Flex Agent 1,2.0,0.1874043277,0.1275,4.75,0.0918301177,0.022976260800000002,19.5760467092,-0.0494673673,3.0,1.3333333333000001,0.65163959,0.8795239453,,,,,,,,,,,,,,,,,,,,,,
3,SINGLE_CHANGE,"[17.8298525451, 11.8452788369, 16.1189169307, 11.6432805359, 21.8059494487, 18.4327555177, 16.2946873938, 7.6527888292]",Flex Agent 1,3.0,0.1768230106,0.11,4.75,0.070301863,0.0126731502,53.234800799,-0.0061112083000000005,4.0,1.0,0.5750093852,0.7444573847,,,,,,,,,,,,,,,,,,,,,,
4,SINGLE_CHANGE,"[17.8298525451, 11.8452788369, 16.1189169307, 11.6432805359, 21.8059494487, 18.4327555177, 16.2946873938, 7.6527888292]",Flex Agent 1,4.0,0.1911380407,0.16,4.75,0.0678025236,0.007282738,36.2105718161,-0.0065217858,4.5,1.1428571429,0.7244092677,0.9772043233000001,,,,,,,,,,,,,,,,,,,,,,
5,SINGLE_CHANGE,"[17.8298525451, 11.8452788369, 16.1189169307, 11.6432805359, 21.8059494487, 18.4327555177, 16.2946873938, 7.6527888292]",Flex Agent 0,0.0,0.2004581037,0.1875,3.75,0.03565295,0.0029212214,38.14835163,-0.0005713283000000001,17.0,3.5763888889,0.6366098237000001,0.8610454747,,,,,,,,,,,,,,,,,,,,,,
6,SINGLE_CHANGE,"[17.8298525451, 11.8452788369, 16.1189169307, 11.6432805359, 21.8059494487, 18.4327555177, 16.2946873938, 7.6527888292]",Flex Agent 0,1.0,0.2040469439,0.185,4.0,0.0371618008,0.0075305782000000005,40.5243841243,-0.0005554256,19.5,3.1513157895,0.6589983771,0.6998381716000001,,,,,,,,,,,,,,,,,,,,,,
7,SINGLE_CHANGE,"[17.8298525451, 11.8452788369, 16.1189169307, 11.6432805359, 21.8059494487, 18.4327555177, 16.2946873938, 7.6527888292]",Flex Agent 0,2.0,0.2022286597,0.17,3.5,0.0395049951,0.0042831148000000005,29.8287224738,0.0001397011,23.5,2.5954545455,0.6923365675,0.7846135287,,,,,,,,,,,,,,,,,,,,,,
8,SINGLE_CHANGE,"[17.8298525451, 11.8452788369, 16.1189169307, 11.6432805359, 21.8059494487, 18.4327555177, 16.2946873938, 7.6527888292]",Flex Agent 0,3.0,0.1964362486,0.155,3.5,0.0483260874,0.017452497,54.8049949112,-0.0002252322,21.0,2.7977272727,0.6656406127000001,0.7686713212,,,,,,,,,,,,,,,,,,,,,,
9,SINGLE_CHANGE,"[17.8298525451, 11.8452788369, 16.1189169307, 11.6432805359, 21.8059494487, 18.4327555177, 16.2946873938, 7.6527888292]",Flex Agent 0,4.0,0.19992267,0.1675,3.25,0.0372151109,0.0063240137000000005,27.5264183447,-0.0023160832,20.0,3.25,0.6210117248,0.7161430368,,,,,,,,,,,,,,,,,,,,,,
10,SINGLE_CHANGE,"[17.8298525451, 11.8452788369, 16.1189169307, 11.6432805359, 21.8059494487, 18.4327555177, 16.2946873938, 7.6527888292]",Flex Agent 2,0.0,0.1708474607,0.09,2.75,0.044477436200000005,0.007461223800000001,45.0815417666,-0.0005913464,22.0,3.1333333333,0.4555191294,0.5116727118000001,,,,,,,,,,,,,,,,,,,,,,
11,SINGLE_CHANGE,"[17.8298525451, 11.8452788369, 16.1189169307, 11.6432805359, 21.8059494487, 18.4327555177, 16.2946873938, 7.6527888292]",Flex Agent 2,1.0,0.1757278165,0.0975,2.5,0.0471216671,0.0097223789,47.9221055489,-0.0010360227,23.0,2.5638095238,0.5004005432,0.5435075576,,,,,,,,,,,,,,,,,,,,,,
12,SINGLE_CHANGE,"[17.8298525451, 11.8452788369, 16.1189169307, 11.6432805359, 21.8059494487, 18.4327555177, 16.2946873938, 7.6527888292]",Flex Agent 2,2.0,0.1391032774,0.06,2.75,0.0367584435,0.006360423400000001,56.6668109894,-0.0006498208,20.0,3.1125319693,0.41329869140000003,0.43813543720000003,,,,,,,,,,,,,,,,,,,,,,
13,SINGLE_CHANGE,"[17.8298525451, 11.8452788369, 16.1189169307, 11.6432805359, 21.8059494487, 18.4327555177, 16.2946873938, 7.6527888292]",Flex Agent 2,3.0,0.1527192296,0.07,2.25,0.0373741246,0.008389540400000001,32.0308812124,-0.0007319598000000001,23.5,2.4490740741,0.41182294080000004,0.4672907389,,,,,,,,,,,,,,,,,,,,,,
14,SINGLE_CHANGE,"[17.8298525451, 11.8452788369, 16.1189169307, 11.6432805359, 21.8059494487, 18.4327555177, 16.2946873938, 7.6527888292]",Flex Agent 2,4.0,0.1753877896,0.095,2.75,0.0461200306,0.0025922397,39.3758348799,0.0030664857,18.0,3.7244582043000003,0.5323859836,0.5537722477,,,,,,,,,,,,,,,,,,,,,,
15,SINGLE_CHANGE,"[17.8298525451, 11.8452788369, 16.1189169307, 11.6432805359, 21.8059494487, 18.4327555177, 16.2946873938, 7.6527888292]",Flex Agent 8,0.0,0.1428012653,0.0625,2.25,0.0366249489,0.009641349,51.3549060687,0.0002552938,20.0,3.35839599,0.3178993123,0.37980343990000004,,,,,,,,,,,,,,,,,,,,,,
16,SINGLE_CHANGE,"[17.8298525451, 11.8452788369, 16.1189169307, 11.6432805359, 21.8059494487, 18.4327555177, 16.2946873938, 7.6527888292]",Flex Agent 8,1.0,0.1296903157,0.052500000000000005,2.0,0.0335861014,0.0026228368,53.7189647933,-0.00016967340000000001,20.5,3.075,0.3522386887,0.3701342143,,,,,,,,,,,,,,,,,,,,,,
17,SINGLE_CHANGE,"[17.8298525451, 11.8452788369, 16.1189169307, 11.6432805359, 21.8059494487, 18.4327555177, 16.2946873938, 7.6527888292]",Flex Agent 8,2.0,0.1001414411,0.04,2.0,0.0475872985,0.008569815,48.95359355,0.0005228626,17.0,4.1145833333,0.38282191860000003,0.4556270234,,,,,,,,,,,,,,,,,,,,,,
18,SINGLE_CHANGE,"[17.8298525451, 11.8452788369, 16.1189169307, 11.6432805359, 21.8059494487, 18.4327555177, 16.2946873938, 7.6527888292]",Flex Agent 8,3.0,0.1035574546,0.0375,2.0,0.0390275681,0.007379315500000001,40.7396386505,-0.0003342342,23.0,2.7826086957,0.3006231979,0.3440440688,,,,,,,,,,,,,,,,,,,,,,
19,SINGLE_CHANGE,"[17.8298525451, 11.8452788369, 16.1189169307, 11.6432805359, 21.8059494487, 18.4327555177, 16.2946873938, 7.6527888292]",Flex Agent 8,4.0,0.1210928149,0.0475,2.0,0.0376072262,0.0102455207,36.8206734923,-0.0002094663,21.5,2.677173913,0.3037165211,0.3681175746,,,,,,,,,,,,,,,,,,,,,,
20,SINGLE_CHANGE,"[17.8298525451, 11.8452788369, 16.1189169307, 11.6432805359, 21.8059494487, 18.4327555177, 16.2946873938, 7.6527888292]",Flex Agent 3,0.0,0.0,0.0,1.0,0.0024507401,0.0042448064,52.5123790426,0.0072629045,6.0,1.875,0.0004957699,0.0019830796,,,,,,,,,,,,,,,,,,,,,,
21,SINGLE_CHANGE,"[17.8298525451, 11.8452788369, 16.1189169307, 11.6432805359, 21.8059494487, 18.4327555177, 16.2946873938, 7.6527888292]",Flex Agent 3,1.0,0.0,0.0,1.0,0.0024507401,0.0042448064,66.2933236489,-1.0350000000000001e-05,8.0,1.0,0.0016572615,0.0066290461,,,,,,,,,,,,,,,,,,,,,,
22,SINGLE_CHANGE,"[17.8298525451, 11.8452788369, 16.1189169307, 11.6432805359, 21.8059494487, 18.4327555177, 16.2946873938, 7.6527888292]",Flex Agent 3,2.0,0.006425486,0.0,1.25,0.0024507401,0.0042448064,56.0748663683,-2.64276e-05,7.0,1.1428571429,0.0025337309,0.0101349235,,,,,,,,,,,,,,,,,,,,,,
23,SINGLE_CHANGE,"[17.8298525451, 11.8452788369, 16.1189169307, 11.6432805359, 21.8059494487, 18.4327555177, 16.2946873938, 7.6527888292]",Flex Agent 3,3.0,0.0,0.0,1.0,0.0024507401,0.0042448064,32.9601394602,3.7923400000000004e-05,7.5,1.1964285714,0.0013528941000000001,0.0054115764000000005,,,,,,,,,,,,,,,,,,,,,,
24,SINGLE_CHANGE,"[17.8298525451, 11.8452788369, 16.1189169307, 11.6432805359, 21.8059494487, 18.4327555177, 16.2946873938, 7.6527888292]",Flex Agent 3,4.0,0.0,0.0,1.0,0.0024507401,0.0042448064,59.7805453298,2.36651e-05,7.5,1.1339285714,0.0012345283,0.0049381131000000005,,,,,,,,,,,,,,,,,,,,,,
25,SINGLE_CHANGE,"[17.8298525451, 11.8452788369, 16.1189169307, 11.6432805359, 21.8059494487, 18.4327555177, 16.2946873938, 7.6527888292]",Flex Agent 6,0.0,0.12528687360000001,0.052500000000000005,2.0,0.0466044383,0.0135335486,27.3226617063,0.0056560911,20.0,3.104859335,0.3511911461,0.4023592628,,,,,,,,,,,,,,,,,,,,,,
26,SINGLE_CHANGE,"[17.8298525451, 11.8452788369, 16.1189169307, 11.6432805359, 21.8059494487, 18.4327555177, 16.2946873938, 7.6527888292]",Flex Agent 6,1.0,0.12866858520000002,0.052500000000000005,3.0,0.030003727100000002,0.0087580147,37.4816270713,-0.0007713430000000001,23.0,3.0555555556,0.3118885838,0.337443888,,,,,,,,,,,,,,,,,,,,,,
27,SINGLE_CHANGE,"[17.8298525451, 11.8452788369, 16.1189169307, 11.6432805359, 21.8059494487, 18.4327555177, 16.2946873938, 7.6527888292]",Flex Agent 6,2.0,0.1107988008,0.04,2.25,0.0435721509,0.0147184866,51.7194265342,2.7013800000000002e-05,19.0,3.1732954545,0.3377506758,0.3445786524,,,,,,,,,,,,,,,,,,,,,,
28,SINGLE_CHANGE,"[17.8298525451, 11.8452788369, 16.1189169307, 11.6432805359, 21.8059494487, 18.4327555177, 16.2946873938, 7.6527888292]",Flex Agent 6,3.0,0.11553520490000001,0.0425,2.0,0.0399163039,0.0066718115,71.6989328779,-0.00033777190000000004,20.0,3.0676691729,0.36806469470000003,0.3941641717,,,,,,,,,,,,,,,,,,,,,,
29,SINGLE_CHANGE,"[17.8298525451, 11.8452788369, 16.1189169307, 11.6432805359, 21.8059494487, 18.4327555177, 16.2946873938, 7.6527888292]",Flex Agent 6,4.0,0.1161242554,0.045,2.5,0.0354099965,0.0049669481,35.324497714,-7.00956e-05,23.5,2.6208791208999997,0.29271259650000003,0.3300733852,,,,,,,,,,,,,,,,,,,,,,
30,SINGLE_CHANGE,"[17.8298525451, 11.8452788369, 16.1189169307, 11.6432805359, 21.8059494487, 18.4327555177, 16.2946873938, 7.6527888292]",Flex Agent 9,0.0,0.12843076150000002,0.05,2.25,0.037373625,0.0049866276,46.2897802672,0.0006045517000000001,16.0,4.2583333333,0.3479158076,0.3722395378,,,,,,,,,,,,,,,,,,,,,,
31,SINGLE_CHANGE,"[17.8298525451, 11.8452788369, 16.1189169307, 11.6432805359, 21.8059494487, 18.4327555177, 16.2946873938, 7.6527888292]",Flex Agent 9,1.0,0.1375597363,0.0575,2.0,0.036607392,0.0073613338000000006,48.972407913,0.0013136427,20.0,2.9671717172000003,0.3410676274,0.38724659170000003,,,,,,,,,,,,,,,,,,,,,,
32,SINGLE_CHANGE,"[17.8298525451, 11.8452788369, 16.1189169307, 11.6432805359, 21.8059494487, 18.4327555177, 16.2946873938, 7.6527888292]",Flex Agent 9,2.0,0.0932634405,0.03,2.0,0.0393435517,0.0111975245,32.1532151355,0.0021178159,21.5,3.0922222222,0.33028338090000003,0.357809048,,,,,,,,,,,,,,,,,,,,,,
33,SINGLE_CHANGE,"[17.8298525451, 11.8452788369, 16.1189169307, 11.6432805359, 21.8059494487, 18.4327555177, 16.2946873938, 7.6527888292]",Flex Agent 9,3.0,0.14357198470000002,0.0625,2.0,0.037196838,0.0056160083,39.1644784137,0.00012714440000000002,16.5,3.9342105263000002,0.3674067793,0.41020883300000005,,,,,,,,,,,,,,,,,,,,,,
34,SINGLE_CHANGE,"[17.8298525451, 11.8452788369, 16.1189169307, 11.6432805359, 21.8059494487, 18.4327555177, 16.2946873938, 7.6527888292]",Flex Agent 9,4.0,0.136271226,0.055,2.25,0.0434477835,0.006699678200000001,48.3341104814,-0.0002217392,22.0,2.7246376812,0.3118423225,0.3357406161,,,,,,,,,,,,,,,,,,,,,,
35,SINGLE_CHANGE,"[17.8298525451, 11.8452788369, 16.1189169307, 11.6432805359, 21.8059494487, 18.4327555177, 16.2946873938, 7.6527888292]",Flex Agent 5,0.0,0.19914648140000002,0.1575,3.75,0.0324679717,0.0060667623,51.5970674205,-0.00047198410000000003,16.0,4.3015873016,0.5756334618,0.6370944283000001,,,,,,,,,,,,,,,,,,,,,,
36,SINGLE_CHANGE,"[17.8298525451, 11.8452788369, 16.1189169307, 11.6432805359, 21.8059494487, 18.4327555177, 16.2946873938, 7.6527888292]",Flex Agent 5,1.0,0.20275845150000002,0.17500000000000002,3.0,0.0350496676,0.0073113032,45.6106311844,0.0005186742000000001,23.5,2.7416666667,0.6109980409,0.7067891425,,,,,,,,,,,,,,,,,,,,,,
37,SINGLE_CHANGE,"[17.8298525451, 11.8452788369, 16.1189169307, 11.6432805359, 21.8059494487, 18.4327555177, 16.2946873938, 7.6527888292]",Flex Agent 5,2.0,0.1929187543,0.1325,3.75,0.037115765700000004,0.0042924304,44.5397649193,-0.0006421687000000001,22.5,2.6432806323999998,0.5065533572,0.6037515571000001,,,,,,,,,,,,,,,,,,,,,,
38,SINGLE_CHANGE,"[17.8298525451, 11.8452788369, 16.1189169307, 11.6432805359, 21.8059494487, 18.4327555177, 16.2946873938, 7.6527888292]",Flex Agent 5,3.0,0.2026840147,0.17500000000000002,3.5,0.048483833000000004,0.0096565003,50.4433736889,0.001238898,20.0,2.977443609,0.655951896,0.8062281428,,,,,,,,,,,,,,,,,,,,,,
39,SINGLE_CHANGE,"[17.8298525451, 11.8452788369, 16.1189169307, 11.6432805359, 21.8059494487, 18.4327555177, 16.2946873938, 7.6527888292]",Flex Agent 5,4.0,0.2035848492,0.17250000000000001,3.25,0.0404828977,0.0081128955,20.5524643602,-0.0021717648,18.5,3.5102941176,0.6497544084,0.6998737749,,,,,,,,,,,,,,,,,,,,,,
40,SINGLE_CHANGE,"[17.8298525451, 11.8452788369, 16.1189169307, 11.6432805359, 21.8059494487, 18.4327555177, 16.2946873938, 7.6527888292]",Flex Agent 7,0.0,0.1980445399,0.145,6.0,0.0734997582,0.0075663502,43.8456567849,-0.0051681999999999995,2.5,1.0,0.7896043632,0.9394636476,,,,,,,,,,,,,,,,,,,,,,
41,SINGLE_CHANGE,"[17.8298525451, 11.8452788369, 16.1189169307, 11.6432805359, 21.8059494487, 18.4327555177, 16.2946873938, 7.6527888292]",Flex Agent 7,1.0,0.2039291735,0.2175,5.5,0.0763010338,0.007805334200000001,36.4271857848,-0.007367118000000001,3.0,1.125,0.9103226499,0.9274738561,,,,,,,,,,,,,,,,,,,,,,
42,SINGLE_CHANGE,"[17.8298525451, 11.8452788369, 16.1189169307, 11.6432805359, 21.8059494487, 18.4327555177, 16.2946873938, 7.6527888292]",Flex Agent 7,2.0,0.1969556743,0.14250000000000002,4.75,0.0712607584,0.0085768935,36.1221598944,-0.024225737400000003,3.5,1.0,0.7350088610000001,0.8745396951000001,,,,,,,,,,,,,,,,,,,,,,
43,SINGLE_CHANGE,"[17.8298525451, 11.8452788369, 16.1189169307, 11.6432805359, 21.8059494487, 18.4327555177, 16.2946873938, 7.6527888292]",Flex Agent 7,3.0,0.1982114976,0.15,5.5,0.0820075822,0.0144052278,47.8685569677,0.004064573,5.5,1.0833333333,0.7183759115,0.8188701926,,,,,,,,,,,,,,,,,,,,,,
44,SINGLE_CHANGE,"[17.8298525451, 11.8452788369, 16.1189169307, 11.6432805359, 21.8059494487, 18.4327555177, 16.2946873938, 7.6527888292]",Flex Agent 7,4.0,0.19139503160000002,0.1275,4.75,0.0852638387,0.0089645844,36.243969198,-0.063324348,8.0,1.0714285714,0.6435312075,0.6679121576,,,,,,,,,,,,,,,,,,,,,,
45,SINGLE_CHANGE,"[17.8298525451, 11.8452788369, 16.1189169307, 11.6432805359, 21.8059494487, 18.4327555177, 16.2946873938, 7.6527888292]",Flex Agent 4,0.0,0.19765076750000002,0.19,5.25,0.06949040050000001,0.015255398500000001,43.0054389323,-0.0051906731,2.5,1.0,0.8602134521,1.1625472523,,,,,,,,,,,,,,,,,,,,,,
46,SINGLE_CHANGE,"[17.8298525451, 11.8452788369, 16.1189169307, 11.6432805359, 21.8059494487, 18.4327555177, 16.2946873938, 7.6527888292]",Flex Agent 4,1.0,0.19298947930000002,0.14750000000000002,5.0,0.0688603912,0.0135089599,40.235006231,0.0130017293,5.0,1.1,0.6903509845,0.8746946306000001,,,,,,,,,,,,,,,,,,,,,,
47,SINGLE_CHANGE,"[17.8298525451, 11.8452788369, 16.1189169307, 11.6432805359, 21.8059494487, 18.4327555177, 16.2946873938, 7.6527888292]",Flex Agent 4,2.0,0.1958884941,0.14250000000000002,5.0,0.0716627979,0.0219029121,36.9713632744,-0.010943066000000001,5.0,1.0625,0.6918324444,0.8163382378,,,,,,,,,,,,,,,,,,,,,,
48,SINGLE_CHANGE,"[17.8298525451, 11.8452788369, 16.1189169307, 11.6432805359, 21.8059494487, 18.4327555177, 16.2946873938, 7.6527888292]",Flex Agent 4,3.0,0.18853887090000002,0.12250000000000001,5.0,0.0718172272,0.0185367461,40.6280714858,0.0326447989,7.5,1.2083333333,0.667224303,0.7713067720000001,,,,,,,,,,,,,,,,,,,,,,
49,SINGLE_CHANGE,"[17.8298525451, 11.8452788369, 16.1189169307, 11.6432805359, 21.8059494487, 18.4327555177, 16.2946873938, 7.6527888292]",Flex Agent 4,4.0,0.1905718776,0.1275,5.5,0.062079805700000004,0.0123732148,58.0155384532,0.0031059714,5.0,1.4761904762,0.6247068186,0.7604885832,,,,,,,,,,,,,,,,,,,,,,
50,,,Global,,,,,,,,,,,,,0.150636067098,0.060611257427787175,0.09924999999999999,0.06089102427069768,3.225,1.4053923121393572,0.046536239928,0.022651154456636288,0.009076407194,0.004882551315716463,43.033594021645996,10.985725871671956,-0.0023269793080000004,0.013269685691290682,14.31,7.8160549054951165,2.3530563824520003,1.0690207642910612,0.4836390049660001,0.23057917615713572,0.562537626956,0.2818779431005549
