,NeighborhoodDefinition,TargetSchedule,Agent,FLA_ID,INFORMATION_CONTENT,PARTIAL_INFORMATION_CONTENT,INFORMATION_STABILITY,FITNESS_VARIANCE_MEAN,FITNESS_VARIANCE_STD,FITNESS_MEAN,DISPERSION_INDEX,MEAN_NUMBER_OF_NEUTRAL_AREAS,MEAN_SIZE_OF_NEUTRAL_AREAS,MEAN_FITNESS_DISTANCE,MAX_FITNESS_DISTANCE,INFORMATION_CONTENT_MEAN,INFORMATION_CONTENT_STD,PARTIAL_INFORMATION_CONTENT_MEAN,PARTIAL_INFORMATION_CONTENT_STD,INFORMATION_STABILITY_MEAN,INFORMATION_STABILITY_STD,FITNESS_VARIANCE_MEAN_MEAN,FITNESS_VARIANCE_MEAN_STD,FITNESS_VARIANCE_STD_MEAN,FITNESS_VARIANCE_STD_STD,FITNESS_MEAN_MEAN,FITNESS_MEAN_STD,DISPERSION_INDEX_MEAN,DISPERSION_INDEX_STD,MEAN_NUMBER_OF_NEUTRAL_AREAS_MEAN,MEAN_NUMBER_OF_NEUTRAL_AREAS_STD,MEAN_SIZE_OF_NEUTRAL_AREAS_MEAN,MEAN_SIZE_OF_NEUTRAL_AREAS_STD,MEAN_FITNESS_DISTANCE_MEAN,MEAN_FITNESS_DISTANCE_STD,MAX_FITNESS_DISTANCE_MEAN,MAX_FITNESS_DISTANCE_STD
0,SINGLE_CHANGE,"[28.1452555765, 26.2656813561, 21.3359867423, 28.0367480841, 28.4412933355, 28.191463874, 28.2707341698, 28.4877234528]",Flex Agent 2,0.0,0.006425486,0.0,1.25,0.0024507401,0.0042448064,15.76180162,0.0043560978,5.5,2.1166666667,0.0029083943,0.0116335773,,,,,,,,,,,,,,,,,,,,,,
1,SINGLE_CHANGE,"[28.1452555765, 26.2656813561, 21.3359867423, 28.0367480841, 28.4412933355, 28.191463874, 28.2707341698, 28.4877234528]",Flex Agent 2,1.0,0.006425486,0.0,1.25,0.0024507401,0.0042448064,15.4219672369,-0.0001284053,5.0,1.0,0.0032177559,0.0128710235,,,,,,,,,,,,,,,,,,,,,,
2,SINGLE_CHANGE,"[28.1452555765, 26.2656813561, 21.3359867423, 28.0367480841, 28.4412933355, 28.191463874, 28.2707341698, 28.4877234528]",Flex Agent 2,2.0,0.0,0.0,1.0,0.0024507401,0.0042448064,10.9243260561,-1.60132e-05,5.0,1.0,0.0017464093,0.006985637,,,,,,,,,,,,,,,,,,,,,,
3,SINGLE_CHANGE,"[28.1452555765, 26.2656813561, 21.3359867423, 28.0367480841, 28.4412933355, 28.191463874, 28.2707341698, 28.4877234528]",Flex Agent 2,3.0,0.006425486,0.0,1.25,0.0024507401,0.0042448064,11.8854713614,0.0024115028,5.0,1.0,0.003037929,0.012151716,,,,,,,,,,,,,,,,,,,,,,
4,SINGLE_CHANGE,"[28.1452555765, 26.2656813561, 21.3359867423, 28.0367480841, 28.4412933355, 28.191463874, 28.2707341698, 28.4877234528]",Flex Agent 2,4.0,0.006425486,0.0,1.25,0.0024507401,0.0042448064,16.4666702182,0.0001658668,5.0,1.8,0.0031535316,0.012614126500000001,,,,,,,,,,,,,,,,,,,,,,
5,SINGLE_CHANGE,"[28.1452555765, 26.2656813561, 21.3359867423, 28.0367480841, 28.4412933355, 28.191463874, 28.2707341698, 28.4877234528]",Flex Agent 1,0.0,0.14945146210000002,0.07,3.0,0.0503549134,0.0133768247,8.7256995793,-0.0031119317000000003,24.0,2.4008695652,0.47557323900000004,0.5338692868,,,,,,,,,,,,,,,,,,,,,,
6,SINGLE_CHANGE,"[28.1452555765, 26.2656813561, 21.3359867423, 28.0367480841, 28.4412933355, 28.191463874, 28.2707341698, 28.4877234528]",Flex Agent 1,1.0,0.16691577600000002,0.08750000000000001,2.25,0.0580556313,0.0105955335,11.1398314523,-9.5709e-06,22.0,2.7091097308,0.4388341079,0.4842452413,,,,,,,,,,,,,,,,,,,,,,
7,SINGLE_CHANGE,"[28.1452555765, 26.2656813561, 21.3359867423, 28.0367480841, 28.4412933355, 28.191463874, 28.2707341698, 28.4877234528]",Flex Agent 1,2.0,0.16738955700000002,0.085,2.0,0.062448429800000003,0.0070279569,9.174537368,-0.0023048433,24.5,2.5725,0.41728085400000003,0.48625191900000003,,,,,,,,,,,,,,,,,,,,,,
8,SINGLE_CHANGE,"[28.1452555765, 26.2656813561, 21.3359867423, 28.0367480841, 28.4412933355, 28.191463874, 28.2707341698, 28.4877234528]",Flex Agent 1,3.0,0.1609995776,0.08,2.5,0.058606274300000004,0.006887112000000001,8.6951652992,-0.0021895016,23.0,2.6956521739,0.41175972580000003,0.4432817579,,,,,,,,,,,,,,,,,,,,,,
9,SINGLE_CHANGE,"[28.1452555765, 26.2656813561, 21.3359867423, 28.0367480841, 28.4412933355, 28.191463874, 28.2707341698, 28.4877234528]",Flex Agent 1,4.0,0.15529917240000002,0.0775,2.5,0.0425090507,0.0031992168000000002,13.0718351047,-0.007091894400000001,22.0,2.938034188,0.38930592350000004,0.4515081943,,,,,,,,,,,,,,,,,,,,,,
10,SINGLE_CHANGE,"[28.1452555765, 26.2656813561, 21.3359867423, 28.0367480841, 28.4412933355, 28.191463874, 28.2707341698, 28.4877234528]",Flex Agent 7,0.0,0.006425486,0.0,1.25,0.0024507401,0.0042448064,17.4788562269,-0.0112065688,4.5,1.0,0.0032180682,0.0128722729,,,,,,,,,,,,,,,,,,,,,,
11,SINGLE_CHANGE,"[28.1452555765, 26.2656813561, 21.3359867423, 28.0367480841, 28.4412933355, 28.191463874, 28.2707341698, 28.4877234528]",Flex Agent 7,1.0,0.006425486,0.0,1.25,0.0024507401,0.0042448064,10.3326143459,0.0002891553,5.0,1.0,0.0032177559,0.0128710235,,,,,,,,,,,,,,,,,,,,,,
12,SINGLE_CHANGE,"[28.1452555765, 26.2656813561, 21.3359867423, 28.0367480841, 28.4412933355, 28.191463874, 28.2707341698, 28.4877234528]",Flex Agent 7,2.0,0.0,0.0,1.0,0.0024507401,0.0042448064,12.7317603879,-0.0038436654,5.0,1.0,0.0017464093,0.006985637,,,,,,,,,,,,,,,,,,,,,,
13,SINGLE_CHANGE,"[28.1452555765, 26.2656813561, 21.3359867423, 28.0367480841, 28.4412933355, 28.191463874, 28.2707341698, 28.4877234528]",Flex Agent 7,3.0,0.006425486,0.0,1.25,0.0024507401,0.0042448064,14.0740245579,-0.0034968580000000003,5.0,1.0,0.003037929,0.012151716,,,,,,,,,,,,,,,,,,,,,,
14,SINGLE_CHANGE,"[28.1452555765, 26.2656813561, 21.3359867423, 28.0367480841, 28.4412933355, 28.191463874, 28.2707341698, 28.4877234528]",Flex Agent 7,4.0,0.006425486,0.0,1.25,0.0024507401,0.0042448064,15.6567720141,-0.0045661941000000004,5.0,1.0,0.0028452582000000003,0.011381032900000001,,,,,,,,,,,,,,,,,,,,,,
15,SINGLE_CHANGE,"[28.1452555765, 26.2656813561, 21.3359867423, 28.0367480841, 28.4412933355, 28.191463874, 28.2707341698, 28.4877234528]",Flex Agent 6,0.0,0.1934786493,0.1525,2.75,0.08983422,0.014750627300000001,29.2021670423,0.036722954700000005,3.5,1.5,0.6227721129,0.7845127949,,,,,,,,,,,,,,,,,,,,,,
16,SINGLE_CHANGE,"[28.1452555765, 26.2656813561, 21.3359867423, 28.0367480841, 28.4412933355, 28.191463874, 28.2707341698, 28.4877234528]",Flex Agent 6,1.0,0.1819319463,0.125,4.0,0.0633884299,0.010863954700000001,29.5307985368,-0.056564845100000004,3.5,1.25,0.5908911321,0.6761428454,,,,,,,,,,,,,,,,,,,,,,
17,SINGLE_CHANGE,"[28.1452555765, 26.2656813561, 21.3359867423, 28.0367480841, 28.4412933355, 28.191463874, 28.2707341698, 28.4877234528]",Flex Agent 6,2.0,0.2009315298,0.1625,4.0,0.0838032087,0.004883576000000001,30.6300874247,-0.0529283165,3.5,1.0833333333,0.6713381618,0.7945323701,,,,,,,,,,,,,,,,,,,,,,
18,SINGLE_CHANGE,"[28.1452555765, 26.2656813561, 21.3359867423, 28.0367480841, 28.4412933355, 28.191463874, 28.2707341698, 28.4877234528]",Flex Agent 6,3.0,0.1981949704,0.1525,3.75,0.07804852720000001,0.0136635685,30.4078439384,-0.09744264150000001,2.5,1.6666666667,0.6197584386,0.6451209976000001,,,,,,,,,,,,,,,,,,,,,,
19,SINGLE_CHANGE,"[28.1452555765, 26.2656813561, 21.3359867423, 28.0367480841, 28.4412933355, 28.191463874, 28.2707341698, 28.4877234528]",Flex Agent 6,4.0,0.19955280960000002,0.1625,3.5,0.0694303897,0.021192291800000002,28.1379464961,-0.1067662592,7.5,1.3888888889,0.6291201576000001,0.7482650605000001,,,,,,,,,,,,,,,,,,,,,,
20,SINGLE_CHANGE,"[28.1452555765, 26.2656813561, 21.3359867423, 28.0367480841, 28.4412933355, 28.191463874, 28.2707341698, 28.4877234528]",Flex Agent 0,0.0,0.006425486,0.0,4.25,0.0024507401,0.0042448064,57.0130393362,0.00010914980000000001,3.5,2.4166666667,0.034436160800000004,0.1377446431,,,,,,,,,,,,,,,,,,,,,,
21,SINGLE_CHANGE,"[28.1452555765, 26.2656813561, 21.3359867423, 28.0367480841, 28.4412933355, 28.191463874, 28.2707341698, 28.4877234528]",Flex Agent 0,1.0,0.006425486,0.0,5.5,0.0024507401,0.0042448064,66.384645169,0.0067195031,3.0,2.3333333333,0.0470916776,0.1883667105,,,,,,,,,,,,,,,,,,,,,,
22,SINGLE_CHANGE,"[28.1452555765, 26.2656813561, 21.3359867423, 28.0367480841, 28.4412933355, 28.191463874, 28.2707341698, 28.4877234528]",Flex Agent 0,2.0,0.006425486,0.0,4.0,0.0024507401,0.0042448064,75.4203813766,0.0108532577,3.0,2.3333333333,0.0314984963,0.1259939852,,,,,,,,,,,,,,,,,,,,,,
23,SINGLE_CHANGE,"[28.1452555765, 26.2656813561, 21.3359867423, 28.0367480841, 28.4412933355, 28.191463874, 28.2707341698, 28.4877234528]",Flex Agent 0,3.0,0.006425486,0.0,2.5,0.0024507401,0.0042448064,80.7697302635,0.0177171278,3.5,2.1666666667,0.0161378805,0.06455152210000001,,,,,,,,,,,,,,,,,,,,,,
24,SINGLE_CHANGE,"[28.1452555765, 26.2656813561, 21.3359867423, 28.0367480841, 28.4412933355, 28.191463874, 28.2707341698, 28.4877234528]",Flex Agent 0,4.0,0.006425486,0.0,3.25,0.0024507401,0.0042448064,63.4164103614,0.0114848864,3.0,2.3333333333,0.0236002992,0.0944011966,,,,,,,,,,,,,,,,,,,,,,
25,SINGLE_CHANGE,"[28.1452555765, 26.2656813561, 21.3359867423, 28.0367480841, 28.4412933355, 28.191463874, 28.2707341698, 28.4877234528]",Flex Agent 4,0.0,0.006425486,0.0,4.25,0.0024507401,0.0042448064,50.071322085,-0.0066115817,3.5,2.4166666667,0.034436160800000004,0.1377446431,,,,,,,,,,,,,,,,,,,,,,
26,SINGLE_CHANGE,"[28.1452555765, 26.2656813561, 21.3359867423, 28.0367480841, 28.4412933355, 28.191463874, 28.2707341698, 28.4877234528]",Flex Agent 4,1.0,0.006425486,0.0,5.5,0.0024507401,0.0042448064,64.9441457107,0.0016998633000000001,3.0,2.3333333333,0.0470916776,0.1883667105,,,,,,,,,,,,,,,,,,,,,,
27,SINGLE_CHANGE,"[28.1452555765, 26.2656813561, 21.3359867423, 28.0367480841, 28.4412933355, 28.191463874, 28.2707341698, 28.4877234528]",Flex Agent 4,2.0,0.006425486,0.0,4.0,0.0024507401,0.0042448064,78.6267456523,-0.0056007850000000005,3.5,1.9166666667,0.0314984963,0.1259939852,,,,,,,,,,,,,,,,,,,,,,
28,SINGLE_CHANGE,"[28.1452555765, 26.2656813561, 21.3359867423, 28.0367480841, 28.4412933355, 28.191463874, 28.2707341698, 28.4877234528]",Flex Agent 4,3.0,0.006425486,0.0,2.5,0.0024507401,0.0042448064,79.3673625935,0.0035820528000000003,3.5,2.1666666667,0.0161378805,0.06455152210000001,,,,,,,,,,,,,,,,,,,,,,
29,SINGLE_CHANGE,"[28.1452555765, 26.2656813561, 21.3359867423, 28.0367480841, 28.4412933355, 28.191463874, 28.2707341698, 28.4877234528]",Flex Agent 4,4.0,0.006425486,0.0,3.25,0.0024507401,0.0042448064,66.849874718,0.0065776953,3.0,2.3333333333,0.0236002992,0.0944011966,,,,,,,,,,,,,,,,,,,,,,
30,SINGLE_CHANGE,"[28.1452555765, 26.2656813561, 21.3359867423, 28.0367480841, 28.4412933355, 28.191463874, 28.2707341698, 28.4877234528]",Flex Agent 8,0.0,0.20155800370000002,0.1625,4.25,0.0815732755,0.0168766813,27.1699006982,-0.07119830170000001,4.5,1.0714285714,0.7847171599,0.8203508222,,,,,,,,,,,,,,,,,,,,,,
31,SINGLE_CHANGE,"[28.1452555765, 26.2656813561, 21.3359867423, 28.0367480841, 28.4412933355, 28.191463874, 28.2707341698, 28.4877234528]",Flex Agent 8,1.0,0.19617285850000002,0.1375,3.5,0.07395820560000001,0.0097705524,28.0884120609,-0.0426109296,6.0,1.1714285714,0.6481328566,0.6777260834000001,,,,,,,,,,,,,,,,,,,,,,
32,SINGLE_CHANGE,"[28.1452555765, 26.2656813561, 21.3359867423, 28.0367480841, 28.4412933355, 28.191463874, 28.2707341698, 28.4877234528]",Flex Agent 8,2.0,0.20088924760000001,0.1575,3.5,0.0774491124,0.0159538298,26.8633831515,-0.0537839436,3.0,1.1,0.6819970907,0.7112729096,,,,,,,,,,,,,,,,,,,,,,
33,SINGLE_CHANGE,"[28.1452555765, 26.2656813561, 21.3359867423, 28.0367480841, 28.4412933355, 28.191463874, 28.2707341698, 28.4877234528]",Flex Agent 8,3.0,0.1956967738,0.1375,3.5,0.0714348959,0.0150471905,26.9482528221,-0.0624698443,5.5,1.35,0.6113099403000001,0.6750821849,,,,,,,,,,,,,,,,,,,,,,
34,SINGLE_CHANGE,"[28.1452555765, 26.2656813561, 21.3359867423, 28.0367480841, 28.4412933355, 28.191463874, 28.2707341698, 28.4877234528]",Flex Agent 8,4.0,0.19516037930000002,0.1375,3.75,0.0782035407,0.024680587900000002,27.9156739993,-0.0528034681,7.0,1.1875,0.6290771533,0.7235656840000001,,,,,,,,,,,,,,,,,,,,,,
35,SINGLE_CHANGE,"[28.1452555765, 26.2656813561, 21.3359867423, 28.0367480841, 28.4412933355, 28.191463874, 28.2707341698, 28.4877234528]",Flex Agent 3,0.0,0.1913892091,0.14250000000000002,4.0,0.080943235,0.0113785653,34.3912625879,-0.044010809500000005,3.5,1.5,0.6485320576,0.7123033498,,,,,,,,,,,,,,,,,,,,,,
36,SINGLE_CHANGE,"[28.1452555765, 26.2656813561, 21.3359867423, 28.0367480841, 28.4412933355, 28.191463874, 28.2707341698, 28.4877234528]",Flex Agent 3,1.0,0.1892576373,0.14250000000000002,4.0,0.0704677214,0.006333398400000001,29.7443541458,-0.0242187342,4.5,1.1666666667,0.6227240141,0.7508318472000001,,,,,,,,,,,,,,,,,,,,,,
37,SINGLE_CHANGE,"[28.1452555765, 26.2656813561, 21.3359867423, 28.0367480841, 28.4412933355, 28.191463874, 28.2707341698, 28.4877234528]",Flex Agent 3,2.0,0.19084870850000002,0.14250000000000002,3.5,0.0773858344,0.010024779400000001,30.2853060375,-0.0321371195,3.0,1.3333333333000001,0.6377198946,0.7643726674,,,,,,,,,,,,,,,,,,,,,,
38,SINGLE_CHANGE,"[28.1452555765, 26.2656813561, 21.3359867423, 28.0367480841, 28.4412933355, 28.191463874, 28.2707341698, 28.4877234528]",Flex Agent 3,3.0,0.19651633640000002,0.14,3.75,0.06979058340000001,0.0094180774,27.0551801676,-0.0426410537,6.0,1.0,0.7053127316000001,0.8331813025,,,,,,,,,,,,,,,,,,,,,,
39,SINGLE_CHANGE,"[28.1452555765, 26.2656813561, 21.3359867423, 28.0367480841, 28.4412933355, 28.191463874, 28.2707341698, 28.4877234528]",Flex Agent 3,4.0,0.19401724680000001,0.14,3.75,0.07693342410000001,0.0013902043,26.2754715183,-0.0800892884,5.5,1.1428571429,0.6320117695,0.7256983418,,,,,,,,,,,,,,,,,,,,,,
40,SINGLE_CHANGE,"[28.1452555765, 26.2656813561, 21.3359867423, 28.0367480841, 28.4412933355, 28.191463874, 28.2707341698, 28.4877234528]",Flex Agent 5,0.0,0.006425486,0.0,1.25,0.0024507401,0.0042448064,15.3516329538,0.0061887081,5.5,2.1166666667,0.0029083943,0.0116335773,,,,,,,,,,,,,,,,,,,,,,
41,SINGLE_CHANGE,"[28.1452555765, 26.2656813561, 21.3359867423, 28.0367480841, 28.4412933355, 28.191463874, 28.2707341698, 28.4877234528]",Flex Agent 5,1.0,0.0,0.0,1.0,0.0024507401,0.0042448064,12.1187582885,-0.0004325034,5.5,1.7333333333,0.0017550398,0.0070201594,,,,,,,,,,,,,,,,,,,,,,
42,SINGLE_CHANGE,"[28.1452555765, 26.2656813561, 21.3359867423, 28.0367480841, 28.4412933355, 28.191463874, 28.2707341698, 28.4877234528]",Flex Agent 5,2.0,0.0,0.0,1.0,0.0024507401,0.0042448064,9.5465155374,-0.0021203775000000003,5.0,1.0,0.0017464093,0.006985637,,,,,,,,,,,,,,,,,,,,,,
43,SINGLE_CHANGE,"[28.1452555765, 26.2656813561, 21.3359867423, 28.0367480841, 28.4412933355, 28.191463874, 28.2707341698, 28.4877234528]",Flex Agent 5,3.0,0.006425486,0.0,1.25,0.0024507401,0.0042448064,10.5574011598,0.0002159816,5.0,1.0,0.003037929,0.012151716,,,,,,,,,,,,,,,,,,,,,,
44,SINGLE_CHANGE,"[28.1452555765, 26.2656813561, 21.3359867423, 28.0367480841, 28.4412933355, 28.191463874, 28.2707341698, 28.4877234528]",Flex Agent 5,4.0,0.006425486,0.0,1.25,0.0024507401,0.0042448064,12.0178456308,0.00024852990000000003,5.0,1.0,0.0028452582000000003,0.011381032900000001,,,,,,,,,,,,,,,,,,,,,,
45,SINGLE_CHANGE,"[28.1452555765, 26.2656813561, 21.3359867423, 28.0367480841, 28.4412933355, 28.191463874, 28.2707341698, 28.4877234528]",Flex Agent 9,0.0,0.0,0.0,1.0,0.0024507401,0.0042448064,18.7150478342,-0.0137961204,2.0,1.0,0.0012733412,0.0050933647,,,,,,,,,,,,,,,,,,,,,,
46,SINGLE_CHANGE,"[28.1452555765, 26.2656813561, 21.3359867423, 28.0367480841, 28.4412933355, 28.191463874, 28.2707341698, 28.4877234528]",Flex Agent 9,1.0,0.006425486,0.0,1.25,0.0024507401,0.0042448064,18.7480486301,-0.0053329207,1.0,1.0,0.0030212856,0.0120851424,,,,,,,,,,,,,,,,,,,,,,
47,SINGLE_CHANGE,"[28.1452555765, 26.2656813561, 21.3359867423, 28.0367480841, 28.4412933355, 28.191463874, 28.2707341698, 28.4877234528]",Flex Agent 9,2.0,0.0,0.0,1.0,0.0024507401,0.0042448064,18.2716397529,-0.0013601471,1.0,1.0,0.0013275299000000001,0.005310119800000001,,,,,,,,,,,,,,,,,,,,,,
48,SINGLE_CHANGE,"[28.1452555765, 26.2656813561, 21.3359867423, 28.0367480841, 28.4412933355, 28.191463874, 28.2707341698, 28.4877234528]",Flex Agent 9,3.0,0.0,0.0,1.0,0.0024507401,0.0042448064,16.7604168721,0.0028361959,1.0,1.0,0.0010654345,0.0042617379000000006,,,,,,,,,,,,,,,,,,,,,,
49,SINGLE_CHANGE,"[28.1452555765, 26.2656813561, 21.3359867423, 28.0367480841, 28.4412933355, 28.191463874, 28.2707341698, 28.4877234528]",Flex Agent 9,4.0,0.0,0.0,1.0,0.0024507401,0.0042448064,18.4874686205,-0.0012442617,1.0,1.0,0.0009921604,0.0039686416,,,,,,,,,,,,,,,,,,,,,,
50,,,Global,,,,,,,,,,,,,0.07734025087000002,0.09047268420066155,0.051899999999999995,0.06708310411081808,2.595,1.3551583234562128,0.029762822128,0.03458104334026658,0.007093174418000001,0.005049741431766493,29.15251612005,21.46084898061502,-0.015639023400000004,0.030491358595558394,5.98,5.953870289867879,1.574898709984,0.6247537528232037,0.24443599546199998,0.2957885187497911,0.29713281334400005,0.32212566231074274
