,NeighborhoodDefinition,TargetSchedule,Agent,FLA_ID,INFORMATION_CONTENT,PARTIAL_INFORMATION_CONTENT,INFORMATION_STABILITY,FITNESS_VARIANCE_MEAN,FITNESS_VARIANCE_STD,FITNESS_MEAN,DISPERSION_INDEX,MEAN_NUMBER_OF_NEUTRAL_AREAS,MEAN_SIZE_OF_NEUTRAL_AREAS,MEAN_FITNESS_DISTANCE,MAX_FITNESS_DISTANCE,INFORMATION_CONTENT_MEAN,INFORMATION_CONTENT_STD,PARTIAL_INFORMATION_CONTENT_MEAN,PARTIAL_INFORMATION_CONTENT_STD,INFORMATION_STABILITY_MEAN,INFORMATION_STABILITY_STD,FITNESS_VARIANCE_MEAN_MEAN,FITNESS_VARIANCE_MEAN_STD,FITNESS_VARIANCE_STD_MEAN,FITNESS_VARIANCE_STD_STD,FITNESS_MEAN_MEAN,FITNESS_MEAN_STD,DISPERSION_INDEX_MEAN,DISPERSION_INDEX_STD,MEAN_NUMBER_OF_NEUTRAL_AREAS_MEAN,MEAN_NUMBER_OF_NEUTRAL_AREAS_STD,MEAN_SIZE_OF_NEUTRAL_AREAS_MEAN,MEAN_SIZE_OF_NEUTRAL_AREAS_STD,MEAN_FITNESS_DISTANCE_MEAN,MEAN_FITNESS_DISTANCE_STD,MAX_FITNESS_DISTANCE_MEAN,MAX_FITNESS_DISTANCE_STD
0,SINGLE_CHANGE,"[0.0, -4.8442755174, -24.9173410851, 1.4241615766, -4.3936172268, -1.6421518984999999, 0.0, -31.1513148904]",Flex Agent 0,0.0,0.006425486,0.0,4.25,0.0024507401,0.0042448064,87.5246284148,-0.0151353271,3.5,2.4166666667,0.034436160800000004,0.1377446431,,,,,,,,,,,,,,,,,,,,,,
1,SINGLE_CHANGE,"[0.0, -4.8442755174, -24.9173410851, 1.4241615766, -4.3936172268, -1.6421518984999999, 0.0, -31.1513148904]",Flex Agent 0,1.0,0.006425486,0.0,5.5,0.0024507401,0.0042448064,108.4298243687,-0.0120798872,3.0,2.3333333333,0.0470916776,0.1883667105,,,,,,,,,,,,,,,,,,,,,,
2,SINGLE_CHANGE,"[0.0, -4.8442755174, -24.9173410851, 1.4241615766, -4.3936172268, -1.6421518984999999, 0.0, -31.1513148904]",Flex Agent 0,2.0,0.006425486,0.0,4.0,0.0024507401,0.0042448064,109.501917598,-0.0361494403,3.0,2.3333333333,0.0314984963,0.1259939852,,,,,,,,,,,,,,,,,,,,,,
3,SINGLE_CHANGE,"[0.0, -4.8442755174, -24.9173410851, 1.4241615766, -4.3936172268, -1.6421518984999999, 0.0, -31.1513148904]",Flex Agent 0,3.0,0.006425486,0.0,2.5,0.0024507401,0.0042448064,110.2075387258,-0.0107653353,3.5,2.1666666667,0.0161378805,0.06455152210000001,,,,,,,,,,,,,,,,,,,,,,
4,SINGLE_CHANGE,"[0.0, -4.8442755174, -24.9173410851, 1.4241615766, -4.3936172268, -1.6421518984999999, 0.0, -31.1513148904]",Flex Agent 0,4.0,0.006425486,0.0,3.25,0.0024507401,0.0042448064,97.7345367929,-0.025346449700000002,3.0,2.3333333333,0.0236002992,0.0944011966,,,,,,,,,,,,,,,,,,,,,,
5,SINGLE_CHANGE,"[0.0, -4.8442755174, -24.9173410851, 1.4241615766, -4.3936172268, -1.6421518984999999, 0.0, -31.1513148904]",Flex Agent 5,0.0,0.0,0.0,1.0,0.0024507401,0.0042448064,20.5049746864,0.0006291262,1.0,1.0,0.0012733412,0.0050933647,,,,,,,,,,,,,,,,,,,,,,
6,SINGLE_CHANGE,"[0.0, -4.8442755174, -24.9173410851, 1.4241615766, -4.3936172268, -1.6421518984999999, 0.0, -31.1513148904]",Flex Agent 5,1.0,0.006425486,0.0,1.25,0.0024507401,0.0042448064,25.3497923409,0.0006050719,1.0,1.0,0.0030212856,0.0120851424,,,,,,,,,,,,,,,,,,,,,,
7,SINGLE_CHANGE,"[0.0, -4.8442755174, -24.9173410851, 1.4241615766, -4.3936172268, -1.6421518984999999, 0.0, -31.1513148904]",Flex Agent 5,2.0,0.0,0.0,1.0,0.0024507401,0.0042448064,23.7329844421,0.0006882101,13.0,1.0769230769,0.0018968123,0.0075872494,,,,,,,,,,,,,,,,,,,,,,
8,SINGLE_CHANGE,"[0.0, -4.8442755174, -24.9173410851, 1.4241615766, -4.3936172268, -1.6421518984999999, 0.0, -31.1513148904]",Flex Agent 5,3.0,0.0,0.0,1.0,0.0024507401,0.0042448064,29.6062315017,0.0010299668,3.0,1.0,0.0010654345,0.0042617379000000006,,,,,,,,,,,,,,,,,,,,,,
9,SINGLE_CHANGE,"[0.0, -4.8442755174, -24.9173410851, 1.4241615766, -4.3936172268, -1.6421518984999999, 0.0, -31.1513148904]",Flex Agent 5,4.0,0.0,0.0,1.0,0.0024507401,0.0042448064,24.8811775479,0.0008354359,7.5,1.0,0.0011048896,0.0044195583,,,,,,,,,,,,,,,,,,,,,,
10,SINGLE_CHANGE,"[0.0, -4.8442755174, -24.9173410851, 1.4241615766, -4.3936172268, -1.6421518984999999, 0.0, -31.1513148904]",Flex Agent 1,0.0,0.006425486,0.0,4.25,0.0024507401,0.0042448064,88.331931412,-0.0133296156,3.5,2.4166666667,0.034436160800000004,0.1377446431,,,,,,,,,,,,,,,,,,,,,,
11,SINGLE_CHANGE,"[0.0, -4.8442755174, -24.9173410851, 1.4241615766, -4.3936172268, -1.6421518984999999, 0.0, -31.1513148904]",Flex Agent 1,1.0,0.006425486,0.0,5.5,0.0024507401,0.0042448064,96.7920236801,-0.0019804492,3.0,2.3333333333,0.0470916776,0.1883667105,,,,,,,,,,,,,,,,,,,,,,
12,SINGLE_CHANGE,"[0.0, -4.8442755174, -24.9173410851, 1.4241615766, -4.3936172268, -1.6421518984999999, 0.0, -31.1513148904]",Flex Agent 1,2.0,0.006425486,0.0,4.0,0.0024507401,0.0042448064,114.9071913694,-0.0025755146000000003,3.0,2.3333333333,0.0314984963,0.1259939852,,,,,,,,,,,,,,,,,,,,,,
13,SINGLE_CHANGE,"[0.0, -4.8442755174, -24.9173410851, 1.4241615766, -4.3936172268, -1.6421518984999999, 0.0, -31.1513148904]",Flex Agent 1,3.0,0.006425486,0.0,2.5,0.0024507401,0.0042448064,100.0890784782,-0.0020816043,3.5,2.1666666667,0.0161378805,0.06455152210000001,,,,,,,,,,,,,,,,,,,,,,
14,SINGLE_CHANGE,"[0.0, -4.8442755174, -24.9173410851, 1.4241615766, -4.3936172268, -1.6421518984999999, 0.0, -31.1513148904]",Flex Agent 1,4.0,0.006425486,0.0,3.25,0.0024507401,0.0042448064,103.7509549784,-0.0025169165000000003,3.0,2.3333333333,0.0236002992,0.0944011966,,,,,,,,,,,,,,,,,,,,,,
15,SINGLE_CHANGE,"[0.0, -4.8442755174, -24.9173410851, 1.4241615766, -4.3936172268, -1.6421518984999999, 0.0, -31.1513148904]",Flex Agent 4,0.0,0.1962194523,0.14250000000000002,7.25,0.0731110637,0.00184171,23.9421751468,-0.0048907103,2.0,1.0,0.8678041253000001,0.9924099926000001,,,,,,,,,,,,,,,,,,,,,,
16,SINGLE_CHANGE,"[0.0, -4.8442755174, -24.9173410851, 1.4241615766, -4.3936172268, -1.6421518984999999, 0.0, -31.1513148904]",Flex Agent 4,1.0,0.2010666247,0.17500000000000002,6.5,0.0664500926,0.007090247500000001,24.9207202092,-0.008932046400000001,3.0,1.5,0.9119549127000001,0.9855393767,,,,,,,,,,,,,,,,,,,,,,
17,SINGLE_CHANGE,"[0.0, -4.8442755174, -24.9173410851, 1.4241615766, -4.3936172268, -1.6421518984999999, 0.0, -31.1513148904]",Flex Agent 4,2.0,0.20258167430000001,0.17,7.0,0.0628006556,0.0085427482,27.5952442196,-0.0016597344,2.5,1.125,0.8871860055,0.9657344304000001,,,,,,,,,,,,,,,,,,,,,,
18,SINGLE_CHANGE,"[0.0, -4.8442755174, -24.9173410851, 1.4241615766, -4.3936172268, -1.6421518984999999, 0.0, -31.1513148904]",Flex Agent 4,3.0,0.2009222559,0.185,6.25,0.06681921560000001,0.0081325096,29.4244209333,-0.0028271443000000003,8.0,1.0555555556,0.9652841871000001,1.0950942054,,,,,,,,,,,,,,,,,,,,,,
19,SINGLE_CHANGE,"[0.0, -4.8442755174, -24.9173410851, 1.4241615766, -4.3936172268, -1.6421518984999999, 0.0, -31.1513148904]",Flex Agent 4,4.0,0.2027697726,0.185,7.25,0.0810153369,0.0166809384,24.3902931327,-0.0031903797,4.5,1.2,0.9735100858,1.401484832,,,,,,,,,,,,,,,,,,,,,,
20,SINGLE_CHANGE,"[0.0, -4.8442755174, -24.9173410851, 1.4241615766, -4.3936172268, -1.6421518984999999, 0.0, -31.1513148904]",Flex Agent 3,0.0,0.1934343383,0.1375,5.5,0.060487060200000005,0.0116723077,25.2924587786,0.0047518487,3.5,1.2,0.6918104133,0.7696358875,,,,,,,,,,,,,,,,,,,,,,
21,SINGLE_CHANGE,"[0.0, -4.8442755174, -24.9173410851, 1.4241615766, -4.3936172268, -1.6421518984999999, 0.0, -31.1513148904]",Flex Agent 3,1.0,0.18257563270000002,0.11,5.5,0.054746799900000004,0.0066560049,23.3444706995,-0.0019016886,7.5,1.0625,0.6292336341,0.7094011165,,,,,,,,,,,,,,,,,,,,,,
22,SINGLE_CHANGE,"[0.0, -4.8442755174, -24.9173410851, 1.4241615766, -4.3936172268, -1.6421518984999999, 0.0, -31.1513148904]",Flex Agent 3,2.0,0.1868026643,0.1325,5.25,0.079701899,0.0225729834,22.3880193137,-0.0003458997,5.5,1.0,0.6190503601,0.7414797710000001,,,,,,,,,,,,,,,,,,,,,,
23,SINGLE_CHANGE,"[0.0, -4.8442755174, -24.9173410851, 1.4241615766, -4.3936172268, -1.6421518984999999, 0.0, -31.1513148904]",Flex Agent 3,3.0,0.20007709170000001,0.17250000000000001,7.25,0.0671898491,0.005581758500000001,19.0514851186,-0.0043837995000000005,6.5,1.0,0.8832354197000001,0.9431545001,,,,,,,,,,,,,,,,,,,,,,
24,SINGLE_CHANGE,"[0.0, -4.8442755174, -24.9173410851, 1.4241615766, -4.3936172268, -1.6421518984999999, 0.0, -31.1513148904]",Flex Agent 3,4.0,0.185876712,0.125,5.25,0.0632616459,0.0050038459000000006,23.0509929632,-0.0023409147,6.0,1.3142857143,0.7006269456,0.8000476418,,,,,,,,,,,,,,,,,,,,,,
25,SINGLE_CHANGE,"[0.0, -4.8442755174, -24.9173410851, 1.4241615766, -4.3936172268, -1.6421518984999999, 0.0, -31.1513148904]",Flex Agent 9,0.0,0.1659470636,0.0975,4.25,0.0772229162,0.0153095943,21.5630826617,-0.0040864276,3.5,1.9500000000000002,0.5103540934,0.6723962119,,,,,,,,,,,,,,,,,,,,,,
26,SINGLE_CHANGE,"[0.0, -4.8442755174, -24.9173410851, 1.4241615766, -4.3936172268, -1.6421518984999999, 0.0, -31.1513148904]",Flex Agent 9,1.0,0.18743148680000002,0.1575,4.75,0.0723232739,0.007498074,23.2207058854,-0.0018809796,3.5,1.0,0.7426921893,1.1709237104,,,,,,,,,,,,,,,,,,,,,,
27,SINGLE_CHANGE,"[0.0, -4.8442755174, -24.9173410851, 1.4241615766, -4.3936172268, -1.6421518984999999, 0.0, -31.1513148904]",Flex Agent 9,2.0,0.1925792516,0.13,4.75,0.0724326721,0.009808094,18.2611034638,-0.0020269006,3.5,1.0,0.6312616257,0.7012156388,,,,,,,,,,,,,,,,,,,,,,
28,SINGLE_CHANGE,"[0.0, -4.8442755174, -24.9173410851, 1.4241615766, -4.3936172268, -1.6421518984999999, 0.0, -31.1513148904]",Flex Agent 9,3.0,0.1860899888,0.11750000000000001,5.0,0.0630946339,0.009695098400000001,21.2847209596,0.0030432464,5.5,1.1111111111,0.573481119,0.6076740347,,,,,,,,,,,,,,,,,,,,,,
29,SINGLE_CHANGE,"[0.0, -4.8442755174, -24.9173410851, 1.4241615766, -4.3936172268, -1.6421518984999999, 0.0, -31.1513148904]",Flex Agent 9,4.0,0.1794385895,0.10250000000000001,4.0,0.0766806129,0.0057420918,18.8299212,-0.0005142323,4.5,1.2,0.581069409,0.6507839622,,,,,,,,,,,,,,,,,,,,,,
30,SINGLE_CHANGE,"[0.0, -4.8442755174, -24.9173410851, 1.4241615766, -4.3936172268, -1.6421518984999999, 0.0, -31.1513148904]",Flex Agent 2,0.0,0.1201703212,0.045,2.5,0.0621848652,0.0162852333,24.4049985356,0.0006821935,22.5,2.7816205534,0.2678107992,0.2738270204,,,,,,,,,,,,,,,,,,,,,,
31,SINGLE_CHANGE,"[0.0, -4.8442755174, -24.9173410851, 1.4241615766, -4.3936172268, -1.6421518984999999, 0.0, -31.1513148904]",Flex Agent 2,1.0,0.13910550500000002,0.06,2.5,0.0570032002,0.0135130363,35.0284772708,0.0013888194,24.5,2.5429292929000002,0.3424503245,0.3906315251,,,,,,,,,,,,,,,,,,,,,,
32,SINGLE_CHANGE,"[0.0, -4.8442755174, -24.9173410851, 1.4241615766, -4.3936172268, -1.6421518984999999, 0.0, -31.1513148904]",Flex Agent 2,2.0,0.1372754227,0.0575,2.25,0.043781024,0.0024884469,38.4154878933,0.0015650649,23.5,2.6349637681,0.38205179710000003,0.4067165279,,,,,,,,,,,,,,,,,,,,,,
33,SINGLE_CHANGE,"[0.0, -4.8442755174, -24.9173410851, 1.4241615766, -4.3936172268, -1.6421518984999999, 0.0, -31.1513148904]",Flex Agent 2,3.0,0.1018379544,0.035,2.25,0.0435951064,0.009794874700000001,29.1149851747,0.001245992,24.0,2.4791666667,0.3244483629,0.3665546389,,,,,,,,,,,,,,,,,,,,,,
34,SINGLE_CHANGE,"[0.0, -4.8442755174, -24.9173410851, 1.4241615766, -4.3936172268, -1.6421518984999999, 0.0, -31.1513148904]",Flex Agent 2,4.0,0.1162848276,0.045,2.5,0.044090094100000005,0.006288908,18.4353044881,0.0005779595,15.5,5.0320512821,0.3518190936,0.4473641721,,,,,,,,,,,,,,,,,,,,,,
35,SINGLE_CHANGE,"[0.0, -4.8442755174, -24.9173410851, 1.4241615766, -4.3936172268, -1.6421518984999999, 0.0, -31.1513148904]",Flex Agent 6,0.0,0.20230288400000002,0.2275,5.75,0.07131013500000001,0.0051029985,22.8897101757,-0.0032406419,3.0,1.3333333333000001,1.0086748089,1.141160279,,,,,,,,,,,,,,,,,,,,,,
36,SINGLE_CHANGE,"[0.0, -4.8442755174, -24.9173410851, 1.4241615766, -4.3936172268, -1.6421518984999999, 0.0, -31.1513148904]",Flex Agent 6,1.0,0.1980088284,0.17,7.25,0.0751044733,0.0156592102,25.6752669659,0.0012842794,10.0,1.2,0.9115510495,1.0620596439,,,,,,,,,,,,,,,,,,,,,,
37,SINGLE_CHANGE,"[0.0, -4.8442755174, -24.9173410851, 1.4241615766, -4.3936172268, -1.6421518984999999, 0.0, -31.1513148904]",Flex Agent 6,2.0,0.2039222101,0.2,6.0,0.0697836649,0.0096705438,33.9978170895,-0.0027700123,4.5,1.3333333333000001,0.9181432516,1.1202450959,,,,,,,,,,,,,,,,,,,,,,
38,SINGLE_CHANGE,"[0.0, -4.8442755174, -24.9173410851, 1.4241615766, -4.3936172268, -1.6421518984999999, 0.0, -31.1513148904]",Flex Agent 6,3.0,0.2016503557,0.17500000000000002,6.75,0.0625941996,0.0043525015000000005,28.9812378058,0.0025380593,6.5,1.225,0.8702381241,1.060510781,,,,,,,,,,,,,,,,,,,,,,
39,SINGLE_CHANGE,"[0.0, -4.8442755174, -24.9173410851, 1.4241615766, -4.3936172268, -1.6421518984999999, 0.0, -31.1513148904]",Flex Agent 6,4.0,0.1987458517,0.19,6.0,0.055107661200000005,0.0184571738,26.6625320017,-0.0058615944000000005,4.5,1.2,0.8863299288,1.20976328,,,,,,,,,,,,,,,,,,,,,,
40,SINGLE_CHANGE,"[0.0, -4.8442755174, -24.9173410851, 1.4241615766, -4.3936172268, -1.6421518984999999, 0.0, -31.1513148904]",Flex Agent 8,0.0,0.20013016120000002,0.1675,3.0,0.0645801985,0.0080538485,41.3259709156,0.0009233735000000001,19.5,3.5106951872,0.6579552125,0.7348585264,,,,,,,,,,,,,,,,,,,,,,
41,SINGLE_CHANGE,"[0.0, -4.8442755174, -24.9173410851, 1.4241615766, -4.3936172268, -1.6421518984999999, 0.0, -31.1513148904]",Flex Agent 8,1.0,0.19929049940000002,0.1625,3.0,0.0549540166,0.017057436500000002,42.4081537443,0.0007960922,20.0,2.835839599,0.688503733,0.7285374807,,,,,,,,,,,,,,,,,,,,,,
42,SINGLE_CHANGE,"[0.0, -4.8442755174, -24.9173410851, 1.4241615766, -4.3936172268, -1.6421518984999999, 0.0, -31.1513148904]",Flex Agent 8,2.0,0.20289609990000002,0.1825,3.5,0.045792659900000005,0.0076853401,38.9250102758,0.0002804533,20.0,3.15,0.6788184620000001,0.8353071268000001,,,,,,,,,,,,,,,,,,,,,,
43,SINGLE_CHANGE,"[0.0, -4.8442755174, -24.9173410851, 1.4241615766, -4.3936172268, -1.6421518984999999, 0.0, -31.1513148904]",Flex Agent 8,3.0,0.202453021,0.17500000000000002,3.75,0.0741342546,0.0059316665,41.8569871423,-5.3910300000000005e-05,22.5,2.7083333333,0.6640815157000001,0.6891726987,,,,,,,,,,,,,,,,,,,,,,
44,SINGLE_CHANGE,"[0.0, -4.8442755174, -24.9173410851, 1.4241615766, -4.3936172268, -1.6421518984999999, 0.0, -31.1513148904]",Flex Agent 8,4.0,0.20162658090000002,0.1675,3.5,0.0481072842,0.0093048323,34.3935802863,0.0008394186000000001,21.5,2.9576086957000003,0.6618272554,0.7311147701,,,,,,,,,,,,,,,,,,,,,,
45,SINGLE_CHANGE,"[0.0, -4.8442755174, -24.9173410851, 1.4241615766, -4.3936172268, -1.6421518984999999, 0.0, -31.1513148904]",Flex Agent 7,0.0,0.1440392544,0.0625,2.75,0.0480133741,0.0055499728000000005,28.4692735631,0.0002508615,21.0,3.0431818182,0.4381618292,0.4714402076,,,,,,,,,,,,,,,,,,,,,,
46,SINGLE_CHANGE,"[0.0, -4.8442755174, -24.9173410851, 1.4241615766, -4.3936172268, -1.6421518984999999, 0.0, -31.1513148904]",Flex Agent 7,1.0,0.1632805839,0.0825,2.5,0.061844798000000006,0.0105713054,31.3744615714,0.00040636970000000003,17.0,3.7368421053,0.4212621389,0.4674899706,,,,,,,,,,,,,,,,,,,,,,
47,SINGLE_CHANGE,"[0.0, -4.8442755174, -24.9173410851, 1.4241615766, -4.3936172268, -1.6421518984999999, 0.0, -31.1513148904]",Flex Agent 7,2.0,0.1434869598,0.0675,2.0,0.043921352000000004,0.0075366111,29.7008452601,0.0001584305,22.5,2.7708333333,0.4512594507,0.5810645466000001,,,,,,,,,,,,,,,,,,,,,,
48,SINGLE_CHANGE,"[0.0, -4.8442755174, -24.9173410851, 1.4241615766, -4.3936172268, -1.6421518984999999, 0.0, -31.1513148904]",Flex Agent 7,3.0,0.1659248402,0.09,2.25,0.048333250800000005,0.0056764707,34.6096369617,0.0005318927,23.0,2.76,0.4564441603,0.5111880711,,,,,,,,,,,,,,,,,,,,,,
49,SINGLE_CHANGE,"[0.0, -4.8442755174, -24.9173410851, 1.4241615766, -4.3936172268, -1.6421518984999999, 0.0, -31.1513148904]",Flex Agent 7,4.0,0.1637416153,0.08,2.5,0.0466201453,0.0042028359,33.2144519914,0.0002047707,22.0,2.6832298137,0.46637634110000004,0.5110589377,,,,,,,,,,,,,,,,,,,,,,
50,,,Global,,,,,,,,,,,,,0.126813334438,0.08426909619967748,0.09165,0.07471648794896994,4.05,1.8803495115840263,0.043899091737999996,0.029062652263582907,0.007773666988,0.004693961048288762,42.555775802722,30.734937337522524,-0.0029522123940000002,0.00712276235223308,9.49,8.167562771883242,1.9576200847999998,0.9232583411482029,0.46661305913199996,0.3447899854832617,0.5640520756040001,0.3957432734253287
