,NeighborhoodDefinition,TargetSchedule,Agent,FLA_ID,INFORMATION_CONTENT,PARTIAL_INFORMATION_CONTENT,INFORMATION_STABILITY,FITNESS_VARIANCE_MEAN,FITNESS_VARIANCE_STD,FITNESS_MEAN,DISPERSION_INDEX,MEAN_NUMBER_OF_NEUTRAL_AREAS,MEAN_SIZE_OF_NEUTRAL_AREAS,MEAN_FITNESS_DISTANCE,MAX_FITNESS_DISTANCE,INFORMATION_CONTENT_MEAN,INFORMATION_CONTENT_STD,PARTIAL_INFORMATION_CONTENT_MEAN,PARTIAL_INFORMATION_CONTENT_STD,INFORMATION_STABILITY_MEAN,INFORMATION_STABILITY_STD,FITNESS_VARIANCE_MEAN_MEAN,FITNESS_VARIANCE_MEAN_STD,FITNESS_VARIANCE_STD_MEAN,FITNESS_VARIANCE_STD_STD,FITNESS_MEAN_MEAN,FITNESS_MEAN_STD,DISPERSION_INDEX_MEAN,DISPERSION_INDEX_STD,MEAN_NUMBER_OF_NEUTRAL_AREAS_MEAN,MEAN_NUMBER_OF_NEUTRAL_AREAS_STD,MEAN_SIZE_OF_NEUTRAL_AREAS_MEAN,MEAN_SIZE_OF_NEUTRAL_AREAS_STD,MEAN_FITNESS_DISTANCE_MEAN,MEAN_FITNESS_DISTANCE_STD,MAX_FITNESS_DISTANCE_MEAN,MAX_FITNESS_DISTANCE_STD
0,SINGLE_CHANGE,"[-5.9917611786, -18.748509653, -9.4494319785, -21.7936817313, 28.5702929621, 7.2101743696, -29.056892953, -9.2263820186]",Flex Agent 1,0.0,0.20298528740000002,0.1875,3.5,0.0398624878,0.0041209808,40.2054269226,0.00048545420000000003,22.5,2.5654761905,0.7928177357,0.831344635,,,,,,,,,,,,,,,,,,,,,,
1,SINGLE_CHANGE,"[-5.9917611786, -18.748509653, -9.4494319785, -21.7936817313, 28.5702929621, 7.2101743696, -29.056892953, -9.2263820186]",Flex Agent 1,1.0,0.2037154308,0.17750000000000002,3.75,0.045927289600000004,0.009266568400000001,35.1976994459,0.00030769280000000004,23.5,2.6585144928,0.6309604593,0.6908182529,,,,,,,,,,,,,,,,,,,,,,
2,SINGLE_CHANGE,"[-5.9917611786, -18.748509653, -9.4494319785, -21.7936817313, 28.5702929621, 7.2101743696, -29.056892953, -9.2263820186]",Flex Agent 1,2.0,0.2047955243,0.1875,3.25,0.0411366315,0.0075215292,54.2883945346,0.0009057889,19.0,3.4277777778000003,0.709101159,0.8072316742000001,,,,,,,,,,,,,,,,,,,,,,
3,SINGLE_CHANGE,"[-5.9917611786, -18.748509653, -9.4494319785, -21.7936817313, 28.5702929621, 7.2101743696, -29.056892953, -9.2263820186]",Flex Agent 1,3.0,0.1989398489,0.14750000000000002,4.0,0.0399093198,0.0084455268,32.6075979079,0.00018154330000000001,25.0,2.5096153846,0.6460624053,0.7842296863,,,,,,,,,,,,,,,,,,,,,,
4,SINGLE_CHANGE,"[-5.9917611786, -18.748509653, -9.4494319785, -21.7936817313, 28.5702929621, 7.2101743696, -29.056892953, -9.2263820186]",Flex Agent 1,4.0,0.20438223360000002,0.1825,3.25,0.0423562469,0.0048673345,45.7818147423,0.0003574636,20.0,2.725,0.6595217710000001,0.7341892859,,,,,,,,,,,,,,,,,,,,,,
5,SINGLE_CHANGE,"[-5.9917611786, -18.748509653, -9.4494319785, -21.7936817313, 28.5702929621, 7.2101743696, -29.056892953, -9.2263820186]",Flex Agent 3,0.0,0.006425486,0.0,4.25,0.0024507401,0.0042448064,88.4877987726,-0.0078559638,3.5,2.4166666667,0.034436160800000004,0.1377446431,,,,,,,,,,,,,,,,,,,,,,
6,SINGLE_CHANGE,"[-5.9917611786, -18.748509653, -9.4494319785, -21.7936817313, 28.5702929621, 7.2101743696, -29.056892953, -9.2263820186]",Flex Agent 3,1.0,0.006425486,0.0,5.5,0.0024507401,0.0042448064,101.758043399,-0.0008218697,3.0,2.3333333333,0.0470916776,0.1883667105,,,,,,,,,,,,,,,,,,,,,,
7,SINGLE_CHANGE,"[-5.9917611786, -18.748509653, -9.4494319785, -21.7936817313, 28.5702929621, 7.2101743696, -29.056892953, -9.2263820186]",Flex Agent 3,2.0,0.006425486,0.0,4.0,0.0024507401,0.0042448064,112.6731920842,-0.0008437078,4.0,2.0,0.0314984963,0.1259939852,,,,,,,,,,,,,,,,,,,,,,
8,SINGLE_CHANGE,"[-5.9917611786, -18.748509653, -9.4494319785, -21.7936817313, 28.5702929621, 7.2101743696, -29.056892953, -9.2263820186]",Flex Agent 3,3.0,0.006425486,0.0,2.5,0.0024507401,0.0042448064,107.6308267555,-0.0003403645,3.5,2.1666666667,0.0161378805,0.06455152210000001,,,,,,,,,,,,,,,,,,,,,,
9,SINGLE_CHANGE,"[-5.9917611786, -18.748509653, -9.4494319785, -21.7936817313, 28.5702929621, 7.2101743696, -29.056892953, -9.2263820186]",Flex Agent 3,4.0,0.006425486,0.0,3.25,0.0024507401,0.0042448064,90.8820651124,-0.0009208162,4.0,2.0,0.0236002992,0.0944011966,,,,,,,,,,,,,,,,,,,,,,
10,SINGLE_CHANGE,"[-5.9917611786, -18.748509653, -9.4494319785, -21.7936817313, 28.5702929621, 7.2101743696, -29.056892953, -9.2263820186]",Flex Agent 5,0.0,0.1977069182,0.17,4.0,0.0404460741,0.0022791479,30.3553868811,0.0001570389,20.0,3.4130434783,0.6605656992000001,0.7253010518,,,,,,,,,,,,,,,,,,,,,,
11,SINGLE_CHANGE,"[-5.9917611786, -18.748509653, -9.4494319785, -21.7936817313, 28.5702929621, 7.2101743696, -29.056892953, -9.2263820186]",Flex Agent 5,1.0,0.2037116393,0.18,3.0,0.049623514,0.007833619600000001,37.6444624074,9.67711e-05,21.0,3.3571428571,0.6617823308,0.767439712,,,,,,,,,,,,,,,,,,,,,,
12,SINGLE_CHANGE,"[-5.9917611786, -18.748509653, -9.4494319785, -21.7936817313, 28.5702929621, 7.2101743696, -29.056892953, -9.2263820186]",Flex Agent 5,2.0,0.1900874848,0.1275,3.5,0.0419117345,0.0128844405,40.1337393435,0.00013046260000000001,19.5,3.4868421053,0.5940189184,0.6578536187,,,,,,,,,,,,,,,,,,,,,,
13,SINGLE_CHANGE,"[-5.9917611786, -18.748509653, -9.4494319785, -21.7936817313, 28.5702929621, 7.2101743696, -29.056892953, -9.2263820186]",Flex Agent 5,3.0,0.20321018840000002,0.18,3.5,0.041156454200000005,0.0050818241,43.1181782408,4.78552e-05,23.5,2.8559782609,0.6814634124000001,0.7939453895,,,,,,,,,,,,,,,,,,,,,,
14,SINGLE_CHANGE,"[-5.9917611786, -18.748509653, -9.4494319785, -21.7936817313, 28.5702929621, 7.2101743696, -29.056892953, -9.2263820186]",Flex Agent 5,4.0,0.2033742792,0.19,3.25,0.036681348,0.0101043381,48.6902210397,0.00017074860000000001,20.5,3.3226190476,0.6677838304,0.7069177365,,,,,,,,,,,,,,,,,,,,,,
15,SINGLE_CHANGE,"[-5.9917611786, -18.748509653, -9.4494319785, -21.7936817313, 28.5702929621, 7.2101743696, -29.056892953, -9.2263820186]",Flex Agent 2,0.0,0.120654484,0.0475,2.0,0.0372266412,0.0080433215,44.8141150179,-6.9368e-06,20.5,3.3050239234,0.3291702248,0.4104360352,,,,,,,,,,,,,,,,,,,,,,
16,SINGLE_CHANGE,"[-5.9917611786, -18.748509653, -9.4494319785, -21.7936817313, 28.5702929621, 7.2101743696, -29.056892953, -9.2263820186]",Flex Agent 2,1.0,0.1242526246,0.05,2.0,0.054844694900000004,0.015924055,32.1337803738,7.41638e-05,22.5,2.4604743083000002,0.3671708012,0.4266364539,,,,,,,,,,,,,,,,,,,,,,
17,SINGLE_CHANGE,"[-5.9917611786, -18.748509653, -9.4494319785, -21.7936817313, 28.5702929621, 7.2101743696, -29.056892953, -9.2263820186]",Flex Agent 2,2.0,0.1160970971,0.0425,2.0,0.050807572100000004,0.0130729331,38.4723379481,0.0001189963,17.0,4.1470588235,0.3530880382,0.37021511700000004,,,,,,,,,,,,,,,,,,,,,,
18,SINGLE_CHANGE,"[-5.9917611786, -18.748509653, -9.4494319785, -21.7936817313, 28.5702929621, 7.2101743696, -29.056892953, -9.2263820186]",Flex Agent 2,3.0,0.129262801,0.052500000000000005,2.25,0.0524107496,0.011286300800000001,42.6447743915,7.923480000000001e-05,19.0,3.6778711485,0.3649625066,0.41826031080000003,,,,,,,,,,,,,,,,,,,,,,
19,SINGLE_CHANGE,"[-5.9917611786, -18.748509653, -9.4494319785, -21.7936817313, 28.5702929621, 7.2101743696, -29.056892953, -9.2263820186]",Flex Agent 2,4.0,0.11136069300000001,0.04,2.0,0.0478275827,0.0183638934,31.7674618627,7.23495e-05,20.5,3.4416666667,0.31245130720000003,0.34641158650000003,,,,,,,,,,,,,,,,,,,,,,
20,SINGLE_CHANGE,"[-5.9917611786, -18.748509653, -9.4494319785, -21.7936817313, 28.5702929621, 7.2101743696, -29.056892953, -9.2263820186]",Flex Agent 6,0.0,0.0,0.0,1.0,0.0024507401,0.0042448064,18.349850977,-7.97267e-05,6.0,1.0714285714,0.001273341,0.0050933638,,,,,,,,,,,,,,,,,,,,,,
21,SINGLE_CHANGE,"[-5.9917611786, -18.748509653, -9.4494319785, -21.7936817313, 28.5702929621, 7.2101743696, -29.056892953, -9.2263820186]",Flex Agent 6,1.0,0.0,0.0,1.0,0.0024507401,0.0042448064,24.5160552705,-6.4985000000000005e-06,7.0,1.8571428571,0.0022039993,0.0088159971,,,,,,,,,,,,,,,,,,,,,,
22,SINGLE_CHANGE,"[-5.9917611786, -18.748509653, -9.4494319785, -21.7936817313, 28.5702929621, 7.2101743696, -29.056892953, -9.2263820186]",Flex Agent 6,2.0,0.0,0.0,1.0,0.0024507401,0.0042448064,50.5553991049,-9.7213e-06,7.0,1.8571428571,0.0018968121000000001,0.007587248600000001,,,,,,,,,,,,,,,,,,,,,,
23,SINGLE_CHANGE,"[-5.9917611786, -18.748509653, -9.4494319785, -21.7936817313, 28.5702929621, 7.2101743696, -29.056892953, -9.2263820186]",Flex Agent 6,3.0,0.0,0.0,1.0,0.0024507401,0.0042448064,27.3631920626,-7.6097e-06,7.0,1.8571428571,0.0013416209,0.005366483500000001,,,,,,,,,,,,,,,,,,,,,,
24,SINGLE_CHANGE,"[-5.9917611786, -18.748509653, -9.4494319785, -21.7936817313, 28.5702929621, 7.2101743696, -29.056892953, -9.2263820186]",Flex Agent 6,4.0,0.0,0.0,1.0,0.0024507401,0.0042448064,46.1674288286,-1.61817e-05,7.5,1.0,0.0009921604,0.0039686416,,,,,,,,,,,,,,,,,,,,,,
25,SINGLE_CHANGE,"[-5.9917611786, -18.748509653, -9.4494319785, -21.7936817313, 28.5702929621, 7.2101743696, -29.056892953, -9.2263820186]",Flex Agent 4,0.0,0.1822569913,0.1325,4.0,0.0759519483,0.0073756474,40.8888253209,-0.0015121106,4.5,1.0,0.6116561736,0.7831615048,,,,,,,,,,,,,,,,,,,,,,
26,SINGLE_CHANGE,"[-5.9917611786, -18.748509653, -9.4494319785, -21.7936817313, 28.5702929621, 7.2101743696, -29.056892953, -9.2263820186]",Flex Agent 4,1.0,0.17700210090000001,0.10250000000000001,4.75,0.0645875311,0.0043469575,33.3951616198,0.0001346322,7.0,1.3222222222,0.5210869199,0.5643459808,,,,,,,,,,,,,,,,,,,,,,
27,SINGLE_CHANGE,"[-5.9917611786, -18.748509653, -9.4494319785, -21.7936817313, 28.5702929621, 7.2101743696, -29.056892953, -9.2263820186]",Flex Agent 4,2.0,0.1775632285,0.1125,5.25,0.0647189459,0.0125662362,27.5139684595,-0.0020505008,7.0,1.2,0.5991001309,0.7295347388,,,,,,,,,,,,,,,,,,,,,,
28,SINGLE_CHANGE,"[-5.9917611786, -18.748509653, -9.4494319785, -21.7936817313, 28.5702929621, 7.2101743696, -29.056892953, -9.2263820186]",Flex Agent 4,3.0,0.1729364043,0.095,3.75,0.0782828642,0.0236712338,21.4296680703,0.0004463259,4.5,1.625,0.5183435096,0.5373491827,,,,,,,,,,,,,,,,,,,,,,
29,SINGLE_CHANGE,"[-5.9917611786, -18.748509653, -9.4494319785, -21.7936817313, 28.5702929621, 7.2101743696, -29.056892953, -9.2263820186]",Flex Agent 4,4.0,0.1789614131,0.11,3.75,0.0867646875,0.0063301952,38.7729163621,0.0007638005,5.0,1.2,0.5518401327,0.6561404557,,,,,,,,,,,,,,,,,,,,,,
30,SINGLE_CHANGE,"[-5.9917611786, -18.748509653, -9.4494319785, -21.7936817313, 28.5702929621, 7.2101743696, -29.056892953, -9.2263820186]",Flex Agent 0,0.0,0.1299531392,0.052500000000000005,2.25,0.0458465001,0.0104143731,30.8597000103,9.705420000000001e-05,20.5,2.7583732057,0.3792691624,0.4261535717,,,,,,,,,,,,,,,,,,,,,,
31,SINGLE_CHANGE,"[-5.9917611786, -18.748509653, -9.4494319785, -21.7936817313, 28.5702929621, 7.2101743696, -29.056892953, -9.2263820186]",Flex Agent 0,1.0,0.1380521166,0.065,2.0,0.0488722211,0.006816567700000001,30.9021875983,0.0001380106,26.0,2.3660714286,0.352911452,0.4288042764,,,,,,,,,,,,,,,,,,,,,,
32,SINGLE_CHANGE,"[-5.9917611786, -18.748509653, -9.4494319785, -21.7936817313, 28.5702929621, 7.2101743696, -29.056892953, -9.2263820186]",Flex Agent 0,2.0,0.11979544580000001,0.0425,2.25,0.0427114384,0.012635604200000001,32.3985877344,5.24988e-05,23.5,2.402173913,0.3435224987,0.3946026441,,,,,,,,,,,,,,,,,,,,,,
33,SINGLE_CHANGE,"[-5.9917611786, -18.748509653, -9.4494319785, -21.7936817313, 28.5702929621, 7.2101743696, -29.056892953, -9.2263820186]",Flex Agent 0,3.0,0.1274778496,0.05,2.0,0.0480274669,0.0062900882,36.8156966756,0.00020700900000000002,19.0,3.5263157895,0.3821523223,0.44656609010000003,,,,,,,,,,,,,,,,,,,,,,
34,SINGLE_CHANGE,"[-5.9917611786, -18.748509653, -9.4494319785, -21.7936817313, 28.5702929621, 7.2101743696, -29.056892953, -9.2263820186]",Flex Agent 0,4.0,0.1020973029,0.0375,2.25,0.0369431748,0.0030116551000000003,29.4848611911,9.51672e-05,22.0,2.9166666667000003,0.3346069061,0.3628242311,,,,,,,,,,,,,,,,,,,,,,
35,SINGLE_CHANGE,"[-5.9917611786, -18.748509653, -9.4494319785, -21.7936817313, 28.5702929621, 7.2101743696, -29.056892953, -9.2263820186]",Flex Agent 7,0.0,0.199066648,0.17500000000000002,3.0,0.0559106939,0.0204871514,33.5043558211,0.00031334420000000003,22.5,2.2915019763,0.6139196817,0.6914849425,,,,,,,,,,,,,,,,,,,,,,
36,SINGLE_CHANGE,"[-5.9917611786, -18.748509653, -9.4494319785, -21.7936817313, 28.5702929621, 7.2101743696, -29.056892953, -9.2263820186]",Flex Agent 7,1.0,0.20089501,0.16,3.5,0.0484000531,0.009061922200000001,46.6469898253,0.0005874573,23.0,2.4981060606,0.6510820903,0.7185289091,,,,,,,,,,,,,,,,,,,,,,
37,SINGLE_CHANGE,"[-5.9917611786, -18.748509653, -9.4494319785, -21.7936817313, 28.5702929621, 7.2101743696, -29.056892953, -9.2263820186]",Flex Agent 7,2.0,0.2042611181,0.18,3.25,0.046588341900000003,0.0034512004000000003,28.7673806016,0.0001577831,20.0,2.8533333333,0.6146889959,0.7121851093,,,,,,,,,,,,,,,,,,,,,,
38,SINGLE_CHANGE,"[-5.9917611786, -18.748509653, -9.4494319785, -21.7936817313, 28.5702929621, 7.2101743696, -29.056892953, -9.2263820186]",Flex Agent 7,3.0,0.1989500868,0.165,3.5,0.0460758706,0.0125393193,42.1476534213,0.0002716222,21.5,2.9491341991,0.6452893975,0.7213143128,,,,,,,,,,,,,,,,,,,,,,
39,SINGLE_CHANGE,"[-5.9917611786, -18.748509653, -9.4494319785, -21.7936817313, 28.5702929621, 7.2101743696, -29.056892953, -9.2263820186]",Flex Agent 7,4.0,0.2044706785,0.2,3.0,0.0513447779,0.0032147203,46.6757315714,0.0002433034,20.5,3.2365196078,0.7214143054000001,0.8097626646,,,,,,,,,,,,,,,,,,,,,,
40,SINGLE_CHANGE,"[-5.9917611786, -18.748509653, -9.4494319785, -21.7936817313, 28.5702929621, 7.2101743696, -29.056892953, -9.2263820186]",Flex Agent 9,0.0,0.006425486,0.0,1.25,0.0024507401,0.0042448064,26.0575565138,-0.0002967204,5.5,1.0,0.0032180682,0.0128722729,,,,,,,,,,,,,,,,,,,,,,
41,SINGLE_CHANGE,"[-5.9917611786, -18.748509653, -9.4494319785, -21.7936817313, 28.5702929621, 7.2101743696, -29.056892953, -9.2263820186]",Flex Agent 9,1.0,0.006425486,0.0,1.5,0.0024507401,0.0042448064,39.1257949596,-3.11998e-05,6.0,1.0,0.005568341,0.0222733638,,,,,,,,,,,,,,,,,,,,,,
42,SINGLE_CHANGE,"[-5.9917611786, -18.748509653, -9.4494319785, -21.7936817313, 28.5702929621, 7.2101743696, -29.056892953, -9.2263820186]",Flex Agent 9,2.0,0.006425486,0.0,1.25,0.0024507401,0.0042448064,40.151958301,-2.95953e-05,6.0,1.0,0.0028067254,0.0112269015,,,,,,,,,,,,,,,,,,,,,,
43,SINGLE_CHANGE,"[-5.9917611786, -18.748509653, -9.4494319785, -21.7936817313, 28.5702929621, 7.2101743696, -29.056892953, -9.2263820186]",Flex Agent 9,3.0,0.006425486,0.0,1.25,0.0024507401,0.0042448064,20.9561022902,-1.42271e-05,6.0,1.8333333333000001,0.002909483,0.011637932,,,,,,,,,,,,,,,,,,,,,,
44,SINGLE_CHANGE,"[-5.9917611786, -18.748509653, -9.4494319785, -21.7936817313, 28.5702929621, 7.2101743696, -29.056892953, -9.2263820186]",Flex Agent 9,4.0,0.006425486,0.0,1.25,0.0024507401,0.0042448064,33.5497775027,-1.8326800000000002e-05,6.5,1.7738095238,0.0026654332,0.0106617328,,,,,,,,,,,,,,,,,,,,,,
45,SINGLE_CHANGE,"[-5.9917611786, -18.748509653, -9.4494319785, -21.7936817313, 28.5702929621, 7.2101743696, -29.056892953, -9.2263820186]",Flex Agent 8,0.0,0.1421729281,0.06,2.0,0.0444065477,0.0107704862,38.0722234366,-6.8565e-06,19.5,3.2676630435,0.397396307,0.4515309093,,,,,,,,,,,,,,,,,,,,,,
46,SINGLE_CHANGE,"[-5.9917611786, -18.748509653, -9.4494319785, -21.7936817313, 28.5702929621, 7.2101743696, -29.056892953, -9.2263820186]",Flex Agent 8,1.0,0.1179057663,0.0425,2.0,0.047290918,0.0066084089,33.6083336156,4.47974e-05,21.5,3.091991342,0.337185243,0.39355995930000004,,,,,,,,,,,,,,,,,,,,,,
47,SINGLE_CHANGE,"[-5.9917611786, -18.748509653, -9.4494319785, -21.7936817313, 28.5702929621, 7.2101743696, -29.056892953, -9.2263820186]",Flex Agent 8,2.0,0.1308533771,0.052500000000000005,2.0,0.0468990279,0.0110622766,35.0715243681,4.28209e-05,20.0,3.2155388471,0.303945781,0.35012435210000004,,,,,,,,,,,,,,,,,,,,,,
48,SINGLE_CHANGE,"[-5.9917611786, -18.748509653, -9.4494319785, -21.7936817313, 28.5702929621, 7.2101743696, -29.056892953, -9.2263820186]",Flex Agent 8,3.0,0.14528800790000002,0.065,2.25,0.0506135944,0.0035930616,35.61353261,-2.37268e-05,21.5,2.9822222222,0.3311436209,0.3497298582,,,,,,,,,,,,,,,,,,,,,,
49,SINGLE_CHANGE,"[-5.9917611786, -18.748509653, -9.4494319785, -21.7936817313, 28.5702929621, 7.2101743696, -29.056892953, -9.2263820186]",Flex Agent 8,4.0,0.09942391960000001,0.0325,2.25,0.0476425439,0.0111670234,28.5622857878,4.6060800000000005e-05,19.5,3.1944444444,0.3519274874,0.39484300990000004,,,,,,,,,,,,,,,,,,,,,,
50,,,Global,,,,,,,,,,,,,0.116563498544,0.08072695601535507,0.07790000000000001,0.07203556377914726,2.705,1.1602361652627768,0.0355353718,0.023922564797565906,0.007763640768000001,0.004783252745346224,42.34424034191001,21.18200422293242,-0.00016130819,0.0012144648899012694,14.9,7.927606118842572,2.448360988676,0.8556059731446347,0.36342086433400006,0.2655278184053076,0.42208678489200013,0.2886976904494031
