,NeighborhoodDefinition,TargetSchedule,Agent,FLA_ID,INFORMATION_CONTENT,PARTIAL_INFORMATION_CONTENT,INFORMATION_STABILITY,FITNESS_VARIANCE_MEAN,FITNESS_VARIANCE_STD,FITNESS_MEAN,DISPERSION_INDEX,MEAN_NUMBER_OF_NEUTRAL_AREAS,MEAN_SIZE_OF_NEUTRAL_AREAS,MEAN_FITNESS_DISTANCE,MAX_FITNESS_DISTANCE,INFORMATION_CONTENT_MEAN,INFORMATION_CONTENT_STD,PARTIAL_INFORMATION_CONTENT_MEAN,PARTIAL_INFORMATION_CONTENT_STD,INFORMATION_STABILITY_MEAN,INFORMATION_STABILITY_STD,FITNESS_VARIANCE_MEAN_MEAN,FITNESS_VARIANCE_MEAN_STD,FITNESS_VARIANCE_STD_MEAN,FITNESS_VARIANCE_STD_STD,FITNESS_MEAN_MEAN,FITNESS_MEAN_STD,DISPERSION_INDEX_MEAN,DISPERSION_INDEX_STD,MEAN_NUMBER_OF_NEUTRAL_AREAS_MEAN,MEAN_NUMBER_OF_NEUTRAL_AREAS_STD,MEAN_SIZE_OF_NEUTRAL_AREAS_MEAN,MEAN_SIZE_OF_NEUTRAL_AREAS_STD,MEAN_FITNESS_DISTANCE_MEAN,MEAN_FITNESS_DISTANCE_STD,MAX_FITNESS_DISTANCE_MEAN,MAX_FITNESS_DISTANCE_STD
0,SINGLE_CHANGE,"[107.9329537731, 109.0992096127, 108.8724114655, 106.6480609777, 105.0957791945, 107.0074588451, 105.0201825505, 102.9768368192]",Flex Agent 0,0.0,0.0,0.0,1.0,0.0024507401,0.0042448064,81.748348337,0.0131178813,1.0,1.0,0.0012733412,0.0050933647,,,,,,,,,,,,,,,,,,,,,,
1,SINGLE_CHANGE,"[107.9329537731, 109.0992096127, 108.8724114655, 106.6480609777, 105.0957791945, 107.0074588451, 105.0201825505, 102.9768368192]",Flex Agent 0,1.0,0.006425486,0.0,1.25,0.0024507401,0.0042448064,79.429895829,0.0005522292000000001,1.0,1.0,0.0030212856,0.0120851424,,,,,,,,,,,,,,,,,,,,,,
2,SINGLE_CHANGE,"[107.9329537731, 109.0992096127, 108.8724114655, 106.6480609777, 105.0957791945, 107.0074588451, 105.0201825505, 102.9768368192]",Flex Agent 0,2.0,0.0,0.0,1.0,0.0024507401,0.0042448064,77.6166326887,0.0003740692,1.0,1.0,0.0013275299000000001,0.005310119800000001,,,,,,,,,,,,,,,,,,,,,,
3,SINGLE_CHANGE,"[107.9329537731, 109.0992096127, 108.8724114655, 106.6480609777, 105.0957791945, 107.0074588451, 105.0201825505, 102.9768368192]",Flex Agent 0,3.0,0.0,0.0,1.0,0.0024507401,0.0042448064,78.7768755372,0.00044719110000000003,1.0,1.0,0.0010654345,0.0042617379000000006,,,,,,,,,,,,,,,,,,,,,,
4,SINGLE_CHANGE,"[107.9329537731, 109.0992096127, 108.8724114655, 106.6480609777, 105.0957791945, 107.0074588451, 105.0201825505, 102.9768368192]",Flex Agent 0,4.0,0.0,0.0,1.0,0.0024507401,0.0042448064,79.600998465,0.000516892,1.0,1.0,0.0009921604,0.0039686416,,,,,,,,,,,,,,,,,,,,,,
5,SINGLE_CHANGE,"[107.9329537731, 109.0992096127, 108.8724114655, 106.6480609777, 105.0957791945, 107.0074588451, 105.0201825505, 102.9768368192]",Flex Agent 3,0.0,0.1985361205,0.1675,5.25,0.093852815,0.015708578600000002,92.463944988,-0.1015124991,6.5,1.0833333333,0.7866949335000001,0.9340248675,,,,,,,,,,,,,,,,,,,,,,
6,SINGLE_CHANGE,"[107.9329537731, 109.0992096127, 108.8724114655, 106.6480609777, 105.0957791945, 107.0074588451, 105.0201825505, 102.9768368192]",Flex Agent 3,1.0,0.2042363782,0.20750000000000002,6.0,0.0847990059,0.0105952106,90.7302308016,-0.0043569182000000005,8.5,1.0555555556,0.9241511018,1.0764555523000001,,,,,,,,,,,,,,,,,,,,,,
7,SINGLE_CHANGE,"[107.9329537731, 109.0992096127, 108.8724114655, 106.6480609777, 105.0957791945, 107.0074588451, 105.0201825505, 102.9768368192]",Flex Agent 3,2.0,0.196476708,0.1825,6.0,0.07011888520000001,0.017532910500000002,91.9877060615,-0.0036661090000000003,3.0,1.0,0.8594749114,1.074187293,,,,,,,,,,,,,,,,,,,,,,
8,SINGLE_CHANGE,"[107.9329537731, 109.0992096127, 108.8724114655, 106.6480609777, 105.0957791945, 107.0074588451, 105.0201825505, 102.9768368192]",Flex Agent 3,3.0,0.2029343525,0.2,5.0,0.09155068370000001,0.0165866941,92.2219804255,0.0086127379,9.0,1.0,0.9126518272,1.0428573896,,,,,,,,,,,,,,,,,,,,,,
9,SINGLE_CHANGE,"[107.9329537731, 109.0992096127, 108.8724114655, 106.6480609777, 105.0957791945, 107.0074588451, 105.0201825505, 102.9768368192]",Flex Agent 3,4.0,0.19892254080000002,0.17500000000000002,5.25,0.0814550909,0.0204808284,90.9961619547,-0.0930363294,4.0,1.375,0.8374139166000001,0.9500828549,,,,,,,,,,,,,,,,,,,,,,
10,SINGLE_CHANGE,"[107.9329537731, 109.0992096127, 108.8724114655, 106.6480609777, 105.0957791945, 107.0074588451, 105.0201825505, 102.9768368192]",Flex Agent 7,0.0,0.18009965320000001,0.125,4.25,0.0742674504,0.0072298821000000004,87.7282973459,-0.020912184900000002,1.5,0.5,0.5949776591,0.6955318739,,,,,,,,,,,,,,,,,,,,,,
11,SINGLE_CHANGE,"[107.9329537731, 109.0992096127, 108.8724114655, 106.6480609777, 105.0957791945, 107.0074588451, 105.0201825505, 102.9768368192]",Flex Agent 7,1.0,0.1792525127,0.125,4.25,0.07211181500000001,0.0071319662,88.3256302161,-0.0344746805,2.5,1.1666666667,0.6566714773,0.8680696901,,,,,,,,,,,,,,,,,,,,,,
12,SINGLE_CHANGE,"[107.9329537731, 109.0992096127, 108.8724114655, 106.6480609777, 105.0957791945, 107.0074588451, 105.0201825505, 102.9768368192]",Flex Agent 7,2.0,0.179520712,0.1075,4.0,0.0857226316,0.0047214669,88.9403338522,-0.0421213017,4.0,1.4,0.5632057901,0.5764267113,,,,,,,,,,,,,,,,,,,,,,
13,SINGLE_CHANGE,"[107.9329537731, 109.0992096127, 108.8724114655, 106.6480609777, 105.0957791945, 107.0074588451, 105.0201825505, 102.9768368192]",Flex Agent 7,3.0,0.18145746140000002,0.12,4.0,0.0804092878,0.0248725362,88.5998274467,-0.035023179200000004,7.0,1.3,0.5581021256,0.6745911546000001,,,,,,,,,,,,,,,,,,,,,,
14,SINGLE_CHANGE,"[107.9329537731, 109.0992096127, 108.8724114655, 106.6480609777, 105.0957791945, 107.0074588451, 105.0201825505, 102.9768368192]",Flex Agent 7,4.0,0.1710496302,0.0975,4.0,0.0604427863,0.0016648469,87.5463246372,0.037517214300000004,5.0,1.0625,0.5378636751,0.5824282073,,,,,,,,,,,,,,,,,,,,,,
15,SINGLE_CHANGE,"[107.9329537731, 109.0992096127, 108.8724114655, 106.6480609777, 105.0957791945, 107.0074588451, 105.0201825505, 102.9768368192]",Flex Agent 8,0.0,0.1964919695,0.165,4.75,0.08081773440000001,0.0110568653,89.1969536293,0.0238412445,5.5,1.4,0.7321047395,0.8430434776,,,,,,,,,,,,,,,,,,,,,,
16,SINGLE_CHANGE,"[107.9329537731, 109.0992096127, 108.8724114655, 106.6480609777, 105.0957791945, 107.0074588451, 105.0201825505, 102.9768368192]",Flex Agent 8,1.0,0.19399553830000002,0.1525,5.75,0.0682076279,0.0018870987,88.7407078682,-0.0067141807,3.5,1.4166666667,0.7322175638,0.8515963315,,,,,,,,,,,,,,,,,,,,,,
17,SINGLE_CHANGE,"[107.9329537731, 109.0992096127, 108.8724114655, 106.6480609777, 105.0957791945, 107.0074588451, 105.0201825505, 102.9768368192]",Flex Agent 8,2.0,0.1895472092,0.145,5.0,0.0699404015,0.0108882384,90.9952166341,-0.057076082300000004,3.0,1.0,0.6974205849,0.7848098467,,,,,,,,,,,,,,,,,,,,,,
18,SINGLE_CHANGE,"[107.9329537731, 109.0992096127, 108.8724114655, 106.6480609777, 105.0957791945, 107.0074588451, 105.0201825505, 102.9768368192]",Flex Agent 8,3.0,0.19435835510000002,0.1525,6.5,0.06900222930000001,0.0037209214,88.452748875,-0.0281128413,5.5,1.0,0.7619992351,0.8502530913,,,,,,,,,,,,,,,,,,,,,,
19,SINGLE_CHANGE,"[107.9329537731, 109.0992096127, 108.8724114655, 106.6480609777, 105.0957791945, 107.0074588451, 105.0201825505, 102.9768368192]",Flex Agent 8,4.0,0.2018613347,0.1825,5.0,0.0831130467,0.0042255279000000005,89.6408730081,-0.009971181,4.0,1.1666666667,0.8012569118,0.8864013972,,,,,,,,,,,,,,,,,,,,,,
20,SINGLE_CHANGE,"[107.9329537731, 109.0992096127, 108.8724114655, 106.6480609777, 105.0957791945, 107.0074588451, 105.0201825505, 102.9768368192]",Flex Agent 6,0.0,0.2017714642,0.21250000000000002,6.0,0.0925567781,0.0170169985,92.7807414607,0.0223482062,4.0,1.0714285714,1.0000103591,1.0927336759,,,,,,,,,,,,,,,,,,,,,,
21,SINGLE_CHANGE,"[107.9329537731, 109.0992096127, 108.8724114655, 106.6480609777, 105.0957791945, 107.0074588451, 105.0201825505, 102.9768368192]",Flex Agent 6,1.0,0.20314202050000002,0.2275,6.75,0.0760399835,0.0298770819,91.5194484937,0.0538425172,7.0,1.0714285714,0.9406448833000001,0.9437357669,,,,,,,,,,,,,,,,,,,,,,
22,SINGLE_CHANGE,"[107.9329537731, 109.0992096127, 108.8724114655, 106.6480609777, 105.0957791945, 107.0074588451, 105.0201825505, 102.9768368192]",Flex Agent 6,2.0,0.2018999612,0.2,5.5,0.0640627834,0.0078106226,91.6192197563,0.07748462860000001,2.0,0.75,0.8890049595,1.0034181962,,,,,,,,,,,,,,,,,,,,,,
23,SINGLE_CHANGE,"[107.9329537731, 109.0992096127, 108.8724114655, 106.6480609777, 105.0957791945, 107.0074588451, 105.0201825505, 102.9768368192]",Flex Agent 6,3.0,0.1925702022,0.16,7.0,0.0452836118,0.0119038204,90.8134922663,-0.0244564929,8.5,1.15,0.8255527783000001,1.114126265,,,,,,,,,,,,,,,,,,,,,,
24,SINGLE_CHANGE,"[107.9329537731, 109.0992096127, 108.8724114655, 106.6480609777, 105.0957791945, 107.0074588451, 105.0201825505, 102.9768368192]",Flex Agent 6,4.0,0.2003018822,0.17500000000000002,5.0,0.0758457525,0.0115532978,92.3913880296,0.039805165100000005,4.0,1.125,0.7604500718,0.8401803137,,,,,,,,,,,,,,,,,,,,,,
25,SINGLE_CHANGE,"[107.9329537731, 109.0992096127, 108.8724114655, 106.6480609777, 105.0957791945, 107.0074588451, 105.0201825505, 102.9768368192]",Flex Agent 1,0.0,0.16520694090000002,0.09,2.25,0.0657914315,0.0146666855,69.9048505037,-0.0041299393000000005,23.0,2.7972709552,0.45484596530000004,0.5820753525,,,,,,,,,,,,,,,,,,,,,,
26,SINGLE_CHANGE,"[107.9329537731, 109.0992096127, 108.8724114655, 106.6480609777, 105.0957791945, 107.0074588451, 105.0201825505, 102.9768368192]",Flex Agent 1,1.0,0.1722566443,0.0925,2.25,0.06422875730000001,0.0130295831,70.0055515354,-0.0035611175,23.0,2.5928030303,0.4529771392,0.5088885353,,,,,,,,,,,,,,,,,,,,,,
27,SINGLE_CHANGE,"[107.9329537731, 109.0992096127, 108.8724114655, 106.6480609777, 105.0957791945, 107.0074588451, 105.0201825505, 102.9768368192]",Flex Agent 1,2.0,0.1682273115,0.08750000000000001,2.25,0.06525964520000001,0.0130016734,70.0265072336,-0.0031652205,21.5,2.512987013,0.42963061490000004,0.4512898111,,,,,,,,,,,,,,,,,,,,,,
28,SINGLE_CHANGE,"[107.9329537731, 109.0992096127, 108.8724114655, 106.6480609777, 105.0957791945, 107.0074588451, 105.0201825505, 102.9768368192]",Flex Agent 1,3.0,0.14148285260000001,0.065,2.5,0.0758830362,0.013956937,70.070704727,-0.0020810045,21.0,2.9931350114,0.3988621657,0.4478663297,,,,,,,,,,,,,,,,,,,,,,
29,SINGLE_CHANGE,"[107.9329537731, 109.0992096127, 108.8724114655, 106.6480609777, 105.0957791945, 107.0074588451, 105.0201825505, 102.9768368192]",Flex Agent 1,4.0,0.16029196810000002,0.0775,2.75,0.055738739700000005,0.0094883793,69.9549382426,-0.0016021912,23.0,2.8846153846,0.4349160955,0.5062737284000001,,,,,,,,,,,,,,,,,,,,,,
30,SINGLE_CHANGE,"[107.9329537731, 109.0992096127, 108.8724114655, 106.6480609777, 105.0957791945, 107.0074588451, 105.0201825505, 102.9768368192]",Flex Agent 9,0.0,0.2011660425,0.1925,4.75,0.0738749769,0.0075341239,89.3748347007,-0.027206741700000002,4.5,1.0714285714,0.794554663,0.9743627799000001,,,,,,,,,,,,,,,,,,,,,,
31,SINGLE_CHANGE,"[107.9329537731, 109.0992096127, 108.8724114655, 106.6480609777, 105.0957791945, 107.0074588451, 105.0201825505, 102.9768368192]",Flex Agent 9,1.0,0.1903911408,0.1375,4.5,0.07788078100000001,0.0123836268,89.2467332388,0.0263170619,5.0,1.25,0.6146225785,0.7521172293,,,,,,,,,,,,,,,,,,,,,,
32,SINGLE_CHANGE,"[107.9329537731, 109.0992096127, 108.8724114655, 106.6480609777, 105.0957791945, 107.0074588451, 105.0201825505, 102.9768368192]",Flex Agent 9,2.0,0.1817376496,0.12,4.75,0.0754553594,0.0157960397,89.2385244409,0.023514131100000002,5.0,1.5416666666999999,0.6377552804000001,0.7618413072,,,,,,,,,,,,,,,,,,,,,,
33,SINGLE_CHANGE,"[107.9329537731, 109.0992096127, 108.8724114655, 106.6480609777, 105.0957791945, 107.0074588451, 105.0201825505, 102.9768368192]",Flex Agent 9,3.0,0.1798909653,0.115,4.25,0.0657978372,0.0120584944,88.7981779744,0.020490015400000002,6.0,1.1875,0.6052517003,0.7114671334,,,,,,,,,,,,,,,,,,,,,,
34,SINGLE_CHANGE,"[107.9329537731, 109.0992096127, 108.8724114655, 106.6480609777, 105.0957791945, 107.0074588451, 105.0201825505, 102.9768368192]",Flex Agent 9,4.0,0.1891097802,0.135,4.25,0.0869335725,0.014677232,91.038976169,0.0068102626,5.5,1.0625,0.6631503374000001,0.7926214759,,,,,,,,,,,,,,,,,,,,,,
35,SINGLE_CHANGE,"[107.9329537731, 109.0992096127, 108.8724114655, 106.6480609777, 105.0957791945, 107.0074588451, 105.0201825505, 102.9768368192]",Flex Agent 4,0.0,0.2038918134,0.1825,4.75,0.0930502004,0.0168951773,92.0551591815,-0.1071793353,3.5,1.2,0.8038252211,0.9110748609,,,,,,,,,,,,,,,,,,,,,,
36,SINGLE_CHANGE,"[107.9329537731, 109.0992096127, 108.8724114655, 106.6480609777, 105.0957791945, 107.0074588451, 105.0201825505, 102.9768368192]",Flex Agent 4,1.0,0.1997003698,0.1675,5.25,0.07257966810000001,0.0190986478,90.7104990745,-0.016589519,5.0,1.0833333333,0.7357527243,0.9023383536,,,,,,,,,,,,,,,,,,,,,,
37,SINGLE_CHANGE,"[107.9329537731, 109.0992096127, 108.8724114655, 106.6480609777, 105.0957791945, 107.0074588451, 105.0201825505, 102.9768368192]",Flex Agent 4,2.0,0.19979841380000002,0.21,6.5,0.0935355704,0.0163896775,91.428768049,0.0360522176,4.0,1.0,1.0079967507,1.2177184729000001,,,,,,,,,,,,,,,,,,,,,,
38,SINGLE_CHANGE,"[107.9329537731, 109.0992096127, 108.8724114655, 106.6480609777, 105.0957791945, 107.0074588451, 105.0201825505, 102.9768368192]",Flex Agent 4,3.0,0.2024553771,0.20750000000000002,6.0,0.0878594239,0.0172980999,91.7688132306,0.038196759500000003,4.5,1.0833333333,0.8713444885,0.9797404322000001,,,,,,,,,,,,,,,,,,,,,,
39,SINGLE_CHANGE,"[107.9329537731, 109.0992096127, 108.8724114655, 106.6480609777, 105.0957791945, 107.0074588451, 105.0201825505, 102.9768368192]",Flex Agent 4,4.0,0.2003099444,0.185,5.75,0.0650378481,0.0188785874,90.3634936597,-0.035181221400000004,4.0,1.1,0.8796185551,0.9181515122,,,,,,,,,,,,,,,,,,,,,,
40,SINGLE_CHANGE,"[107.9329537731, 109.0992096127, 108.8724114655, 106.6480609777, 105.0957791945, 107.0074588451, 105.0201825505, 102.9768368192]",Flex Agent 2,0.0,0.006425486,0.0,1.25,0.0024507401,0.0042448064,78.5524999043,0.0109324748,1.0,1.0,0.0032180682,0.0128722729,,,,,,,,,,,,,,,,,,,,,,
41,SINGLE_CHANGE,"[107.9329537731, 109.0992096127, 108.8724114655, 106.6480609777, 105.0957791945, 107.0074588451, 105.0201825505, 102.9768368192]",Flex Agent 2,1.0,0.006425486,0.0,1.5,0.0024507401,0.0042448064,74.03957252,-0.0022608499,1.0,1.0,0.005568341,0.0222733638,,,,,,,,,,,,,,,,,,,,,,
42,SINGLE_CHANGE,"[107.9329537731, 109.0992096127, 108.8724114655, 106.6480609777, 105.0957791945, 107.0074588451, 105.0201825505, 102.9768368192]",Flex Agent 2,2.0,0.006425486,0.0,1.25,0.0024507401,0.0042448064,71.9922884947,0.0181652411,1.0,1.0,0.0028067254,0.0112269015,,,,,,,,,,,,,,,,,,,,,,
43,SINGLE_CHANGE,"[107.9329537731, 109.0992096127, 108.8724114655, 106.6480609777, 105.0957791945, 107.0074588451, 105.0201825505, 102.9768368192]",Flex Agent 2,3.0,0.006425486,0.0,1.25,0.0024507401,0.0042448064,73.4362390958,-0.0017564863000000001,1.0,1.0,0.0026012097,0.0104048386,,,,,,,,,,,,,,,,,,,,,,
44,SINGLE_CHANGE,"[107.9329537731, 109.0992096127, 108.8724114655, 106.6480609777, 105.0957791945, 107.0074588451, 105.0201825505, 102.9768368192]",Flex Agent 2,4.0,0.006425486,0.0,1.25,0.0024507401,0.0042448064,74.4638807075,-0.0060658463,1.0,1.0,0.002536986,0.010147943900000001,,,,,,,,,,,,,,,,,,,,,,
45,SINGLE_CHANGE,"[107.9329537731, 109.0992096127, 108.8724114655, 106.6480609777, 105.0957791945, 107.0074588451, 105.0201825505, 102.9768368192]",Flex Agent 5,0.0,0.1879220324,0.1275,5.0,0.0715053086,0.012159173300000001,88.9872141813,-0.0258493579,6.5,1.0,0.658032434,0.7222859529,,,,,,,,,,,,,,,,,,,,,,
46,SINGLE_CHANGE,"[107.9329537731, 109.0992096127, 108.8724114655, 106.6480609777, 105.0957791945, 107.0074588451, 105.0201825505, 102.9768368192]",Flex Agent 5,1.0,0.1790734685,0.1275,5.25,0.08636482870000001,0.036850521500000004,89.6476757333,-0.0495353278,7.0,1.1458333333,0.7362489563,0.9552993759,,,,,,,,,,,,,,,,,,,,,,
47,SINGLE_CHANGE,"[107.9329537731, 109.0992096127, 108.8724114655, 106.6480609777, 105.0957791945, 107.0074588451, 105.0201825505, 102.9768368192]",Flex Agent 5,2.0,0.1910103266,0.14,4.75,0.08582891890000001,0.0283227531,89.4406721167,-0.0073839107,3.0,1.0,0.7681310683,0.890089032,,,,,,,,,,,,,,,,,,,,,,
48,SINGLE_CHANGE,"[107.9329537731, 109.0992096127, 108.8724114655, 106.6480609777, 105.0957791945, 107.0074588451, 105.0201825505, 102.9768368192]",Flex Agent 5,3.0,0.1998284844,0.17,4.75,0.10185305060000001,0.0105542401,89.4582746557,-0.0176356703,4.5,1.2,0.7518619984,1.0445119349,,,,,,,,,,,,,,,,,,,,,,
49,SINGLE_CHANGE,"[107.9329537731, 109.0992096127, 108.8724114655, 106.6480609777, 105.0957791945, 107.0074588451, 105.0201825505, 102.9768368192]",Flex Agent 5,4.0,0.2045624694,0.1925,4.0,0.09015091950000001,0.021271741900000002,91.7969290429,-0.0475343431,3.5,1.3333333333000001,0.8479298021,0.9134729776,,,,,,,,,,,,,,,,,,,,,,
50,,,Global,,,,,,,,,,,,,0.15250585836400002,0.07618781643740381,0.12205,0.07218472971537425,4.07,1.814791830418878,0.061974353520000004,0.031905479141671675,0.012064497046,0.00770690985119448,85.573315140424,7.682747518982174,-0.007224278446000001,0.03600164254614942,5.82,5.957982126559979,1.262679719952,0.5330228999429063,0.5788717825140001,0.3246131615866794,0.674521697428,0.37690590034955934
