,scenario,check_inbox_interval,topology p,performance,duration,messages sent
0,e868aea0-631b-4ae7-b9a1-d314c420347c,small_equal,0.5,-0.2426519030478253,0,180
1,e868aea0-631b-4ae7-b9a1-d314c420347c,medium_equal,0.5,-0.2426519030478253,3,187
2,e868aea0-631b-4ae7-b9a1-d314c420347c,high_equal,0.5,-0.2426519030478253,6,195
3,e868aea0-631b-4ae7-b9a1-d314c420347c,half_small_half_high,0.5,-0.2426519030478253,4,170
4,e868aea0-631b-4ae7-b9a1-d314c420347c,random,0.5,-0.24265190304782536,2,152
