,scenario,check_inbox_interval,topology p,performance,duration,messages sent
0,7f25013d-9bbe-4b95-8809-56cfd86d5cd4,small_equal,0.5,-3.762135554014688,1,307
1,7f25013d-9bbe-4b95-8809-56cfd86d5cd4,medium_equal,0.5,-6.432260415509007,5,249
2,7f25013d-9bbe-4b95-8809-56cfd86d5cd4,high_equal,0.5,-3.0693228774764263,19,402
3,7f25013d-9bbe-4b95-8809-56cfd86d5cd4,half_small_half_high,0.5,-3.493443810781595,9,352
4,7f25013d-9bbe-4b95-8809-56cfd86d5cd4,random,0.5,-7.136838975933493,2,259
