,scenario,check_inbox_interval,topology p,performance,duration,messages sent
0,83c82bcc-e42b-4df2-839a-edafb58603f1,small_equal,0.5,-2.029128398919412,0,276
1,83c82bcc-e42b-4df2-839a-edafb58603f1,medium_equal,0.5,-1.7623367751939156,6,290
2,83c82bcc-e42b-4df2-839a-edafb58603f1,high_equal,0.5,-1.6990005090251223,15,353
3,83c82bcc-e42b-4df2-839a-edafb58603f1,half_small_half_high,0.5,-2.269499368197426,7,329
4,83c82bcc-e42b-4df2-839a-edafb58603f1,random,0.5,-1.805026247215892,3,255
