,scenario,check_inbox_interval,topology p,performance,duration,messages sent
0,8f56f6a1-77ae-4606-8844-b21faf960b5f,small_equal,0.5,-0.929481690230496,1,241
1,8f56f6a1-77ae-4606-8844-b21faf960b5f,medium_equal,0.5,-0.929481690230496,5,286
2,8f56f6a1-77ae-4606-8844-b21faf960b5f,high_equal,0.5,-0.929481690230496,10,261
3,8f56f6a1-77ae-4606-8844-b21faf960b5f,half_small_half_high,0.5,-0.9579128753313172,6,208
4,8f56f6a1-77ae-4606-8844-b21faf960b5f,random,0.5,-0.9579128753313172,3,239
5,8f56f6a1-77ae-4606-8844-b21faf960b5f,small_equal,0.5,-0.929481690230496,1,251
6,8f56f6a1-77ae-4606-8844-b21faf960b5f,medium_equal,0.5,-0.929481690230496,6,257
7,8f56f6a1-77ae-4606-8844-b21faf960b5f,high_equal,0.5,-0.929481690230496,15,271
8,8f56f6a1-77ae-4606-8844-b21faf960b5f,half_small_half_high,0.5,-0.929481690230496,6,220
9,8f56f6a1-77ae-4606-8844-b21faf960b5f,random,0.5,-0.9579128753313172,2,201
10,8f56f6a1-77ae-4606-8844-b21faf960b5f,small_equal,0.5,-0.9579128753313172,0,208
11,8f56f6a1-77ae-4606-8844-b21faf960b5f,medium_equal,0.5,-0.929481690230496,5,259
12,8f56f6a1-77ae-4606-8844-b21faf960b5f,high_equal,0.5,-0.929481690230496,10,218
13,8f56f6a1-77ae-4606-8844-b21faf960b5f,half_small_half_high,0.5,-0.9579128753313172,6,212
14,8f56f6a1-77ae-4606-8844-b21faf960b5f,random,0.5,-0.9579128753313172,2,213
15,8f56f6a1-77ae-4606-8844-b21faf960b5f,small_equal,0.5,-0.929481690230496,0,230
16,8f56f6a1-77ae-4606-8844-b21faf960b5f,medium_equal,0.5,-0.929481690230496,4,251
17,8f56f6a1-77ae-4606-8844-b21faf960b5f,high_equal,0.5,-0.9579128753313172,9,231
18,8f56f6a1-77ae-4606-8844-b21faf960b5f,half_small_half_high,0.5,-0.929481690230496,9,358
19,8f56f6a1-77ae-4606-8844-b21faf960b5f,random,0.5,-0.929481690230496,2,189
20,8f56f6a1-77ae-4606-8844-b21faf960b5f,small_equal,0.5,-0.929481690230496,0,190
21,8f56f6a1-77ae-4606-8844-b21faf960b5f,medium_equal,0.5,-0.929481690230496,7,290
22,8f56f6a1-77ae-4606-8844-b21faf960b5f,high_equal,0.5,-0.929481690230496,10,271
23,8f56f6a1-77ae-4606-8844-b21faf960b5f,half_small_half_high,0.5,-0.9579128753313172,6,231
24,8f56f6a1-77ae-4606-8844-b21faf960b5f,random,0.5,-0.9579128753313171,3,234
