,scenario,check_inbox_interval,topology p,performance,duration,messages sent
0,d361ee71-e3e0-475f-a65b-c09bf712b1db,small_equal,0.5,-1.7565068016292948,1,313
1,d361ee71-e3e0-475f-a65b-c09bf712b1db,medium_equal,0.5,-2.2750508275087884,8,347
2,d361ee71-e3e0-475f-a65b-c09bf712b1db,high_equal,0.5,-2.7315272645845456,16,328
3,d361ee71-e3e0-475f-a65b-c09bf712b1db,half_small_half_high,0.5,-1.7595928528615112,15,489
4,d361ee71-e3e0-475f-a65b-c09bf712b1db,random,0.5,-1.5645744371668768,3,255
5,d361ee71-e3e0-475f-a65b-c09bf712b1db,small_equal,0.5,-2.5895553088423227,1,354
6,d361ee71-e3e0-475f-a65b-c09bf712b1db,medium_equal,0.5,-2.070433380881871,9,346
7,d361ee71-e3e0-475f-a65b-c09bf712b1db,high_equal,0.5,-1.7615472734090916,10,281
8,d361ee71-e3e0-475f-a65b-c09bf712b1db,half_small_half_high,0.5,-1.3667902630104876,7,308
9,d361ee71-e3e0-475f-a65b-c09bf712b1db,random,0.5,-3.043182304379117,3,258
10,d361ee71-e3e0-475f-a65b-c09bf712b1db,small_equal,0.5,-3.146764084168596,1,286
11,d361ee71-e3e0-475f-a65b-c09bf712b1db,medium_equal,0.5,-3.762028237969997,7,257
12,d361ee71-e3e0-475f-a65b-c09bf712b1db,high_equal,0.5,-1.7977303004728138,16,286
13,d361ee71-e3e0-475f-a65b-c09bf712b1db,half_small_half_high,0.5,-3.82879331168229,4,212
14,d361ee71-e3e0-475f-a65b-c09bf712b1db,random,0.5,-1.909402913843686,3,301
15,d361ee71-e3e0-475f-a65b-c09bf712b1db,small_equal,0.5,-2.077481763575228,1,326
16,d361ee71-e3e0-475f-a65b-c09bf712b1db,medium_equal,0.5,-2.7683412771423765,7,267
17,d361ee71-e3e0-475f-a65b-c09bf712b1db,high_equal,0.5,-2.6245116674042577,15,321
18,d361ee71-e3e0-475f-a65b-c09bf712b1db,half_small_half_high,0.5,-3.324963758896628,9,328
19,d361ee71-e3e0-475f-a65b-c09bf712b1db,random,0.5,-1.5113617026761896,3,307
20,d361ee71-e3e0-475f-a65b-c09bf712b1db,small_equal,0.5,-1.4065275619470037,1,439
21,d361ee71-e3e0-475f-a65b-c09bf712b1db,medium_equal,0.5,-2.947021795410348,5,290
22,d361ee71-e3e0-475f-a65b-c09bf712b1db,high_equal,0.5,-1.6846853606356365,13,285
23,d361ee71-e3e0-475f-a65b-c09bf712b1db,half_small_half_high,0.5,-3.3894218979519457,7,327
24,d361ee71-e3e0-475f-a65b-c09bf712b1db,random,0.5,-2.1623512048732842,3,299
