,scenario,check_inbox_interval,topology p,performance,duration,messages sent
0,5aec3051-4cc1-4558-94e3-d33965f837ea,small_equal,0.5,-0.9371245623318956,1,292
1,5aec3051-4cc1-4558-94e3-d33965f837ea,medium_equal,0.5,-1.0667703395300503,4,245
2,5aec3051-4cc1-4558-94e3-d33965f837ea,high_equal,0.5,-0.9560487732867902,10,238
3,5aec3051-4cc1-4558-94e3-d33965f837ea,half_small_half_high,0.5,-0.988326658589644,6,232
4,5aec3051-4cc1-4558-94e3-d33965f837ea,random,0.5,-0.9860059086270461,3,228
