,scenario,check_inbox_interval,topology p,performance,duration,messages sent
0,e7fd23ee-ded8-444c-8855-f3fdf3792bf2,small_equal,0.5,-0.497696317443598,1,297
1,e7fd23ee-ded8-444c-8855-f3fdf3792bf2,medium_equal,0.5,-0.6062407733347843,4,225
2,e7fd23ee-ded8-444c-8855-f3fdf3792bf2,high_equal,0.5,-0.627455725189872,9,217
3,e7fd23ee-ded8-444c-8855-f3fdf3792bf2,half_small_half_high,0.5,-0.5422112337622664,10,367
4,e7fd23ee-ded8-444c-8855-f3fdf3792bf2,random,0.5,-0.55114297371364,3,247
5,e7fd23ee-ded8-444c-8855-f3fdf3792bf2,small_equal,0.5,-0.5050982036545868,0,238
6,e7fd23ee-ded8-444c-8855-f3fdf3792bf2,medium_equal,0.5,-0.5585188335615179,5,261
7,e7fd23ee-ded8-444c-8855-f3fdf3792bf2,high_equal,0.5,-0.5585188335615179,13,280
8,e7fd23ee-ded8-444c-8855-f3fdf3792bf2,half_small_half_high,0.5,-0.6062407733347843,10,346
9,e7fd23ee-ded8-444c-8855-f3fdf3792bf2,random,0.5,-0.55114297371364,3,276
10,e7fd23ee-ded8-444c-8855-f3fdf3792bf2,small_equal,0.5,-0.4663627499759339,1,299
11,e7fd23ee-ded8-444c-8855-f3fdf3792bf2,medium_equal,0.5,-0.6260599349097653,7,293
12,e7fd23ee-ded8-444c-8855-f3fdf3792bf2,high_equal,0.5,-0.5585188335615179,10,220
13,e7fd23ee-ded8-444c-8855-f3fdf3792bf2,half_small_half_high,0.5,-0.4780517241690347,10,286
14,e7fd23ee-ded8-444c-8855-f3fdf3792bf2,random,0.5,-0.6969874590262357,3,235
15,e7fd23ee-ded8-444c-8855-f3fdf3792bf2,small_equal,0.5,-0.6062407733347843,0,237
16,e7fd23ee-ded8-444c-8855-f3fdf3792bf2,medium_equal,0.5,-0.6062407733347843,5,269
17,e7fd23ee-ded8-444c-8855-f3fdf3792bf2,high_equal,0.5,-0.5265024461622918,15,287
18,e7fd23ee-ded8-444c-8855-f3fdf3792bf2,half_small_half_high,0.5,-0.5422112337622664,10,356
19,e7fd23ee-ded8-444c-8855-f3fdf3792bf2,random,0.5,-0.5362550628243525,2,223
20,e7fd23ee-ded8-444c-8855-f3fdf3792bf2,small_equal,0.5,-0.5422112337622664,1,319
21,e7fd23ee-ded8-444c-8855-f3fdf3792bf2,medium_equal,0.5,-0.6062407733347843,6,294
22,e7fd23ee-ded8-444c-8855-f3fdf3792bf2,high_equal,0.5,-0.5422112337622664,12,257
23,e7fd23ee-ded8-444c-8855-f3fdf3792bf2,half_small_half_high,0.5,-0.5422112337622664,7,281
24,e7fd23ee-ded8-444c-8855-f3fdf3792bf2,random,0.5,-0.7295129102148934,2,232
