,scenario,check_inbox_interval,topology p,performance,duration,messages sent
0,ac8cffff-bb09-4c45-8bed-153285799913,small_equal,0.5,-1.0673726926262697,1,305
1,ac8cffff-bb09-4c45-8bed-153285799913,medium_equal,0.5,-0.525231474311121,7,336
2,ac8cffff-bb09-4c45-8bed-153285799913,high_equal,0.5,-2.0945626580630097,19,466
3,ac8cffff-bb09-4c45-8bed-153285799913,half_small_half_high,0.5,-0.7182986477100937,10,407
4,ac8cffff-bb09-4c45-8bed-153285799913,random,0.5,-1.7938819498941863,3,296
