,scenario,check_inbox_interval,topology p,performance,duration,messages sent
0,e6807a85-c822-4206-a58d-62db763b5d1b,small_equal,0.5,-1.1428341365621888,1,302
1,e6807a85-c822-4206-a58d-62db763b5d1b,medium_equal,0.5,-0.8726172087404871,8,332
2,e6807a85-c822-4206-a58d-62db763b5d1b,high_equal,0.5,-0.7330952175307379,12,263
3,e6807a85-c822-4206-a58d-62db763b5d1b,half_small_half_high,0.5,-0.6732876301980735,6,246
4,e6807a85-c822-4206-a58d-62db763b5d1b,random,0.5,-1.2045865699058815,3,246
