,scenario,check_inbox_interval,topology p,performance,duration,messages sent
0,b91e164e-b714-4c50-ba70-c6d96c4b8287,medium_equal,0.5,-2.6396702289782707,7,326
1,b91e164e-b714-4c50-ba70-c6d96c4b8287,high_equal,0.5,-1.1403801369685034,13,342
2,b91e164e-b714-4c50-ba70-c6d96c4b8287,half_small_half_high,0.5,-1.2519990430401815,7,301
3,b91e164e-b714-4c50-ba70-c6d96c4b8287,random,0.5,-3.1269914595116814,3,305
