,scenario,check_inbox_interval,topology p,performance,duration,messages sent
0,61cc0e2a-4ae2-4d65-ade1-cf3ba58d821d,small_equal,0.5,-0.679206331844247,0,166
1,61cc0e2a-4ae2-4d65-ade1-cf3ba58d821d,medium_equal,0.5,-0.679206331844247,3,163
2,61cc0e2a-4ae2-4d65-ade1-cf3ba58d821d,high_equal,0.5,-0.679206331844247,7,180
3,61cc0e2a-4ae2-4d65-ade1-cf3ba58d821d,half_small_half_high,0.5,-0.679206331844247,6,183
4,61cc0e2a-4ae2-4d65-ade1-cf3ba58d821d,random,0.5,-0.679206331844247,2,184
5,61cc0e2a-4ae2-4d65-ade1-cf3ba58d821d,small_equal,0.5,-0.679206331844247,0,191
6,61cc0e2a-4ae2-4d65-ade1-cf3ba58d821d,medium_equal,0.5,-0.679206331844247,4,183
7,61cc0e2a-4ae2-4d65-ade1-cf3ba58d821d,high_equal,0.5,-0.679206331844247,9,203
8,61cc0e2a-4ae2-4d65-ade1-cf3ba58d821d,half_small_half_high,0.5,-0.679206331844247,4,166
9,61cc0e2a-4ae2-4d65-ade1-cf3ba58d821d,random,0.5,-0.679206331844247,2,164
10,61cc0e2a-4ae2-4d65-ade1-cf3ba58d821d,small_equal,0.5,-0.679206331844247,0,176
11,61cc0e2a-4ae2-4d65-ade1-cf3ba58d821d,medium_equal,0.5,-0.679206331844247,4,181
12,61cc0e2a-4ae2-4d65-ade1-cf3ba58d821d,high_equal,0.5,-0.679206331844247,6,183
13,61cc0e2a-4ae2-4d65-ade1-cf3ba58d821d,half_small_half_high,0.5,-0.679206331844247,6,188
14,61cc0e2a-4ae2-4d65-ade1-cf3ba58d821d,random,0.5,-0.679206331844247,2,172
15,61cc0e2a-4ae2-4d65-ade1-cf3ba58d821d,small_equal,0.5,-0.679206331844247,0,194
16,61cc0e2a-4ae2-4d65-ade1-cf3ba58d821d,medium_equal,0.5,-0.679206331844247,3,182
17,61cc0e2a-4ae2-4d65-ade1-cf3ba58d821d,high_equal,0.5,-0.679206331844247,7,178
18,61cc0e2a-4ae2-4d65-ade1-cf3ba58d821d,half_small_half_high,0.5,-0.679206331844247,4,179
19,61cc0e2a-4ae2-4d65-ade1-cf3ba58d821d,random,0.5,-0.679206331844247,2,193
20,61cc0e2a-4ae2-4d65-ade1-cf3ba58d821d,small_equal,0.5,-0.679206331844247,0,179
21,61cc0e2a-4ae2-4d65-ade1-cf3ba58d821d,medium_equal,0.5,-0.679206331844247,3,172
22,61cc0e2a-4ae2-4d65-ade1-cf3ba58d821d,high_equal,0.5,-0.679206331844247,6,183
23,61cc0e2a-4ae2-4d65-ade1-cf3ba58d821d,half_small_half_high,0.5,-0.679206331844247,4,168
24,61cc0e2a-4ae2-4d65-ade1-cf3ba58d821d,random,0.5,-0.679206331844247,2,156
