,scenario,check_inbox_interval,topology p,performance,duration,messages sent
0,27a782c6-867a-4dae-b1d5-40157c6c2c00,small_equal,0.5,-0.9460674986968378,1,393
1,27a782c6-867a-4dae-b1d5-40157c6c2c00,medium_equal,0.5,-0.6651920930059738,6,288
2,27a782c6-867a-4dae-b1d5-40157c6c2c00,high_equal,0.5,-1.3118451959811992,12,265
3,27a782c6-867a-4dae-b1d5-40157c6c2c00,half_small_half_high,0.5,-1.1888704138746924,7,272
4,27a782c6-867a-4dae-b1d5-40157c6c2c00,random,0.5,-0.7177055626298774,3,325
5,27a782c6-867a-4dae-b1d5-40157c6c2c00,small_equal,0.5,-0.5289841872843439,1,311
6,27a782c6-867a-4dae-b1d5-40157c6c2c00,medium_equal,0.5,-0.8475689825933195,7,368
7,27a782c6-867a-4dae-b1d5-40157c6c2c00,high_equal,0.5,-0.8820847395323597,10,247
8,27a782c6-867a-4dae-b1d5-40157c6c2c00,half_small_half_high,0.5,-0.5490596170368356,6,221
9,27a782c6-867a-4dae-b1d5-40157c6c2c00,random,0.5,-1.1778940980041064,3,273
10,27a782c6-867a-4dae-b1d5-40157c6c2c00,small_equal,0.5,-0.8345559871126724,1,345
11,27a782c6-867a-4dae-b1d5-40157c6c2c00,medium_equal,0.5,-0.754690953716068,8,371
12,27a782c6-867a-4dae-b1d5-40157c6c2c00,high_equal,0.5,-0.6680669581914458,13,327
13,27a782c6-867a-4dae-b1d5-40157c6c2c00,half_small_half_high,0.5,-0.6527550084884197,12,425
14,27a782c6-867a-4dae-b1d5-40157c6c2c00,random,0.5,-1.7651023494972191,2,218
15,27a782c6-867a-4dae-b1d5-40157c6c2c00,small_equal,0.5,-0.8342578922089459,1,329
16,27a782c6-867a-4dae-b1d5-40157c6c2c00,medium_equal,0.5,-1.478617665107727,8,388
17,27a782c6-867a-4dae-b1d5-40157c6c2c00,high_equal,0.5,-0.5221146618704608,19,300
18,27a782c6-867a-4dae-b1d5-40157c6c2c00,half_small_half_high,0.5,-0.6071832840374185,9,340
19,27a782c6-867a-4dae-b1d5-40157c6c2c00,random,0.5,-1.1242028874403085,3,285
20,27a782c6-867a-4dae-b1d5-40157c6c2c00,small_equal,0.5,-0.949351534100792,1,359
21,27a782c6-867a-4dae-b1d5-40157c6c2c00,medium_equal,0.5,-0.6985123566554847,6,292
22,27a782c6-867a-4dae-b1d5-40157c6c2c00,high_equal,0.5,-0.7516882529813387,12,283
23,27a782c6-867a-4dae-b1d5-40157c6c2c00,half_small_half_high,0.5,-0.6651920930059738,9,329
24,27a782c6-867a-4dae-b1d5-40157c6c2c00,random,0.5,-0.8111670048395716,2,289
