,scenario,check_inbox_interval,topology p,performance,duration,messages sent
0,8685fa7f-532d-47a6-b2fb-d9c67f209973,small_equal,0.5,-0.5325202496490515,1,284
1,8685fa7f-532d-47a6-b2fb-d9c67f209973,medium_equal,0.5,-1.5673994929411728,6,300
2,8685fa7f-532d-47a6-b2fb-d9c67f209973,high_equal,0.5,-1.2212118024102252,10,247
3,8685fa7f-532d-47a6-b2fb-d9c67f209973,half_small_half_high,0.5,-1.13374831933216,9,288
4,8685fa7f-532d-47a6-b2fb-d9c67f209973,random,0.5,-0.6653136639696151,3,342
5,8685fa7f-532d-47a6-b2fb-d9c67f209973,small_equal,0.5,-1.059157279141091,1,309
6,8685fa7f-532d-47a6-b2fb-d9c67f209973,medium_equal,0.5,-1.0394049653361086,9,361
7,8685fa7f-532d-47a6-b2fb-d9c67f209973,high_equal,0.5,-1.4979234129722332,15,304
8,8685fa7f-532d-47a6-b2fb-d9c67f209973,half_small_half_high,0.5,-0.8869063660505963,9,293
9,8685fa7f-532d-47a6-b2fb-d9c67f209973,random,0.5,-1.1194393010043484,3,229
10,8685fa7f-532d-47a6-b2fb-d9c67f209973,small_equal,0.5,-0.5756601205908172,1,312
11,8685fa7f-532d-47a6-b2fb-d9c67f209973,medium_equal,0.5,-0.560371142501551,6,254
12,8685fa7f-532d-47a6-b2fb-d9c67f209973,high_equal,0.5,-0.7666659819325101,12,255
13,8685fa7f-532d-47a6-b2fb-d9c67f209973,half_small_half_high,0.5,-1.2364511852998077,7,332
14,8685fa7f-532d-47a6-b2fb-d9c67f209973,random,0.5,-1.2131655859302488,2,220
15,8685fa7f-532d-47a6-b2fb-d9c67f209973,small_equal,0.5,-1.5317300195573806,1,315
16,8685fa7f-532d-47a6-b2fb-d9c67f209973,medium_equal,0.5,-1.287238072645258,7,267
17,8685fa7f-532d-47a6-b2fb-d9c67f209973,high_equal,0.5,-0.5533738753596382,16,333
18,8685fa7f-532d-47a6-b2fb-d9c67f209973,half_small_half_high,0.5,-1.1270472122127884,7,288
19,8685fa7f-532d-47a6-b2fb-d9c67f209973,random,0.5,-1.1493500615572008,2,281
20,8685fa7f-532d-47a6-b2fb-d9c67f209973,small_equal,0.5,-0.7154900295831605,1,310
21,8685fa7f-532d-47a6-b2fb-d9c67f209973,medium_equal,0.5,-1.455492454519312,7,293
22,8685fa7f-532d-47a6-b2fb-d9c67f209973,high_equal,0.5,-1.1930781592737418,15,329
23,8685fa7f-532d-47a6-b2fb-d9c67f209973,half_small_half_high,0.5,-1.3937992502691297,7,263
24,8685fa7f-532d-47a6-b2fb-d9c67f209973,random,0.5,-1.1309469918327877,3,273
