,scenario,check_inbox_interval,topology p,performance,duration,messages sent
0,518dc03d-03fd-46af-8794-ae79391b043f,small_equal,0.5,-0.67073485932531,1,285
1,518dc03d-03fd-46af-8794-ae79391b043f,medium_equal,0.5,-0.7805750395274549,6,237
2,518dc03d-03fd-46af-8794-ae79391b043f,high_equal,0.5,-0.7903521008039087,10,254
3,518dc03d-03fd-46af-8794-ae79391b043f,half_small_half_high,0.5,-0.6718591434242951,9,274
4,518dc03d-03fd-46af-8794-ae79391b043f,random,0.5,-0.7668223576962765,2,238
5,518dc03d-03fd-46af-8794-ae79391b043f,small_equal,0.5,-0.7220087003904743,1,263
6,518dc03d-03fd-46af-8794-ae79391b043f,medium_equal,0.5,-0.6560122198942286,5,235
7,518dc03d-03fd-46af-8794-ae79391b043f,high_equal,0.5,-1.3008067260123006,9,249
8,518dc03d-03fd-46af-8794-ae79391b043f,half_small_half_high,0.5,-0.8652106415808811,10,358
9,518dc03d-03fd-46af-8794-ae79391b043f,random,0.5,-0.9234308547269654,2,241
10,518dc03d-03fd-46af-8794-ae79391b043f,small_equal,0.5,-0.7988516664270309,1,234
11,518dc03d-03fd-46af-8794-ae79391b043f,medium_equal,0.5,-0.6826975830275641,7,306
12,518dc03d-03fd-46af-8794-ae79391b043f,high_equal,0.5,-0.7303776307396008,13,282
13,518dc03d-03fd-46af-8794-ae79391b043f,half_small_half_high,0.5,-0.6269297546435286,7,318
14,518dc03d-03fd-46af-8794-ae79391b043f,random,0.5,-0.6506586680051925,2,278
15,518dc03d-03fd-46af-8794-ae79391b043f,small_equal,0.5,-0.7128926784144713,1,276
16,518dc03d-03fd-46af-8794-ae79391b043f,medium_equal,0.5,-0.9275848179218862,6,301
17,518dc03d-03fd-46af-8794-ae79391b043f,high_equal,0.5,-0.6766854809674525,10,270
18,518dc03d-03fd-46af-8794-ae79391b043f,half_small_half_high,0.5,-1.0828088032588683,7,260
19,518dc03d-03fd-46af-8794-ae79391b043f,random,0.5,-0.807066564196651,3,277
20,518dc03d-03fd-46af-8794-ae79391b043f,small_equal,0.5,-0.973912385667206,1,256
21,518dc03d-03fd-46af-8794-ae79391b043f,medium_equal,0.5,-0.8342103464994768,10,407
22,518dc03d-03fd-46af-8794-ae79391b043f,high_equal,0.5,-0.8800648021426971,12,258
23,518dc03d-03fd-46af-8794-ae79391b043f,half_small_half_high,0.5,-1.2148098153667668,6,288
24,518dc03d-03fd-46af-8794-ae79391b043f,random,0.5,-1.0828088032588683,3,233
