,scenario,check_inbox_interval,topology p,performance,duration,messages sent
0,ccb539da-e27c-4236-b6c7-6e40acebaafe,small_equal,0.5,-0.8376936292307295,1,312
1,ccb539da-e27c-4236-b6c7-6e40acebaafe,medium_equal,0.5,-1.0088071736933433,7,296
2,ccb539da-e27c-4236-b6c7-6e40acebaafe,high_equal,0.5,-1.105640674153511,9,246
3,ccb539da-e27c-4236-b6c7-6e40acebaafe,half_small_half_high,0.5,-1.2219941753080883,4,172
4,ccb539da-e27c-4236-b6c7-6e40acebaafe,random,0.5,-0.8828313120080669,3,246
5,ccb539da-e27c-4236-b6c7-6e40acebaafe,medium_equal,0.5,-1.0226373695625774,5,273
6,ccb539da-e27c-4236-b6c7-6e40acebaafe,high_equal,0.5,-0.8293840886799,13,309
7,ccb539da-e27c-4236-b6c7-6e40acebaafe,half_small_half_high,0.5,-1.2219941753080883,4,205
8,ccb539da-e27c-4236-b6c7-6e40acebaafe,random,0.5,-1.055722975719446,3,280
9,ccb539da-e27c-4236-b6c7-6e40acebaafe,small_equal,0.5,-0.8023687304171769,1,286
10,ccb539da-e27c-4236-b6c7-6e40acebaafe,medium_equal,0.5,-0.8310149906913402,7,318
11,ccb539da-e27c-4236-b6c7-6e40acebaafe,high_equal,0.5,-0.8041094058119835,9,258
12,ccb539da-e27c-4236-b6c7-6e40acebaafe,half_small_half_high,0.5,-0.8119729881735136,10,448
13,ccb539da-e27c-4236-b6c7-6e40acebaafe,random,0.5,-0.8959707273137436,2,281
14,ccb539da-e27c-4236-b6c7-6e40acebaafe,small_equal,0.5,-0.7767596943786117,1,276
15,ccb539da-e27c-4236-b6c7-6e40acebaafe,medium_equal,0.5,-1.0592980997459804,4,239
16,ccb539da-e27c-4236-b6c7-6e40acebaafe,high_equal,0.5,-0.8834503510857825,12,314
17,ccb539da-e27c-4236-b6c7-6e40acebaafe,half_small_half_high,0.5,-0.9772694231780914,6,256
18,ccb539da-e27c-4236-b6c7-6e40acebaafe,random,0.5,-0.923206919673687,3,326
19,ccb539da-e27c-4236-b6c7-6e40acebaafe,small_equal,0.5,-1.0166168565099891,1,254
20,ccb539da-e27c-4236-b6c7-6e40acebaafe,medium_equal,0.5,-1.0106545274765342,4,235
21,ccb539da-e27c-4236-b6c7-6e40acebaafe,high_equal,0.5,-1.0490756681644111,12,314
22,ccb539da-e27c-4236-b6c7-6e40acebaafe,half_small_half_high,0.5,-1.028400132101698,4,205
23,ccb539da-e27c-4236-b6c7-6e40acebaafe,random,0.5,-1.1329279346370598,3,273
