,scenario,check_inbox_interval,topology p,performance,duration,messages sent
0,36702b48-e82a-4277-9987-62c047c9e6df,small_equal,0.5,-0.4595896796900565,0,182
1,36702b48-e82a-4277-9987-62c047c9e6df,medium_equal,0.5,-0.4595896796900565,3,181
2,36702b48-e82a-4277-9987-62c047c9e6df,high_equal,0.5,-0.4595896796900565,7,176
3,36702b48-e82a-4277-9987-62c047c9e6df,half_small_half_high,0.5,-0.4595896796900565,6,203
4,36702b48-e82a-4277-9987-62c047c9e6df,random,0.5,-0.4595896796900565,2,160
5,36702b48-e82a-4277-9987-62c047c9e6df,small_equal,0.5,-0.4595896796900565,0,177
6,36702b48-e82a-4277-9987-62c047c9e6df,medium_equal,0.5,-0.4595896796900565,3,187
7,36702b48-e82a-4277-9987-62c047c9e6df,high_equal,0.5,-0.4595896796900565,7,194
8,36702b48-e82a-4277-9987-62c047c9e6df,half_small_half_high,0.5,-0.4595896796900565,4,151
9,36702b48-e82a-4277-9987-62c047c9e6df,random,0.5,-0.4595896796900565,2,195
10,36702b48-e82a-4277-9987-62c047c9e6df,small_equal,0.5,-0.4595896796900565,0,178
11,36702b48-e82a-4277-9987-62c047c9e6df,medium_equal,0.5,-0.4595896796900565,4,180
12,36702b48-e82a-4277-9987-62c047c9e6df,high_equal,0.5,-0.4595896796900565,7,178
13,36702b48-e82a-4277-9987-62c047c9e6df,half_small_half_high,0.5,-0.4595896796900565,6,204
14,36702b48-e82a-4277-9987-62c047c9e6df,random,0.5,-0.4595896796900565,2,178
15,36702b48-e82a-4277-9987-62c047c9e6df,small_equal,0.5,-0.4595896796900565,0,186
16,36702b48-e82a-4277-9987-62c047c9e6df,medium_equal,0.5,-0.4595896796900565,4,193
17,36702b48-e82a-4277-9987-62c047c9e6df,high_equal,0.5,-0.4595896796900565,6,185
18,36702b48-e82a-4277-9987-62c047c9e6df,half_small_half_high,0.5,-0.4595896796900565,6,196
19,36702b48-e82a-4277-9987-62c047c9e6df,random,0.5,-0.4595896796900565,1,174
20,36702b48-e82a-4277-9987-62c047c9e6df,small_equal,0.5,-0.4595896796900565,0,184
21,36702b48-e82a-4277-9987-62c047c9e6df,medium_equal,0.5,-0.4595896796900565,4,189
22,36702b48-e82a-4277-9987-62c047c9e6df,high_equal,0.5,-0.4595896796900565,7,176
23,36702b48-e82a-4277-9987-62c047c9e6df,half_small_half_high,0.5,-0.4595896796900565,6,174
24,36702b48-e82a-4277-9987-62c047c9e6df,random,0.5,-0.4595896796900565,2,176
