,scenario,check_inbox_interval,topology p,performance,duration,messages sent
0,aca213b4-f5bd-4bef-a9e9-b7e8e528ab02,small_equal,0.5,-1.036015926895553,1,306
1,aca213b4-f5bd-4bef-a9e9-b7e8e528ab02,medium_equal,0.5,-0.5446537614195979,6,285
2,aca213b4-f5bd-4bef-a9e9-b7e8e528ab02,high_equal,0.5,-0.7780456402892746,9,245
3,aca213b4-f5bd-4bef-a9e9-b7e8e528ab02,half_small_half_high,0.5,-0.4350051511694328,9,340
4,aca213b4-f5bd-4bef-a9e9-b7e8e528ab02,random,0.5,-0.6348263097267708,3,247
