,scenario,check_inbox_interval,topology p,performance,duration,messages sent
0,a47aba70-88da-4c68-bb35-88f9f8a2731f,small_equal,0.5,-1.2301796800510587,1,313
1,a47aba70-88da-4c68-bb35-88f9f8a2731f,medium_equal,0.5,-1.1352773027217324,7,314
2,a47aba70-88da-4c68-bb35-88f9f8a2731f,high_equal,0.5,-1.199332500536121,12,297
3,a47aba70-88da-4c68-bb35-88f9f8a2731f,half_small_half_high,0.5,-1.1372012023278302,9,336
4,a47aba70-88da-4c68-bb35-88f9f8a2731f,random,0.5,-1.5782489669321382,5,321
5,a47aba70-88da-4c68-bb35-88f9f8a2731f,small_equal,0.5,-1.1900688931308636,1,345
6,a47aba70-88da-4c68-bb35-88f9f8a2731f,medium_equal,0.5,-1.1912147056464768,10,346
7,a47aba70-88da-4c68-bb35-88f9f8a2731f,high_equal,0.5,-1.1597027056853155,16,347
8,a47aba70-88da-4c68-bb35-88f9f8a2731f,half_small_half_high,0.5,-1.1166529218400782,13,432
9,a47aba70-88da-4c68-bb35-88f9f8a2731f,random,0.5,-1.5046368913090973,3,260
10,a47aba70-88da-4c68-bb35-88f9f8a2731f,small_equal,0.5,-0.9904620668285702,1,396
11,a47aba70-88da-4c68-bb35-88f9f8a2731f,medium_equal,0.5,-1.129182811235939,8,388
12,a47aba70-88da-4c68-bb35-88f9f8a2731f,high_equal,0.5,-1.5340988155575133,10,266
13,a47aba70-88da-4c68-bb35-88f9f8a2731f,half_small_half_high,0.5,-1.3299858943575913,10,358
14,a47aba70-88da-4c68-bb35-88f9f8a2731f,random,0.5,-1.24032577153071,4,291
15,a47aba70-88da-4c68-bb35-88f9f8a2731f,small_equal,0.5,-1.3672939382401736,1,298
16,a47aba70-88da-4c68-bb35-88f9f8a2731f,medium_equal,0.5,-1.0127749525841558,9,322
17,a47aba70-88da-4c68-bb35-88f9f8a2731f,high_equal,0.5,-1.2350553194884455,19,367
18,a47aba70-88da-4c68-bb35-88f9f8a2731f,half_small_half_high,0.5,-1.2714940979706189,9,323
19,a47aba70-88da-4c68-bb35-88f9f8a2731f,random,0.5,-1.3646887666701346,4,294
20,a47aba70-88da-4c68-bb35-88f9f8a2731f,small_equal,0.5,-1.5291768405507646,1,307
21,a47aba70-88da-4c68-bb35-88f9f8a2731f,medium_equal,0.5,-1.3904601114961237,7,319
22,a47aba70-88da-4c68-bb35-88f9f8a2731f,high_equal,0.5,-1.417228183403271,13,281
23,a47aba70-88da-4c68-bb35-88f9f8a2731f,half_small_half_high,0.5,-1.18935502556052,9,363
24,a47aba70-88da-4c68-bb35-88f9f8a2731f,random,0.5,-1.1534428706558835,3,301
