,scenario,check_inbox_interval,topology p,performance,duration,messages sent
0,3871743e-9a1f-4f5d-a64b-3b7b1a2214a7,small_equal,0.5,-1.3044900483458193,1,285
1,3871743e-9a1f-4f5d-a64b-3b7b1a2214a7,medium_equal,0.5,-0.9346031070623582,5,260
2,3871743e-9a1f-4f5d-a64b-3b7b1a2214a7,high_equal,0.5,-1.1129865693841587,18,405
3,3871743e-9a1f-4f5d-a64b-3b7b1a2214a7,half_small_half_high,0.5,-1.3107916749494422,4,194
4,3871743e-9a1f-4f5d-a64b-3b7b1a2214a7,random,0.5,-0.9943930825416807,3,288
