,scenario,check_inbox_interval,topology p,performance,duration,messages sent
0,2ce2040b-00ad-4ba6-ace0-94e8c1a3ec84,small_equal,0.5,-1.0782552960739906,1,407
1,2ce2040b-00ad-4ba6-ace0-94e8c1a3ec84,medium_equal,0.5,-2.4110883607070503,7,307
2,2ce2040b-00ad-4ba6-ace0-94e8c1a3ec84,high_equal,0.5,-2.2750019860424726,12,284
3,2ce2040b-00ad-4ba6-ace0-94e8c1a3ec84,half_small_half_high,0.5,-1.778528479160609,7,308
4,2ce2040b-00ad-4ba6-ace0-94e8c1a3ec84,random,0.5,-0.9796573897732695,4,317
5,2ce2040b-00ad-4ba6-ace0-94e8c1a3ec84,small_equal,0.5,-0.7724150505452365,1,405
6,2ce2040b-00ad-4ba6-ace0-94e8c1a3ec84,medium_equal,0.5,-2.13705606932414,5,253
7,2ce2040b-00ad-4ba6-ace0-94e8c1a3ec84,high_equal,0.5,-1.621356757874748,9,234
8,2ce2040b-00ad-4ba6-ace0-94e8c1a3ec84,half_small_half_high,0.5,-1.2945230814148525,9,328
9,2ce2040b-00ad-4ba6-ace0-94e8c1a3ec84,random,0.5,-1.4070684264126658,2,226
10,2ce2040b-00ad-4ba6-ace0-94e8c1a3ec84,small_equal,0.5,-1.4856365684962125,1,281
11,2ce2040b-00ad-4ba6-ace0-94e8c1a3ec84,medium_equal,0.5,-2.0223161364232847,7,278
12,2ce2040b-00ad-4ba6-ace0-94e8c1a3ec84,high_equal,0.5,-1.5504720445002065,16,270
13,2ce2040b-00ad-4ba6-ace0-94e8c1a3ec84,half_small_half_high,0.5,-0.4913421057800242,9,306
14,2ce2040b-00ad-4ba6-ace0-94e8c1a3ec84,random,0.5,-1.438865493921868,3,260
15,2ce2040b-00ad-4ba6-ace0-94e8c1a3ec84,small_equal,0.5,-1.6781517617999555,1,389
16,2ce2040b-00ad-4ba6-ace0-94e8c1a3ec84,medium_equal,0.5,-0.8913766582536321,8,385
17,2ce2040b-00ad-4ba6-ace0-94e8c1a3ec84,high_equal,0.5,-1.1644001960913002,18,331
18,2ce2040b-00ad-4ba6-ace0-94e8c1a3ec84,half_small_half_high,0.5,-0.6281153871080818,12,418
19,2ce2040b-00ad-4ba6-ace0-94e8c1a3ec84,random,0.5,-2.174634055596825,3,251
20,2ce2040b-00ad-4ba6-ace0-94e8c1a3ec84,small_equal,0.5,-0.8594989923792125,1,417
21,2ce2040b-00ad-4ba6-ace0-94e8c1a3ec84,medium_equal,0.5,-1.7657248918499135,7,334
22,2ce2040b-00ad-4ba6-ace0-94e8c1a3ec84,high_equal,0.5,-2.150534734543792,12,259
23,2ce2040b-00ad-4ba6-ace0-94e8c1a3ec84,half_small_half_high,0.5,-1.2820521925246289,7,368
24,2ce2040b-00ad-4ba6-ace0-94e8c1a3ec84,random,0.5,-1.677193243742619,2,274
