,scenario,check_inbox_interval,topology p,performance,duration,messages sent
0,a5ffca91-9b75-4fd9-8e62-f6e8ae80f059,small_equal,0.5,-0.9205255486023508,0,193
1,a5ffca91-9b75-4fd9-8e62-f6e8ae80f059,medium_equal,0.5,-0.9205255486023508,4,173
2,a5ffca91-9b75-4fd9-8e62-f6e8ae80f059,high_equal,0.5,-0.9205255486023508,6,171
3,a5ffca91-9b75-4fd9-8e62-f6e8ae80f059,half_small_half_high,0.5,-0.9205255486023508,6,211
4,a5ffca91-9b75-4fd9-8e62-f6e8ae80f059,random,0.5,-0.9205255486023508,2,179
5,a5ffca91-9b75-4fd9-8e62-f6e8ae80f059,small_equal,0.5,-0.9205255486023508,0,173
6,a5ffca91-9b75-4fd9-8e62-f6e8ae80f059,medium_equal,0.5,-0.9205255486023508,4,190
7,a5ffca91-9b75-4fd9-8e62-f6e8ae80f059,high_equal,0.5,-0.9205255486023508,6,171
8,a5ffca91-9b75-4fd9-8e62-f6e8ae80f059,half_small_half_high,0.5,-0.9205255486023508,4,203
9,a5ffca91-9b75-4fd9-8e62-f6e8ae80f059,random,0.5,-0.9205255486023508,1,166
10,a5ffca91-9b75-4fd9-8e62-f6e8ae80f059,medium_equal,0.5,-0.9205255486023508,3,182
11,a5ffca91-9b75-4fd9-8e62-f6e8ae80f059,high_equal,0.5,-0.9205255486023508,6,198
12,a5ffca91-9b75-4fd9-8e62-f6e8ae80f059,half_small_half_high,0.5,-0.9205255486023508,6,183
13,a5ffca91-9b75-4fd9-8e62-f6e8ae80f059,random,0.5,-0.9205255486023508,2,164
14,a5ffca91-9b75-4fd9-8e62-f6e8ae80f059,small_equal,0.5,-0.9205255486023508,0,179
15,a5ffca91-9b75-4fd9-8e62-f6e8ae80f059,medium_equal,0.5,-0.9205255486023508,4,170
16,a5ffca91-9b75-4fd9-8e62-f6e8ae80f059,high_equal,0.5,-0.9205255486023508,6,175
17,a5ffca91-9b75-4fd9-8e62-f6e8ae80f059,half_small_half_high,0.5,-0.9205255486023508,4,156
18,a5ffca91-9b75-4fd9-8e62-f6e8ae80f059,random,0.5,-0.9205255486023508,1,175
19,a5ffca91-9b75-4fd9-8e62-f6e8ae80f059,small_equal,0.5,-0.9205255486023508,0,171
20,a5ffca91-9b75-4fd9-8e62-f6e8ae80f059,medium_equal,0.5,-0.9205255486023508,3,183
21,a5ffca91-9b75-4fd9-8e62-f6e8ae80f059,high_equal,0.5,-0.9205255486023508,9,188
22,a5ffca91-9b75-4fd9-8e62-f6e8ae80f059,half_small_half_high,0.5,-0.9205255486023508,4,184
23,a5ffca91-9b75-4fd9-8e62-f6e8ae80f059,random,0.5,-0.9205255486023507,1,162
